Warning: There are 83 switching activity information conflicts. (PWR-19)
 
****************************************
Report : saif
Design : proc
Version: M-2016.12-SP5-1
Date   : Sun Jul 29 10:10:27 2018
****************************************

  

--------------------------------------------------------------------------------
              User              Default           Propagated
Object type   Annotated (%)     Activity (%)      Activity (%)       Total
--------------------------------------------------------------------------------
  
 Nets         301(58.11%)       0(0.00%)          217(41.89%)        518
 Ports        229(100.00%)      0(0.00%)          0(0.00%)           229
 Pins         244(31.20%)       0(0.00%)          538(68.80%)        782
--------------------------------------------------------------------------------
1
