Information: Updating design information... (UID-85)
 
****************************************
Report : timing
        -path full
        -delay max
        -max_paths 10
Design : proc
Version: M-2016.12-SP5-1
Date   : Sun Jul 29 10:10:07 2018
****************************************

 * Some/all delay information is back-annotated.

Operating Conditions: tt28_1.10V_0.00V_0.00V_0.00V_25C   Library: C28SOI_SC_8_CLK_LL
Wire Load Model Mode: Inactive.

  Startpoint: core/loopbuffer/clk_r_REG1987_S18
              (rising edge-triggered flip-flop clocked by clk)
  Endpoint: datamem/dmem_2/cacti_mem_x_2/mem_64x32
            (rising edge-triggered flip-flop clocked by clk)
  Path Group: clk
  Path Type: max

  Point                                                   Incr       Path
  --------------------------------------------------------------------------
  clock clk (rise edge)                                  0.000      0.000
  clock network delay (ideal)                            0.010      0.010
  core/loopbuffer/clk_r_REG1987_S18/CP (C8T28SOIDV_LL_DFPRQX10_P0)
                                                         0.000      0.010 r
  core/loopbuffer/clk_r_REG1987_S18/Q (C8T28SOIDV_LL_DFPRQX10_P0)
                                                         0.039      0.049 f
  core/loopbuffer/U162/Z (C8T28SOI_LL_NOR2X16_P0)        0.021 *    0.071 r
  core/loopbuffer/U19/Z (C8T28SOI_LL_OAI112X6_P0)        0.016 *    0.087 f
  core/loopbuffer/lock_req_out (tta0_loopbuf_1_32_51_1_0)
                                                         0.000      0.087 f
  core/decomp/lock_r (tta0_decompressor)                 0.000      0.087 f
  core/decomp/U1/Z (C8T28SOI_LL_CNIVX9_P0)               0.010 *    0.096 r
  core/decomp/fetch_en (tta0_decompressor)               0.000      0.096 r
  core/inst_fetch/fetch_en (tta0_ifetch)                 0.000      0.096 r
  core/inst_fetch/U4/Z (C8T28SOIDV_LL_NAND2X9_P0)        0.008 *    0.104 f
  core/inst_fetch/glock (tta0_ifetch)                    0.000      0.104 f
  core/loopbuffer/glock_in (tta0_loopbuf_1_32_51_1_0)    0.000      0.104 f
  core/loopbuffer/U163/Z (C8T28SOIDV_LL_NAND2X9_P0)      0.008 *    0.113 r
  core/loopbuffer/U32/Z (C8T28SOIDV_LL_NAND2X18_P0)      0.007 *    0.120 f
  core/loopbuffer/glock_out (tta0_loopbuf_1_32_51_1_0)
                                                         0.000      0.120 f
  core/inst_decoder/lock (tta0_decoder)                  0.000      0.120 f
  core/inst_decoder/U5/Z (C8T28SOIDV_LL_CNIVX18_P0)      0.007 *    0.126 r
  core/inst_decoder/U3/Z (C8T28SOIDV_LL_NAND2AX27_P0)    0.007 *    0.133 f
  core/inst_decoder/glock[7] (tta0_decoder)              0.000      0.133 f
  core/fu_lsu_r/glock (fu_ldw_stw_always_4_dataw32_addrw16_1)
                                                         0.000      0.133 f
  core/fu_lsu_r/U4/Z (C8T28SOIDV_LL_CNIVX28_P0)          0.006 *    0.139 r
  core/fu_lsu_r/U3/Z (C8T28SOIDV_LL_NAND2X36_P0)         0.008 *    0.148 f
  core/fu_lsu_r/mem_en_x[0] (fu_ldw_stw_always_4_dataw32_addrw16_1)
                                                         0.000      0.148 f
  U128/Z (C8T28SOIDV_LL_NAND2AX36_P0)                    0.013 *    0.161 r
  U363/Z (C8T28SOIDV_LL_CNBFX55_P0)                      0.018 *    0.179 r
  U142/Z (C8T28SOI_LL_MUXI21X9_P0)                       0.016 *    0.196 r
  datamem/scheduler/lsu_addr_a[0] (par_mem_scheduler_dataw32_addrw14_ports2_rd_delay1)
                                                         0.000      0.196 r
  datamem/scheduler/addr_a_conv/data_in[0] (ser_par_conv_portw14_port_cnt2_1)
                                                         0.000      0.196 r
  datamem/scheduler/addr_a_conv/U10/Z (C8T28SOI_LL_CNBFX8_P0)
                                                         0.016 *    0.212 r
  datamem/scheduler/addr_a_conv/data_out[0] (ser_par_conv_portw14_port_cnt2_1)
                                                         0.000      0.212 r
  datamem/scheduler/U95/Z (C8T28SOIDV_LL_NAND2AX17_P4)
                                                         0.007 *    0.219 f
  datamem/scheduler/U96/Z (C8T28SOIDV_LL_NAND2X18_P0)    0.008 *    0.226 r
  datamem/scheduler/addr[0] (par_mem_scheduler_dataw32_addrw14_ports2_rd_delay1)
                                                         0.000      0.226 r
  datamem/par_mem_logic_inst/addrs_from_lsus[0] (par_mem_logic_PORTS2_LSU_ADDRW14_CTRLW1_DATAW32_PM_FUNC2)
                                                         0.000      0.226 r
  datamem/par_mem_logic_inst/addr_crsbar_0/addrs_from_lsus[0] (addr_crsbar_PORTS2_LSU_ADDRW14_CTRLW1_PM_FUNC2)
                                                         0.000      0.226 r
  datamem/par_mem_logic_inst/addr_crsbar_0/U3/Z (C8T28SOI_LL_NAND3X10_P4)
                                                         0.012 *    0.238 f
  datamem/par_mem_logic_inst/addr_crsbar_0/U43/Z (C8T28SOIDV_LL_NAND2X9_P0)
                                                         0.009 *    0.246 r
  datamem/par_mem_logic_inst/addr_crsbar_0/U57/Z (C8T28SOIDV_LLS_XNOR2X4_P0)
                                                         0.017 *    0.263 r
  datamem/par_mem_logic_inst/addr_crsbar_0/U61/Z (C8T28SOIDV_LLS_XNOR2X4_P0)
                                                         0.020 *    0.283 r
  datamem/par_mem_logic_inst/addr_crsbar_0/U53/Z (C8T28SOI_LL_XOR2X13_P0)
                                                         0.028 *    0.311 f
  datamem/par_mem_logic_inst/addr_crsbar_0/module_nums[0] (addr_crsbar_PORTS2_LSU_ADDRW14_CTRLW1_PM_FUNC2)
                                                         0.000      0.311 f
  datamem/par_mem_logic_inst/ctrl_units_0/module_nums[0] (ctrl_units_PORTS2_CTRLW1)
                                                         0.000      0.311 f
  datamem/par_mem_logic_inst/ctrl_units_0/ctrl_uniti_0/module_num[0] (ctrl_unit_PORTS2_CTRLW1_1)
                                                         0.000      0.311 f
  datamem/par_mem_logic_inst/ctrl_units_0/ctrl_uniti_0/U6/Z (C8T28SOI_LL_CNIVX9_P0)
                                                         0.008 *    0.319 r
  datamem/par_mem_logic_inst/ctrl_units_0/ctrl_uniti_0/U5/Z (C8T28SOI_LL_AOI12X10_P0)
                                                         0.008 *    0.327 f
  datamem/par_mem_logic_inst/ctrl_units_0/ctrl_uniti_0/mem_en_x (ctrl_unit_PORTS2_CTRLW1_1)
                                                         0.000      0.327 f
  datamem/par_mem_logic_inst/ctrl_units_0/U3/Z (C8T28SOI_LL_CNOR2X37_P0)
                                                         0.024 *    0.351 f
  datamem/par_mem_logic_inst/ctrl_units_0/mem_en_xs[0] (ctrl_units_PORTS2_CTRLW1)
                                                         0.000      0.351 f
  datamem/par_mem_logic_inst/mem_en_xs[0] (par_mem_logic_PORTS2_LSU_ADDRW14_CTRLW1_DATAW32_PM_FUNC2)
                                                         0.000      0.351 f
  datamem/dmem_2/en_x (synch_singleport_mem_wrapper_DATAW32_ADDRW13_0)
                                                         0.000      0.351 f
  datamem/dmem_2/en_wr_arbiter/en (block_en_wr_arbiter_ADDRW13_NBLOCKS9_0)
                                                         0.000      0.351 f
  datamem/dmem_2/en_wr_arbiter/U49/Z (C8T28SOIDV_LL_NAND2AX9_P0)
                                                         0.019 *    0.371 f
  datamem/dmem_2/en_wr_arbiter/en_blocks[2] (block_en_wr_arbiter_ADDRW13_NBLOCKS9_0)
                                                         0.000      0.371 f
  datamem/dmem_2/cacti_mem_x_2/en_x (cacti_mem_wrapper_DATAW32_ADDRW6_0)
                                                         0.000      0.371 f
  datamem/dmem_2/cacti_mem_x_2/mem_64x32/mem_en_x (ram_64x32)
                                                         0.000 *    0.371 f
  data arrival time                                                 0.371

  clock clk (rise edge)                                  0.909      0.909
  clock network delay (ideal)                            0.010      0.919
  clock uncertainty                                     -0.010      0.909
  datamem/dmem_2/cacti_mem_x_2/mem_64x32/clk (ram_64x32)
                                                         0.000      0.909 r
  library setup time                                    -0.505      0.404
  data required time                                                0.404
  --------------------------------------------------------------------------
  data required time                                                0.404
  data arrival time                                                -0.371
  --------------------------------------------------------------------------
  slack (MET)                                                       0.034


  Startpoint: core/loopbuffer/clk_r_REG1987_S18
              (rising edge-triggered flip-flop clocked by clk)
  Endpoint: datamem/dmem_2/cacti_mem_x_6/mem_1024x32
            (rising edge-triggered flip-flop clocked by clk)
  Path Group: clk
  Path Type: max

  Point                                                   Incr       Path
  --------------------------------------------------------------------------
  clock clk (rise edge)                                  0.000      0.000
  clock network delay (ideal)                            0.010      0.010
  core/loopbuffer/clk_r_REG1987_S18/CP (C8T28SOIDV_LL_DFPRQX10_P0)
                                                         0.000      0.010 r
  core/loopbuffer/clk_r_REG1987_S18/Q (C8T28SOIDV_LL_DFPRQX10_P0)
                                                         0.039      0.049 f
  core/loopbuffer/U162/Z (C8T28SOI_LL_NOR2X16_P0)        0.021 *    0.071 r
  core/loopbuffer/U19/Z (C8T28SOI_LL_OAI112X6_P0)        0.016 *    0.087 f
  core/loopbuffer/lock_req_out (tta0_loopbuf_1_32_51_1_0)
                                                         0.000      0.087 f
  core/decomp/lock_r (tta0_decompressor)                 0.000      0.087 f
  core/decomp/U1/Z (C8T28SOI_LL_CNIVX9_P0)               0.010 *    0.096 r
  core/decomp/fetch_en (tta0_decompressor)               0.000      0.096 r
  core/inst_fetch/fetch_en (tta0_ifetch)                 0.000      0.096 r
  core/inst_fetch/U4/Z (C8T28SOIDV_LL_NAND2X9_P0)        0.008 *    0.104 f
  core/inst_fetch/glock (tta0_ifetch)                    0.000      0.104 f
  core/loopbuffer/glock_in (tta0_loopbuf_1_32_51_1_0)    0.000      0.104 f
  core/loopbuffer/U163/Z (C8T28SOIDV_LL_NAND2X9_P0)      0.008 *    0.113 r
  core/loopbuffer/U32/Z (C8T28SOIDV_LL_NAND2X18_P0)      0.007 *    0.120 f
  core/loopbuffer/glock_out (tta0_loopbuf_1_32_51_1_0)
                                                         0.000      0.120 f
  core/inst_decoder/lock (tta0_decoder)                  0.000      0.120 f
  core/inst_decoder/U5/Z (C8T28SOIDV_LL_CNIVX18_P0)      0.007 *    0.126 r
  core/inst_decoder/U3/Z (C8T28SOIDV_LL_NAND2AX27_P0)    0.007 *    0.133 f
  core/inst_decoder/glock[7] (tta0_decoder)              0.000      0.133 f
  core/fu_lsu_r/glock (fu_ldw_stw_always_4_dataw32_addrw16_1)
                                                         0.000      0.133 f
  core/fu_lsu_r/U4/Z (C8T28SOIDV_LL_CNIVX28_P0)          0.006 *    0.139 r
  core/fu_lsu_r/U3/Z (C8T28SOIDV_LL_NAND2X36_P0)         0.008 *    0.148 f
  core/fu_lsu_r/mem_en_x[0] (fu_ldw_stw_always_4_dataw32_addrw16_1)
                                                         0.000      0.148 f
  U128/Z (C8T28SOIDV_LL_NAND2AX36_P0)                    0.013 *    0.161 r
  U363/Z (C8T28SOIDV_LL_CNBFX55_P0)                      0.018 *    0.179 r
  U142/Z (C8T28SOI_LL_MUXI21X9_P0)                       0.016 *    0.196 r
  datamem/scheduler/lsu_addr_a[0] (par_mem_scheduler_dataw32_addrw14_ports2_rd_delay1)
                                                         0.000      0.196 r
  datamem/scheduler/addr_a_conv/data_in[0] (ser_par_conv_portw14_port_cnt2_1)
                                                         0.000      0.196 r
  datamem/scheduler/addr_a_conv/U10/Z (C8T28SOI_LL_CNBFX8_P0)
                                                         0.016 *    0.212 r
  datamem/scheduler/addr_a_conv/data_out[0] (ser_par_conv_portw14_port_cnt2_1)
                                                         0.000      0.212 r
  datamem/scheduler/U95/Z (C8T28SOIDV_LL_NAND2AX17_P4)
                                                         0.007 *    0.219 f
  datamem/scheduler/U96/Z (C8T28SOIDV_LL_NAND2X18_P0)    0.008 *    0.226 r
  datamem/scheduler/addr[0] (par_mem_scheduler_dataw32_addrw14_ports2_rd_delay1)
                                                         0.000      0.226 r
  datamem/par_mem_logic_inst/addrs_from_lsus[0] (par_mem_logic_PORTS2_LSU_ADDRW14_CTRLW1_DATAW32_PM_FUNC2)
                                                         0.000      0.226 r
  datamem/par_mem_logic_inst/addr_crsbar_0/addrs_from_lsus[0] (addr_crsbar_PORTS2_LSU_ADDRW14_CTRLW1_PM_FUNC2)
                                                         0.000      0.226 r
  datamem/par_mem_logic_inst/addr_crsbar_0/U3/Z (C8T28SOI_LL_NAND3X10_P4)
                                                         0.012 *    0.238 f
  datamem/par_mem_logic_inst/addr_crsbar_0/U43/Z (C8T28SOIDV_LL_NAND2X9_P0)
                                                         0.009 *    0.246 r
  datamem/par_mem_logic_inst/addr_crsbar_0/U57/Z (C8T28SOIDV_LLS_XNOR2X4_P0)
                                                         0.017 *    0.263 r
  datamem/par_mem_logic_inst/addr_crsbar_0/U61/Z (C8T28SOIDV_LLS_XNOR2X4_P0)
                                                         0.020 *    0.283 r
  datamem/par_mem_logic_inst/addr_crsbar_0/U53/Z (C8T28SOI_LL_XOR2X13_P0)
                                                         0.028 *    0.311 f
  datamem/par_mem_logic_inst/addr_crsbar_0/module_nums[0] (addr_crsbar_PORTS2_LSU_ADDRW14_CTRLW1_PM_FUNC2)
                                                         0.000      0.311 f
  datamem/par_mem_logic_inst/ctrl_units_0/module_nums[0] (ctrl_units_PORTS2_CTRLW1)
                                                         0.000      0.311 f
  datamem/par_mem_logic_inst/ctrl_units_0/ctrl_uniti_0/module_num[0] (ctrl_unit_PORTS2_CTRLW1_1)
                                                         0.000      0.311 f
  datamem/par_mem_logic_inst/ctrl_units_0/ctrl_uniti_0/U6/Z (C8T28SOI_LL_CNIVX9_P0)
                                                         0.008 *    0.319 r
  datamem/par_mem_logic_inst/ctrl_units_0/ctrl_uniti_0/U5/Z (C8T28SOI_LL_AOI12X10_P0)
                                                         0.008 *    0.327 f
  datamem/par_mem_logic_inst/ctrl_units_0/ctrl_uniti_0/mem_en_x (ctrl_unit_PORTS2_CTRLW1_1)
                                                         0.000      0.327 f
  datamem/par_mem_logic_inst/ctrl_units_0/U3/Z (C8T28SOI_LL_CNOR2X37_P0)
                                                         0.024 *    0.351 f
  datamem/par_mem_logic_inst/ctrl_units_0/mem_en_xs[0] (ctrl_units_PORTS2_CTRLW1)
                                                         0.000      0.351 f
  datamem/par_mem_logic_inst/mem_en_xs[0] (par_mem_logic_PORTS2_LSU_ADDRW14_CTRLW1_DATAW32_PM_FUNC2)
                                                         0.000      0.351 f
  datamem/dmem_2/en_x (synch_singleport_mem_wrapper_DATAW32_ADDRW13_0)
                                                         0.000      0.351 f
  datamem/dmem_2/en_wr_arbiter/en (block_en_wr_arbiter_ADDRW13_NBLOCKS9_0)
                                                         0.000      0.351 f
  datamem/dmem_2/en_wr_arbiter/U39/Z (C8T28SOIDV_LL_NAND2AX9_P0)
                                                         0.019 *    0.371 f
  datamem/dmem_2/en_wr_arbiter/en_blocks[6] (block_en_wr_arbiter_ADDRW13_NBLOCKS9_0)
                                                         0.000      0.371 f
  datamem/dmem_2/cacti_mem_x_6/en_x (cacti_mem_wrapper_DATAW32_ADDRW10_0)
                                                         0.000      0.371 f
  datamem/dmem_2/cacti_mem_x_6/mem_1024x32/mem_en_x (ram_1024x32)
                                                         0.000 *    0.371 f
  data arrival time                                                 0.371

  clock clk (rise edge)                                  0.909      0.909
  clock network delay (ideal)                            0.010      0.919
  clock uncertainty                                     -0.010      0.909
  datamem/dmem_2/cacti_mem_x_6/mem_1024x32/clk (ram_1024x32)
                                                         0.000      0.909 r
  library setup time                                    -0.504      0.405
  data required time                                                0.405
  --------------------------------------------------------------------------
  data required time                                                0.405
  data arrival time                                                -0.371
  --------------------------------------------------------------------------
  slack (MET)                                                       0.034


  Startpoint: core/loopbuffer/clk_r_REG1987_S18
              (rising edge-triggered flip-flop clocked by clk)
  Endpoint: datamem/dmem_2/cacti_mem_x_5/mem_512x32
            (rising edge-triggered flip-flop clocked by clk)
  Path Group: clk
  Path Type: max

  Point                                                   Incr       Path
  --------------------------------------------------------------------------
  clock clk (rise edge)                                  0.000      0.000
  clock network delay (ideal)                            0.010      0.010
  core/loopbuffer/clk_r_REG1987_S18/CP (C8T28SOIDV_LL_DFPRQX10_P0)
                                                         0.000      0.010 r
  core/loopbuffer/clk_r_REG1987_S18/Q (C8T28SOIDV_LL_DFPRQX10_P0)
                                                         0.039      0.049 f
  core/loopbuffer/U162/Z (C8T28SOI_LL_NOR2X16_P0)        0.021 *    0.071 r
  core/loopbuffer/U19/Z (C8T28SOI_LL_OAI112X6_P0)        0.016 *    0.087 f
  core/loopbuffer/lock_req_out (tta0_loopbuf_1_32_51_1_0)
                                                         0.000      0.087 f
  core/decomp/lock_r (tta0_decompressor)                 0.000      0.087 f
  core/decomp/U1/Z (C8T28SOI_LL_CNIVX9_P0)               0.010 *    0.096 r
  core/decomp/fetch_en (tta0_decompressor)               0.000      0.096 r
  core/inst_fetch/fetch_en (tta0_ifetch)                 0.000      0.096 r
  core/inst_fetch/U4/Z (C8T28SOIDV_LL_NAND2X9_P0)        0.008 *    0.104 f
  core/inst_fetch/glock (tta0_ifetch)                    0.000      0.104 f
  core/loopbuffer/glock_in (tta0_loopbuf_1_32_51_1_0)    0.000      0.104 f
  core/loopbuffer/U163/Z (C8T28SOIDV_LL_NAND2X9_P0)      0.008 *    0.113 r
  core/loopbuffer/U32/Z (C8T28SOIDV_LL_NAND2X18_P0)      0.007 *    0.120 f
  core/loopbuffer/glock_out (tta0_loopbuf_1_32_51_1_0)
                                                         0.000      0.120 f
  core/inst_decoder/lock (tta0_decoder)                  0.000      0.120 f
  core/inst_decoder/U5/Z (C8T28SOIDV_LL_CNIVX18_P0)      0.007 *    0.126 r
  core/inst_decoder/U3/Z (C8T28SOIDV_LL_NAND2AX27_P0)    0.007 *    0.133 f
  core/inst_decoder/glock[7] (tta0_decoder)              0.000      0.133 f
  core/fu_lsu_r/glock (fu_ldw_stw_always_4_dataw32_addrw16_1)
                                                         0.000      0.133 f
  core/fu_lsu_r/U4/Z (C8T28SOIDV_LL_CNIVX28_P0)          0.006 *    0.139 r
  core/fu_lsu_r/U3/Z (C8T28SOIDV_LL_NAND2X36_P0)         0.008 *    0.148 f
  core/fu_lsu_r/mem_en_x[0] (fu_ldw_stw_always_4_dataw32_addrw16_1)
                                                         0.000      0.148 f
  U128/Z (C8T28SOIDV_LL_NAND2AX36_P0)                    0.013 *    0.161 r
  U363/Z (C8T28SOIDV_LL_CNBFX55_P0)                      0.018 *    0.179 r
  U142/Z (C8T28SOI_LL_MUXI21X9_P0)                       0.016 *    0.196 r
  datamem/scheduler/lsu_addr_a[0] (par_mem_scheduler_dataw32_addrw14_ports2_rd_delay1)
                                                         0.000      0.196 r
  datamem/scheduler/addr_a_conv/data_in[0] (ser_par_conv_portw14_port_cnt2_1)
                                                         0.000      0.196 r
  datamem/scheduler/addr_a_conv/U10/Z (C8T28SOI_LL_CNBFX8_P0)
                                                         0.016 *    0.212 r
  datamem/scheduler/addr_a_conv/data_out[0] (ser_par_conv_portw14_port_cnt2_1)
                                                         0.000      0.212 r
  datamem/scheduler/U95/Z (C8T28SOIDV_LL_NAND2AX17_P4)
                                                         0.007 *    0.219 f
  datamem/scheduler/U96/Z (C8T28SOIDV_LL_NAND2X18_P0)    0.008 *    0.226 r
  datamem/scheduler/addr[0] (par_mem_scheduler_dataw32_addrw14_ports2_rd_delay1)
                                                         0.000      0.226 r
  datamem/par_mem_logic_inst/addrs_from_lsus[0] (par_mem_logic_PORTS2_LSU_ADDRW14_CTRLW1_DATAW32_PM_FUNC2)
                                                         0.000      0.226 r
  datamem/par_mem_logic_inst/addr_crsbar_0/addrs_from_lsus[0] (addr_crsbar_PORTS2_LSU_ADDRW14_CTRLW1_PM_FUNC2)
                                                         0.000      0.226 r
  datamem/par_mem_logic_inst/addr_crsbar_0/U3/Z (C8T28SOI_LL_NAND3X10_P4)
                                                         0.012 *    0.238 f
  datamem/par_mem_logic_inst/addr_crsbar_0/U43/Z (C8T28SOIDV_LL_NAND2X9_P0)
                                                         0.009 *    0.246 r
  datamem/par_mem_logic_inst/addr_crsbar_0/U57/Z (C8T28SOIDV_LLS_XNOR2X4_P0)
                                                         0.017 *    0.263 r
  datamem/par_mem_logic_inst/addr_crsbar_0/U61/Z (C8T28SOIDV_LLS_XNOR2X4_P0)
                                                         0.020 *    0.283 r
  datamem/par_mem_logic_inst/addr_crsbar_0/U53/Z (C8T28SOI_LL_XOR2X13_P0)
                                                         0.028 *    0.311 f
  datamem/par_mem_logic_inst/addr_crsbar_0/module_nums[0] (addr_crsbar_PORTS2_LSU_ADDRW14_CTRLW1_PM_FUNC2)
                                                         0.000      0.311 f
  datamem/par_mem_logic_inst/ctrl_units_0/module_nums[0] (ctrl_units_PORTS2_CTRLW1)
                                                         0.000      0.311 f
  datamem/par_mem_logic_inst/ctrl_units_0/ctrl_uniti_0/module_num[0] (ctrl_unit_PORTS2_CTRLW1_1)
                                                         0.000      0.311 f
  datamem/par_mem_logic_inst/ctrl_units_0/ctrl_uniti_0/U6/Z (C8T28SOI_LL_CNIVX9_P0)
                                                         0.008 *    0.319 r
  datamem/par_mem_logic_inst/ctrl_units_0/ctrl_uniti_0/U5/Z (C8T28SOI_LL_AOI12X10_P0)
                                                         0.008 *    0.327 f
  datamem/par_mem_logic_inst/ctrl_units_0/ctrl_uniti_0/mem_en_x (ctrl_unit_PORTS2_CTRLW1_1)
                                                         0.000      0.327 f
  datamem/par_mem_logic_inst/ctrl_units_0/U3/Z (C8T28SOI_LL_CNOR2X37_P0)
                                                         0.024 *    0.351 f
  datamem/par_mem_logic_inst/ctrl_units_0/mem_en_xs[0] (ctrl_units_PORTS2_CTRLW1)
                                                         0.000      0.351 f
  datamem/par_mem_logic_inst/mem_en_xs[0] (par_mem_logic_PORTS2_LSU_ADDRW14_CTRLW1_DATAW32_PM_FUNC2)
                                                         0.000      0.351 f
  datamem/dmem_2/en_x (synch_singleport_mem_wrapper_DATAW32_ADDRW13_0)
                                                         0.000      0.351 f
  datamem/dmem_2/en_wr_arbiter/en (block_en_wr_arbiter_ADDRW13_NBLOCKS9_0)
                                                         0.000      0.351 f
  datamem/dmem_2/en_wr_arbiter/U34/Z (C8T28SOIDV_LL_NAND2AX9_P0)
                                                         0.018 *    0.369 f
  datamem/dmem_2/en_wr_arbiter/en_blocks[5] (block_en_wr_arbiter_ADDRW13_NBLOCKS9_0)
                                                         0.000      0.369 f
  datamem/dmem_2/cacti_mem_x_5/en_x (cacti_mem_wrapper_DATAW32_ADDRW9_0)
                                                         0.000      0.369 f
  datamem/dmem_2/cacti_mem_x_5/mem_512x32/mem_en_x (ram_512x32)
                                                         0.000 *    0.369 f
  data arrival time                                                 0.369

  clock clk (rise edge)                                  0.909      0.909
  clock network delay (ideal)                            0.010      0.919
  clock uncertainty                                     -0.010      0.909
  datamem/dmem_2/cacti_mem_x_5/mem_512x32/clk (ram_512x32)
                                                         0.000      0.909 r
  library setup time                                    -0.504      0.405
  data required time                                                0.405
  --------------------------------------------------------------------------
  data required time                                                0.405
  data arrival time                                                -0.369
  --------------------------------------------------------------------------
  slack (MET)                                                       0.036


  Startpoint: core/loopbuffer/clk_r_REG1987_S18
              (rising edge-triggered flip-flop clocked by clk)
  Endpoint: datamem/dmem_2/cacti_mem_x_3/mem_128x32
            (rising edge-triggered flip-flop clocked by clk)
  Path Group: clk
  Path Type: max

  Point                                                   Incr       Path
  --------------------------------------------------------------------------
  clock clk (rise edge)                                  0.000      0.000
  clock network delay (ideal)                            0.010      0.010
  core/loopbuffer/clk_r_REG1987_S18/CP (C8T28SOIDV_LL_DFPRQX10_P0)
                                                         0.000      0.010 r
  core/loopbuffer/clk_r_REG1987_S18/Q (C8T28SOIDV_LL_DFPRQX10_P0)
                                                         0.039      0.049 f
  core/loopbuffer/U162/Z (C8T28SOI_LL_NOR2X16_P0)        0.021 *    0.071 r
  core/loopbuffer/U19/Z (C8T28SOI_LL_OAI112X6_P0)        0.016 *    0.087 f
  core/loopbuffer/lock_req_out (tta0_loopbuf_1_32_51_1_0)
                                                         0.000      0.087 f
  core/decomp/lock_r (tta0_decompressor)                 0.000      0.087 f
  core/decomp/U1/Z (C8T28SOI_LL_CNIVX9_P0)               0.010 *    0.096 r
  core/decomp/fetch_en (tta0_decompressor)               0.000      0.096 r
  core/inst_fetch/fetch_en (tta0_ifetch)                 0.000      0.096 r
  core/inst_fetch/U4/Z (C8T28SOIDV_LL_NAND2X9_P0)        0.008 *    0.104 f
  core/inst_fetch/glock (tta0_ifetch)                    0.000      0.104 f
  core/loopbuffer/glock_in (tta0_loopbuf_1_32_51_1_0)    0.000      0.104 f
  core/loopbuffer/U163/Z (C8T28SOIDV_LL_NAND2X9_P0)      0.008 *    0.113 r
  core/loopbuffer/U32/Z (C8T28SOIDV_LL_NAND2X18_P0)      0.007 *    0.120 f
  core/loopbuffer/glock_out (tta0_loopbuf_1_32_51_1_0)
                                                         0.000      0.120 f
  core/inst_decoder/lock (tta0_decoder)                  0.000      0.120 f
  core/inst_decoder/U5/Z (C8T28SOIDV_LL_CNIVX18_P0)      0.007 *    0.126 r
  core/inst_decoder/U3/Z (C8T28SOIDV_LL_NAND2AX27_P0)    0.007 *    0.133 f
  core/inst_decoder/glock[7] (tta0_decoder)              0.000      0.133 f
  core/fu_lsu_r/glock (fu_ldw_stw_always_4_dataw32_addrw16_1)
                                                         0.000      0.133 f
  core/fu_lsu_r/U4/Z (C8T28SOIDV_LL_CNIVX28_P0)          0.006 *    0.139 r
  core/fu_lsu_r/U3/Z (C8T28SOIDV_LL_NAND2X36_P0)         0.008 *    0.148 f
  core/fu_lsu_r/mem_en_x[0] (fu_ldw_stw_always_4_dataw32_addrw16_1)
                                                         0.000      0.148 f
  U128/Z (C8T28SOIDV_LL_NAND2AX36_P0)                    0.013 *    0.161 r
  U363/Z (C8T28SOIDV_LL_CNBFX55_P0)                      0.018 *    0.179 r
  U142/Z (C8T28SOI_LL_MUXI21X9_P0)                       0.016 *    0.196 r
  datamem/scheduler/lsu_addr_a[0] (par_mem_scheduler_dataw32_addrw14_ports2_rd_delay1)
                                                         0.000      0.196 r
  datamem/scheduler/addr_a_conv/data_in[0] (ser_par_conv_portw14_port_cnt2_1)
                                                         0.000      0.196 r
  datamem/scheduler/addr_a_conv/U10/Z (C8T28SOI_LL_CNBFX8_P0)
                                                         0.016 *    0.212 r
  datamem/scheduler/addr_a_conv/data_out[0] (ser_par_conv_portw14_port_cnt2_1)
                                                         0.000      0.212 r
  datamem/scheduler/U95/Z (C8T28SOIDV_LL_NAND2AX17_P4)
                                                         0.007 *    0.219 f
  datamem/scheduler/U96/Z (C8T28SOIDV_LL_NAND2X18_P0)    0.008 *    0.226 r
  datamem/scheduler/addr[0] (par_mem_scheduler_dataw32_addrw14_ports2_rd_delay1)
                                                         0.000      0.226 r
  datamem/par_mem_logic_inst/addrs_from_lsus[0] (par_mem_logic_PORTS2_LSU_ADDRW14_CTRLW1_DATAW32_PM_FUNC2)
                                                         0.000      0.226 r
  datamem/par_mem_logic_inst/addr_crsbar_0/addrs_from_lsus[0] (addr_crsbar_PORTS2_LSU_ADDRW14_CTRLW1_PM_FUNC2)
                                                         0.000      0.226 r
  datamem/par_mem_logic_inst/addr_crsbar_0/U3/Z (C8T28SOI_LL_NAND3X10_P4)
                                                         0.012 *    0.238 f
  datamem/par_mem_logic_inst/addr_crsbar_0/U43/Z (C8T28SOIDV_LL_NAND2X9_P0)
                                                         0.009 *    0.246 r
  datamem/par_mem_logic_inst/addr_crsbar_0/U57/Z (C8T28SOIDV_LLS_XNOR2X4_P0)
                                                         0.017 *    0.263 r
  datamem/par_mem_logic_inst/addr_crsbar_0/U61/Z (C8T28SOIDV_LLS_XNOR2X4_P0)
                                                         0.020 *    0.283 r
  datamem/par_mem_logic_inst/addr_crsbar_0/U53/Z (C8T28SOI_LL_XOR2X13_P0)
                                                         0.028 *    0.311 f
  datamem/par_mem_logic_inst/addr_crsbar_0/module_nums[0] (addr_crsbar_PORTS2_LSU_ADDRW14_CTRLW1_PM_FUNC2)
                                                         0.000      0.311 f
  datamem/par_mem_logic_inst/ctrl_units_0/module_nums[0] (ctrl_units_PORTS2_CTRLW1)
                                                         0.000      0.311 f
  datamem/par_mem_logic_inst/ctrl_units_0/ctrl_uniti_0/module_num[0] (ctrl_unit_PORTS2_CTRLW1_1)
                                                         0.000      0.311 f
  datamem/par_mem_logic_inst/ctrl_units_0/ctrl_uniti_0/U6/Z (C8T28SOI_LL_CNIVX9_P0)
                                                         0.008 *    0.319 r
  datamem/par_mem_logic_inst/ctrl_units_0/ctrl_uniti_0/U5/Z (C8T28SOI_LL_AOI12X10_P0)
                                                         0.008 *    0.327 f
  datamem/par_mem_logic_inst/ctrl_units_0/ctrl_uniti_0/mem_en_x (ctrl_unit_PORTS2_CTRLW1_1)
                                                         0.000      0.327 f
  datamem/par_mem_logic_inst/ctrl_units_0/U3/Z (C8T28SOI_LL_CNOR2X37_P0)
                                                         0.024 *    0.351 f
  datamem/par_mem_logic_inst/ctrl_units_0/mem_en_xs[0] (ctrl_units_PORTS2_CTRLW1)
                                                         0.000      0.351 f
  datamem/par_mem_logic_inst/mem_en_xs[0] (par_mem_logic_PORTS2_LSU_ADDRW14_CTRLW1_DATAW32_PM_FUNC2)
                                                         0.000      0.351 f
  datamem/dmem_2/en_x (synch_singleport_mem_wrapper_DATAW32_ADDRW13_0)
                                                         0.000      0.351 f
  datamem/dmem_2/en_wr_arbiter/en (block_en_wr_arbiter_ADDRW13_NBLOCKS9_0)
                                                         0.000      0.351 f
  datamem/dmem_2/en_wr_arbiter/U24/Z (C8T28SOIDV_LL_NAND2AX9_P0)
                                                         0.018 *    0.370 f
  datamem/dmem_2/en_wr_arbiter/en_blocks[3] (block_en_wr_arbiter_ADDRW13_NBLOCKS9_0)
                                                         0.000      0.370 f
  datamem/dmem_2/cacti_mem_x_3/en_x (cacti_mem_wrapper_DATAW32_ADDRW7_0)
                                                         0.000      0.370 f
  datamem/dmem_2/cacti_mem_x_3/mem_128x32/mem_en_x (ram_128x32)
                                                         0.000 *    0.370 f
  data arrival time                                                 0.370

  clock clk (rise edge)                                  0.909      0.909
  clock network delay (ideal)                            0.010      0.919
  clock uncertainty                                     -0.010      0.909
  datamem/dmem_2/cacti_mem_x_3/mem_128x32/clk (ram_128x32)
                                                         0.000      0.909 r
  library setup time                                    -0.504      0.405
  data required time                                                0.405
  --------------------------------------------------------------------------
  data required time                                                0.405
  data arrival time                                                -0.370
  --------------------------------------------------------------------------
  slack (MET)                                                       0.036


  Startpoint: core/loopbuffer/clk_r_REG1987_S18
              (rising edge-triggered flip-flop clocked by clk)
  Endpoint: datamem/dmem_2/cacti_mem_x_1/mem_32x32
            (rising edge-triggered flip-flop clocked by clk)
  Path Group: clk
  Path Type: max

  Point                                                   Incr       Path
  --------------------------------------------------------------------------
  clock clk (rise edge)                                  0.000      0.000
  clock network delay (ideal)                            0.010      0.010
  core/loopbuffer/clk_r_REG1987_S18/CP (C8T28SOIDV_LL_DFPRQX10_P0)
                                                         0.000      0.010 r
  core/loopbuffer/clk_r_REG1987_S18/Q (C8T28SOIDV_LL_DFPRQX10_P0)
                                                         0.039      0.049 f
  core/loopbuffer/U162/Z (C8T28SOI_LL_NOR2X16_P0)        0.021 *    0.071 r
  core/loopbuffer/U19/Z (C8T28SOI_LL_OAI112X6_P0)        0.016 *    0.087 f
  core/loopbuffer/lock_req_out (tta0_loopbuf_1_32_51_1_0)
                                                         0.000      0.087 f
  core/decomp/lock_r (tta0_decompressor)                 0.000      0.087 f
  core/decomp/U1/Z (C8T28SOI_LL_CNIVX9_P0)               0.010 *    0.096 r
  core/decomp/fetch_en (tta0_decompressor)               0.000      0.096 r
  core/inst_fetch/fetch_en (tta0_ifetch)                 0.000      0.096 r
  core/inst_fetch/U4/Z (C8T28SOIDV_LL_NAND2X9_P0)        0.008 *    0.104 f
  core/inst_fetch/glock (tta0_ifetch)                    0.000      0.104 f
  core/loopbuffer/glock_in (tta0_loopbuf_1_32_51_1_0)    0.000      0.104 f
  core/loopbuffer/U163/Z (C8T28SOIDV_LL_NAND2X9_P0)      0.008 *    0.113 r
  core/loopbuffer/U32/Z (C8T28SOIDV_LL_NAND2X18_P0)      0.007 *    0.120 f
  core/loopbuffer/glock_out (tta0_loopbuf_1_32_51_1_0)
                                                         0.000      0.120 f
  core/inst_decoder/lock (tta0_decoder)                  0.000      0.120 f
  core/inst_decoder/U5/Z (C8T28SOIDV_LL_CNIVX18_P0)      0.007 *    0.126 r
  core/inst_decoder/U3/Z (C8T28SOIDV_LL_NAND2AX27_P0)    0.007 *    0.133 f
  core/inst_decoder/glock[7] (tta0_decoder)              0.000      0.133 f
  core/fu_lsu_r/glock (fu_ldw_stw_always_4_dataw32_addrw16_1)
                                                         0.000      0.133 f
  core/fu_lsu_r/U4/Z (C8T28SOIDV_LL_CNIVX28_P0)          0.006 *    0.139 r
  core/fu_lsu_r/U3/Z (C8T28SOIDV_LL_NAND2X36_P0)         0.008 *    0.148 f
  core/fu_lsu_r/mem_en_x[0] (fu_ldw_stw_always_4_dataw32_addrw16_1)
                                                         0.000      0.148 f
  U128/Z (C8T28SOIDV_LL_NAND2AX36_P0)                    0.013 *    0.161 r
  U363/Z (C8T28SOIDV_LL_CNBFX55_P0)                      0.018 *    0.179 r
  U142/Z (C8T28SOI_LL_MUXI21X9_P0)                       0.016 *    0.196 r
  datamem/scheduler/lsu_addr_a[0] (par_mem_scheduler_dataw32_addrw14_ports2_rd_delay1)
                                                         0.000      0.196 r
  datamem/scheduler/addr_a_conv/data_in[0] (ser_par_conv_portw14_port_cnt2_1)
                                                         0.000      0.196 r
  datamem/scheduler/addr_a_conv/U10/Z (C8T28SOI_LL_CNBFX8_P0)
                                                         0.016 *    0.212 r
  datamem/scheduler/addr_a_conv/data_out[0] (ser_par_conv_portw14_port_cnt2_1)
                                                         0.000      0.212 r
  datamem/scheduler/U95/Z (C8T28SOIDV_LL_NAND2AX17_P4)
                                                         0.007 *    0.219 f
  datamem/scheduler/U96/Z (C8T28SOIDV_LL_NAND2X18_P0)    0.008 *    0.226 r
  datamem/scheduler/addr[0] (par_mem_scheduler_dataw32_addrw14_ports2_rd_delay1)
                                                         0.000      0.226 r
  datamem/par_mem_logic_inst/addrs_from_lsus[0] (par_mem_logic_PORTS2_LSU_ADDRW14_CTRLW1_DATAW32_PM_FUNC2)
                                                         0.000      0.226 r
  datamem/par_mem_logic_inst/addr_crsbar_0/addrs_from_lsus[0] (addr_crsbar_PORTS2_LSU_ADDRW14_CTRLW1_PM_FUNC2)
                                                         0.000      0.226 r
  datamem/par_mem_logic_inst/addr_crsbar_0/U3/Z (C8T28SOI_LL_NAND3X10_P4)
                                                         0.012 *    0.238 f
  datamem/par_mem_logic_inst/addr_crsbar_0/U43/Z (C8T28SOIDV_LL_NAND2X9_P0)
                                                         0.009 *    0.246 r
  datamem/par_mem_logic_inst/addr_crsbar_0/U57/Z (C8T28SOIDV_LLS_XNOR2X4_P0)
                                                         0.017 *    0.263 r
  datamem/par_mem_logic_inst/addr_crsbar_0/U61/Z (C8T28SOIDV_LLS_XNOR2X4_P0)
                                                         0.020 *    0.283 r
  datamem/par_mem_logic_inst/addr_crsbar_0/U53/Z (C8T28SOI_LL_XOR2X13_P0)
                                                         0.028 *    0.311 f
  datamem/par_mem_logic_inst/addr_crsbar_0/module_nums[0] (addr_crsbar_PORTS2_LSU_ADDRW14_CTRLW1_PM_FUNC2)
                                                         0.000      0.311 f
  datamem/par_mem_logic_inst/ctrl_units_0/module_nums[0] (ctrl_units_PORTS2_CTRLW1)
                                                         0.000      0.311 f
  datamem/par_mem_logic_inst/ctrl_units_0/ctrl_uniti_0/module_num[0] (ctrl_unit_PORTS2_CTRLW1_1)
                                                         0.000      0.311 f
  datamem/par_mem_logic_inst/ctrl_units_0/ctrl_uniti_0/U6/Z (C8T28SOI_LL_CNIVX9_P0)
                                                         0.008 *    0.319 r
  datamem/par_mem_logic_inst/ctrl_units_0/ctrl_uniti_0/U5/Z (C8T28SOI_LL_AOI12X10_P0)
                                                         0.008 *    0.327 f
  datamem/par_mem_logic_inst/ctrl_units_0/ctrl_uniti_0/mem_en_x (ctrl_unit_PORTS2_CTRLW1_1)
                                                         0.000      0.327 f
  datamem/par_mem_logic_inst/ctrl_units_0/U3/Z (C8T28SOI_LL_CNOR2X37_P0)
                                                         0.024 *    0.351 f
  datamem/par_mem_logic_inst/ctrl_units_0/mem_en_xs[0] (ctrl_units_PORTS2_CTRLW1)
                                                         0.000      0.351 f
  datamem/par_mem_logic_inst/mem_en_xs[0] (par_mem_logic_PORTS2_LSU_ADDRW14_CTRLW1_DATAW32_PM_FUNC2)
                                                         0.000      0.351 f
  datamem/dmem_2/en_x (synch_singleport_mem_wrapper_DATAW32_ADDRW13_0)
                                                         0.000      0.351 f
  datamem/dmem_2/en_wr_arbiter/en (block_en_wr_arbiter_ADDRW13_NBLOCKS9_0)
                                                         0.000      0.351 f
  datamem/dmem_2/en_wr_arbiter/U22/Z (C8T28SOI_LL_CNIVX4_P0)
                                                         0.010 *    0.361 r
  datamem/dmem_2/en_wr_arbiter/U18/Z (C8T28SOI_LLBR0P8_NAND2X4_P0)
                                                         0.008 *    0.370 f
  datamem/dmem_2/en_wr_arbiter/en_blocks[1] (block_en_wr_arbiter_ADDRW13_NBLOCKS9_0)
                                                         0.000      0.370 f
  datamem/dmem_2/cacti_mem_x_1/en_x (cacti_mem_wrapper_DATAW32_ADDRW5_0)
                                                         0.000      0.370 f
  datamem/dmem_2/cacti_mem_x_1/mem_32x32/mem_en_x (ram_32x32)
                                                         0.000 *    0.370 f
  data arrival time                                                 0.370

  clock clk (rise edge)                                  0.909      0.909
  clock network delay (ideal)                            0.010      0.919
  clock uncertainty                                     -0.010      0.909
  datamem/dmem_2/cacti_mem_x_1/mem_32x32/clk (ram_32x32)
                                                         0.000      0.909 r
  library setup time                                    -0.504      0.405
  data required time                                                0.405
  --------------------------------------------------------------------------
  data required time                                                0.405
  data arrival time                                                -0.370
  --------------------------------------------------------------------------
  slack (MET)                                                       0.036


  Startpoint: core/loopbuffer/clk_r_REG1987_S18
              (rising edge-triggered flip-flop clocked by clk)
  Endpoint: datamem/dmem_2/cacti_mem_x_7/mem_2048x32
            (rising edge-triggered flip-flop clocked by clk)
  Path Group: clk
  Path Type: max

  Point                                                   Incr       Path
  --------------------------------------------------------------------------
  clock clk (rise edge)                                  0.000      0.000
  clock network delay (ideal)                            0.010      0.010
  core/loopbuffer/clk_r_REG1987_S18/CP (C8T28SOIDV_LL_DFPRQX10_P0)
                                                         0.000      0.010 r
  core/loopbuffer/clk_r_REG1987_S18/Q (C8T28SOIDV_LL_DFPRQX10_P0)
                                                         0.039      0.049 f
  core/loopbuffer/U162/Z (C8T28SOI_LL_NOR2X16_P0)        0.021 *    0.071 r
  core/loopbuffer/U19/Z (C8T28SOI_LL_OAI112X6_P0)        0.016 *    0.087 f
  core/loopbuffer/lock_req_out (tta0_loopbuf_1_32_51_1_0)
                                                         0.000      0.087 f
  core/decomp/lock_r (tta0_decompressor)                 0.000      0.087 f
  core/decomp/U1/Z (C8T28SOI_LL_CNIVX9_P0)               0.010 *    0.096 r
  core/decomp/fetch_en (tta0_decompressor)               0.000      0.096 r
  core/inst_fetch/fetch_en (tta0_ifetch)                 0.000      0.096 r
  core/inst_fetch/U4/Z (C8T28SOIDV_LL_NAND2X9_P0)        0.008 *    0.104 f
  core/inst_fetch/glock (tta0_ifetch)                    0.000      0.104 f
  core/loopbuffer/glock_in (tta0_loopbuf_1_32_51_1_0)    0.000      0.104 f
  core/loopbuffer/U163/Z (C8T28SOIDV_LL_NAND2X9_P0)      0.008 *    0.113 r
  core/loopbuffer/U32/Z (C8T28SOIDV_LL_NAND2X18_P0)      0.007 *    0.120 f
  core/loopbuffer/glock_out (tta0_loopbuf_1_32_51_1_0)
                                                         0.000      0.120 f
  core/inst_decoder/lock (tta0_decoder)                  0.000      0.120 f
  core/inst_decoder/U5/Z (C8T28SOIDV_LL_CNIVX18_P0)      0.007 *    0.126 r
  core/inst_decoder/U3/Z (C8T28SOIDV_LL_NAND2AX27_P0)    0.007 *    0.133 f
  core/inst_decoder/glock[7] (tta0_decoder)              0.000      0.133 f
  core/fu_lsu_r/glock (fu_ldw_stw_always_4_dataw32_addrw16_1)
                                                         0.000      0.133 f
  core/fu_lsu_r/U4/Z (C8T28SOIDV_LL_CNIVX28_P0)          0.006 *    0.139 r
  core/fu_lsu_r/U3/Z (C8T28SOIDV_LL_NAND2X36_P0)         0.008 *    0.148 f
  core/fu_lsu_r/mem_en_x[0] (fu_ldw_stw_always_4_dataw32_addrw16_1)
                                                         0.000      0.148 f
  U128/Z (C8T28SOIDV_LL_NAND2AX36_P0)                    0.013 *    0.161 r
  U363/Z (C8T28SOIDV_LL_CNBFX55_P0)                      0.018 *    0.179 r
  U142/Z (C8T28SOI_LL_MUXI21X9_P0)                       0.016 *    0.196 r
  datamem/scheduler/lsu_addr_a[0] (par_mem_scheduler_dataw32_addrw14_ports2_rd_delay1)
                                                         0.000      0.196 r
  datamem/scheduler/addr_a_conv/data_in[0] (ser_par_conv_portw14_port_cnt2_1)
                                                         0.000      0.196 r
  datamem/scheduler/addr_a_conv/U10/Z (C8T28SOI_LL_CNBFX8_P0)
                                                         0.016 *    0.212 r
  datamem/scheduler/addr_a_conv/data_out[0] (ser_par_conv_portw14_port_cnt2_1)
                                                         0.000      0.212 r
  datamem/scheduler/U95/Z (C8T28SOIDV_LL_NAND2AX17_P4)
                                                         0.007 *    0.219 f
  datamem/scheduler/U96/Z (C8T28SOIDV_LL_NAND2X18_P0)    0.008 *    0.226 r
  datamem/scheduler/addr[0] (par_mem_scheduler_dataw32_addrw14_ports2_rd_delay1)
                                                         0.000      0.226 r
  datamem/par_mem_logic_inst/addrs_from_lsus[0] (par_mem_logic_PORTS2_LSU_ADDRW14_CTRLW1_DATAW32_PM_FUNC2)
                                                         0.000      0.226 r
  datamem/par_mem_logic_inst/addr_crsbar_0/addrs_from_lsus[0] (addr_crsbar_PORTS2_LSU_ADDRW14_CTRLW1_PM_FUNC2)
                                                         0.000      0.226 r
  datamem/par_mem_logic_inst/addr_crsbar_0/U3/Z (C8T28SOI_LL_NAND3X10_P4)
                                                         0.012 *    0.238 f
  datamem/par_mem_logic_inst/addr_crsbar_0/U43/Z (C8T28SOIDV_LL_NAND2X9_P0)
                                                         0.009 *    0.246 r
  datamem/par_mem_logic_inst/addr_crsbar_0/U57/Z (C8T28SOIDV_LLS_XNOR2X4_P0)
                                                         0.017 *    0.263 r
  datamem/par_mem_logic_inst/addr_crsbar_0/U61/Z (C8T28SOIDV_LLS_XNOR2X4_P0)
                                                         0.020 *    0.283 r
  datamem/par_mem_logic_inst/addr_crsbar_0/U53/Z (C8T28SOI_LL_XOR2X13_P0)
                                                         0.028 *    0.311 f
  datamem/par_mem_logic_inst/addr_crsbar_0/module_nums[0] (addr_crsbar_PORTS2_LSU_ADDRW14_CTRLW1_PM_FUNC2)
                                                         0.000      0.311 f
  datamem/par_mem_logic_inst/ctrl_units_0/module_nums[0] (ctrl_units_PORTS2_CTRLW1)
                                                         0.000      0.311 f
  datamem/par_mem_logic_inst/ctrl_units_0/ctrl_uniti_0/module_num[0] (ctrl_unit_PORTS2_CTRLW1_1)
                                                         0.000      0.311 f
  datamem/par_mem_logic_inst/ctrl_units_0/ctrl_uniti_0/U6/Z (C8T28SOI_LL_CNIVX9_P0)
                                                         0.008 *    0.319 r
  datamem/par_mem_logic_inst/ctrl_units_0/ctrl_uniti_0/U5/Z (C8T28SOI_LL_AOI12X10_P0)
                                                         0.008 *    0.327 f
  datamem/par_mem_logic_inst/ctrl_units_0/ctrl_uniti_0/mem_en_x (ctrl_unit_PORTS2_CTRLW1_1)
                                                         0.000      0.327 f
  datamem/par_mem_logic_inst/ctrl_units_0/U3/Z (C8T28SOI_LL_CNOR2X37_P0)
                                                         0.024 *    0.351 f
  datamem/par_mem_logic_inst/ctrl_units_0/mem_en_xs[0] (ctrl_units_PORTS2_CTRLW1)
                                                         0.000      0.351 f
  datamem/par_mem_logic_inst/mem_en_xs[0] (par_mem_logic_PORTS2_LSU_ADDRW14_CTRLW1_DATAW32_PM_FUNC2)
                                                         0.000      0.351 f
  datamem/dmem_2/en_x (synch_singleport_mem_wrapper_DATAW32_ADDRW13_0)
                                                         0.000      0.351 f
  datamem/dmem_2/en_wr_arbiter/en (block_en_wr_arbiter_ADDRW13_NBLOCKS9_0)
                                                         0.000      0.351 f
  datamem/dmem_2/en_wr_arbiter/U19/Z (C8T28SOI_LL_OR2X19_P0)
                                                         0.019 *    0.370 f
  datamem/dmem_2/en_wr_arbiter/en_blocks[7] (block_en_wr_arbiter_ADDRW13_NBLOCKS9_0)
                                                         0.000      0.370 f
  datamem/dmem_2/cacti_mem_x_7/en_x (cacti_mem_wrapper_DATAW32_ADDRW11_0)
                                                         0.000      0.370 f
  datamem/dmem_2/cacti_mem_x_7/mem_2048x32/mem_en_x (ram_2048x32)
                                                         0.000 *    0.370 f
  data arrival time                                                 0.370

  clock clk (rise edge)                                  0.909      0.909
  clock network delay (ideal)                            0.010      0.919
  clock uncertainty                                     -0.010      0.909
  datamem/dmem_2/cacti_mem_x_7/mem_2048x32/clk (ram_2048x32)
                                                         0.000      0.909 r
  library setup time                                    -0.502      0.407
  data required time                                                0.407
  --------------------------------------------------------------------------
  data required time                                                0.407
  data arrival time                                                -0.370
  --------------------------------------------------------------------------
  slack (MET)                                                       0.037


  Startpoint: core/loopbuffer/clk_r_REG1987_S18
              (rising edge-triggered flip-flop clocked by clk)
  Endpoint: datamem/dmem_2/cacti_mem_x_8/mem_4096x32
            (rising edge-triggered flip-flop clocked by clk)
  Path Group: clk
  Path Type: max

  Point                                                   Incr       Path
  --------------------------------------------------------------------------
  clock clk (rise edge)                                  0.000      0.000
  clock network delay (ideal)                            0.010      0.010
  core/loopbuffer/clk_r_REG1987_S18/CP (C8T28SOIDV_LL_DFPRQX10_P0)
                                                         0.000      0.010 r
  core/loopbuffer/clk_r_REG1987_S18/Q (C8T28SOIDV_LL_DFPRQX10_P0)
                                                         0.039      0.049 f
  core/loopbuffer/U162/Z (C8T28SOI_LL_NOR2X16_P0)        0.021 *    0.071 r
  core/loopbuffer/U19/Z (C8T28SOI_LL_OAI112X6_P0)        0.016 *    0.087 f
  core/loopbuffer/lock_req_out (tta0_loopbuf_1_32_51_1_0)
                                                         0.000      0.087 f
  core/decomp/lock_r (tta0_decompressor)                 0.000      0.087 f
  core/decomp/U1/Z (C8T28SOI_LL_CNIVX9_P0)               0.010 *    0.096 r
  core/decomp/fetch_en (tta0_decompressor)               0.000      0.096 r
  core/inst_fetch/fetch_en (tta0_ifetch)                 0.000      0.096 r
  core/inst_fetch/U4/Z (C8T28SOIDV_LL_NAND2X9_P0)        0.008 *    0.104 f
  core/inst_fetch/glock (tta0_ifetch)                    0.000      0.104 f
  core/loopbuffer/glock_in (tta0_loopbuf_1_32_51_1_0)    0.000      0.104 f
  core/loopbuffer/U163/Z (C8T28SOIDV_LL_NAND2X9_P0)      0.008 *    0.113 r
  core/loopbuffer/U32/Z (C8T28SOIDV_LL_NAND2X18_P0)      0.007 *    0.120 f
  core/loopbuffer/glock_out (tta0_loopbuf_1_32_51_1_0)
                                                         0.000      0.120 f
  core/inst_decoder/lock (tta0_decoder)                  0.000      0.120 f
  core/inst_decoder/U5/Z (C8T28SOIDV_LL_CNIVX18_P0)      0.007 *    0.126 r
  core/inst_decoder/U3/Z (C8T28SOIDV_LL_NAND2AX27_P0)    0.007 *    0.133 f
  core/inst_decoder/glock[7] (tta0_decoder)              0.000      0.133 f
  core/fu_lsu_r/glock (fu_ldw_stw_always_4_dataw32_addrw16_1)
                                                         0.000      0.133 f
  core/fu_lsu_r/U4/Z (C8T28SOIDV_LL_CNIVX28_P0)          0.006 *    0.139 r
  core/fu_lsu_r/U3/Z (C8T28SOIDV_LL_NAND2X36_P0)         0.008 *    0.148 f
  core/fu_lsu_r/mem_en_x[0] (fu_ldw_stw_always_4_dataw32_addrw16_1)
                                                         0.000      0.148 f
  U128/Z (C8T28SOIDV_LL_NAND2AX36_P0)                    0.013 *    0.161 r
  U363/Z (C8T28SOIDV_LL_CNBFX55_P0)                      0.018 *    0.179 r
  U142/Z (C8T28SOI_LL_MUXI21X9_P0)                       0.016 *    0.196 r
  datamem/scheduler/lsu_addr_a[0] (par_mem_scheduler_dataw32_addrw14_ports2_rd_delay1)
                                                         0.000      0.196 r
  datamem/scheduler/addr_a_conv/data_in[0] (ser_par_conv_portw14_port_cnt2_1)
                                                         0.000      0.196 r
  datamem/scheduler/addr_a_conv/U10/Z (C8T28SOI_LL_CNBFX8_P0)
                                                         0.016 *    0.212 r
  datamem/scheduler/addr_a_conv/data_out[0] (ser_par_conv_portw14_port_cnt2_1)
                                                         0.000      0.212 r
  datamem/scheduler/U95/Z (C8T28SOIDV_LL_NAND2AX17_P4)
                                                         0.007 *    0.219 f
  datamem/scheduler/U96/Z (C8T28SOIDV_LL_NAND2X18_P0)    0.008 *    0.226 r
  datamem/scheduler/addr[0] (par_mem_scheduler_dataw32_addrw14_ports2_rd_delay1)
                                                         0.000      0.226 r
  datamem/par_mem_logic_inst/addrs_from_lsus[0] (par_mem_logic_PORTS2_LSU_ADDRW14_CTRLW1_DATAW32_PM_FUNC2)
                                                         0.000      0.226 r
  datamem/par_mem_logic_inst/addr_crsbar_0/addrs_from_lsus[0] (addr_crsbar_PORTS2_LSU_ADDRW14_CTRLW1_PM_FUNC2)
                                                         0.000      0.226 r
  datamem/par_mem_logic_inst/addr_crsbar_0/U3/Z (C8T28SOI_LL_NAND3X10_P4)
                                                         0.012 *    0.238 f
  datamem/par_mem_logic_inst/addr_crsbar_0/U43/Z (C8T28SOIDV_LL_NAND2X9_P0)
                                                         0.009 *    0.246 r
  datamem/par_mem_logic_inst/addr_crsbar_0/U57/Z (C8T28SOIDV_LLS_XNOR2X4_P0)
                                                         0.017 *    0.263 r
  datamem/par_mem_logic_inst/addr_crsbar_0/U61/Z (C8T28SOIDV_LLS_XNOR2X4_P0)
                                                         0.020 *    0.283 r
  datamem/par_mem_logic_inst/addr_crsbar_0/U53/Z (C8T28SOI_LL_XOR2X13_P0)
                                                         0.028 *    0.311 f
  datamem/par_mem_logic_inst/addr_crsbar_0/module_nums[0] (addr_crsbar_PORTS2_LSU_ADDRW14_CTRLW1_PM_FUNC2)
                                                         0.000      0.311 f
  datamem/par_mem_logic_inst/ctrl_units_0/module_nums[0] (ctrl_units_PORTS2_CTRLW1)
                                                         0.000      0.311 f
  datamem/par_mem_logic_inst/ctrl_units_0/ctrl_uniti_0/module_num[0] (ctrl_unit_PORTS2_CTRLW1_1)
                                                         0.000      0.311 f
  datamem/par_mem_logic_inst/ctrl_units_0/ctrl_uniti_0/U6/Z (C8T28SOI_LL_CNIVX9_P0)
                                                         0.008 *    0.319 r
  datamem/par_mem_logic_inst/ctrl_units_0/ctrl_uniti_0/U5/Z (C8T28SOI_LL_AOI12X10_P0)
                                                         0.008 *    0.327 f
  datamem/par_mem_logic_inst/ctrl_units_0/ctrl_uniti_0/mem_en_x (ctrl_unit_PORTS2_CTRLW1_1)
                                                         0.000      0.327 f
  datamem/par_mem_logic_inst/ctrl_units_0/U3/Z (C8T28SOI_LL_CNOR2X37_P0)
                                                         0.024 *    0.351 f
  datamem/par_mem_logic_inst/ctrl_units_0/mem_en_xs[0] (ctrl_units_PORTS2_CTRLW1)
                                                         0.000      0.351 f
  datamem/par_mem_logic_inst/mem_en_xs[0] (par_mem_logic_PORTS2_LSU_ADDRW14_CTRLW1_DATAW32_PM_FUNC2)
                                                         0.000      0.351 f
  datamem/dmem_2/en_x (synch_singleport_mem_wrapper_DATAW32_ADDRW13_0)
                                                         0.000      0.351 f
  datamem/dmem_2/en_wr_arbiter/en (block_en_wr_arbiter_ADDRW13_NBLOCKS9_0)
                                                         0.000      0.351 f
  datamem/dmem_2/en_wr_arbiter/U40/Z (C8T28SOI_LL_CNIVX9_P0)
                                                         0.009 *    0.361 r
  datamem/dmem_2/en_wr_arbiter/U41/Z (C8T28SOIDV_LL_NAND2X18_P0)
                                                         0.008 *    0.369 f
  datamem/dmem_2/en_wr_arbiter/en_blocks[8] (block_en_wr_arbiter_ADDRW13_NBLOCKS9_0)
                                                         0.000      0.369 f
  datamem/dmem_2/cacti_mem_x_8/en_x (cacti_mem_wrapper_DATAW32_ADDRW12_0)
                                                         0.000      0.369 f
  datamem/dmem_2/cacti_mem_x_8/mem_4096x32/mem_en_x (ram_4096x32)
                                                         0.000 *    0.369 f
  data arrival time                                                 0.369

  clock clk (rise edge)                                  0.909      0.909
  clock network delay (ideal)                            0.010      0.919
  clock uncertainty                                     -0.010      0.909
  datamem/dmem_2/cacti_mem_x_8/mem_4096x32/clk (ram_4096x32)
                                                         0.000      0.909 r
  library setup time                                    -0.503      0.406
  data required time                                                0.406
  --------------------------------------------------------------------------
  data required time                                                0.406
  data arrival time                                                -0.369
  --------------------------------------------------------------------------
  slack (MET)                                                       0.037


  Startpoint: core/loopbuffer/clk_r_REG1987_S18
              (rising edge-triggered flip-flop clocked by clk)
  Endpoint: datamem/dmem_2/cacti_mem_x_4/mem_256x32
            (rising edge-triggered flip-flop clocked by clk)
  Path Group: clk
  Path Type: max

  Point                                                   Incr       Path
  --------------------------------------------------------------------------
  clock clk (rise edge)                                  0.000      0.000
  clock network delay (ideal)                            0.010      0.010
  core/loopbuffer/clk_r_REG1987_S18/CP (C8T28SOIDV_LL_DFPRQX10_P0)
                                                         0.000      0.010 r
  core/loopbuffer/clk_r_REG1987_S18/Q (C8T28SOIDV_LL_DFPRQX10_P0)
                                                         0.039      0.049 f
  core/loopbuffer/U162/Z (C8T28SOI_LL_NOR2X16_P0)        0.021 *    0.071 r
  core/loopbuffer/U19/Z (C8T28SOI_LL_OAI112X6_P0)        0.016 *    0.087 f
  core/loopbuffer/lock_req_out (tta0_loopbuf_1_32_51_1_0)
                                                         0.000      0.087 f
  core/decomp/lock_r (tta0_decompressor)                 0.000      0.087 f
  core/decomp/U1/Z (C8T28SOI_LL_CNIVX9_P0)               0.010 *    0.096 r
  core/decomp/fetch_en (tta0_decompressor)               0.000      0.096 r
  core/inst_fetch/fetch_en (tta0_ifetch)                 0.000      0.096 r
  core/inst_fetch/U4/Z (C8T28SOIDV_LL_NAND2X9_P0)        0.008 *    0.104 f
  core/inst_fetch/glock (tta0_ifetch)                    0.000      0.104 f
  core/loopbuffer/glock_in (tta0_loopbuf_1_32_51_1_0)    0.000      0.104 f
  core/loopbuffer/U163/Z (C8T28SOIDV_LL_NAND2X9_P0)      0.008 *    0.113 r
  core/loopbuffer/U32/Z (C8T28SOIDV_LL_NAND2X18_P0)      0.007 *    0.120 f
  core/loopbuffer/glock_out (tta0_loopbuf_1_32_51_1_0)
                                                         0.000      0.120 f
  core/inst_decoder/lock (tta0_decoder)                  0.000      0.120 f
  core/inst_decoder/U5/Z (C8T28SOIDV_LL_CNIVX18_P0)      0.007 *    0.126 r
  core/inst_decoder/U3/Z (C8T28SOIDV_LL_NAND2AX27_P0)    0.007 *    0.133 f
  core/inst_decoder/glock[7] (tta0_decoder)              0.000      0.133 f
  core/fu_lsu_r/glock (fu_ldw_stw_always_4_dataw32_addrw16_1)
                                                         0.000      0.133 f
  core/fu_lsu_r/U4/Z (C8T28SOIDV_LL_CNIVX28_P0)          0.006 *    0.139 r
  core/fu_lsu_r/U3/Z (C8T28SOIDV_LL_NAND2X36_P0)         0.008 *    0.148 f
  core/fu_lsu_r/mem_en_x[0] (fu_ldw_stw_always_4_dataw32_addrw16_1)
                                                         0.000      0.148 f
  U128/Z (C8T28SOIDV_LL_NAND2AX36_P0)                    0.013 *    0.161 r
  U363/Z (C8T28SOIDV_LL_CNBFX55_P0)                      0.018 *    0.179 r
  U142/Z (C8T28SOI_LL_MUXI21X9_P0)                       0.016 *    0.196 r
  datamem/scheduler/lsu_addr_a[0] (par_mem_scheduler_dataw32_addrw14_ports2_rd_delay1)
                                                         0.000      0.196 r
  datamem/scheduler/addr_a_conv/data_in[0] (ser_par_conv_portw14_port_cnt2_1)
                                                         0.000      0.196 r
  datamem/scheduler/addr_a_conv/U10/Z (C8T28SOI_LL_CNBFX8_P0)
                                                         0.016 *    0.212 r
  datamem/scheduler/addr_a_conv/data_out[0] (ser_par_conv_portw14_port_cnt2_1)
                                                         0.000      0.212 r
  datamem/scheduler/U95/Z (C8T28SOIDV_LL_NAND2AX17_P4)
                                                         0.007 *    0.219 f
  datamem/scheduler/U96/Z (C8T28SOIDV_LL_NAND2X18_P0)    0.008 *    0.226 r
  datamem/scheduler/addr[0] (par_mem_scheduler_dataw32_addrw14_ports2_rd_delay1)
                                                         0.000      0.226 r
  datamem/par_mem_logic_inst/addrs_from_lsus[0] (par_mem_logic_PORTS2_LSU_ADDRW14_CTRLW1_DATAW32_PM_FUNC2)
                                                         0.000      0.226 r
  datamem/par_mem_logic_inst/addr_crsbar_0/addrs_from_lsus[0] (addr_crsbar_PORTS2_LSU_ADDRW14_CTRLW1_PM_FUNC2)
                                                         0.000      0.226 r
  datamem/par_mem_logic_inst/addr_crsbar_0/U3/Z (C8T28SOI_LL_NAND3X10_P4)
                                                         0.012 *    0.238 f
  datamem/par_mem_logic_inst/addr_crsbar_0/U43/Z (C8T28SOIDV_LL_NAND2X9_P0)
                                                         0.009 *    0.246 r
  datamem/par_mem_logic_inst/addr_crsbar_0/U57/Z (C8T28SOIDV_LLS_XNOR2X4_P0)
                                                         0.017 *    0.263 r
  datamem/par_mem_logic_inst/addr_crsbar_0/U61/Z (C8T28SOIDV_LLS_XNOR2X4_P0)
                                                         0.020 *    0.283 r
  datamem/par_mem_logic_inst/addr_crsbar_0/U53/Z (C8T28SOI_LL_XOR2X13_P0)
                                                         0.028 *    0.311 f
  datamem/par_mem_logic_inst/addr_crsbar_0/module_nums[0] (addr_crsbar_PORTS2_LSU_ADDRW14_CTRLW1_PM_FUNC2)
                                                         0.000      0.311 f
  datamem/par_mem_logic_inst/ctrl_units_0/module_nums[0] (ctrl_units_PORTS2_CTRLW1)
                                                         0.000      0.311 f
  datamem/par_mem_logic_inst/ctrl_units_0/ctrl_uniti_0/module_num[0] (ctrl_unit_PORTS2_CTRLW1_1)
                                                         0.000      0.311 f
  datamem/par_mem_logic_inst/ctrl_units_0/ctrl_uniti_0/U6/Z (C8T28SOI_LL_CNIVX9_P0)
                                                         0.008 *    0.319 r
  datamem/par_mem_logic_inst/ctrl_units_0/ctrl_uniti_0/U5/Z (C8T28SOI_LL_AOI12X10_P0)
                                                         0.008 *    0.327 f
  datamem/par_mem_logic_inst/ctrl_units_0/ctrl_uniti_0/mem_en_x (ctrl_unit_PORTS2_CTRLW1_1)
                                                         0.000      0.327 f
  datamem/par_mem_logic_inst/ctrl_units_0/U3/Z (C8T28SOI_LL_CNOR2X37_P0)
                                                         0.024 *    0.351 f
  datamem/par_mem_logic_inst/ctrl_units_0/mem_en_xs[0] (ctrl_units_PORTS2_CTRLW1)
                                                         0.000      0.351 f
  datamem/par_mem_logic_inst/mem_en_xs[0] (par_mem_logic_PORTS2_LSU_ADDRW14_CTRLW1_DATAW32_PM_FUNC2)
                                                         0.000      0.351 f
  datamem/dmem_2/en_x (synch_singleport_mem_wrapper_DATAW32_ADDRW13_0)
                                                         0.000      0.351 f
  datamem/dmem_2/en_wr_arbiter/en (block_en_wr_arbiter_ADDRW13_NBLOCKS9_0)
                                                         0.000      0.351 f
  datamem/dmem_2/en_wr_arbiter/U45/Z (C8T28SOI_LL_CNIVX9_P0)
                                                         0.007 *    0.358 r
  datamem/dmem_2/en_wr_arbiter/U46/Z (C8T28SOI_LLBR0P8_NAND2X4_P0)
                                                         0.009 *    0.367 f
  datamem/dmem_2/en_wr_arbiter/en_blocks[4] (block_en_wr_arbiter_ADDRW13_NBLOCKS9_0)
                                                         0.000      0.367 f
  datamem/dmem_2/cacti_mem_x_4/en_x (cacti_mem_wrapper_DATAW32_ADDRW8_0)
                                                         0.000      0.367 f
  datamem/dmem_2/cacti_mem_x_4/mem_256x32/mem_en_x (ram_256x32)
                                                         0.000 *    0.367 f
  data arrival time                                                 0.367

  clock clk (rise edge)                                  0.909      0.909
  clock network delay (ideal)                            0.010      0.919
  clock uncertainty                                     -0.010      0.909
  datamem/dmem_2/cacti_mem_x_4/mem_256x32/clk (ram_256x32)
                                                         0.000      0.909 r
  library setup time                                    -0.505      0.404
  data required time                                                0.404
  --------------------------------------------------------------------------
  data required time                                                0.404
  data arrival time                                                -0.367
  --------------------------------------------------------------------------
  slack (MET)                                                       0.037


  Startpoint: core/loopbuffer/clk_r_REG1987_S18
              (rising edge-triggered flip-flop clocked by clk)
  Endpoint: datamem/dmem_2/cacti_mem_0/mem_32x32
            (rising edge-triggered flip-flop clocked by clk)
  Path Group: clk
  Path Type: max

  Point                                                   Incr       Path
  --------------------------------------------------------------------------
  clock clk (rise edge)                                  0.000      0.000
  clock network delay (ideal)                            0.010      0.010
  core/loopbuffer/clk_r_REG1987_S18/CP (C8T28SOIDV_LL_DFPRQX10_P0)
                                                         0.000      0.010 r
  core/loopbuffer/clk_r_REG1987_S18/Q (C8T28SOIDV_LL_DFPRQX10_P0)
                                                         0.039      0.049 f
  core/loopbuffer/U162/Z (C8T28SOI_LL_NOR2X16_P0)        0.021 *    0.071 r
  core/loopbuffer/U19/Z (C8T28SOI_LL_OAI112X6_P0)        0.016 *    0.087 f
  core/loopbuffer/lock_req_out (tta0_loopbuf_1_32_51_1_0)
                                                         0.000      0.087 f
  core/decomp/lock_r (tta0_decompressor)                 0.000      0.087 f
  core/decomp/U1/Z (C8T28SOI_LL_CNIVX9_P0)               0.010 *    0.096 r
  core/decomp/fetch_en (tta0_decompressor)               0.000      0.096 r
  core/inst_fetch/fetch_en (tta0_ifetch)                 0.000      0.096 r
  core/inst_fetch/U4/Z (C8T28SOIDV_LL_NAND2X9_P0)        0.008 *    0.104 f
  core/inst_fetch/glock (tta0_ifetch)                    0.000      0.104 f
  core/loopbuffer/glock_in (tta0_loopbuf_1_32_51_1_0)    0.000      0.104 f
  core/loopbuffer/U163/Z (C8T28SOIDV_LL_NAND2X9_P0)      0.008 *    0.113 r
  core/loopbuffer/U32/Z (C8T28SOIDV_LL_NAND2X18_P0)      0.007 *    0.120 f
  core/loopbuffer/glock_out (tta0_loopbuf_1_32_51_1_0)
                                                         0.000      0.120 f
  core/inst_decoder/lock (tta0_decoder)                  0.000      0.120 f
  core/inst_decoder/U5/Z (C8T28SOIDV_LL_CNIVX18_P0)      0.007 *    0.126 r
  core/inst_decoder/U3/Z (C8T28SOIDV_LL_NAND2AX27_P0)    0.007 *    0.133 f
  core/inst_decoder/glock[7] (tta0_decoder)              0.000      0.133 f
  core/fu_lsu_r/glock (fu_ldw_stw_always_4_dataw32_addrw16_1)
                                                         0.000      0.133 f
  core/fu_lsu_r/U4/Z (C8T28SOIDV_LL_CNIVX28_P0)          0.006 *    0.139 r
  core/fu_lsu_r/U3/Z (C8T28SOIDV_LL_NAND2X36_P0)         0.008 *    0.148 f
  core/fu_lsu_r/mem_en_x[0] (fu_ldw_stw_always_4_dataw32_addrw16_1)
                                                         0.000      0.148 f
  U128/Z (C8T28SOIDV_LL_NAND2AX36_P0)                    0.013 *    0.161 r
  U363/Z (C8T28SOIDV_LL_CNBFX55_P0)                      0.018 *    0.179 r
  U142/Z (C8T28SOI_LL_MUXI21X9_P0)                       0.016 *    0.196 r
  datamem/scheduler/lsu_addr_a[0] (par_mem_scheduler_dataw32_addrw14_ports2_rd_delay1)
                                                         0.000      0.196 r
  datamem/scheduler/addr_a_conv/data_in[0] (ser_par_conv_portw14_port_cnt2_1)
                                                         0.000      0.196 r
  datamem/scheduler/addr_a_conv/U10/Z (C8T28SOI_LL_CNBFX8_P0)
                                                         0.016 *    0.212 r
  datamem/scheduler/addr_a_conv/data_out[0] (ser_par_conv_portw14_port_cnt2_1)
                                                         0.000      0.212 r
  datamem/scheduler/U95/Z (C8T28SOIDV_LL_NAND2AX17_P4)
                                                         0.007 *    0.219 f
  datamem/scheduler/U96/Z (C8T28SOIDV_LL_NAND2X18_P0)    0.008 *    0.226 r
  datamem/scheduler/addr[0] (par_mem_scheduler_dataw32_addrw14_ports2_rd_delay1)
                                                         0.000      0.226 r
  datamem/par_mem_logic_inst/addrs_from_lsus[0] (par_mem_logic_PORTS2_LSU_ADDRW14_CTRLW1_DATAW32_PM_FUNC2)
                                                         0.000      0.226 r
  datamem/par_mem_logic_inst/addr_crsbar_0/addrs_from_lsus[0] (addr_crsbar_PORTS2_LSU_ADDRW14_CTRLW1_PM_FUNC2)
                                                         0.000      0.226 r
  datamem/par_mem_logic_inst/addr_crsbar_0/U3/Z (C8T28SOI_LL_NAND3X10_P4)
                                                         0.012 *    0.238 f
  datamem/par_mem_logic_inst/addr_crsbar_0/U43/Z (C8T28SOIDV_LL_NAND2X9_P0)
                                                         0.009 *    0.246 r
  datamem/par_mem_logic_inst/addr_crsbar_0/U57/Z (C8T28SOIDV_LLS_XNOR2X4_P0)
                                                         0.017 *    0.263 r
  datamem/par_mem_logic_inst/addr_crsbar_0/U61/Z (C8T28SOIDV_LLS_XNOR2X4_P0)
                                                         0.020 *    0.283 r
  datamem/par_mem_logic_inst/addr_crsbar_0/U53/Z (C8T28SOI_LL_XOR2X13_P0)
                                                         0.028 *    0.311 f
  datamem/par_mem_logic_inst/addr_crsbar_0/module_nums[0] (addr_crsbar_PORTS2_LSU_ADDRW14_CTRLW1_PM_FUNC2)
                                                         0.000      0.311 f
  datamem/par_mem_logic_inst/ctrl_units_0/module_nums[0] (ctrl_units_PORTS2_CTRLW1)
                                                         0.000      0.311 f
  datamem/par_mem_logic_inst/ctrl_units_0/ctrl_uniti_0/module_num[0] (ctrl_unit_PORTS2_CTRLW1_1)
                                                         0.000      0.311 f
  datamem/par_mem_logic_inst/ctrl_units_0/ctrl_uniti_0/U6/Z (C8T28SOI_LL_CNIVX9_P0)
                                                         0.008 *    0.319 r
  datamem/par_mem_logic_inst/ctrl_units_0/ctrl_uniti_0/U5/Z (C8T28SOI_LL_AOI12X10_P0)
                                                         0.008 *    0.327 f
  datamem/par_mem_logic_inst/ctrl_units_0/ctrl_uniti_0/mem_en_x (ctrl_unit_PORTS2_CTRLW1_1)
                                                         0.000      0.327 f
  datamem/par_mem_logic_inst/ctrl_units_0/U3/Z (C8T28SOI_LL_CNOR2X37_P0)
                                                         0.024 *    0.351 f
  datamem/par_mem_logic_inst/ctrl_units_0/mem_en_xs[0] (ctrl_units_PORTS2_CTRLW1)
                                                         0.000      0.351 f
  datamem/par_mem_logic_inst/mem_en_xs[0] (par_mem_logic_PORTS2_LSU_ADDRW14_CTRLW1_DATAW32_PM_FUNC2)
                                                         0.000      0.351 f
  datamem/dmem_2/en_x (synch_singleport_mem_wrapper_DATAW32_ADDRW13_0)
                                                         0.000      0.351 f
  datamem/dmem_2/en_wr_arbiter/en (block_en_wr_arbiter_ADDRW13_NBLOCKS9_0)
                                                         0.000      0.351 f
  datamem/dmem_2/en_wr_arbiter/U15/Z (C8T28SOI_LL_CNIVX4_P0)
                                                         0.009 *    0.360 r
  datamem/dmem_2/en_wr_arbiter/U16/Z (C8T28SOI_LLBR0P8_NAND2X4_P0)
                                                         0.008 *    0.368 f
  datamem/dmem_2/en_wr_arbiter/en_blocks[0] (block_en_wr_arbiter_ADDRW13_NBLOCKS9_0)
                                                         0.000      0.368 f
  datamem/dmem_2/cacti_mem_0/en_x (cacti_mem_wrapper_DATAW32_ADDRW5_1)
                                                         0.000      0.368 f
  datamem/dmem_2/cacti_mem_0/mem_32x32/mem_en_x (ram_32x32)
                                                         0.000 *    0.368 f
  data arrival time                                                 0.368

  clock clk (rise edge)                                  0.909      0.909
  clock network delay (ideal)                            0.010      0.919
  clock uncertainty                                     -0.010      0.909
  datamem/dmem_2/cacti_mem_0/mem_32x32/clk (ram_32x32)
                                                         0.000      0.909 r
  library setup time                                    -0.504      0.405
  data required time                                                0.405
  --------------------------------------------------------------------------
  data required time                                                0.405
  data arrival time                                                -0.368
  --------------------------------------------------------------------------
  slack (MET)                                                       0.037


  Startpoint: core/loopbuffer/clk_r_REG1987_S18
              (rising edge-triggered flip-flop clocked by clk)
  Endpoint: datamem/dmem_1/cacti_mem_x_2/mem_64x32
            (rising edge-triggered flip-flop clocked by clk)
  Path Group: clk
  Path Type: max

  Point                                                   Incr       Path
  --------------------------------------------------------------------------
  clock clk (rise edge)                                  0.000      0.000
  clock network delay (ideal)                            0.010      0.010
  core/loopbuffer/clk_r_REG1987_S18/CP (C8T28SOIDV_LL_DFPRQX10_P0)
                                                         0.000      0.010 r
  core/loopbuffer/clk_r_REG1987_S18/Q (C8T28SOIDV_LL_DFPRQX10_P0)
                                                         0.039      0.049 f
  core/loopbuffer/U162/Z (C8T28SOI_LL_NOR2X16_P0)        0.021 *    0.071 r
  core/loopbuffer/U19/Z (C8T28SOI_LL_OAI112X6_P0)        0.016 *    0.087 f
  core/loopbuffer/lock_req_out (tta0_loopbuf_1_32_51_1_0)
                                                         0.000      0.087 f
  core/decomp/lock_r (tta0_decompressor)                 0.000      0.087 f
  core/decomp/U1/Z (C8T28SOI_LL_CNIVX9_P0)               0.010 *    0.096 r
  core/decomp/fetch_en (tta0_decompressor)               0.000      0.096 r
  core/inst_fetch/fetch_en (tta0_ifetch)                 0.000      0.096 r
  core/inst_fetch/U4/Z (C8T28SOIDV_LL_NAND2X9_P0)        0.008 *    0.104 f
  core/inst_fetch/glock (tta0_ifetch)                    0.000      0.104 f
  core/loopbuffer/glock_in (tta0_loopbuf_1_32_51_1_0)    0.000      0.104 f
  core/loopbuffer/U163/Z (C8T28SOIDV_LL_NAND2X9_P0)      0.008 *    0.113 r
  core/loopbuffer/U32/Z (C8T28SOIDV_LL_NAND2X18_P0)      0.007 *    0.120 f
  core/loopbuffer/glock_out (tta0_loopbuf_1_32_51_1_0)
                                                         0.000      0.120 f
  core/inst_decoder/lock (tta0_decoder)                  0.000      0.120 f
  core/inst_decoder/U5/Z (C8T28SOIDV_LL_CNIVX18_P0)      0.007 *    0.126 r
  core/inst_decoder/U3/Z (C8T28SOIDV_LL_NAND2AX27_P0)    0.007 *    0.133 f
  core/inst_decoder/glock[7] (tta0_decoder)              0.000      0.133 f
  core/fu_lsu_r/glock (fu_ldw_stw_always_4_dataw32_addrw16_1)
                                                         0.000      0.133 f
  core/fu_lsu_r/U4/Z (C8T28SOIDV_LL_CNIVX28_P0)          0.006 *    0.139 r
  core/fu_lsu_r/U3/Z (C8T28SOIDV_LL_NAND2X36_P0)         0.008 *    0.148 f
  core/fu_lsu_r/mem_en_x[0] (fu_ldw_stw_always_4_dataw32_addrw16_1)
                                                         0.000      0.148 f
  U128/Z (C8T28SOIDV_LL_NAND2AX36_P0)                    0.013 *    0.161 r
  U363/Z (C8T28SOIDV_LL_CNBFX55_P0)                      0.018 *    0.179 r
  U132/Z (C8T28SOI_LL_MUXI21X9_P0)                       0.019 *    0.198 r
  datamem/scheduler/lsu_addr_a[3] (par_mem_scheduler_dataw32_addrw14_ports2_rd_delay1)
                                                         0.000      0.198 r
  datamem/scheduler/U19/Z (C8T28SOIDV_LL_NAND2X18_P4)    0.009 *    0.207 f
  datamem/scheduler/U20/Z (C8T28SOIDV_LL_NAND2X9_P0)     0.010 *    0.217 r
  datamem/scheduler/addr[3] (par_mem_scheduler_dataw32_addrw14_ports2_rd_delay1)
                                                         0.000      0.217 r
  datamem/par_mem_logic_inst/addrs_from_lsus[3] (par_mem_logic_PORTS2_LSU_ADDRW14_CTRLW1_DATAW32_PM_FUNC2)
                                                         0.000      0.217 r
  datamem/par_mem_logic_inst/addr_crsbar_0/addrs_from_lsus[3] (addr_crsbar_PORTS2_LSU_ADDRW14_CTRLW1_PM_FUNC2)
                                                         0.000      0.217 r
  datamem/par_mem_logic_inst/addr_crsbar_0/U20/Z (C8T28SOIDV_LLS_XNOR2X4_P0)
                                                         0.019 *    0.235 r
  datamem/par_mem_logic_inst/addr_crsbar_0/U14/Z (C8T28SOI_LL_OAI21X7_P0)
                                                         0.011 *    0.247 f
  datamem/par_mem_logic_inst/addr_crsbar_0/U60/Z (C8T28SOIDV_LLS_XNOR2X4_P0)
                                                         0.016 *    0.262 r
  datamem/par_mem_logic_inst/addr_crsbar_0/U64/Z (C8T28SOI_LL_CNXOR2X15_P0)
                                                         0.028 *    0.291 f
  datamem/par_mem_logic_inst/addr_crsbar_0/U53/Z (C8T28SOI_LL_XOR2X13_P0)
                                                         0.019 *    0.310 r
  datamem/par_mem_logic_inst/addr_crsbar_0/module_nums[0] (addr_crsbar_PORTS2_LSU_ADDRW14_CTRLW1_PM_FUNC2)
                                                         0.000      0.310 r
  datamem/par_mem_logic_inst/ctrl_units_0/module_nums[0] (ctrl_units_PORTS2_CTRLW1)
                                                         0.000      0.310 r
  datamem/par_mem_logic_inst/ctrl_units_0/ctrl_uniti_0/module_num[0] (ctrl_unit_PORTS2_CTRLW1_1)
                                                         0.000      0.310 r
  datamem/par_mem_logic_inst/ctrl_units_0/ctrl_uniti_0/U26/Z (C8T28SOIDV_LL_AND2X11_P0)
                                                         0.017 *    0.326 r
  datamem/par_mem_logic_inst/ctrl_units_0/ctrl_uniti_0/ctrl_matrix_row_out[1] (ctrl_unit_PORTS2_CTRLW1_1)
                                                         0.000      0.326 r
  datamem/par_mem_logic_inst/ctrl_units_0/ctrl_uniti_1/t_ctrl_matrix_row_in[0] (ctrl_unit_PORTS2_CTRLW1_0)
                                                         0.000      0.326 r
  datamem/par_mem_logic_inst/ctrl_units_0/ctrl_uniti_1/U11/Z (C8T28SOI_LL_AOI12X10_P0)
                                                         0.009 *    0.336 f
  datamem/par_mem_logic_inst/ctrl_units_0/ctrl_uniti_1/mem_en_x (ctrl_unit_PORTS2_CTRLW1_0)
                                                         0.000      0.336 f
  datamem/par_mem_logic_inst/ctrl_units_0/U10/Z (C8T28SOIDV_LL_CNIVX18_P0)
                                                         0.008 *    0.344 r
  datamem/par_mem_logic_inst/ctrl_units_0/U9/Z (C8T28SOIDV_LL_NAND2X36_P0)
                                                         0.009 *    0.353 f
  datamem/par_mem_logic_inst/ctrl_units_0/mem_en_xs[1] (ctrl_units_PORTS2_CTRLW1)
                                                         0.000      0.353 f
  datamem/par_mem_logic_inst/mem_en_xs[1] (par_mem_logic_PORTS2_LSU_ADDRW14_CTRLW1_DATAW32_PM_FUNC2)
                                                         0.000      0.353 f
  datamem/dmem_1/en_x (synch_singleport_mem_wrapper_DATAW32_ADDRW13_1)
                                                         0.000      0.353 f
  datamem/dmem_1/en_wr_arbiter/en (block_en_wr_arbiter_ADDRW13_NBLOCKS9_1)
                                                         0.000      0.353 f
  datamem/dmem_1/en_wr_arbiter/U11/Z (C8T28SOIDV_LL_CNIVX18_P0)
                                                         0.009 *    0.362 r
  datamem/dmem_1/en_wr_arbiter/U36/Z (C8T28SOIDV_LL_NAND2AX9_P0)
                                                         0.007 *    0.369 f
  datamem/dmem_1/en_wr_arbiter/en_blocks[2] (block_en_wr_arbiter_ADDRW13_NBLOCKS9_1)
                                                         0.000      0.369 f
  datamem/dmem_1/cacti_mem_x_2/en_x (cacti_mem_wrapper_DATAW32_ADDRW6_1)
                                                         0.000      0.369 f
  datamem/dmem_1/cacti_mem_x_2/mem_64x32/mem_en_x (ram_64x32)
                                                         0.000 *    0.369 f
  data arrival time                                                 0.369

  clock clk (rise edge)                                  0.909      0.909
  clock network delay (ideal)                            0.010      0.919
  clock uncertainty                                     -0.010      0.909
  datamem/dmem_1/cacti_mem_x_2/mem_64x32/clk (ram_64x32)
                                                         0.000      0.909 r
  library setup time                                    -0.503      0.407
  data required time                                                0.407
  --------------------------------------------------------------------------
  data required time                                                0.407
  data arrival time                                                -0.369
  --------------------------------------------------------------------------
  slack (MET)                                                       0.038


1
