Warning: There are 87 switching activity information conflicts. (PWR-19)
 
****************************************
Report : saif
Design : proc
Version: M-2016.12-SP5-1
Date   : Sat Jul 28 10:01:15 2018
****************************************

  

--------------------------------------------------------------------------------
              User              Default           Propagated
Object type   Annotated (%)     Activity (%)      Activity (%)       Total
--------------------------------------------------------------------------------
  
 Nets         283(64.46%)       0(0.00%)          156(35.54%)        439
 Ports        229(100.00%)      0(0.00%)          0(0.00%)           229
 Pins         225(32.10%)       0(0.00%)          476(67.90%)        701
--------------------------------------------------------------------------------
1
