********************************************************************************
                        Threshold Voltage Group Report                         

Vth Group                All                Blackbox           Non-blackbox
Name                    cells                cells                cells
********************************************************************************
undefined           19414 (100.00%)        119 (100.00%)      19295 (100.00%)   
********************************************************************************

Vth Group                All                Blackbox           Non-blackbox
Name                  cell area            cell area            cell area
********************************************************************************
undefined       112223.94 (100.00%)   96350.13 (100.00%)   15873.81 (100.00%)   
********************************************************************************
1
