Warning: There are 89 switching activity information conflicts. (PWR-19)
 
****************************************
Report : saif
Design : proc
Version: M-2016.12-SP5-1
Date   : Sun Jul 29 10:30:36 2018
****************************************

  

--------------------------------------------------------------------------------
              User              Default           Propagated
Object type   Annotated (%)     Activity (%)      Activity (%)       Total
--------------------------------------------------------------------------------
  
 Nets         302(56.98%)       0(0.00%)          228(43.02%)        530
 Ports        229(100.00%)      0(0.00%)          0(0.00%)           229
 Pins         278(33.13%)       0(0.00%)          561(66.87%)        839
--------------------------------------------------------------------------------
1
