Warning: There are 89 switching activity information conflicts. (PWR-19)
 
****************************************
Report : saif
Design : proc
Version: M-2016.12-SP5-1
Date   : Sat Jul 28 08:33:21 2018
****************************************

  

--------------------------------------------------------------------------------
              User              Default           Propagated
Object type   Annotated (%)     Activity (%)      Activity (%)       Total
--------------------------------------------------------------------------------
  
 Nets         287(65.23%)       0(0.00%)          153(34.77%)        440
 Ports        229(100.00%)      0(0.00%)          0(0.00%)           229
 Pins         242(34.72%)       0(0.00%)          455(65.28%)        697
--------------------------------------------------------------------------------
1
