Warning: There are 105 switching activity information conflicts. (PWR-19)
 
****************************************
Report : saif
Design : proc
Version: M-2016.12-SP5-1
Date   : Sat Jul 28 13:01:12 2018
****************************************

  

--------------------------------------------------------------------------------
              User              Default           Propagated
Object type   Annotated (%)     Activity (%)      Activity (%)       Total
--------------------------------------------------------------------------------
  
 Nets         270(59.08%)       0(0.00%)          187(40.92%)        457
 Ports        229(100.00%)      0(0.00%)          0(0.00%)           229
 Pins         241(33.24%)       0(0.00%)          484(66.76%)        725
--------------------------------------------------------------------------------
1
