Information: Updating design information... (UID-85)
 
****************************************
Report : timing
        -path full
        -delay max
        -max_paths 10
Design : proc
Version: M-2016.12-SP5-1
Date   : Sat Jul 28 13:00:29 2018
****************************************

 * Some/all delay information is back-annotated.

Operating Conditions: tt28_0.85V_0.00V_0.00V_0.00V_25C   Library: C28SOI_SC_8_CLK_LL
Wire Load Model Mode: Inactive.

  Startpoint: core/loopbuffer/clk_r_REG512_S18
              (rising edge-triggered flip-flop clocked by clk)
  Endpoint: datamem/dmem_1/cacti_mem_x_2/mem_64x32
            (rising edge-triggered flip-flop clocked by clk)
  Path Group: clk
  Path Type: max

  Point                                                   Incr       Path
  --------------------------------------------------------------------------
  clock clk (rise edge)                                  0.000      0.000
  clock network delay (ideal)                            0.010      0.010
  core/loopbuffer/clk_r_REG512_S18/CP (C8T28SOIDV_LL_DFPRQX10_P0)
                                                         0.000      0.010 r
  core/loopbuffer/clk_r_REG512_S18/Q (C8T28SOIDV_LL_DFPRQX10_P0)
                                                         0.056      0.066 r
  core/loopbuffer/U4/Z (C8T28SOIDV_LL_NOR2AX19_P4)       0.034 *    0.101 r
  core/loopbuffer/U5/Z (C8T28SOI_LL_OAI21X7_P0)          0.021 *    0.121 f
  core/loopbuffer/U45/Z (C8T28SOI_LLBR0P6_NAND3X10_P0)
                                                         0.019 *    0.141 r
  core/loopbuffer/lock_req_out (tta0_loopbuf_1_32_51_1_0)
                                                         0.000      0.141 r
  core/decomp/lock_r (tta0_decompressor)                 0.000      0.141 r
  core/decomp/U1/Z (C8T28SOI_LL_CNIVX9_P0)               0.011 *    0.152 f
  core/decomp/fetch_en (tta0_decompressor)               0.000      0.152 f
  core/inst_fetch/fetch_en (tta0_ifetch)                 0.000      0.152 f
  core/inst_fetch/U57/Z (C8T28SOIDV_LL_NAND2X9_P0)       0.011 *    0.162 r
  core/inst_fetch/glock (tta0_ifetch)                    0.000      0.162 r
  core/loopbuffer/glock_in (tta0_loopbuf_1_32_51_1_0)    0.000      0.162 r
  core/loopbuffer/U161/Z (C8T28SOI_LL_NAND2X8_P0)        0.011 *    0.173 f
  core/loopbuffer/U154/Z (C8T28SOIDV_LL_NAND2X9_P0)      0.016 *    0.189 r
  core/loopbuffer/glock_out (tta0_loopbuf_1_32_51_1_0)
                                                         0.000      0.189 r
  core/inst_decoder/lock (tta0_decoder)                  0.000      0.189 r
  core/inst_decoder/U5/Z (C8T28SOIDV_LL_CNIVX18_P0)      0.011 *    0.200 f
  core/inst_decoder/U3/Z (C8T28SOIDV_LL_NAND2X18_P0)     0.010 *    0.210 r
  core/inst_decoder/glock[7] (tta0_decoder)              0.000      0.210 r
  core/fu_lsu_r/glock (fu_ldw_stw_always_4_dataw32_addrw16_1)
                                                         0.000      0.210 r
  core/fu_lsu_r/U58/Z (C8T28SOIDV_LL_CNIVX18_P0)         0.009 *    0.219 f
  core/fu_lsu_r/U4/Z (C8T28SOIDV_LL_NAND2AX27_P0)        0.011 *    0.229 r
  core/fu_lsu_r/mem_en_x[0] (fu_ldw_stw_always_4_dataw32_addrw16_1)
                                                         0.000      0.229 r
  U154/Z (C8T28SOIDV_LL_NAND2X18_P0)                     0.010 *    0.240 f
  U331/Z (C8T28SOIDV_LL_CNBFX55_P0)                      0.026 *    0.265 f
  U135/Z (C8T28SOI_LL_CNNAND2X8_P4)                      0.015 *    0.280 r
  U136/Z (C8T28SOI_LL_OAI21X7_P4)                        0.012 *    0.292 f
  datamem/scheduler/lsu_addr_a[7] (par_mem_scheduler_dataw32_addrw14_ports2_rd_delay1)
                                                         0.000      0.292 f
  datamem/scheduler/addr_a_conv/data_in[7] (ser_par_conv_portw14_port_cnt2_1)
                                                         0.000      0.292 f
  datamem/scheduler/addr_a_conv/U17/Z (C8T28SOI_LL_CNIVX4_P4)
                                                         0.013 *    0.305 r
  datamem/scheduler/addr_a_conv/U16/Z (C8T28SOI_LL_IVX5_P10)
                                                         0.013 *    0.318 f
  datamem/scheduler/addr_a_conv/data_out[7] (ser_par_conv_portw14_port_cnt2_1)
                                                         0.000      0.318 f
  datamem/scheduler/U32/Z (C8T28SOI_LL_CNNAND2X8_P0)     0.011 *    0.329 r
  datamem/scheduler/U33/Z (C8T28SOIDV_LL_NAND2AX9_P4)    0.014 *    0.343 f
  datamem/scheduler/addr[7] (par_mem_scheduler_dataw32_addrw14_ports2_rd_delay1)
                                                         0.000      0.343 f
  datamem/par_mem_logic_inst/addrs_from_lsus[7] (par_mem_logic_PORTS2_LSU_ADDRW14_CTRLW1_DATAW32_PM_FUNC2)
                                                         0.000      0.343 f
  datamem/par_mem_logic_inst/addr_crsbar_0/addrs_from_lsus[7] (addr_crsbar_PORTS2_LSU_ADDRW14_CTRLW1_PM_FUNC2)
                                                         0.000      0.343 f
  datamem/par_mem_logic_inst/addr_crsbar_0/U65/Z (C8T28SOIDV_LL_NAND2X9_P0)
                                                         0.014 *    0.357 r
  datamem/par_mem_logic_inst/addr_crsbar_0/U66/Z (C8T28SOI_LL_NAND2X12_P16)
                                                         0.015 *    0.372 f
  datamem/par_mem_logic_inst/addr_crsbar_0/U67/Z (C8T28SOI_LL_CNXOR2X9_P0)
                                                         0.041 *    0.413 r
  datamem/par_mem_logic_inst/addr_crsbar_0/U49/Z (C8T28SOIDV_LLS_XNOR2X4_P0)
                                                         0.026 *    0.439 r
  datamem/par_mem_logic_inst/addr_crsbar_0/U69/Z (C8T28SOIDV_LLS_XOR2X4_P0)
                                                         0.032 *    0.471 r
  datamem/par_mem_logic_inst/addr_crsbar_0/U5/Z (C8T28SOI_LL_XOR2X9_P0)
                                                         0.045 *    0.516 r
  datamem/par_mem_logic_inst/addr_crsbar_0/module_nums[0] (addr_crsbar_PORTS2_LSU_ADDRW14_CTRLW1_PM_FUNC2)
                                                         0.000      0.516 r
  datamem/par_mem_logic_inst/ctrl_units_0/module_nums[0] (ctrl_units_PORTS2_CTRLW1)
                                                         0.000      0.516 r
  datamem/par_mem_logic_inst/ctrl_units_0/ctrl_uniti_0/module_num[0] (ctrl_unit_PORTS2_CTRLW1_1)
                                                         0.000      0.516 r
  datamem/par_mem_logic_inst/ctrl_units_0/ctrl_uniti_0/U13/Z (C8T28SOI_LL_CNNAND2X8_P0)
                                                         0.014 *    0.530 f
  datamem/par_mem_logic_inst/ctrl_units_0/ctrl_uniti_0/U10/Z (C8T28SOI_LL_CNIVX9_P0)
                                                         0.010 *    0.540 r
  datamem/par_mem_logic_inst/ctrl_units_0/ctrl_uniti_0/ctrl_matrix_row_out[1] (ctrl_unit_PORTS2_CTRLW1_1)
                                                         0.000      0.540 r
  datamem/par_mem_logic_inst/ctrl_units_0/ctrl_uniti_1/t_ctrl_matrix_row_in[0] (ctrl_unit_PORTS2_CTRLW1_0)
                                                         0.000      0.540 r
  datamem/par_mem_logic_inst/ctrl_units_0/ctrl_uniti_1/U5/Z (C8T28SOIDV_LL_NAND2X9_P0)
                                                         0.010 *    0.550 f
  datamem/par_mem_logic_inst/ctrl_units_0/ctrl_uniti_1/U11/Z (C8T28SOI_LL_CNIVX9_P0)
                                                         0.009 *    0.559 r
  datamem/par_mem_logic_inst/ctrl_units_0/ctrl_uniti_1/U14/Z (C8T28SOIDV_LL_NOR2AX10_P0)
                                                         0.009 *    0.568 f
  datamem/par_mem_logic_inst/ctrl_units_0/ctrl_uniti_1/mem_en_x (ctrl_unit_PORTS2_CTRLW1_0)
                                                         0.000      0.568 f
  datamem/par_mem_logic_inst/ctrl_units_0/U10/Z (C8T28SOIDV_LL_CNIVX28_P0)
                                                         0.010 *    0.578 r
  datamem/par_mem_logic_inst/ctrl_units_0/U8/Z (C8T28SOIDV_LL_NAND2AX36_P0)
                                                         0.011 *    0.590 f
  datamem/par_mem_logic_inst/ctrl_units_0/mem_en_xs[1] (ctrl_units_PORTS2_CTRLW1)
                                                         0.000      0.590 f
  datamem/par_mem_logic_inst/mem_en_xs[1] (par_mem_logic_PORTS2_LSU_ADDRW14_CTRLW1_DATAW32_PM_FUNC2)
                                                         0.000      0.590 f
  datamem/dmem_1/en_x (synch_singleport_mem_wrapper_DATAW32_ADDRW13_1)
                                                         0.000      0.590 f
  datamem/dmem_1/en_wr_arbiter/en (block_en_wr_arbiter_ADDRW13_NBLOCKS9_1)
                                                         0.000      0.590 f
  datamem/dmem_1/en_wr_arbiter/U11/Z (C8T28SOIDV_LL_CNIVX37_P0)
                                                         0.011 *    0.600 r
  datamem/dmem_1/en_wr_arbiter/U37/Z (C8T28SOIDV_LL_NAND2X9_P0)
                                                         0.012 *    0.612 f
  datamem/dmem_1/en_wr_arbiter/en_blocks[2] (block_en_wr_arbiter_ADDRW13_NBLOCKS9_1)
                                                         0.000      0.612 f
  datamem/dmem_1/cacti_mem_x_2/en_x (cacti_mem_wrapper_DATAW32_ADDRW6_1)
                                                         0.000      0.612 f
  datamem/dmem_1/cacti_mem_x_2/mem_64x32/mem_en_x (ram_64x32)
                                                         0.000 *    0.612 f
  data arrival time                                                 0.612

  clock clk (rise edge)                                  1.176      1.176
  clock network delay (ideal)                            0.010      1.186
  clock uncertainty                                     -0.010      1.176
  datamem/dmem_1/cacti_mem_x_2/mem_64x32/clk (ram_64x32)
                                                         0.000      1.176 r
  library setup time                                    -0.506      0.670
  data required time                                                0.670
  --------------------------------------------------------------------------
  data required time                                                0.670
  data arrival time                                                -0.612
  --------------------------------------------------------------------------
  slack (MET)                                                       0.058


  Startpoint: core/loopbuffer/clk_r_REG512_S18
              (rising edge-triggered flip-flop clocked by clk)
  Endpoint: datamem/dmem_1/cacti_mem_x_7/mem_2048x32
            (rising edge-triggered flip-flop clocked by clk)
  Path Group: clk
  Path Type: max

  Point                                                   Incr       Path
  --------------------------------------------------------------------------
  clock clk (rise edge)                                  0.000      0.000
  clock network delay (ideal)                            0.010      0.010
  core/loopbuffer/clk_r_REG512_S18/CP (C8T28SOIDV_LL_DFPRQX10_P0)
                                                         0.000      0.010 r
  core/loopbuffer/clk_r_REG512_S18/Q (C8T28SOIDV_LL_DFPRQX10_P0)
                                                         0.056      0.066 r
  core/loopbuffer/U4/Z (C8T28SOIDV_LL_NOR2AX19_P4)       0.034 *    0.101 r
  core/loopbuffer/U5/Z (C8T28SOI_LL_OAI21X7_P0)          0.021 *    0.121 f
  core/loopbuffer/U45/Z (C8T28SOI_LLBR0P6_NAND3X10_P0)
                                                         0.019 *    0.141 r
  core/loopbuffer/lock_req_out (tta0_loopbuf_1_32_51_1_0)
                                                         0.000      0.141 r
  core/decomp/lock_r (tta0_decompressor)                 0.000      0.141 r
  core/decomp/U1/Z (C8T28SOI_LL_CNIVX9_P0)               0.011 *    0.152 f
  core/decomp/fetch_en (tta0_decompressor)               0.000      0.152 f
  core/inst_fetch/fetch_en (tta0_ifetch)                 0.000      0.152 f
  core/inst_fetch/U57/Z (C8T28SOIDV_LL_NAND2X9_P0)       0.011 *    0.162 r
  core/inst_fetch/glock (tta0_ifetch)                    0.000      0.162 r
  core/loopbuffer/glock_in (tta0_loopbuf_1_32_51_1_0)    0.000      0.162 r
  core/loopbuffer/U161/Z (C8T28SOI_LL_NAND2X8_P0)        0.011 *    0.173 f
  core/loopbuffer/U154/Z (C8T28SOIDV_LL_NAND2X9_P0)      0.016 *    0.189 r
  core/loopbuffer/glock_out (tta0_loopbuf_1_32_51_1_0)
                                                         0.000      0.189 r
  core/inst_decoder/lock (tta0_decoder)                  0.000      0.189 r
  core/inst_decoder/U5/Z (C8T28SOIDV_LL_CNIVX18_P0)      0.011 *    0.200 f
  core/inst_decoder/U3/Z (C8T28SOIDV_LL_NAND2X18_P0)     0.010 *    0.210 r
  core/inst_decoder/glock[7] (tta0_decoder)              0.000      0.210 r
  core/fu_lsu_r/glock (fu_ldw_stw_always_4_dataw32_addrw16_1)
                                                         0.000      0.210 r
  core/fu_lsu_r/U58/Z (C8T28SOIDV_LL_CNIVX18_P0)         0.009 *    0.219 f
  core/fu_lsu_r/U4/Z (C8T28SOIDV_LL_NAND2AX27_P0)        0.011 *    0.229 r
  core/fu_lsu_r/mem_en_x[0] (fu_ldw_stw_always_4_dataw32_addrw16_1)
                                                         0.000      0.229 r
  U154/Z (C8T28SOIDV_LL_NAND2X18_P0)                     0.010 *    0.240 f
  U331/Z (C8T28SOIDV_LL_CNBFX55_P0)                      0.026 *    0.265 f
  U135/Z (C8T28SOI_LL_CNNAND2X8_P4)                      0.015 *    0.280 r
  U136/Z (C8T28SOI_LL_OAI21X7_P4)                        0.012 *    0.292 f
  datamem/scheduler/lsu_addr_a[7] (par_mem_scheduler_dataw32_addrw14_ports2_rd_delay1)
                                                         0.000      0.292 f
  datamem/scheduler/addr_a_conv/data_in[7] (ser_par_conv_portw14_port_cnt2_1)
                                                         0.000      0.292 f
  datamem/scheduler/addr_a_conv/U17/Z (C8T28SOI_LL_CNIVX4_P4)
                                                         0.013 *    0.305 r
  datamem/scheduler/addr_a_conv/U16/Z (C8T28SOI_LL_IVX5_P10)
                                                         0.013 *    0.318 f
  datamem/scheduler/addr_a_conv/data_out[7] (ser_par_conv_portw14_port_cnt2_1)
                                                         0.000      0.318 f
  datamem/scheduler/U32/Z (C8T28SOI_LL_CNNAND2X8_P0)     0.011 *    0.329 r
  datamem/scheduler/U33/Z (C8T28SOIDV_LL_NAND2AX9_P4)    0.014 *    0.343 f
  datamem/scheduler/addr[7] (par_mem_scheduler_dataw32_addrw14_ports2_rd_delay1)
                                                         0.000      0.343 f
  datamem/par_mem_logic_inst/addrs_from_lsus[7] (par_mem_logic_PORTS2_LSU_ADDRW14_CTRLW1_DATAW32_PM_FUNC2)
                                                         0.000      0.343 f
  datamem/par_mem_logic_inst/addr_crsbar_0/addrs_from_lsus[7] (addr_crsbar_PORTS2_LSU_ADDRW14_CTRLW1_PM_FUNC2)
                                                         0.000      0.343 f
  datamem/par_mem_logic_inst/addr_crsbar_0/U65/Z (C8T28SOIDV_LL_NAND2X9_P0)
                                                         0.014 *    0.357 r
  datamem/par_mem_logic_inst/addr_crsbar_0/U66/Z (C8T28SOI_LL_NAND2X12_P16)
                                                         0.015 *    0.372 f
  datamem/par_mem_logic_inst/addr_crsbar_0/U67/Z (C8T28SOI_LL_CNXOR2X9_P0)
                                                         0.041 *    0.413 r
  datamem/par_mem_logic_inst/addr_crsbar_0/U49/Z (C8T28SOIDV_LLS_XNOR2X4_P0)
                                                         0.026 *    0.439 r
  datamem/par_mem_logic_inst/addr_crsbar_0/U69/Z (C8T28SOIDV_LLS_XOR2X4_P0)
                                                         0.032 *    0.471 r
  datamem/par_mem_logic_inst/addr_crsbar_0/U5/Z (C8T28SOI_LL_XOR2X9_P0)
                                                         0.045 *    0.516 r
  datamem/par_mem_logic_inst/addr_crsbar_0/module_nums[0] (addr_crsbar_PORTS2_LSU_ADDRW14_CTRLW1_PM_FUNC2)
                                                         0.000      0.516 r
  datamem/par_mem_logic_inst/ctrl_units_0/module_nums[0] (ctrl_units_PORTS2_CTRLW1)
                                                         0.000      0.516 r
  datamem/par_mem_logic_inst/ctrl_units_0/ctrl_uniti_0/module_num[0] (ctrl_unit_PORTS2_CTRLW1_1)
                                                         0.000      0.516 r
  datamem/par_mem_logic_inst/ctrl_units_0/ctrl_uniti_0/U13/Z (C8T28SOI_LL_CNNAND2X8_P0)
                                                         0.014 *    0.530 f
  datamem/par_mem_logic_inst/ctrl_units_0/ctrl_uniti_0/U10/Z (C8T28SOI_LL_CNIVX9_P0)
                                                         0.010 *    0.540 r
  datamem/par_mem_logic_inst/ctrl_units_0/ctrl_uniti_0/ctrl_matrix_row_out[1] (ctrl_unit_PORTS2_CTRLW1_1)
                                                         0.000      0.540 r
  datamem/par_mem_logic_inst/ctrl_units_0/ctrl_uniti_1/t_ctrl_matrix_row_in[0] (ctrl_unit_PORTS2_CTRLW1_0)
                                                         0.000      0.540 r
  datamem/par_mem_logic_inst/ctrl_units_0/ctrl_uniti_1/U5/Z (C8T28SOIDV_LL_NAND2X9_P0)
                                                         0.010 *    0.550 f
  datamem/par_mem_logic_inst/ctrl_units_0/ctrl_uniti_1/U11/Z (C8T28SOI_LL_CNIVX9_P0)
                                                         0.009 *    0.559 r
  datamem/par_mem_logic_inst/ctrl_units_0/ctrl_uniti_1/U14/Z (C8T28SOIDV_LL_NOR2AX10_P0)
                                                         0.009 *    0.568 f
  datamem/par_mem_logic_inst/ctrl_units_0/ctrl_uniti_1/mem_en_x (ctrl_unit_PORTS2_CTRLW1_0)
                                                         0.000      0.568 f
  datamem/par_mem_logic_inst/ctrl_units_0/U10/Z (C8T28SOIDV_LL_CNIVX28_P0)
                                                         0.010 *    0.578 r
  datamem/par_mem_logic_inst/ctrl_units_0/U8/Z (C8T28SOIDV_LL_NAND2AX36_P0)
                                                         0.011 *    0.590 f
  datamem/par_mem_logic_inst/ctrl_units_0/mem_en_xs[1] (ctrl_units_PORTS2_CTRLW1)
                                                         0.000      0.590 f
  datamem/par_mem_logic_inst/mem_en_xs[1] (par_mem_logic_PORTS2_LSU_ADDRW14_CTRLW1_DATAW32_PM_FUNC2)
                                                         0.000      0.590 f
  datamem/dmem_1/en_x (synch_singleport_mem_wrapper_DATAW32_ADDRW13_1)
                                                         0.000      0.590 f
  datamem/dmem_1/en_wr_arbiter/en (block_en_wr_arbiter_ADDRW13_NBLOCKS9_1)
                                                         0.000      0.590 f
  datamem/dmem_1/en_wr_arbiter/U19/Z (C8T28SOIDV_LL_CNIVX37_P0)
                                                         0.011 *    0.601 r
  datamem/dmem_1/en_wr_arbiter/U25/Z (C8T28SOI_LL_CNNAND2X8_P0)
                                                         0.010 *    0.611 f
  datamem/dmem_1/en_wr_arbiter/en_blocks[7] (block_en_wr_arbiter_ADDRW13_NBLOCKS9_1)
                                                         0.000      0.611 f
  datamem/dmem_1/cacti_mem_x_7/en_x (cacti_mem_wrapper_DATAW32_ADDRW11_1)
                                                         0.000      0.611 f
  datamem/dmem_1/cacti_mem_x_7/mem_2048x32/mem_en_x (ram_2048x32)
                                                         0.000 *    0.611 f
  data arrival time                                                 0.611

  clock clk (rise edge)                                  1.176      1.176
  clock network delay (ideal)                            0.010      1.186
  clock uncertainty                                     -0.010      1.176
  datamem/dmem_1/cacti_mem_x_7/mem_2048x32/clk (ram_2048x32)
                                                         0.000      1.176 r
  library setup time                                    -0.506      0.670
  data required time                                                0.670
  --------------------------------------------------------------------------
  data required time                                                0.670
  data arrival time                                                -0.611
  --------------------------------------------------------------------------
  slack (MET)                                                       0.059


  Startpoint: core/loopbuffer/clk_r_REG512_S18
              (rising edge-triggered flip-flop clocked by clk)
  Endpoint: datamem/dmem_1/cacti_mem_x_1/mem_32x32
            (rising edge-triggered flip-flop clocked by clk)
  Path Group: clk
  Path Type: max

  Point                                                   Incr       Path
  --------------------------------------------------------------------------
  clock clk (rise edge)                                  0.000      0.000
  clock network delay (ideal)                            0.010      0.010
  core/loopbuffer/clk_r_REG512_S18/CP (C8T28SOIDV_LL_DFPRQX10_P0)
                                                         0.000      0.010 r
  core/loopbuffer/clk_r_REG512_S18/Q (C8T28SOIDV_LL_DFPRQX10_P0)
                                                         0.056      0.066 r
  core/loopbuffer/U4/Z (C8T28SOIDV_LL_NOR2AX19_P4)       0.034 *    0.101 r
  core/loopbuffer/U5/Z (C8T28SOI_LL_OAI21X7_P0)          0.021 *    0.121 f
  core/loopbuffer/U45/Z (C8T28SOI_LLBR0P6_NAND3X10_P0)
                                                         0.019 *    0.141 r
  core/loopbuffer/lock_req_out (tta0_loopbuf_1_32_51_1_0)
                                                         0.000      0.141 r
  core/decomp/lock_r (tta0_decompressor)                 0.000      0.141 r
  core/decomp/U1/Z (C8T28SOI_LL_CNIVX9_P0)               0.011 *    0.152 f
  core/decomp/fetch_en (tta0_decompressor)               0.000      0.152 f
  core/inst_fetch/fetch_en (tta0_ifetch)                 0.000      0.152 f
  core/inst_fetch/U57/Z (C8T28SOIDV_LL_NAND2X9_P0)       0.011 *    0.162 r
  core/inst_fetch/glock (tta0_ifetch)                    0.000      0.162 r
  core/loopbuffer/glock_in (tta0_loopbuf_1_32_51_1_0)    0.000      0.162 r
  core/loopbuffer/U161/Z (C8T28SOI_LL_NAND2X8_P0)        0.011 *    0.173 f
  core/loopbuffer/U154/Z (C8T28SOIDV_LL_NAND2X9_P0)      0.016 *    0.189 r
  core/loopbuffer/glock_out (tta0_loopbuf_1_32_51_1_0)
                                                         0.000      0.189 r
  core/inst_decoder/lock (tta0_decoder)                  0.000      0.189 r
  core/inst_decoder/U5/Z (C8T28SOIDV_LL_CNIVX18_P0)      0.011 *    0.200 f
  core/inst_decoder/U3/Z (C8T28SOIDV_LL_NAND2X18_P0)     0.010 *    0.210 r
  core/inst_decoder/glock[7] (tta0_decoder)              0.000      0.210 r
  core/fu_lsu_r/glock (fu_ldw_stw_always_4_dataw32_addrw16_1)
                                                         0.000      0.210 r
  core/fu_lsu_r/U58/Z (C8T28SOIDV_LL_CNIVX18_P0)         0.009 *    0.219 f
  core/fu_lsu_r/U4/Z (C8T28SOIDV_LL_NAND2AX27_P0)        0.011 *    0.229 r
  core/fu_lsu_r/mem_en_x[0] (fu_ldw_stw_always_4_dataw32_addrw16_1)
                                                         0.000      0.229 r
  U154/Z (C8T28SOIDV_LL_NAND2X18_P0)                     0.010 *    0.240 f
  U331/Z (C8T28SOIDV_LL_CNBFX55_P0)                      0.026 *    0.265 f
  U135/Z (C8T28SOI_LL_CNNAND2X8_P4)                      0.015 *    0.280 r
  U136/Z (C8T28SOI_LL_OAI21X7_P4)                        0.012 *    0.292 f
  datamem/scheduler/lsu_addr_a[7] (par_mem_scheduler_dataw32_addrw14_ports2_rd_delay1)
                                                         0.000      0.292 f
  datamem/scheduler/addr_a_conv/data_in[7] (ser_par_conv_portw14_port_cnt2_1)
                                                         0.000      0.292 f
  datamem/scheduler/addr_a_conv/U17/Z (C8T28SOI_LL_CNIVX4_P4)
                                                         0.013 *    0.305 r
  datamem/scheduler/addr_a_conv/U16/Z (C8T28SOI_LL_IVX5_P10)
                                                         0.013 *    0.318 f
  datamem/scheduler/addr_a_conv/data_out[7] (ser_par_conv_portw14_port_cnt2_1)
                                                         0.000      0.318 f
  datamem/scheduler/U32/Z (C8T28SOI_LL_CNNAND2X8_P0)     0.011 *    0.329 r
  datamem/scheduler/U33/Z (C8T28SOIDV_LL_NAND2AX9_P4)    0.014 *    0.343 f
  datamem/scheduler/addr[7] (par_mem_scheduler_dataw32_addrw14_ports2_rd_delay1)
                                                         0.000      0.343 f
  datamem/par_mem_logic_inst/addrs_from_lsus[7] (par_mem_logic_PORTS2_LSU_ADDRW14_CTRLW1_DATAW32_PM_FUNC2)
                                                         0.000      0.343 f
  datamem/par_mem_logic_inst/addr_crsbar_0/addrs_from_lsus[7] (addr_crsbar_PORTS2_LSU_ADDRW14_CTRLW1_PM_FUNC2)
                                                         0.000      0.343 f
  datamem/par_mem_logic_inst/addr_crsbar_0/U65/Z (C8T28SOIDV_LL_NAND2X9_P0)
                                                         0.014 *    0.357 r
  datamem/par_mem_logic_inst/addr_crsbar_0/U66/Z (C8T28SOI_LL_NAND2X12_P16)
                                                         0.015 *    0.372 f
  datamem/par_mem_logic_inst/addr_crsbar_0/U67/Z (C8T28SOI_LL_CNXOR2X9_P0)
                                                         0.041 *    0.413 r
  datamem/par_mem_logic_inst/addr_crsbar_0/U49/Z (C8T28SOIDV_LLS_XNOR2X4_P0)
                                                         0.026 *    0.439 r
  datamem/par_mem_logic_inst/addr_crsbar_0/U69/Z (C8T28SOIDV_LLS_XOR2X4_P0)
                                                         0.032 *    0.471 r
  datamem/par_mem_logic_inst/addr_crsbar_0/U5/Z (C8T28SOI_LL_XOR2X9_P0)
                                                         0.045 *    0.516 r
  datamem/par_mem_logic_inst/addr_crsbar_0/module_nums[0] (addr_crsbar_PORTS2_LSU_ADDRW14_CTRLW1_PM_FUNC2)
                                                         0.000      0.516 r
  datamem/par_mem_logic_inst/ctrl_units_0/module_nums[0] (ctrl_units_PORTS2_CTRLW1)
                                                         0.000      0.516 r
  datamem/par_mem_logic_inst/ctrl_units_0/ctrl_uniti_0/module_num[0] (ctrl_unit_PORTS2_CTRLW1_1)
                                                         0.000      0.516 r
  datamem/par_mem_logic_inst/ctrl_units_0/ctrl_uniti_0/U13/Z (C8T28SOI_LL_CNNAND2X8_P0)
                                                         0.014 *    0.530 f
  datamem/par_mem_logic_inst/ctrl_units_0/ctrl_uniti_0/U10/Z (C8T28SOI_LL_CNIVX9_P0)
                                                         0.010 *    0.540 r
  datamem/par_mem_logic_inst/ctrl_units_0/ctrl_uniti_0/ctrl_matrix_row_out[1] (ctrl_unit_PORTS2_CTRLW1_1)
                                                         0.000      0.540 r
  datamem/par_mem_logic_inst/ctrl_units_0/ctrl_uniti_1/t_ctrl_matrix_row_in[0] (ctrl_unit_PORTS2_CTRLW1_0)
                                                         0.000      0.540 r
  datamem/par_mem_logic_inst/ctrl_units_0/ctrl_uniti_1/U5/Z (C8T28SOIDV_LL_NAND2X9_P0)
                                                         0.010 *    0.550 f
  datamem/par_mem_logic_inst/ctrl_units_0/ctrl_uniti_1/U11/Z (C8T28SOI_LL_CNIVX9_P0)
                                                         0.009 *    0.559 r
  datamem/par_mem_logic_inst/ctrl_units_0/ctrl_uniti_1/U14/Z (C8T28SOIDV_LL_NOR2AX10_P0)
                                                         0.009 *    0.568 f
  datamem/par_mem_logic_inst/ctrl_units_0/ctrl_uniti_1/mem_en_x (ctrl_unit_PORTS2_CTRLW1_0)
                                                         0.000      0.568 f
  datamem/par_mem_logic_inst/ctrl_units_0/U10/Z (C8T28SOIDV_LL_CNIVX28_P0)
                                                         0.010 *    0.578 r
  datamem/par_mem_logic_inst/ctrl_units_0/U8/Z (C8T28SOIDV_LL_NAND2AX36_P0)
                                                         0.011 *    0.590 f
  datamem/par_mem_logic_inst/ctrl_units_0/mem_en_xs[1] (ctrl_units_PORTS2_CTRLW1)
                                                         0.000      0.590 f
  datamem/par_mem_logic_inst/mem_en_xs[1] (par_mem_logic_PORTS2_LSU_ADDRW14_CTRLW1_DATAW32_PM_FUNC2)
                                                         0.000      0.590 f
  datamem/dmem_1/en_x (synch_singleport_mem_wrapper_DATAW32_ADDRW13_1)
                                                         0.000      0.590 f
  datamem/dmem_1/en_wr_arbiter/en (block_en_wr_arbiter_ADDRW13_NBLOCKS9_1)
                                                         0.000      0.590 f
  datamem/dmem_1/en_wr_arbiter/U52/Z (C8T28SOI_LL_CNIVX9_P0)
                                                         0.011 *    0.600 r
  datamem/dmem_1/en_wr_arbiter/U20/Z (C8T28SOIDV_LL_NAND2X9_P0)
                                                         0.011 *    0.611 f
  datamem/dmem_1/en_wr_arbiter/en_blocks[1] (block_en_wr_arbiter_ADDRW13_NBLOCKS9_1)
                                                         0.000      0.611 f
  datamem/dmem_1/cacti_mem_x_1/en_x (cacti_mem_wrapper_DATAW32_ADDRW5_2)
                                                         0.000      0.611 f
  datamem/dmem_1/cacti_mem_x_1/mem_32x32/mem_en_x (ram_32x32)
                                                         0.000 *    0.611 f
  data arrival time                                                 0.611

  clock clk (rise edge)                                  1.176      1.176
  clock network delay (ideal)                            0.010      1.186
  clock uncertainty                                     -0.010      1.176
  datamem/dmem_1/cacti_mem_x_1/mem_32x32/clk (ram_32x32)
                                                         0.000      1.176 r
  library setup time                                    -0.506      0.670
  data required time                                                0.670
  --------------------------------------------------------------------------
  data required time                                                0.670
  data arrival time                                                -0.611
  --------------------------------------------------------------------------
  slack (MET)                                                       0.059


  Startpoint: core/loopbuffer/clk_r_REG512_S18
              (rising edge-triggered flip-flop clocked by clk)
  Endpoint: datamem/dmem_1/cacti_mem_x_8/mem_4096x32
            (rising edge-triggered flip-flop clocked by clk)
  Path Group: clk
  Path Type: max

  Point                                                   Incr       Path
  --------------------------------------------------------------------------
  clock clk (rise edge)                                  0.000      0.000
  clock network delay (ideal)                            0.010      0.010
  core/loopbuffer/clk_r_REG512_S18/CP (C8T28SOIDV_LL_DFPRQX10_P0)
                                                         0.000      0.010 r
  core/loopbuffer/clk_r_REG512_S18/Q (C8T28SOIDV_LL_DFPRQX10_P0)
                                                         0.056      0.066 r
  core/loopbuffer/U4/Z (C8T28SOIDV_LL_NOR2AX19_P4)       0.034 *    0.101 r
  core/loopbuffer/U5/Z (C8T28SOI_LL_OAI21X7_P0)          0.021 *    0.121 f
  core/loopbuffer/U45/Z (C8T28SOI_LLBR0P6_NAND3X10_P0)
                                                         0.019 *    0.141 r
  core/loopbuffer/lock_req_out (tta0_loopbuf_1_32_51_1_0)
                                                         0.000      0.141 r
  core/decomp/lock_r (tta0_decompressor)                 0.000      0.141 r
  core/decomp/U1/Z (C8T28SOI_LL_CNIVX9_P0)               0.011 *    0.152 f
  core/decomp/fetch_en (tta0_decompressor)               0.000      0.152 f
  core/inst_fetch/fetch_en (tta0_ifetch)                 0.000      0.152 f
  core/inst_fetch/U57/Z (C8T28SOIDV_LL_NAND2X9_P0)       0.011 *    0.162 r
  core/inst_fetch/glock (tta0_ifetch)                    0.000      0.162 r
  core/loopbuffer/glock_in (tta0_loopbuf_1_32_51_1_0)    0.000      0.162 r
  core/loopbuffer/U161/Z (C8T28SOI_LL_NAND2X8_P0)        0.011 *    0.173 f
  core/loopbuffer/U154/Z (C8T28SOIDV_LL_NAND2X9_P0)      0.016 *    0.189 r
  core/loopbuffer/glock_out (tta0_loopbuf_1_32_51_1_0)
                                                         0.000      0.189 r
  core/inst_decoder/lock (tta0_decoder)                  0.000      0.189 r
  core/inst_decoder/U5/Z (C8T28SOIDV_LL_CNIVX18_P0)      0.011 *    0.200 f
  core/inst_decoder/U3/Z (C8T28SOIDV_LL_NAND2X18_P0)     0.010 *    0.210 r
  core/inst_decoder/glock[7] (tta0_decoder)              0.000      0.210 r
  core/fu_lsu_r/glock (fu_ldw_stw_always_4_dataw32_addrw16_1)
                                                         0.000      0.210 r
  core/fu_lsu_r/U58/Z (C8T28SOIDV_LL_CNIVX18_P0)         0.009 *    0.219 f
  core/fu_lsu_r/U4/Z (C8T28SOIDV_LL_NAND2AX27_P0)        0.011 *    0.229 r
  core/fu_lsu_r/mem_en_x[0] (fu_ldw_stw_always_4_dataw32_addrw16_1)
                                                         0.000      0.229 r
  U154/Z (C8T28SOIDV_LL_NAND2X18_P0)                     0.010 *    0.240 f
  U331/Z (C8T28SOIDV_LL_CNBFX55_P0)                      0.026 *    0.265 f
  U135/Z (C8T28SOI_LL_CNNAND2X8_P4)                      0.015 *    0.280 r
  U136/Z (C8T28SOI_LL_OAI21X7_P4)                        0.012 *    0.292 f
  datamem/scheduler/lsu_addr_a[7] (par_mem_scheduler_dataw32_addrw14_ports2_rd_delay1)
                                                         0.000      0.292 f
  datamem/scheduler/addr_a_conv/data_in[7] (ser_par_conv_portw14_port_cnt2_1)
                                                         0.000      0.292 f
  datamem/scheduler/addr_a_conv/U17/Z (C8T28SOI_LL_CNIVX4_P4)
                                                         0.013 *    0.305 r
  datamem/scheduler/addr_a_conv/U16/Z (C8T28SOI_LL_IVX5_P10)
                                                         0.013 *    0.318 f
  datamem/scheduler/addr_a_conv/data_out[7] (ser_par_conv_portw14_port_cnt2_1)
                                                         0.000      0.318 f
  datamem/scheduler/U32/Z (C8T28SOI_LL_CNNAND2X8_P0)     0.011 *    0.329 r
  datamem/scheduler/U33/Z (C8T28SOIDV_LL_NAND2AX9_P4)    0.014 *    0.343 f
  datamem/scheduler/addr[7] (par_mem_scheduler_dataw32_addrw14_ports2_rd_delay1)
                                                         0.000      0.343 f
  datamem/par_mem_logic_inst/addrs_from_lsus[7] (par_mem_logic_PORTS2_LSU_ADDRW14_CTRLW1_DATAW32_PM_FUNC2)
                                                         0.000      0.343 f
  datamem/par_mem_logic_inst/addr_crsbar_0/addrs_from_lsus[7] (addr_crsbar_PORTS2_LSU_ADDRW14_CTRLW1_PM_FUNC2)
                                                         0.000      0.343 f
  datamem/par_mem_logic_inst/addr_crsbar_0/U65/Z (C8T28SOIDV_LL_NAND2X9_P0)
                                                         0.014 *    0.357 r
  datamem/par_mem_logic_inst/addr_crsbar_0/U66/Z (C8T28SOI_LL_NAND2X12_P16)
                                                         0.015 *    0.372 f
  datamem/par_mem_logic_inst/addr_crsbar_0/U67/Z (C8T28SOI_LL_CNXOR2X9_P0)
                                                         0.041 *    0.413 r
  datamem/par_mem_logic_inst/addr_crsbar_0/U49/Z (C8T28SOIDV_LLS_XNOR2X4_P0)
                                                         0.026 *    0.439 r
  datamem/par_mem_logic_inst/addr_crsbar_0/U69/Z (C8T28SOIDV_LLS_XOR2X4_P0)
                                                         0.032 *    0.471 r
  datamem/par_mem_logic_inst/addr_crsbar_0/U5/Z (C8T28SOI_LL_XOR2X9_P0)
                                                         0.045 *    0.516 r
  datamem/par_mem_logic_inst/addr_crsbar_0/module_nums[0] (addr_crsbar_PORTS2_LSU_ADDRW14_CTRLW1_PM_FUNC2)
                                                         0.000      0.516 r
  datamem/par_mem_logic_inst/ctrl_units_0/module_nums[0] (ctrl_units_PORTS2_CTRLW1)
                                                         0.000      0.516 r
  datamem/par_mem_logic_inst/ctrl_units_0/ctrl_uniti_0/module_num[0] (ctrl_unit_PORTS2_CTRLW1_1)
                                                         0.000      0.516 r
  datamem/par_mem_logic_inst/ctrl_units_0/ctrl_uniti_0/U13/Z (C8T28SOI_LL_CNNAND2X8_P0)
                                                         0.014 *    0.530 f
  datamem/par_mem_logic_inst/ctrl_units_0/ctrl_uniti_0/U10/Z (C8T28SOI_LL_CNIVX9_P0)
                                                         0.010 *    0.540 r
  datamem/par_mem_logic_inst/ctrl_units_0/ctrl_uniti_0/ctrl_matrix_row_out[1] (ctrl_unit_PORTS2_CTRLW1_1)
                                                         0.000      0.540 r
  datamem/par_mem_logic_inst/ctrl_units_0/ctrl_uniti_1/t_ctrl_matrix_row_in[0] (ctrl_unit_PORTS2_CTRLW1_0)
                                                         0.000      0.540 r
  datamem/par_mem_logic_inst/ctrl_units_0/ctrl_uniti_1/U5/Z (C8T28SOIDV_LL_NAND2X9_P0)
                                                         0.010 *    0.550 f
  datamem/par_mem_logic_inst/ctrl_units_0/ctrl_uniti_1/U11/Z (C8T28SOI_LL_CNIVX9_P0)
                                                         0.009 *    0.559 r
  datamem/par_mem_logic_inst/ctrl_units_0/ctrl_uniti_1/U14/Z (C8T28SOIDV_LL_NOR2AX10_P0)
                                                         0.009 *    0.568 f
  datamem/par_mem_logic_inst/ctrl_units_0/ctrl_uniti_1/mem_en_x (ctrl_unit_PORTS2_CTRLW1_0)
                                                         0.000      0.568 f
  datamem/par_mem_logic_inst/ctrl_units_0/U10/Z (C8T28SOIDV_LL_CNIVX28_P0)
                                                         0.010 *    0.578 r
  datamem/par_mem_logic_inst/ctrl_units_0/U8/Z (C8T28SOIDV_LL_NAND2AX36_P0)
                                                         0.011 *    0.590 f
  datamem/par_mem_logic_inst/ctrl_units_0/mem_en_xs[1] (ctrl_units_PORTS2_CTRLW1)
                                                         0.000      0.590 f
  datamem/par_mem_logic_inst/mem_en_xs[1] (par_mem_logic_PORTS2_LSU_ADDRW14_CTRLW1_DATAW32_PM_FUNC2)
                                                         0.000      0.590 f
  datamem/dmem_1/en_x (synch_singleport_mem_wrapper_DATAW32_ADDRW13_1)
                                                         0.000      0.590 f
  datamem/dmem_1/en_wr_arbiter/en (block_en_wr_arbiter_ADDRW13_NBLOCKS9_1)
                                                         0.000      0.590 f
  datamem/dmem_1/en_wr_arbiter/U11/Z (C8T28SOIDV_LL_CNIVX37_P0)
                                                         0.011 *    0.600 r
  datamem/dmem_1/en_wr_arbiter/U39/Z (C8T28SOI_LL_CNNAND2X8_P0)
                                                         0.011 *    0.611 f
  datamem/dmem_1/en_wr_arbiter/en_blocks[8] (block_en_wr_arbiter_ADDRW13_NBLOCKS9_1)
                                                         0.000      0.611 f
  datamem/dmem_1/cacti_mem_x_8/en_x (cacti_mem_wrapper_DATAW32_ADDRW12_1)
                                                         0.000      0.611 f
  datamem/dmem_1/cacti_mem_x_8/mem_4096x32/mem_en_x (ram_4096x32)
                                                         0.000 *    0.611 f
  data arrival time                                                 0.611

  clock clk (rise edge)                                  1.176      1.176
  clock network delay (ideal)                            0.010      1.186
  clock uncertainty                                     -0.010      1.176
  datamem/dmem_1/cacti_mem_x_8/mem_4096x32/clk (ram_4096x32)
                                                         0.000      1.176 r
  library setup time                                    -0.506      0.670
  data required time                                                0.670
  --------------------------------------------------------------------------
  data required time                                                0.670
  data arrival time                                                -0.611
  --------------------------------------------------------------------------
  slack (MET)                                                       0.059


  Startpoint: core/loopbuffer/clk_r_REG512_S18
              (rising edge-triggered flip-flop clocked by clk)
  Endpoint: datamem/dmem_1/cacti_mem_x_3/mem_128x32
            (rising edge-triggered flip-flop clocked by clk)
  Path Group: clk
  Path Type: max

  Point                                                   Incr       Path
  --------------------------------------------------------------------------
  clock clk (rise edge)                                  0.000      0.000
  clock network delay (ideal)                            0.010      0.010
  core/loopbuffer/clk_r_REG512_S18/CP (C8T28SOIDV_LL_DFPRQX10_P0)
                                                         0.000      0.010 r
  core/loopbuffer/clk_r_REG512_S18/Q (C8T28SOIDV_LL_DFPRQX10_P0)
                                                         0.056      0.066 r
  core/loopbuffer/U4/Z (C8T28SOIDV_LL_NOR2AX19_P4)       0.034 *    0.101 r
  core/loopbuffer/U5/Z (C8T28SOI_LL_OAI21X7_P0)          0.021 *    0.121 f
  core/loopbuffer/U45/Z (C8T28SOI_LLBR0P6_NAND3X10_P0)
                                                         0.019 *    0.141 r
  core/loopbuffer/lock_req_out (tta0_loopbuf_1_32_51_1_0)
                                                         0.000      0.141 r
  core/decomp/lock_r (tta0_decompressor)                 0.000      0.141 r
  core/decomp/U1/Z (C8T28SOI_LL_CNIVX9_P0)               0.011 *    0.152 f
  core/decomp/fetch_en (tta0_decompressor)               0.000      0.152 f
  core/inst_fetch/fetch_en (tta0_ifetch)                 0.000      0.152 f
  core/inst_fetch/U57/Z (C8T28SOIDV_LL_NAND2X9_P0)       0.011 *    0.162 r
  core/inst_fetch/glock (tta0_ifetch)                    0.000      0.162 r
  core/loopbuffer/glock_in (tta0_loopbuf_1_32_51_1_0)    0.000      0.162 r
  core/loopbuffer/U161/Z (C8T28SOI_LL_NAND2X8_P0)        0.011 *    0.173 f
  core/loopbuffer/U154/Z (C8T28SOIDV_LL_NAND2X9_P0)      0.016 *    0.189 r
  core/loopbuffer/glock_out (tta0_loopbuf_1_32_51_1_0)
                                                         0.000      0.189 r
  core/inst_decoder/lock (tta0_decoder)                  0.000      0.189 r
  core/inst_decoder/U5/Z (C8T28SOIDV_LL_CNIVX18_P0)      0.011 *    0.200 f
  core/inst_decoder/U3/Z (C8T28SOIDV_LL_NAND2X18_P0)     0.010 *    0.210 r
  core/inst_decoder/glock[7] (tta0_decoder)              0.000      0.210 r
  core/fu_lsu_r/glock (fu_ldw_stw_always_4_dataw32_addrw16_1)
                                                         0.000      0.210 r
  core/fu_lsu_r/U58/Z (C8T28SOIDV_LL_CNIVX18_P0)         0.009 *    0.219 f
  core/fu_lsu_r/U4/Z (C8T28SOIDV_LL_NAND2AX27_P0)        0.011 *    0.229 r
  core/fu_lsu_r/mem_en_x[0] (fu_ldw_stw_always_4_dataw32_addrw16_1)
                                                         0.000      0.229 r
  U154/Z (C8T28SOIDV_LL_NAND2X18_P0)                     0.010 *    0.240 f
  U331/Z (C8T28SOIDV_LL_CNBFX55_P0)                      0.026 *    0.265 f
  U135/Z (C8T28SOI_LL_CNNAND2X8_P4)                      0.015 *    0.280 r
  U136/Z (C8T28SOI_LL_OAI21X7_P4)                        0.012 *    0.292 f
  datamem/scheduler/lsu_addr_a[7] (par_mem_scheduler_dataw32_addrw14_ports2_rd_delay1)
                                                         0.000      0.292 f
  datamem/scheduler/addr_a_conv/data_in[7] (ser_par_conv_portw14_port_cnt2_1)
                                                         0.000      0.292 f
  datamem/scheduler/addr_a_conv/U17/Z (C8T28SOI_LL_CNIVX4_P4)
                                                         0.013 *    0.305 r
  datamem/scheduler/addr_a_conv/U16/Z (C8T28SOI_LL_IVX5_P10)
                                                         0.013 *    0.318 f
  datamem/scheduler/addr_a_conv/data_out[7] (ser_par_conv_portw14_port_cnt2_1)
                                                         0.000      0.318 f
  datamem/scheduler/U32/Z (C8T28SOI_LL_CNNAND2X8_P0)     0.011 *    0.329 r
  datamem/scheduler/U33/Z (C8T28SOIDV_LL_NAND2AX9_P4)    0.014 *    0.343 f
  datamem/scheduler/addr[7] (par_mem_scheduler_dataw32_addrw14_ports2_rd_delay1)
                                                         0.000      0.343 f
  datamem/par_mem_logic_inst/addrs_from_lsus[7] (par_mem_logic_PORTS2_LSU_ADDRW14_CTRLW1_DATAW32_PM_FUNC2)
                                                         0.000      0.343 f
  datamem/par_mem_logic_inst/addr_crsbar_0/addrs_from_lsus[7] (addr_crsbar_PORTS2_LSU_ADDRW14_CTRLW1_PM_FUNC2)
                                                         0.000      0.343 f
  datamem/par_mem_logic_inst/addr_crsbar_0/U65/Z (C8T28SOIDV_LL_NAND2X9_P0)
                                                         0.014 *    0.357 r
  datamem/par_mem_logic_inst/addr_crsbar_0/U66/Z (C8T28SOI_LL_NAND2X12_P16)
                                                         0.015 *    0.372 f
  datamem/par_mem_logic_inst/addr_crsbar_0/U67/Z (C8T28SOI_LL_CNXOR2X9_P0)
                                                         0.041 *    0.413 r
  datamem/par_mem_logic_inst/addr_crsbar_0/U49/Z (C8T28SOIDV_LLS_XNOR2X4_P0)
                                                         0.026 *    0.439 r
  datamem/par_mem_logic_inst/addr_crsbar_0/U69/Z (C8T28SOIDV_LLS_XOR2X4_P0)
                                                         0.032 *    0.471 r
  datamem/par_mem_logic_inst/addr_crsbar_0/U5/Z (C8T28SOI_LL_XOR2X9_P0)
                                                         0.045 *    0.516 r
  datamem/par_mem_logic_inst/addr_crsbar_0/module_nums[0] (addr_crsbar_PORTS2_LSU_ADDRW14_CTRLW1_PM_FUNC2)
                                                         0.000      0.516 r
  datamem/par_mem_logic_inst/ctrl_units_0/module_nums[0] (ctrl_units_PORTS2_CTRLW1)
                                                         0.000      0.516 r
  datamem/par_mem_logic_inst/ctrl_units_0/ctrl_uniti_0/module_num[0] (ctrl_unit_PORTS2_CTRLW1_1)
                                                         0.000      0.516 r
  datamem/par_mem_logic_inst/ctrl_units_0/ctrl_uniti_0/U13/Z (C8T28SOI_LL_CNNAND2X8_P0)
                                                         0.014 *    0.530 f
  datamem/par_mem_logic_inst/ctrl_units_0/ctrl_uniti_0/U10/Z (C8T28SOI_LL_CNIVX9_P0)
                                                         0.010 *    0.540 r
  datamem/par_mem_logic_inst/ctrl_units_0/ctrl_uniti_0/ctrl_matrix_row_out[1] (ctrl_unit_PORTS2_CTRLW1_1)
                                                         0.000      0.540 r
  datamem/par_mem_logic_inst/ctrl_units_0/ctrl_uniti_1/t_ctrl_matrix_row_in[0] (ctrl_unit_PORTS2_CTRLW1_0)
                                                         0.000      0.540 r
  datamem/par_mem_logic_inst/ctrl_units_0/ctrl_uniti_1/U5/Z (C8T28SOIDV_LL_NAND2X9_P0)
                                                         0.010 *    0.550 f
  datamem/par_mem_logic_inst/ctrl_units_0/ctrl_uniti_1/U11/Z (C8T28SOI_LL_CNIVX9_P0)
                                                         0.009 *    0.559 r
  datamem/par_mem_logic_inst/ctrl_units_0/ctrl_uniti_1/U14/Z (C8T28SOIDV_LL_NOR2AX10_P0)
                                                         0.009 *    0.568 f
  datamem/par_mem_logic_inst/ctrl_units_0/ctrl_uniti_1/mem_en_x (ctrl_unit_PORTS2_CTRLW1_0)
                                                         0.000      0.568 f
  datamem/par_mem_logic_inst/ctrl_units_0/U10/Z (C8T28SOIDV_LL_CNIVX28_P0)
                                                         0.010 *    0.578 r
  datamem/par_mem_logic_inst/ctrl_units_0/U8/Z (C8T28SOIDV_LL_NAND2AX36_P0)
                                                         0.011 *    0.590 f
  datamem/par_mem_logic_inst/ctrl_units_0/mem_en_xs[1] (ctrl_units_PORTS2_CTRLW1)
                                                         0.000      0.590 f
  datamem/par_mem_logic_inst/mem_en_xs[1] (par_mem_logic_PORTS2_LSU_ADDRW14_CTRLW1_DATAW32_PM_FUNC2)
                                                         0.000      0.590 f
  datamem/dmem_1/en_x (synch_singleport_mem_wrapper_DATAW32_ADDRW13_1)
                                                         0.000      0.590 f
  datamem/dmem_1/en_wr_arbiter/en (block_en_wr_arbiter_ADDRW13_NBLOCKS9_1)
                                                         0.000      0.590 f
  datamem/dmem_1/en_wr_arbiter/U19/Z (C8T28SOIDV_LL_CNIVX37_P0)
                                                         0.011 *    0.601 r
  datamem/dmem_1/en_wr_arbiter/U38/Z (C8T28SOIDV_LL_NAND2X9_P4)
                                                         0.011 *    0.612 f
  datamem/dmem_1/en_wr_arbiter/en_blocks[3] (block_en_wr_arbiter_ADDRW13_NBLOCKS9_1)
                                                         0.000      0.612 f
  datamem/dmem_1/cacti_mem_x_3/en_x (cacti_mem_wrapper_DATAW32_ADDRW7_1)
                                                         0.000      0.612 f
  datamem/dmem_1/cacti_mem_x_3/mem_128x32/mem_en_x (ram_128x32)
                                                         0.000 *    0.612 f
  data arrival time                                                 0.612

  clock clk (rise edge)                                  1.176      1.176
  clock network delay (ideal)                            0.010      1.186
  clock uncertainty                                     -0.010      1.176
  datamem/dmem_1/cacti_mem_x_3/mem_128x32/clk (ram_128x32)
                                                         0.000      1.176 r
  library setup time                                    -0.505      0.671
  data required time                                                0.671
  --------------------------------------------------------------------------
  data required time                                                0.671
  data arrival time                                                -0.612
  --------------------------------------------------------------------------
  slack (MET)                                                       0.059


  Startpoint: core/loopbuffer/clk_r_REG512_S18
              (rising edge-triggered flip-flop clocked by clk)
  Endpoint: datamem/dmem_1/cacti_mem_x_4/mem_256x32
            (rising edge-triggered flip-flop clocked by clk)
  Path Group: clk
  Path Type: max

  Point                                                   Incr       Path
  --------------------------------------------------------------------------
  clock clk (rise edge)                                  0.000      0.000
  clock network delay (ideal)                            0.010      0.010
  core/loopbuffer/clk_r_REG512_S18/CP (C8T28SOIDV_LL_DFPRQX10_P0)
                                                         0.000      0.010 r
  core/loopbuffer/clk_r_REG512_S18/Q (C8T28SOIDV_LL_DFPRQX10_P0)
                                                         0.056      0.066 r
  core/loopbuffer/U4/Z (C8T28SOIDV_LL_NOR2AX19_P4)       0.034 *    0.101 r
  core/loopbuffer/U5/Z (C8T28SOI_LL_OAI21X7_P0)          0.021 *    0.121 f
  core/loopbuffer/U45/Z (C8T28SOI_LLBR0P6_NAND3X10_P0)
                                                         0.019 *    0.141 r
  core/loopbuffer/lock_req_out (tta0_loopbuf_1_32_51_1_0)
                                                         0.000      0.141 r
  core/decomp/lock_r (tta0_decompressor)                 0.000      0.141 r
  core/decomp/U1/Z (C8T28SOI_LL_CNIVX9_P0)               0.011 *    0.152 f
  core/decomp/fetch_en (tta0_decompressor)               0.000      0.152 f
  core/inst_fetch/fetch_en (tta0_ifetch)                 0.000      0.152 f
  core/inst_fetch/U57/Z (C8T28SOIDV_LL_NAND2X9_P0)       0.011 *    0.162 r
  core/inst_fetch/glock (tta0_ifetch)                    0.000      0.162 r
  core/loopbuffer/glock_in (tta0_loopbuf_1_32_51_1_0)    0.000      0.162 r
  core/loopbuffer/U161/Z (C8T28SOI_LL_NAND2X8_P0)        0.011 *    0.173 f
  core/loopbuffer/U154/Z (C8T28SOIDV_LL_NAND2X9_P0)      0.016 *    0.189 r
  core/loopbuffer/glock_out (tta0_loopbuf_1_32_51_1_0)
                                                         0.000      0.189 r
  core/inst_decoder/lock (tta0_decoder)                  0.000      0.189 r
  core/inst_decoder/U5/Z (C8T28SOIDV_LL_CNIVX18_P0)      0.011 *    0.200 f
  core/inst_decoder/U3/Z (C8T28SOIDV_LL_NAND2X18_P0)     0.010 *    0.210 r
  core/inst_decoder/glock[7] (tta0_decoder)              0.000      0.210 r
  core/fu_lsu_r/glock (fu_ldw_stw_always_4_dataw32_addrw16_1)
                                                         0.000      0.210 r
  core/fu_lsu_r/U58/Z (C8T28SOIDV_LL_CNIVX18_P0)         0.009 *    0.219 f
  core/fu_lsu_r/U4/Z (C8T28SOIDV_LL_NAND2AX27_P0)        0.011 *    0.229 r
  core/fu_lsu_r/mem_en_x[0] (fu_ldw_stw_always_4_dataw32_addrw16_1)
                                                         0.000      0.229 r
  U154/Z (C8T28SOIDV_LL_NAND2X18_P0)                     0.010 *    0.240 f
  U331/Z (C8T28SOIDV_LL_CNBFX55_P0)                      0.026 *    0.265 f
  U135/Z (C8T28SOI_LL_CNNAND2X8_P4)                      0.015 *    0.280 r
  U136/Z (C8T28SOI_LL_OAI21X7_P4)                        0.012 *    0.292 f
  datamem/scheduler/lsu_addr_a[7] (par_mem_scheduler_dataw32_addrw14_ports2_rd_delay1)
                                                         0.000      0.292 f
  datamem/scheduler/addr_a_conv/data_in[7] (ser_par_conv_portw14_port_cnt2_1)
                                                         0.000      0.292 f
  datamem/scheduler/addr_a_conv/U17/Z (C8T28SOI_LL_CNIVX4_P4)
                                                         0.013 *    0.305 r
  datamem/scheduler/addr_a_conv/U16/Z (C8T28SOI_LL_IVX5_P10)
                                                         0.013 *    0.318 f
  datamem/scheduler/addr_a_conv/data_out[7] (ser_par_conv_portw14_port_cnt2_1)
                                                         0.000      0.318 f
  datamem/scheduler/U32/Z (C8T28SOI_LL_CNNAND2X8_P0)     0.011 *    0.329 r
  datamem/scheduler/U33/Z (C8T28SOIDV_LL_NAND2AX9_P4)    0.014 *    0.343 f
  datamem/scheduler/addr[7] (par_mem_scheduler_dataw32_addrw14_ports2_rd_delay1)
                                                         0.000      0.343 f
  datamem/par_mem_logic_inst/addrs_from_lsus[7] (par_mem_logic_PORTS2_LSU_ADDRW14_CTRLW1_DATAW32_PM_FUNC2)
                                                         0.000      0.343 f
  datamem/par_mem_logic_inst/addr_crsbar_0/addrs_from_lsus[7] (addr_crsbar_PORTS2_LSU_ADDRW14_CTRLW1_PM_FUNC2)
                                                         0.000      0.343 f
  datamem/par_mem_logic_inst/addr_crsbar_0/U65/Z (C8T28SOIDV_LL_NAND2X9_P0)
                                                         0.014 *    0.357 r
  datamem/par_mem_logic_inst/addr_crsbar_0/U66/Z (C8T28SOI_LL_NAND2X12_P16)
                                                         0.015 *    0.372 f
  datamem/par_mem_logic_inst/addr_crsbar_0/U67/Z (C8T28SOI_LL_CNXOR2X9_P0)
                                                         0.041 *    0.413 r
  datamem/par_mem_logic_inst/addr_crsbar_0/U49/Z (C8T28SOIDV_LLS_XNOR2X4_P0)
                                                         0.026 *    0.439 r
  datamem/par_mem_logic_inst/addr_crsbar_0/U69/Z (C8T28SOIDV_LLS_XOR2X4_P0)
                                                         0.032 *    0.471 r
  datamem/par_mem_logic_inst/addr_crsbar_0/U5/Z (C8T28SOI_LL_XOR2X9_P0)
                                                         0.045 *    0.516 r
  datamem/par_mem_logic_inst/addr_crsbar_0/module_nums[0] (addr_crsbar_PORTS2_LSU_ADDRW14_CTRLW1_PM_FUNC2)
                                                         0.000      0.516 r
  datamem/par_mem_logic_inst/ctrl_units_0/module_nums[0] (ctrl_units_PORTS2_CTRLW1)
                                                         0.000      0.516 r
  datamem/par_mem_logic_inst/ctrl_units_0/ctrl_uniti_0/module_num[0] (ctrl_unit_PORTS2_CTRLW1_1)
                                                         0.000      0.516 r
  datamem/par_mem_logic_inst/ctrl_units_0/ctrl_uniti_0/U13/Z (C8T28SOI_LL_CNNAND2X8_P0)
                                                         0.014 *    0.530 f
  datamem/par_mem_logic_inst/ctrl_units_0/ctrl_uniti_0/U10/Z (C8T28SOI_LL_CNIVX9_P0)
                                                         0.010 *    0.540 r
  datamem/par_mem_logic_inst/ctrl_units_0/ctrl_uniti_0/ctrl_matrix_row_out[1] (ctrl_unit_PORTS2_CTRLW1_1)
                                                         0.000      0.540 r
  datamem/par_mem_logic_inst/ctrl_units_0/ctrl_uniti_1/t_ctrl_matrix_row_in[0] (ctrl_unit_PORTS2_CTRLW1_0)
                                                         0.000      0.540 r
  datamem/par_mem_logic_inst/ctrl_units_0/ctrl_uniti_1/U5/Z (C8T28SOIDV_LL_NAND2X9_P0)
                                                         0.010 *    0.550 f
  datamem/par_mem_logic_inst/ctrl_units_0/ctrl_uniti_1/U11/Z (C8T28SOI_LL_CNIVX9_P0)
                                                         0.009 *    0.559 r
  datamem/par_mem_logic_inst/ctrl_units_0/ctrl_uniti_1/U14/Z (C8T28SOIDV_LL_NOR2AX10_P0)
                                                         0.009 *    0.568 f
  datamem/par_mem_logic_inst/ctrl_units_0/ctrl_uniti_1/mem_en_x (ctrl_unit_PORTS2_CTRLW1_0)
                                                         0.000      0.568 f
  datamem/par_mem_logic_inst/ctrl_units_0/U10/Z (C8T28SOIDV_LL_CNIVX28_P0)
                                                         0.010 *    0.578 r
  datamem/par_mem_logic_inst/ctrl_units_0/U8/Z (C8T28SOIDV_LL_NAND2AX36_P0)
                                                         0.011 *    0.590 f
  datamem/par_mem_logic_inst/ctrl_units_0/mem_en_xs[1] (ctrl_units_PORTS2_CTRLW1)
                                                         0.000      0.590 f
  datamem/par_mem_logic_inst/mem_en_xs[1] (par_mem_logic_PORTS2_LSU_ADDRW14_CTRLW1_DATAW32_PM_FUNC2)
                                                         0.000      0.590 f
  datamem/dmem_1/en_x (synch_singleport_mem_wrapper_DATAW32_ADDRW13_1)
                                                         0.000      0.590 f
  datamem/dmem_1/en_wr_arbiter/en (block_en_wr_arbiter_ADDRW13_NBLOCKS9_1)
                                                         0.000      0.590 f
  datamem/dmem_1/en_wr_arbiter/U11/Z (C8T28SOIDV_LL_CNIVX37_P0)
                                                         0.011 *    0.600 r
  datamem/dmem_1/en_wr_arbiter/U22/Z (C8T28SOI_LL_CNNAND2X8_P0)
                                                         0.011 *    0.612 f
  datamem/dmem_1/en_wr_arbiter/en_blocks[4] (block_en_wr_arbiter_ADDRW13_NBLOCKS9_1)
                                                         0.000      0.612 f
  datamem/dmem_1/cacti_mem_x_4/en_x (cacti_mem_wrapper_DATAW32_ADDRW8_1)
                                                         0.000      0.612 f
  datamem/dmem_1/cacti_mem_x_4/mem_256x32/mem_en_x (ram_256x32)
                                                         0.000 *    0.612 f
  data arrival time                                                 0.612

  clock clk (rise edge)                                  1.176      1.176
  clock network delay (ideal)                            0.010      1.186
  clock uncertainty                                     -0.010      1.176
  datamem/dmem_1/cacti_mem_x_4/mem_256x32/clk (ram_256x32)
                                                         0.000      1.176 r
  library setup time                                    -0.505      0.671
  data required time                                                0.671
  --------------------------------------------------------------------------
  data required time                                                0.671
  data arrival time                                                -0.612
  --------------------------------------------------------------------------
  slack (MET)                                                       0.059


  Startpoint: core/loopbuffer/clk_r_REG512_S18
              (rising edge-triggered flip-flop clocked by clk)
  Endpoint: datamem/dmem_1/cacti_mem_0/mem_32x32
            (rising edge-triggered flip-flop clocked by clk)
  Path Group: clk
  Path Type: max

  Point                                                   Incr       Path
  --------------------------------------------------------------------------
  clock clk (rise edge)                                  0.000      0.000
  clock network delay (ideal)                            0.010      0.010
  core/loopbuffer/clk_r_REG512_S18/CP (C8T28SOIDV_LL_DFPRQX10_P0)
                                                         0.000      0.010 r
  core/loopbuffer/clk_r_REG512_S18/Q (C8T28SOIDV_LL_DFPRQX10_P0)
                                                         0.056      0.066 r
  core/loopbuffer/U4/Z (C8T28SOIDV_LL_NOR2AX19_P4)       0.034 *    0.101 r
  core/loopbuffer/U5/Z (C8T28SOI_LL_OAI21X7_P0)          0.021 *    0.121 f
  core/loopbuffer/U45/Z (C8T28SOI_LLBR0P6_NAND3X10_P0)
                                                         0.019 *    0.141 r
  core/loopbuffer/lock_req_out (tta0_loopbuf_1_32_51_1_0)
                                                         0.000      0.141 r
  core/decomp/lock_r (tta0_decompressor)                 0.000      0.141 r
  core/decomp/U1/Z (C8T28SOI_LL_CNIVX9_P0)               0.011 *    0.152 f
  core/decomp/fetch_en (tta0_decompressor)               0.000      0.152 f
  core/inst_fetch/fetch_en (tta0_ifetch)                 0.000      0.152 f
  core/inst_fetch/U57/Z (C8T28SOIDV_LL_NAND2X9_P0)       0.011 *    0.162 r
  core/inst_fetch/glock (tta0_ifetch)                    0.000      0.162 r
  core/loopbuffer/glock_in (tta0_loopbuf_1_32_51_1_0)    0.000      0.162 r
  core/loopbuffer/U161/Z (C8T28SOI_LL_NAND2X8_P0)        0.011 *    0.173 f
  core/loopbuffer/U154/Z (C8T28SOIDV_LL_NAND2X9_P0)      0.016 *    0.189 r
  core/loopbuffer/glock_out (tta0_loopbuf_1_32_51_1_0)
                                                         0.000      0.189 r
  core/inst_decoder/lock (tta0_decoder)                  0.000      0.189 r
  core/inst_decoder/U5/Z (C8T28SOIDV_LL_CNIVX18_P0)      0.011 *    0.200 f
  core/inst_decoder/U3/Z (C8T28SOIDV_LL_NAND2X18_P0)     0.010 *    0.210 r
  core/inst_decoder/glock[7] (tta0_decoder)              0.000      0.210 r
  core/fu_lsu_r/glock (fu_ldw_stw_always_4_dataw32_addrw16_1)
                                                         0.000      0.210 r
  core/fu_lsu_r/U58/Z (C8T28SOIDV_LL_CNIVX18_P0)         0.009 *    0.219 f
  core/fu_lsu_r/U4/Z (C8T28SOIDV_LL_NAND2AX27_P0)        0.011 *    0.229 r
  core/fu_lsu_r/mem_en_x[0] (fu_ldw_stw_always_4_dataw32_addrw16_1)
                                                         0.000      0.229 r
  U154/Z (C8T28SOIDV_LL_NAND2X18_P0)                     0.010 *    0.240 f
  U331/Z (C8T28SOIDV_LL_CNBFX55_P0)                      0.026 *    0.265 f
  U135/Z (C8T28SOI_LL_CNNAND2X8_P4)                      0.015 *    0.280 r
  U136/Z (C8T28SOI_LL_OAI21X7_P4)                        0.012 *    0.292 f
  datamem/scheduler/lsu_addr_a[7] (par_mem_scheduler_dataw32_addrw14_ports2_rd_delay1)
                                                         0.000      0.292 f
  datamem/scheduler/addr_a_conv/data_in[7] (ser_par_conv_portw14_port_cnt2_1)
                                                         0.000      0.292 f
  datamem/scheduler/addr_a_conv/U17/Z (C8T28SOI_LL_CNIVX4_P4)
                                                         0.013 *    0.305 r
  datamem/scheduler/addr_a_conv/U16/Z (C8T28SOI_LL_IVX5_P10)
                                                         0.013 *    0.318 f
  datamem/scheduler/addr_a_conv/data_out[7] (ser_par_conv_portw14_port_cnt2_1)
                                                         0.000      0.318 f
  datamem/scheduler/U32/Z (C8T28SOI_LL_CNNAND2X8_P0)     0.011 *    0.329 r
  datamem/scheduler/U33/Z (C8T28SOIDV_LL_NAND2AX9_P4)    0.014 *    0.343 f
  datamem/scheduler/addr[7] (par_mem_scheduler_dataw32_addrw14_ports2_rd_delay1)
                                                         0.000      0.343 f
  datamem/par_mem_logic_inst/addrs_from_lsus[7] (par_mem_logic_PORTS2_LSU_ADDRW14_CTRLW1_DATAW32_PM_FUNC2)
                                                         0.000      0.343 f
  datamem/par_mem_logic_inst/addr_crsbar_0/addrs_from_lsus[7] (addr_crsbar_PORTS2_LSU_ADDRW14_CTRLW1_PM_FUNC2)
                                                         0.000      0.343 f
  datamem/par_mem_logic_inst/addr_crsbar_0/U65/Z (C8T28SOIDV_LL_NAND2X9_P0)
                                                         0.014 *    0.357 r
  datamem/par_mem_logic_inst/addr_crsbar_0/U66/Z (C8T28SOI_LL_NAND2X12_P16)
                                                         0.015 *    0.372 f
  datamem/par_mem_logic_inst/addr_crsbar_0/U67/Z (C8T28SOI_LL_CNXOR2X9_P0)
                                                         0.041 *    0.413 r
  datamem/par_mem_logic_inst/addr_crsbar_0/U49/Z (C8T28SOIDV_LLS_XNOR2X4_P0)
                                                         0.026 *    0.439 r
  datamem/par_mem_logic_inst/addr_crsbar_0/U69/Z (C8T28SOIDV_LLS_XOR2X4_P0)
                                                         0.032 *    0.471 r
  datamem/par_mem_logic_inst/addr_crsbar_0/U5/Z (C8T28SOI_LL_XOR2X9_P0)
                                                         0.045 *    0.516 r
  datamem/par_mem_logic_inst/addr_crsbar_0/module_nums[0] (addr_crsbar_PORTS2_LSU_ADDRW14_CTRLW1_PM_FUNC2)
                                                         0.000      0.516 r
  datamem/par_mem_logic_inst/ctrl_units_0/module_nums[0] (ctrl_units_PORTS2_CTRLW1)
                                                         0.000      0.516 r
  datamem/par_mem_logic_inst/ctrl_units_0/ctrl_uniti_0/module_num[0] (ctrl_unit_PORTS2_CTRLW1_1)
                                                         0.000      0.516 r
  datamem/par_mem_logic_inst/ctrl_units_0/ctrl_uniti_0/U13/Z (C8T28SOI_LL_CNNAND2X8_P0)
                                                         0.014 *    0.530 f
  datamem/par_mem_logic_inst/ctrl_units_0/ctrl_uniti_0/U10/Z (C8T28SOI_LL_CNIVX9_P0)
                                                         0.010 *    0.540 r
  datamem/par_mem_logic_inst/ctrl_units_0/ctrl_uniti_0/ctrl_matrix_row_out[1] (ctrl_unit_PORTS2_CTRLW1_1)
                                                         0.000      0.540 r
  datamem/par_mem_logic_inst/ctrl_units_0/ctrl_uniti_1/t_ctrl_matrix_row_in[0] (ctrl_unit_PORTS2_CTRLW1_0)
                                                         0.000      0.540 r
  datamem/par_mem_logic_inst/ctrl_units_0/ctrl_uniti_1/U5/Z (C8T28SOIDV_LL_NAND2X9_P0)
                                                         0.010 *    0.550 f
  datamem/par_mem_logic_inst/ctrl_units_0/ctrl_uniti_1/U11/Z (C8T28SOI_LL_CNIVX9_P0)
                                                         0.009 *    0.559 r
  datamem/par_mem_logic_inst/ctrl_units_0/ctrl_uniti_1/U14/Z (C8T28SOIDV_LL_NOR2AX10_P0)
                                                         0.009 *    0.568 f
  datamem/par_mem_logic_inst/ctrl_units_0/ctrl_uniti_1/mem_en_x (ctrl_unit_PORTS2_CTRLW1_0)
                                                         0.000      0.568 f
  datamem/par_mem_logic_inst/ctrl_units_0/U10/Z (C8T28SOIDV_LL_CNIVX28_P0)
                                                         0.010 *    0.578 r
  datamem/par_mem_logic_inst/ctrl_units_0/U8/Z (C8T28SOIDV_LL_NAND2AX36_P0)
                                                         0.011 *    0.590 f
  datamem/par_mem_logic_inst/ctrl_units_0/mem_en_xs[1] (ctrl_units_PORTS2_CTRLW1)
                                                         0.000      0.590 f
  datamem/par_mem_logic_inst/mem_en_xs[1] (par_mem_logic_PORTS2_LSU_ADDRW14_CTRLW1_DATAW32_PM_FUNC2)
                                                         0.000      0.590 f
  datamem/dmem_1/en_x (synch_singleport_mem_wrapper_DATAW32_ADDRW13_1)
                                                         0.000      0.590 f
  datamem/dmem_1/en_wr_arbiter/en (block_en_wr_arbiter_ADDRW13_NBLOCKS9_1)
                                                         0.000      0.590 f
  datamem/dmem_1/en_wr_arbiter/U19/Z (C8T28SOIDV_LL_CNIVX37_P0)
                                                         0.011 *    0.601 r
  datamem/dmem_1/en_wr_arbiter/U32/Z (C8T28SOIDV_LL_NAND2X9_P0)
                                                         0.011 *    0.611 f
  datamem/dmem_1/en_wr_arbiter/en_blocks[0] (block_en_wr_arbiter_ADDRW13_NBLOCKS9_1)
                                                         0.000      0.611 f
  datamem/dmem_1/cacti_mem_0/en_x (cacti_mem_wrapper_DATAW32_ADDRW5_3)
                                                         0.000      0.611 f
  datamem/dmem_1/cacti_mem_0/mem_32x32/mem_en_x (ram_32x32)
                                                         0.000 *    0.612 f
  data arrival time                                                 0.612

  clock clk (rise edge)                                  1.176      1.176
  clock network delay (ideal)                            0.010      1.186
  clock uncertainty                                     -0.010      1.176
  datamem/dmem_1/cacti_mem_0/mem_32x32/clk (ram_32x32)
                                                         0.000      1.176 r
  library setup time                                    -0.505      0.671
  data required time                                                0.671
  --------------------------------------------------------------------------
  data required time                                                0.671
  data arrival time                                                -0.612
  --------------------------------------------------------------------------
  slack (MET)                                                       0.060


  Startpoint: core/loopbuffer/clk_r_REG512_S18
              (rising edge-triggered flip-flop clocked by clk)
  Endpoint: datamem/dmem_1/cacti_mem_x_5/mem_512x32
            (rising edge-triggered flip-flop clocked by clk)
  Path Group: clk
  Path Type: max

  Point                                                   Incr       Path
  --------------------------------------------------------------------------
  clock clk (rise edge)                                  0.000      0.000
  clock network delay (ideal)                            0.010      0.010
  core/loopbuffer/clk_r_REG512_S18/CP (C8T28SOIDV_LL_DFPRQX10_P0)
                                                         0.000      0.010 r
  core/loopbuffer/clk_r_REG512_S18/Q (C8T28SOIDV_LL_DFPRQX10_P0)
                                                         0.056      0.066 r
  core/loopbuffer/U4/Z (C8T28SOIDV_LL_NOR2AX19_P4)       0.034 *    0.101 r
  core/loopbuffer/U5/Z (C8T28SOI_LL_OAI21X7_P0)          0.021 *    0.121 f
  core/loopbuffer/U45/Z (C8T28SOI_LLBR0P6_NAND3X10_P0)
                                                         0.019 *    0.141 r
  core/loopbuffer/lock_req_out (tta0_loopbuf_1_32_51_1_0)
                                                         0.000      0.141 r
  core/decomp/lock_r (tta0_decompressor)                 0.000      0.141 r
  core/decomp/U1/Z (C8T28SOI_LL_CNIVX9_P0)               0.011 *    0.152 f
  core/decomp/fetch_en (tta0_decompressor)               0.000      0.152 f
  core/inst_fetch/fetch_en (tta0_ifetch)                 0.000      0.152 f
  core/inst_fetch/U57/Z (C8T28SOIDV_LL_NAND2X9_P0)       0.011 *    0.162 r
  core/inst_fetch/glock (tta0_ifetch)                    0.000      0.162 r
  core/loopbuffer/glock_in (tta0_loopbuf_1_32_51_1_0)    0.000      0.162 r
  core/loopbuffer/U161/Z (C8T28SOI_LL_NAND2X8_P0)        0.011 *    0.173 f
  core/loopbuffer/U154/Z (C8T28SOIDV_LL_NAND2X9_P0)      0.016 *    0.189 r
  core/loopbuffer/glock_out (tta0_loopbuf_1_32_51_1_0)
                                                         0.000      0.189 r
  core/inst_decoder/lock (tta0_decoder)                  0.000      0.189 r
  core/inst_decoder/U5/Z (C8T28SOIDV_LL_CNIVX18_P0)      0.011 *    0.200 f
  core/inst_decoder/U3/Z (C8T28SOIDV_LL_NAND2X18_P0)     0.010 *    0.210 r
  core/inst_decoder/glock[7] (tta0_decoder)              0.000      0.210 r
  core/fu_lsu_r/glock (fu_ldw_stw_always_4_dataw32_addrw16_1)
                                                         0.000      0.210 r
  core/fu_lsu_r/U58/Z (C8T28SOIDV_LL_CNIVX18_P0)         0.009 *    0.219 f
  core/fu_lsu_r/U4/Z (C8T28SOIDV_LL_NAND2AX27_P0)        0.011 *    0.229 r
  core/fu_lsu_r/mem_en_x[0] (fu_ldw_stw_always_4_dataw32_addrw16_1)
                                                         0.000      0.229 r
  U154/Z (C8T28SOIDV_LL_NAND2X18_P0)                     0.010 *    0.240 f
  U331/Z (C8T28SOIDV_LL_CNBFX55_P0)                      0.026 *    0.265 f
  U135/Z (C8T28SOI_LL_CNNAND2X8_P4)                      0.015 *    0.280 r
  U136/Z (C8T28SOI_LL_OAI21X7_P4)                        0.012 *    0.292 f
  datamem/scheduler/lsu_addr_a[7] (par_mem_scheduler_dataw32_addrw14_ports2_rd_delay1)
                                                         0.000      0.292 f
  datamem/scheduler/addr_a_conv/data_in[7] (ser_par_conv_portw14_port_cnt2_1)
                                                         0.000      0.292 f
  datamem/scheduler/addr_a_conv/U17/Z (C8T28SOI_LL_CNIVX4_P4)
                                                         0.013 *    0.305 r
  datamem/scheduler/addr_a_conv/U16/Z (C8T28SOI_LL_IVX5_P10)
                                                         0.013 *    0.318 f
  datamem/scheduler/addr_a_conv/data_out[7] (ser_par_conv_portw14_port_cnt2_1)
                                                         0.000      0.318 f
  datamem/scheduler/U32/Z (C8T28SOI_LL_CNNAND2X8_P0)     0.011 *    0.329 r
  datamem/scheduler/U33/Z (C8T28SOIDV_LL_NAND2AX9_P4)    0.014 *    0.343 f
  datamem/scheduler/addr[7] (par_mem_scheduler_dataw32_addrw14_ports2_rd_delay1)
                                                         0.000      0.343 f
  datamem/par_mem_logic_inst/addrs_from_lsus[7] (par_mem_logic_PORTS2_LSU_ADDRW14_CTRLW1_DATAW32_PM_FUNC2)
                                                         0.000      0.343 f
  datamem/par_mem_logic_inst/addr_crsbar_0/addrs_from_lsus[7] (addr_crsbar_PORTS2_LSU_ADDRW14_CTRLW1_PM_FUNC2)
                                                         0.000      0.343 f
  datamem/par_mem_logic_inst/addr_crsbar_0/U65/Z (C8T28SOIDV_LL_NAND2X9_P0)
                                                         0.014 *    0.357 r
  datamem/par_mem_logic_inst/addr_crsbar_0/U66/Z (C8T28SOI_LL_NAND2X12_P16)
                                                         0.015 *    0.372 f
  datamem/par_mem_logic_inst/addr_crsbar_0/U67/Z (C8T28SOI_LL_CNXOR2X9_P0)
                                                         0.041 *    0.413 r
  datamem/par_mem_logic_inst/addr_crsbar_0/U49/Z (C8T28SOIDV_LLS_XNOR2X4_P0)
                                                         0.026 *    0.439 r
  datamem/par_mem_logic_inst/addr_crsbar_0/U69/Z (C8T28SOIDV_LLS_XOR2X4_P0)
                                                         0.032 *    0.471 r
  datamem/par_mem_logic_inst/addr_crsbar_0/U5/Z (C8T28SOI_LL_XOR2X9_P0)
                                                         0.045 *    0.516 r
  datamem/par_mem_logic_inst/addr_crsbar_0/module_nums[0] (addr_crsbar_PORTS2_LSU_ADDRW14_CTRLW1_PM_FUNC2)
                                                         0.000      0.516 r
  datamem/par_mem_logic_inst/ctrl_units_0/module_nums[0] (ctrl_units_PORTS2_CTRLW1)
                                                         0.000      0.516 r
  datamem/par_mem_logic_inst/ctrl_units_0/ctrl_uniti_0/module_num[0] (ctrl_unit_PORTS2_CTRLW1_1)
                                                         0.000      0.516 r
  datamem/par_mem_logic_inst/ctrl_units_0/ctrl_uniti_0/U13/Z (C8T28SOI_LL_CNNAND2X8_P0)
                                                         0.014 *    0.530 f
  datamem/par_mem_logic_inst/ctrl_units_0/ctrl_uniti_0/U10/Z (C8T28SOI_LL_CNIVX9_P0)
                                                         0.010 *    0.540 r
  datamem/par_mem_logic_inst/ctrl_units_0/ctrl_uniti_0/ctrl_matrix_row_out[1] (ctrl_unit_PORTS2_CTRLW1_1)
                                                         0.000      0.540 r
  datamem/par_mem_logic_inst/ctrl_units_0/ctrl_uniti_1/t_ctrl_matrix_row_in[0] (ctrl_unit_PORTS2_CTRLW1_0)
                                                         0.000      0.540 r
  datamem/par_mem_logic_inst/ctrl_units_0/ctrl_uniti_1/U5/Z (C8T28SOIDV_LL_NAND2X9_P0)
                                                         0.010 *    0.550 f
  datamem/par_mem_logic_inst/ctrl_units_0/ctrl_uniti_1/U11/Z (C8T28SOI_LL_CNIVX9_P0)
                                                         0.009 *    0.559 r
  datamem/par_mem_logic_inst/ctrl_units_0/ctrl_uniti_1/U14/Z (C8T28SOIDV_LL_NOR2AX10_P0)
                                                         0.009 *    0.568 f
  datamem/par_mem_logic_inst/ctrl_units_0/ctrl_uniti_1/mem_en_x (ctrl_unit_PORTS2_CTRLW1_0)
                                                         0.000      0.568 f
  datamem/par_mem_logic_inst/ctrl_units_0/U10/Z (C8T28SOIDV_LL_CNIVX28_P0)
                                                         0.010 *    0.578 r
  datamem/par_mem_logic_inst/ctrl_units_0/U8/Z (C8T28SOIDV_LL_NAND2AX36_P0)
                                                         0.011 *    0.590 f
  datamem/par_mem_logic_inst/ctrl_units_0/mem_en_xs[1] (ctrl_units_PORTS2_CTRLW1)
                                                         0.000      0.590 f
  datamem/par_mem_logic_inst/mem_en_xs[1] (par_mem_logic_PORTS2_LSU_ADDRW14_CTRLW1_DATAW32_PM_FUNC2)
                                                         0.000      0.590 f
  datamem/dmem_1/en_x (synch_singleport_mem_wrapper_DATAW32_ADDRW13_1)
                                                         0.000      0.590 f
  datamem/dmem_1/en_wr_arbiter/en (block_en_wr_arbiter_ADDRW13_NBLOCKS9_1)
                                                         0.000      0.590 f
  datamem/dmem_1/en_wr_arbiter/U11/Z (C8T28SOIDV_LL_CNIVX37_P0)
                                                         0.011 *    0.600 r
  datamem/dmem_1/en_wr_arbiter/U28/Z (C8T28SOI_LL_CNNAND2X8_P0)
                                                         0.009 *    0.610 f
  datamem/dmem_1/en_wr_arbiter/en_blocks[5] (block_en_wr_arbiter_ADDRW13_NBLOCKS9_1)
                                                         0.000      0.610 f
  datamem/dmem_1/cacti_mem_x_5/en_x (cacti_mem_wrapper_DATAW32_ADDRW9_1)
                                                         0.000      0.610 f
  datamem/dmem_1/cacti_mem_x_5/mem_512x32/mem_en_x (ram_512x32)
                                                         0.000 *    0.610 f
  data arrival time                                                 0.610

  clock clk (rise edge)                                  1.176      1.176
  clock network delay (ideal)                            0.010      1.186
  clock uncertainty                                     -0.010      1.176
  datamem/dmem_1/cacti_mem_x_5/mem_512x32/clk (ram_512x32)
                                                         0.000      1.176 r
  library setup time                                    -0.505      0.671
  data required time                                                0.671
  --------------------------------------------------------------------------
  data required time                                                0.671
  data arrival time                                                -0.610
  --------------------------------------------------------------------------
  slack (MET)                                                       0.061


  Startpoint: core/loopbuffer/clk_r_REG512_S18
              (rising edge-triggered flip-flop clocked by clk)
  Endpoint: datamem/dmem_2/cacti_mem_x_7/mem_2048x32
            (rising edge-triggered flip-flop clocked by clk)
  Path Group: clk
  Path Type: max

  Point                                                   Incr       Path
  --------------------------------------------------------------------------
  clock clk (rise edge)                                  0.000      0.000
  clock network delay (ideal)                            0.010      0.010
  core/loopbuffer/clk_r_REG512_S18/CP (C8T28SOIDV_LL_DFPRQX10_P0)
                                                         0.000      0.010 r
  core/loopbuffer/clk_r_REG512_S18/Q (C8T28SOIDV_LL_DFPRQX10_P0)
                                                         0.056      0.066 r
  core/loopbuffer/U4/Z (C8T28SOIDV_LL_NOR2AX19_P4)       0.034 *    0.101 r
  core/loopbuffer/U5/Z (C8T28SOI_LL_OAI21X7_P0)          0.021 *    0.121 f
  core/loopbuffer/U45/Z (C8T28SOI_LLBR0P6_NAND3X10_P0)
                                                         0.019 *    0.141 r
  core/loopbuffer/lock_req_out (tta0_loopbuf_1_32_51_1_0)
                                                         0.000      0.141 r
  core/decomp/lock_r (tta0_decompressor)                 0.000      0.141 r
  core/decomp/U1/Z (C8T28SOI_LL_CNIVX9_P0)               0.011 *    0.152 f
  core/decomp/fetch_en (tta0_decompressor)               0.000      0.152 f
  core/inst_fetch/fetch_en (tta0_ifetch)                 0.000      0.152 f
  core/inst_fetch/U57/Z (C8T28SOIDV_LL_NAND2X9_P0)       0.011 *    0.162 r
  core/inst_fetch/glock (tta0_ifetch)                    0.000      0.162 r
  core/loopbuffer/glock_in (tta0_loopbuf_1_32_51_1_0)    0.000      0.162 r
  core/loopbuffer/U161/Z (C8T28SOI_LL_NAND2X8_P0)        0.011 *    0.173 f
  core/loopbuffer/U154/Z (C8T28SOIDV_LL_NAND2X9_P0)      0.016 *    0.189 r
  core/loopbuffer/glock_out (tta0_loopbuf_1_32_51_1_0)
                                                         0.000      0.189 r
  core/inst_decoder/lock (tta0_decoder)                  0.000      0.189 r
  core/inst_decoder/U5/Z (C8T28SOIDV_LL_CNIVX18_P0)      0.011 *    0.200 f
  core/inst_decoder/U3/Z (C8T28SOIDV_LL_NAND2X18_P0)     0.010 *    0.210 r
  core/inst_decoder/glock[7] (tta0_decoder)              0.000      0.210 r
  core/fu_lsu_r/glock (fu_ldw_stw_always_4_dataw32_addrw16_1)
                                                         0.000      0.210 r
  core/fu_lsu_r/U58/Z (C8T28SOIDV_LL_CNIVX18_P0)         0.009 *    0.219 f
  core/fu_lsu_r/U4/Z (C8T28SOIDV_LL_NAND2AX27_P0)        0.011 *    0.229 r
  core/fu_lsu_r/mem_en_x[0] (fu_ldw_stw_always_4_dataw32_addrw16_1)
                                                         0.000      0.229 r
  U154/Z (C8T28SOIDV_LL_NAND2X18_P0)                     0.010 *    0.240 f
  U331/Z (C8T28SOIDV_LL_CNBFX55_P0)                      0.026 *    0.265 f
  U135/Z (C8T28SOI_LL_CNNAND2X8_P4)                      0.015 *    0.280 r
  U136/Z (C8T28SOI_LL_OAI21X7_P4)                        0.012 *    0.292 f
  datamem/scheduler/lsu_addr_a[7] (par_mem_scheduler_dataw32_addrw14_ports2_rd_delay1)
                                                         0.000      0.292 f
  datamem/scheduler/addr_a_conv/data_in[7] (ser_par_conv_portw14_port_cnt2_1)
                                                         0.000      0.292 f
  datamem/scheduler/addr_a_conv/U17/Z (C8T28SOI_LL_CNIVX4_P4)
                                                         0.013 *    0.305 r
  datamem/scheduler/addr_a_conv/U16/Z (C8T28SOI_LL_IVX5_P10)
                                                         0.013 *    0.318 f
  datamem/scheduler/addr_a_conv/data_out[7] (ser_par_conv_portw14_port_cnt2_1)
                                                         0.000      0.318 f
  datamem/scheduler/U32/Z (C8T28SOI_LL_CNNAND2X8_P0)     0.011 *    0.329 r
  datamem/scheduler/U33/Z (C8T28SOIDV_LL_NAND2AX9_P4)    0.014 *    0.343 f
  datamem/scheduler/addr[7] (par_mem_scheduler_dataw32_addrw14_ports2_rd_delay1)
                                                         0.000      0.343 f
  datamem/par_mem_logic_inst/addrs_from_lsus[7] (par_mem_logic_PORTS2_LSU_ADDRW14_CTRLW1_DATAW32_PM_FUNC2)
                                                         0.000      0.343 f
  datamem/par_mem_logic_inst/addr_crsbar_0/addrs_from_lsus[7] (addr_crsbar_PORTS2_LSU_ADDRW14_CTRLW1_PM_FUNC2)
                                                         0.000      0.343 f
  datamem/par_mem_logic_inst/addr_crsbar_0/U65/Z (C8T28SOIDV_LL_NAND2X9_P0)
                                                         0.014 *    0.357 r
  datamem/par_mem_logic_inst/addr_crsbar_0/U66/Z (C8T28SOI_LL_NAND2X12_P16)
                                                         0.015 *    0.372 f
  datamem/par_mem_logic_inst/addr_crsbar_0/U67/Z (C8T28SOI_LL_CNXOR2X9_P0)
                                                         0.041 *    0.413 r
  datamem/par_mem_logic_inst/addr_crsbar_0/U49/Z (C8T28SOIDV_LLS_XNOR2X4_P0)
                                                         0.026 *    0.439 r
  datamem/par_mem_logic_inst/addr_crsbar_0/U69/Z (C8T28SOIDV_LLS_XOR2X4_P0)
                                                         0.032 *    0.471 r
  datamem/par_mem_logic_inst/addr_crsbar_0/U5/Z (C8T28SOI_LL_XOR2X9_P0)
                                                         0.052 *    0.523 f
  datamem/par_mem_logic_inst/addr_crsbar_0/module_nums[0] (addr_crsbar_PORTS2_LSU_ADDRW14_CTRLW1_PM_FUNC2)
                                                         0.000      0.523 f
  datamem/par_mem_logic_inst/ctrl_units_0/module_nums[0] (ctrl_units_PORTS2_CTRLW1)
                                                         0.000      0.523 f
  datamem/par_mem_logic_inst/ctrl_units_0/ctrl_uniti_0/module_num[0] (ctrl_unit_PORTS2_CTRLW1_1)
                                                         0.000      0.523 f
  datamem/par_mem_logic_inst/ctrl_units_0/ctrl_uniti_0/U7/Z (C8T28SOI_LL_OAI12X10_P0)
                                                         0.018 *    0.541 r
  datamem/par_mem_logic_inst/ctrl_units_0/ctrl_uniti_0/U12/Z (C8T28SOI_LL_CNIVX9_P0)
                                                         0.010 *    0.551 f
  datamem/par_mem_logic_inst/ctrl_units_0/ctrl_uniti_0/mem_en_x (ctrl_unit_PORTS2_CTRLW1_1)
                                                         0.000      0.551 f
  datamem/par_mem_logic_inst/ctrl_units_0/U9/Z (C8T28SOI_LL_CNOR2X19_P0)
                                                         0.029 *    0.580 f
  datamem/par_mem_logic_inst/ctrl_units_0/mem_en_xs[0] (ctrl_units_PORTS2_CTRLW1)
                                                         0.000      0.580 f
  datamem/par_mem_logic_inst/mem_en_xs[0] (par_mem_logic_PORTS2_LSU_ADDRW14_CTRLW1_DATAW32_PM_FUNC2)
                                                         0.000      0.580 f
  datamem/dmem_2/en_x (synch_singleport_mem_wrapper_DATAW32_ADDRW13_0)
                                                         0.000      0.580 f
  datamem/dmem_2/en_wr_arbiter/en (block_en_wr_arbiter_ADDRW13_NBLOCKS9_0)
                                                         0.000      0.580 f
  datamem/dmem_2/en_wr_arbiter/U13/Z (C8T28SOIDV_LL_CNIVX37_P0)
                                                         0.014 *    0.594 r
  datamem/dmem_2/en_wr_arbiter/U16/Z (C8T28SOI_LLBR0P6_NAND3X10_P0)
                                                         0.013 *    0.607 f
  datamem/dmem_2/en_wr_arbiter/en_blocks[7] (block_en_wr_arbiter_ADDRW13_NBLOCKS9_0)
                                                         0.000      0.607 f
  datamem/dmem_2/cacti_mem_x_7/en_x (cacti_mem_wrapper_DATAW32_ADDRW11_0)
                                                         0.000      0.607 f
  datamem/dmem_2/cacti_mem_x_7/mem_2048x32/mem_en_x (ram_2048x32)
                                                         0.000 *    0.607 f
  data arrival time                                                 0.607

  clock clk (rise edge)                                  1.176      1.176
  clock network delay (ideal)                            0.010      1.186
  clock uncertainty                                     -0.010      1.176
  datamem/dmem_2/cacti_mem_x_7/mem_2048x32/clk (ram_2048x32)
                                                         0.000      1.176 r
  library setup time                                    -0.507      0.669
  data required time                                                0.669
  --------------------------------------------------------------------------
  data required time                                                0.669
  data arrival time                                                -0.607
  --------------------------------------------------------------------------
  slack (MET)                                                       0.061


  Startpoint: core/loopbuffer/clk_r_REG512_S18
              (rising edge-triggered flip-flop clocked by clk)
  Endpoint: datamem/dmem_1/cacti_mem_x_6/mem_1024x32
            (rising edge-triggered flip-flop clocked by clk)
  Path Group: clk
  Path Type: max

  Point                                                   Incr       Path
  --------------------------------------------------------------------------
  clock clk (rise edge)                                  0.000      0.000
  clock network delay (ideal)                            0.010      0.010
  core/loopbuffer/clk_r_REG512_S18/CP (C8T28SOIDV_LL_DFPRQX10_P0)
                                                         0.000      0.010 r
  core/loopbuffer/clk_r_REG512_S18/Q (C8T28SOIDV_LL_DFPRQX10_P0)
                                                         0.056      0.066 r
  core/loopbuffer/U4/Z (C8T28SOIDV_LL_NOR2AX19_P4)       0.034 *    0.101 r
  core/loopbuffer/U5/Z (C8T28SOI_LL_OAI21X7_P0)          0.021 *    0.121 f
  core/loopbuffer/U45/Z (C8T28SOI_LLBR0P6_NAND3X10_P0)
                                                         0.019 *    0.141 r
  core/loopbuffer/lock_req_out (tta0_loopbuf_1_32_51_1_0)
                                                         0.000      0.141 r
  core/decomp/lock_r (tta0_decompressor)                 0.000      0.141 r
  core/decomp/U1/Z (C8T28SOI_LL_CNIVX9_P0)               0.011 *    0.152 f
  core/decomp/fetch_en (tta0_decompressor)               0.000      0.152 f
  core/inst_fetch/fetch_en (tta0_ifetch)                 0.000      0.152 f
  core/inst_fetch/U57/Z (C8T28SOIDV_LL_NAND2X9_P0)       0.011 *    0.162 r
  core/inst_fetch/glock (tta0_ifetch)                    0.000      0.162 r
  core/loopbuffer/glock_in (tta0_loopbuf_1_32_51_1_0)    0.000      0.162 r
  core/loopbuffer/U161/Z (C8T28SOI_LL_NAND2X8_P0)        0.011 *    0.173 f
  core/loopbuffer/U154/Z (C8T28SOIDV_LL_NAND2X9_P0)      0.016 *    0.189 r
  core/loopbuffer/glock_out (tta0_loopbuf_1_32_51_1_0)
                                                         0.000      0.189 r
  core/inst_decoder/lock (tta0_decoder)                  0.000      0.189 r
  core/inst_decoder/U5/Z (C8T28SOIDV_LL_CNIVX18_P0)      0.011 *    0.200 f
  core/inst_decoder/U3/Z (C8T28SOIDV_LL_NAND2X18_P0)     0.010 *    0.210 r
  core/inst_decoder/glock[7] (tta0_decoder)              0.000      0.210 r
  core/fu_lsu_r/glock (fu_ldw_stw_always_4_dataw32_addrw16_1)
                                                         0.000      0.210 r
  core/fu_lsu_r/U58/Z (C8T28SOIDV_LL_CNIVX18_P0)         0.009 *    0.219 f
  core/fu_lsu_r/U4/Z (C8T28SOIDV_LL_NAND2AX27_P0)        0.011 *    0.229 r
  core/fu_lsu_r/mem_en_x[0] (fu_ldw_stw_always_4_dataw32_addrw16_1)
                                                         0.000      0.229 r
  U154/Z (C8T28SOIDV_LL_NAND2X18_P0)                     0.010 *    0.240 f
  U331/Z (C8T28SOIDV_LL_CNBFX55_P0)                      0.026 *    0.265 f
  U135/Z (C8T28SOI_LL_CNNAND2X8_P4)                      0.015 *    0.280 r
  U136/Z (C8T28SOI_LL_OAI21X7_P4)                        0.012 *    0.292 f
  datamem/scheduler/lsu_addr_a[7] (par_mem_scheduler_dataw32_addrw14_ports2_rd_delay1)
                                                         0.000      0.292 f
  datamem/scheduler/addr_a_conv/data_in[7] (ser_par_conv_portw14_port_cnt2_1)
                                                         0.000      0.292 f
  datamem/scheduler/addr_a_conv/U17/Z (C8T28SOI_LL_CNIVX4_P4)
                                                         0.013 *    0.305 r
  datamem/scheduler/addr_a_conv/U16/Z (C8T28SOI_LL_IVX5_P10)
                                                         0.013 *    0.318 f
  datamem/scheduler/addr_a_conv/data_out[7] (ser_par_conv_portw14_port_cnt2_1)
                                                         0.000      0.318 f
  datamem/scheduler/U32/Z (C8T28SOI_LL_CNNAND2X8_P0)     0.011 *    0.329 r
  datamem/scheduler/U33/Z (C8T28SOIDV_LL_NAND2AX9_P4)    0.014 *    0.343 f
  datamem/scheduler/addr[7] (par_mem_scheduler_dataw32_addrw14_ports2_rd_delay1)
                                                         0.000      0.343 f
  datamem/par_mem_logic_inst/addrs_from_lsus[7] (par_mem_logic_PORTS2_LSU_ADDRW14_CTRLW1_DATAW32_PM_FUNC2)
                                                         0.000      0.343 f
  datamem/par_mem_logic_inst/addr_crsbar_0/addrs_from_lsus[7] (addr_crsbar_PORTS2_LSU_ADDRW14_CTRLW1_PM_FUNC2)
                                                         0.000      0.343 f
  datamem/par_mem_logic_inst/addr_crsbar_0/U65/Z (C8T28SOIDV_LL_NAND2X9_P0)
                                                         0.014 *    0.357 r
  datamem/par_mem_logic_inst/addr_crsbar_0/U66/Z (C8T28SOI_LL_NAND2X12_P16)
                                                         0.015 *    0.372 f
  datamem/par_mem_logic_inst/addr_crsbar_0/U67/Z (C8T28SOI_LL_CNXOR2X9_P0)
                                                         0.041 *    0.413 r
  datamem/par_mem_logic_inst/addr_crsbar_0/U49/Z (C8T28SOIDV_LLS_XNOR2X4_P0)
                                                         0.026 *    0.439 r
  datamem/par_mem_logic_inst/addr_crsbar_0/U69/Z (C8T28SOIDV_LLS_XOR2X4_P0)
                                                         0.032 *    0.471 r
  datamem/par_mem_logic_inst/addr_crsbar_0/U5/Z (C8T28SOI_LL_XOR2X9_P0)
                                                         0.045 *    0.516 r
  datamem/par_mem_logic_inst/addr_crsbar_0/module_nums[0] (addr_crsbar_PORTS2_LSU_ADDRW14_CTRLW1_PM_FUNC2)
                                                         0.000      0.516 r
  datamem/par_mem_logic_inst/ctrl_units_0/module_nums[0] (ctrl_units_PORTS2_CTRLW1)
                                                         0.000      0.516 r
  datamem/par_mem_logic_inst/ctrl_units_0/ctrl_uniti_0/module_num[0] (ctrl_unit_PORTS2_CTRLW1_1)
                                                         0.000      0.516 r
  datamem/par_mem_logic_inst/ctrl_units_0/ctrl_uniti_0/U13/Z (C8T28SOI_LL_CNNAND2X8_P0)
                                                         0.014 *    0.530 f
  datamem/par_mem_logic_inst/ctrl_units_0/ctrl_uniti_0/U10/Z (C8T28SOI_LL_CNIVX9_P0)
                                                         0.010 *    0.540 r
  datamem/par_mem_logic_inst/ctrl_units_0/ctrl_uniti_0/ctrl_matrix_row_out[1] (ctrl_unit_PORTS2_CTRLW1_1)
                                                         0.000      0.540 r
  datamem/par_mem_logic_inst/ctrl_units_0/ctrl_uniti_1/t_ctrl_matrix_row_in[0] (ctrl_unit_PORTS2_CTRLW1_0)
                                                         0.000      0.540 r
  datamem/par_mem_logic_inst/ctrl_units_0/ctrl_uniti_1/U5/Z (C8T28SOIDV_LL_NAND2X9_P0)
                                                         0.010 *    0.550 f
  datamem/par_mem_logic_inst/ctrl_units_0/ctrl_uniti_1/U11/Z (C8T28SOI_LL_CNIVX9_P0)
                                                         0.009 *    0.559 r
  datamem/par_mem_logic_inst/ctrl_units_0/ctrl_uniti_1/U14/Z (C8T28SOIDV_LL_NOR2AX10_P0)
                                                         0.009 *    0.568 f
  datamem/par_mem_logic_inst/ctrl_units_0/ctrl_uniti_1/mem_en_x (ctrl_unit_PORTS2_CTRLW1_0)
                                                         0.000      0.568 f
  datamem/par_mem_logic_inst/ctrl_units_0/U10/Z (C8T28SOIDV_LL_CNIVX28_P0)
                                                         0.010 *    0.578 r
  datamem/par_mem_logic_inst/ctrl_units_0/U8/Z (C8T28SOIDV_LL_NAND2AX36_P0)
                                                         0.011 *    0.590 f
  datamem/par_mem_logic_inst/ctrl_units_0/mem_en_xs[1] (ctrl_units_PORTS2_CTRLW1)
                                                         0.000      0.590 f
  datamem/par_mem_logic_inst/mem_en_xs[1] (par_mem_logic_PORTS2_LSU_ADDRW14_CTRLW1_DATAW32_PM_FUNC2)
                                                         0.000      0.590 f
  datamem/dmem_1/en_x (synch_singleport_mem_wrapper_DATAW32_ADDRW13_1)
                                                         0.000      0.590 f
  datamem/dmem_1/en_wr_arbiter/en (block_en_wr_arbiter_ADDRW13_NBLOCKS9_1)
                                                         0.000      0.590 f
  datamem/dmem_1/en_wr_arbiter/U19/Z (C8T28SOIDV_LL_CNIVX37_P0)
                                                         0.011 *    0.601 r
  datamem/dmem_1/en_wr_arbiter/U49/Z (C8T28SOIDV_LL_NAND2AX9_P0)
                                                         0.010 *    0.610 f
  datamem/dmem_1/en_wr_arbiter/en_blocks[6] (block_en_wr_arbiter_ADDRW13_NBLOCKS9_1)
                                                         0.000      0.610 f
  datamem/dmem_1/cacti_mem_x_6/en_x (cacti_mem_wrapper_DATAW32_ADDRW10_1)
                                                         0.000      0.610 f
  datamem/dmem_1/cacti_mem_x_6/mem_1024x32/mem_en_x (ram_1024x32)
                                                         0.000 *    0.611 f
  data arrival time                                                 0.611

  clock clk (rise edge)                                  1.176      1.176
  clock network delay (ideal)                            0.010      1.186
  clock uncertainty                                     -0.010      1.176
  datamem/dmem_1/cacti_mem_x_6/mem_1024x32/clk (ram_1024x32)
                                                         0.000      1.176 r
  library setup time                                    -0.504      0.672
  data required time                                                0.672
  --------------------------------------------------------------------------
  data required time                                                0.672
  data arrival time                                                -0.611
  --------------------------------------------------------------------------
  slack (MET)                                                       0.062


1
