Warning: There are 84 switching activity information conflicts. (PWR-19)
 
****************************************
Report : saif
Design : proc
Version: M-2016.12-SP5-1
Date   : Sat Jul 28 15:35:04 2018
****************************************

  

--------------------------------------------------------------------------------
              User              Default           Propagated
Object type   Annotated (%)     Activity (%)      Activity (%)       Total
--------------------------------------------------------------------------------
  
 Nets         287(65.23%)       0(0.00%)          153(34.77%)        440
 Ports        229(100.00%)      0(0.00%)          0(0.00%)           229
 Pins         273(39.17%)       0(0.00%)          424(60.83%)        697
--------------------------------------------------------------------------------
1
