********************************************************************************
                        Threshold Voltage Group Report                         

Vth Group                All                Blackbox           Non-blackbox
Name                    cells                cells                cells
********************************************************************************
undefined           16701 (100.00%)        118 (100.00%)      16583 (100.00%)   
********************************************************************************

Vth Group                All                Blackbox           Non-blackbox
Name                  cell area            cell area            cell area
********************************************************************************
undefined       109677.10 (100.00%)   96339.96 (100.00%)   13337.14 (100.00%)   
********************************************************************************
1
