Warning: There are 114 switching activity information conflicts. (PWR-19)
 
****************************************
Report : saif
Design : proc
Version: M-2016.12-SP5-1
Date   : Sat Jul 28 06:15:01 2018
****************************************

  

--------------------------------------------------------------------------------
              User              Default           Propagated
Object type   Annotated (%)     Activity (%)      Activity (%)       Total
--------------------------------------------------------------------------------
  
 Nets         269(64.05%)       0(0.00%)          151(35.95%)        420
 Ports        229(100.00%)      0(0.00%)          0(0.00%)           229
 Pins         224(33.99%)       0(0.00%)          435(66.01%)        659
--------------------------------------------------------------------------------
1
