Information: Updating design information... (UID-85)
 
****************************************
Report : timing
        -path full
        -delay max
        -max_paths 10
Design : proc
Version: M-2016.12-SP5-1
Date   : Sat Jul 28 06:14:24 2018
****************************************

 * Some/all delay information is back-annotated.

Operating Conditions: tt28_0.80V_0.00V_0.00V_0.00V_25C   Library: C28SOI_SC_8_CLK_LL
Wire Load Model Mode: Inactive.

  Startpoint: core/fu_CADD1/fu_arch/inst_cadd_reg/clk_r_REG2215_S1
              (rising edge-triggered flip-flop clocked by clk)
  Endpoint: datamem/scheduler/d_b_conv/clk_r_REG291_S20
            (rising edge-triggered flip-flop clocked by clk)
  Path Group: clk
  Path Type: max

  Point                                                   Incr       Path
  --------------------------------------------------------------------------
  clock clk (rise edge)                                  0.000      0.000
  clock network delay (ideal)                            0.010      0.010
  core/fu_CADD1/fu_arch/inst_cadd_reg/clk_r_REG2215_S1/CP (C8T28SOIDV_LL_DFPRQX10_P4)
                                                         0.000      0.010 r
  core/fu_CADD1/fu_arch/inst_cadd_reg/clk_r_REG2215_S1/Q (C8T28SOIDV_LL_DFPRQX10_P4)
                                                         0.066      0.076 f
  core/fu_CADD1/fu_arch/inst_cadd_reg/U3/Z (C8T28SOIDV_LL_CNBFX37_P0)
                                                         0.042 *    0.118 f
  core/fu_CADD1/fu_arch/inst_cadd_reg/opc_o[1] (cadd_reg_dataw32)
                                                         0.000      0.118 f
  core/fu_CADD1/fu_arch/inst_cadd_arith/opc_i[1] (cadd_arith_dataw32_halfw16)
                                                         0.000      0.118 f
  core/fu_CADD1/fu_arch/inst_cadd_arith/U270/Z (C8T28SOIDV_LL_NOR2X39_P4)
                                                         0.055 *    0.173 r
  core/fu_CADD1/fu_arch/inst_cadd_arith/U14/Z (C8T28SOI_LL_NAND2X15_P4)
                                                         0.045 *    0.218 f
  core/fu_CADD1/fu_arch/inst_cadd_arith/U17/Z (C8T28SOIDV_LL_NAND2X27_P0)
                                                         0.048 *    0.266 r
  core/fu_CADD1/fu_arch/inst_cadd_arith/U30/Z (C8T28SOIDV_LL_IVX68_P16)
                                                         0.028 *    0.294 f
  core/fu_CADD1/fu_arch/inst_cadd_arith/U46/Z (C8T28SOIDV_LL_NAND2X36_P0)
                                                         0.033 *    0.327 r
  core/fu_CADD1/fu_arch/inst_cadd_arith/U800/Z (C8T28SOIDV_LLS_XOR2X4_P16)
                                                         0.079 *    0.406 r
  core/fu_CADD1/fu_arch/inst_cadd_arith/U815/Z (C8T28SOI_LL_NAND2X4_P16)
                                                         0.054 *    0.460 f
  core/fu_CADD1/fu_arch/inst_cadd_arith/U947/Z (C8T28SOI_LL_OAI12X10_P16)
                                                         0.037 *    0.498 r
  core/fu_CADD1/fu_arch/inst_cadd_arith/U1166/Z (C8T28SOI_LL_IVX5_P16)
                                                         0.025 *    0.523 f
  core/fu_CADD1/fu_arch/inst_cadd_arith/U1167/Z (C8T28SOI_LL_OAI12X3_P16)
                                                         0.042 *    0.565 r
  core/fu_CADD1/fu_arch/inst_cadd_arith/U1168/Z (C8T28SOIDV_LLS_XNOR2X4_P16)
                                                         0.061 *    0.626 r
  core/fu_CADD1/fu_arch/inst_cadd_arith/U1170/Z (C8T28SOI_LL_OAI12X3_P16)
                                                         0.031 *    0.657 f
  core/fu_CADD1/fu_arch/inst_cadd_arith/U1172/Z (C8T28SOI_LL_NAND2AX4_P16)
                                                         0.049 *    0.706 f
  core/fu_CADD1/fu_arch/inst_cadd_arith/U1173/Z (C8T28SOI_LL_NOR2X4_P16)
                                                         0.033 *    0.739 r
  core/fu_CADD1/fu_arch/inst_cadd_arith/U1174/Z (C8T28SOI_LL_IVX5_P16)
                                                         0.028 *    0.767 f
  core/fu_CADD1/fu_arch/inst_cadd_arith/U1222/Z (C8T28SOI_LL_AOI12X10_P0)
                                                         0.027 *    0.794 r
  core/fu_CADD1/fu_arch/inst_cadd_arith/U939/Z (C8T28SOI_LL_OAI12X10_P16)
                                                         0.025 *    0.819 f
  core/fu_CADD1/fu_arch/inst_cadd_arith/U356/Z (C8T28SOI_LL_NAND2X4_P4)
                                                         0.021 *    0.840 r
  core/fu_CADD1/fu_arch/inst_cadd_arith/U117/Z (C8T28SOIDV_LL_NAND2X9_P4)
                                                         0.017 *    0.857 f
  core/fu_CADD1/fu_arch/inst_cadd_arith/U1232/Z (C8T28SOI_LL_AOI12X10_P4)
                                                         0.033 *    0.890 r
  core/fu_CADD1/fu_arch/inst_cadd_arith/U300/Z (C8T28SOI_LL_OAI12X10_P4)
                                                         0.024 *    0.914 f
  core/fu_CADD1/fu_arch/inst_cadd_arith/U74/Z (C8T28SOIDV_LL_NAND2AX9_P4)
                                                         0.017 *    0.931 r
  core/fu_CADD1/fu_arch/inst_cadd_arith/U1236/Z (C8T28SOIDV_LL_NAND2X9_P4)
                                                         0.014 *    0.945 f
  core/fu_CADD1/fu_arch/inst_cadd_arith/U67/Z (C8T28SOI_LL_AO12X10_P0)
                                                         0.042 *    0.987 f
  core/fu_CADD1/fu_arch/inst_cadd_arith/U53/Z (C8T28SOIDV_LL_NAND2AX27_P4)
                                                         0.016 *    1.003 r
  core/fu_CADD1/fu_arch/inst_cadd_arith/U45/Z (C8T28SOIDV_LL_NAND2AX27_P4)
                                                         0.012 *    1.015 f
  core/fu_CADD1/fu_arch/inst_cadd_arith/U38/Z (C8T28SOIDV_LL_NAND2AX27_P4)
                                                         0.012 *    1.027 r
  core/fu_CADD1/fu_arch/inst_cadd_arith/U1246/Z (C8T28SOIDV_LL_NAND2X18_P16)
                                                         0.014 *    1.041 f
  core/fu_CADD1/fu_arch/inst_cadd_arith/U1247/Z (C8T28SOI_LL_NAND2X8_P16)
                                                         0.017 *    1.059 r
  core/fu_CADD1/fu_arch/inst_cadd_arith/U19/Z (C8T28SOI_LL_CNNAND2X8_P0)
                                                         0.013 *    1.071 f
  core/fu_CADD1/fu_arch/inst_cadd_arith/U13/Z (C8T28SOIDV_LL_NAND2AX9_P10)
                                                         0.016 *    1.087 r
  core/fu_CADD1/fu_arch/inst_cadd_arith/U9/Z (C8T28SOIDV_LL_NAND2X9_P16)
                                                         0.016 *    1.103 f
  core/fu_CADD1/fu_arch/inst_cadd_arith/U1302/Z (C8T28SOI_LL_AOI12X3_P4)
                                                         0.024 *    1.126 r
  core/fu_CADD1/fu_arch/inst_cadd_arith/res_o[31] (cadd_arith_dataw32_halfw16)
                                                         0.000      1.126 r
  core/fu_CADD1/fu_arch/res_o[31] (cadd_full_dataw32_halfw16)
                                                         0.000      1.126 r
  core/fu_CADD1/r1data[31] (fu_cadd_always_1_dataw32_busw32)
                                                         0.000      1.126 r
  core/ic/socket_CADD1_o1_data0[31] (tta0_interconn)     0.000      1.126 r
  core/ic/CADD1_o1/data0[31] (tta0_output_socket_cons_1_1_BUSW_032_DATAW_032_5)
                                                         0.000      1.126 r
  core/ic/CADD1_o1/U1/Z (C8T28SOI_LL_AND2X10_P16)        0.049 *    1.176 r
  core/ic/CADD1_o1/databus0_alt[31] (tta0_output_socket_cons_1_1_BUSW_032_DATAW_032_5)
                                                         0.000      1.176 r
  core/ic/socket_lsu_w_i2_data[31] (tta0_interconn)      0.000      1.176 r
  core/fu_lsu_w/o1data[31] (fu_ldw_stw_always_4_dataw32_addrw16_0)
                                                         0.000      1.176 r
  core/fu_lsu_w/U29/Z (C8T28SOIDV_LL_NAND2AX9_P10)       0.013 *    1.189 f
  core/fu_lsu_w/U30/Z (C8T28SOI_LL_NAND2X4_P16)          0.016 *    1.205 r
  core/fu_lsu_w/data_out[31] (fu_ldw_stw_always_4_dataw32_addrw16_0)
                                                         0.000      1.205 r
  datamem/scheduler/lsu_d_b[31] (par_mem_scheduler_dataw32_addrw14_ports2_rd_delay1)
                                                         0.000      1.205 r
  datamem/scheduler/d_b_conv/data_in[31] (ser_par_conv_portw32_port_cnt2_1)
                                                         0.000      1.205 r
  datamem/scheduler/d_b_conv/clk_r_REG291_S20/D (C8T28SOIDV_LL_DFPRQX10_P10)
                                                         0.000 *    1.205 r
  data arrival time                                                 1.205

  clock clk (rise edge)                                  1.333      1.333
  clock network delay (ideal)                            0.010      1.343
  clock uncertainty                                     -0.010      1.333
  datamem/scheduler/d_b_conv/clk_r_REG291_S20/CP (C8T28SOIDV_LL_DFPRQX10_P10)
                                                         0.000      1.333 r
  library setup time                                    -0.030      1.303
  data required time                                                1.303
  --------------------------------------------------------------------------
  data required time                                                1.303
  data arrival time                                                -1.205
  --------------------------------------------------------------------------
  slack (MET)                                                       0.097


  Startpoint: datamem/scheduler/addr_a_conv/clk_r_REG2190_S1
              (rising edge-triggered flip-flop clocked by clk)
  Endpoint: datamem/dmem_1/cacti_mem_0/mem_32x32
            (rising edge-triggered flip-flop clocked by clk)
  Path Group: clk
  Path Type: max

  Point                                                   Incr       Path
  --------------------------------------------------------------------------
  clock clk (rise edge)                                  0.000      0.000
  clock network delay (ideal)                            0.010      0.010
  datamem/scheduler/addr_a_conv/clk_r_REG2190_S1/CP (C8T28SOIDV_LL_DFPRQX10_P0)
                                                         0.000      0.010 r
  datamem/scheduler/addr_a_conv/clk_r_REG2190_S1/Q (C8T28SOIDV_LL_DFPRQX10_P0)
                                                         0.076      0.086 r
  datamem/scheduler/addr_a_conv/en_out[1]_BAR (ser_par_conv_portw14_port_cnt2_1)
                                                         0.000      0.086 r
  datamem/scheduler/U85/Z (C8T28SOIDV_LL_CNIVX18_P0)     0.015 *    0.101 f
  datamem/scheduler/U87/Z (C8T28SOIDV_LL_NAND2X18_P0)    0.015 *    0.117 r
  datamem/scheduler/U61/Z (C8T28SOIDV_LL_CNBFX55_P0)     0.031 *    0.148 r
  datamem/scheduler/U236/Z (C8T28SOI_LL_MUXI21X2_P4)     0.053 *    0.201 r
  datamem/scheduler/U237/Z (C8T28SOIDV_LL_IVX23_P10)     0.026 *    0.227 f
  datamem/scheduler/addr[23] (par_mem_scheduler_dataw32_addrw14_ports2_rd_delay1)
                                                         0.000      0.227 f
  datamem/par_mem_logic_inst/addrs_from_lsus[23] (par_mem_logic_PORTS2_LSU_ADDRW14_CTRLW1_DATAW32_PM_FUNC2)
                                                         0.000      0.227 f
  datamem/par_mem_logic_inst/addr_crsbar_0/addrs_from_lsus[23] (addr_crsbar_PORTS2_LSU_ADDRW14_CTRLW1_PM_FUNC2)
                                                         0.000      0.227 f
  datamem/par_mem_logic_inst/addr_crsbar_0/U27/Z (C8T28SOI_LL_OAI21X7_P4)
                                                         0.041 *    0.268 r
  datamem/par_mem_logic_inst/addr_crsbar_0/U28/Z (C8T28SOI_LL_IVX10_P16)
                                                         0.030 *    0.297 f
  datamem/par_mem_logic_inst/addr_crsbar_0/U107/Z (C8T28SOI_LL_CNXOR2X9_P0)
                                                         0.040 *    0.337 r
  datamem/par_mem_logic_inst/addr_crsbar_0/U120/Z (C8T28SOI_LL_CNXOR2X15_P0)
                                                         0.035 *    0.372 r
  datamem/par_mem_logic_inst/addr_crsbar_0/U113/Z (C8T28SOIDV_LLS_XNOR2X4_P0)
                                                         0.029 *    0.402 r
  datamem/par_mem_logic_inst/addr_crsbar_0/U48/Z (C8T28SOIDV_LLS_XNOR2X4_P0)
                                                         0.041 *    0.443 r
  datamem/par_mem_logic_inst/addr_crsbar_0/module_nums[1] (addr_crsbar_PORTS2_LSU_ADDRW14_CTRLW1_PM_FUNC2)
                                                         0.000      0.443 r
  datamem/par_mem_logic_inst/ctrl_units_0/module_nums[1] (ctrl_units_PORTS2_CTRLW1)
                                                         0.000      0.443 r
  datamem/par_mem_logic_inst/ctrl_units_0/ctrl_uniti_1/module_num[0] (ctrl_unit_PORTS2_CTRLW1_0)
                                                         0.000      0.443 r
  datamem/par_mem_logic_inst/ctrl_units_0/ctrl_uniti_1/U19/Z (C8T28SOI_LL_CNBFX8_P0)
                                                         0.041 *    0.485 r
  datamem/par_mem_logic_inst/ctrl_units_0/ctrl_uniti_1/U4/Z (C8T28SOIDV_LL_NAND2AX17_P4)
                                                         0.018 *    0.502 f
  datamem/par_mem_logic_inst/ctrl_units_0/ctrl_uniti_1/addr_mux_ctrl[0] (ctrl_unit_PORTS2_CTRLW1_0)
                                                         0.000      0.502 f
  datamem/par_mem_logic_inst/ctrl_units_0/addr_mux_ctrls[1] (ctrl_units_PORTS2_CTRLW1)
                                                         0.000      0.502 f
  datamem/par_mem_logic_inst/U4/Z (C8T28SOIDV_LL_CNIVX37_P0)
                                                         0.019 *    0.521 r
  datamem/par_mem_logic_inst/addr_crsbar_0/ctrl[1] (addr_crsbar_PORTS2_LSU_ADDRW14_CTRLW1_PM_FUNC2)
                                                         0.000      0.521 r
  datamem/par_mem_logic_inst/addr_crsbar_0/U50/Z (C8T28SOIDV_LL_CNIVX55_P0)
                                                         0.016 *    0.536 f
  datamem/par_mem_logic_inst/addr_crsbar_0/U76/Z (C8T28SOI_LL_NAND2X8_P4)
                                                         0.013 *    0.549 r
  datamem/par_mem_logic_inst/addr_crsbar_0/U77/Z (C8T28SOI_LL_OAI21X7_P4)
                                                         0.024 *    0.573 f
  datamem/par_mem_logic_inst/addr_crsbar_0/mem_addrs_out[24] (addr_crsbar_PORTS2_LSU_ADDRW14_CTRLW1_PM_FUNC2)
                                                         0.000      0.573 f
  datamem/par_mem_logic_inst/addrs_to_mems[24] (par_mem_logic_PORTS2_LSU_ADDRW14_CTRLW1_DATAW32_PM_FUNC2)
                                                         0.000      0.573 f
  datamem/dmem_1/addr[11] (synch_singleport_mem_wrapper_DATAW32_ADDRW13_1)
                                                         0.000      0.573 f
  datamem/dmem_1/en_wr_arbiter/addr[11] (block_en_wr_arbiter_ADDRW13_NBLOCKS9_1)
                                                         0.000      0.573 f
  datamem/dmem_1/en_wr_arbiter/U7/Z (C8T28SOI_LL_CNNOR2X8_P4)
                                                         0.032 *    0.606 r
  datamem/dmem_1/en_wr_arbiter/U24/Z (C8T28SOIDV_LL_NAND2X18_P4)
                                                         0.020 *    0.626 f
  datamem/dmem_1/en_wr_arbiter/U9/Z (C8T28SOI_LL_CNNOR2X8_P4)
                                                         0.022 *    0.648 r
  datamem/dmem_1/en_wr_arbiter/U23/Z (C8T28SOIDV_LL_NAND2AX17_P4)
                                                         0.019 *    0.667 f
  datamem/dmem_1/en_wr_arbiter/U25/Z (C8T28SOIDV_LL_CNIVX18_P0)
                                                         0.012 *    0.679 r
  datamem/dmem_1/en_wr_arbiter/U26/Z (C8T28SOIDV_LL_NAND2X18_P4)
                                                         0.011 *    0.691 f
  datamem/dmem_1/en_wr_arbiter/U6/Z (C8T28SOIDV_LL_NOR2AX19_P4)
                                                         0.019 *    0.709 r
  datamem/dmem_1/en_wr_arbiter/U36/Z (C8T28SOIDV_LL_NAND2AX9_P10)
                                                         0.019 *    0.728 f
  datamem/dmem_1/en_wr_arbiter/en_blocks[0] (block_en_wr_arbiter_ADDRW13_NBLOCKS9_1)
                                                         0.000      0.728 f
  datamem/dmem_1/cacti_mem_0/en_x (cacti_mem_wrapper_DATAW32_ADDRW5_3)
                                                         0.000      0.728 f
  datamem/dmem_1/cacti_mem_0/mem_32x32/mem_en_x (ram_32x32)
                                                         0.000 *    0.728 f
  data arrival time                                                 0.728

  clock clk (rise edge)                                  1.333      1.333
  clock network delay (ideal)                            0.010      1.343
  clock uncertainty                                     -0.010      1.333
  datamem/dmem_1/cacti_mem_0/mem_32x32/clk (ram_32x32)
                                                         0.000      1.333 r
  library setup time                                    -0.507      0.826
  data required time                                                0.826
  --------------------------------------------------------------------------
  data required time                                                0.826
  data arrival time                                                -0.728
  --------------------------------------------------------------------------
  slack (MET)                                                       0.098


  Startpoint: datamem/scheduler/addr_a_conv/clk_r_REG2190_S1
              (rising edge-triggered flip-flop clocked by clk)
  Endpoint: datamem/dmem_2/cacti_mem_0/mem_32x32
            (rising edge-triggered flip-flop clocked by clk)
  Path Group: clk
  Path Type: max

  Point                                                   Incr       Path
  --------------------------------------------------------------------------
  clock clk (rise edge)                                  0.000      0.000
  clock network delay (ideal)                            0.010      0.010
  datamem/scheduler/addr_a_conv/clk_r_REG2190_S1/CP (C8T28SOIDV_LL_DFPRQX10_P0)
                                                         0.000      0.010 r
  datamem/scheduler/addr_a_conv/clk_r_REG2190_S1/Q (C8T28SOIDV_LL_DFPRQX10_P0)
                                                         0.076      0.086 r
  datamem/scheduler/addr_a_conv/en_out[1]_BAR (ser_par_conv_portw14_port_cnt2_1)
                                                         0.000      0.086 r
  datamem/scheduler/U85/Z (C8T28SOIDV_LL_CNIVX18_P0)     0.015 *    0.101 f
  datamem/scheduler/U87/Z (C8T28SOIDV_LL_NAND2X18_P0)    0.015 *    0.117 r
  datamem/scheduler/U61/Z (C8T28SOIDV_LL_CNBFX55_P0)     0.031 *    0.148 r
  datamem/scheduler/U236/Z (C8T28SOI_LL_MUXI21X2_P4)     0.053 *    0.201 r
  datamem/scheduler/U237/Z (C8T28SOIDV_LL_IVX23_P10)     0.026 *    0.227 f
  datamem/scheduler/addr[23] (par_mem_scheduler_dataw32_addrw14_ports2_rd_delay1)
                                                         0.000      0.227 f
  datamem/par_mem_logic_inst/addrs_from_lsus[23] (par_mem_logic_PORTS2_LSU_ADDRW14_CTRLW1_DATAW32_PM_FUNC2)
                                                         0.000      0.227 f
  datamem/par_mem_logic_inst/addr_crsbar_0/addrs_from_lsus[23] (addr_crsbar_PORTS2_LSU_ADDRW14_CTRLW1_PM_FUNC2)
                                                         0.000      0.227 f
  datamem/par_mem_logic_inst/addr_crsbar_0/U27/Z (C8T28SOI_LL_OAI21X7_P4)
                                                         0.041 *    0.268 r
  datamem/par_mem_logic_inst/addr_crsbar_0/U28/Z (C8T28SOI_LL_IVX10_P16)
                                                         0.030 *    0.297 f
  datamem/par_mem_logic_inst/addr_crsbar_0/U107/Z (C8T28SOI_LL_CNXOR2X9_P0)
                                                         0.040 *    0.337 r
  datamem/par_mem_logic_inst/addr_crsbar_0/U120/Z (C8T28SOI_LL_CNXOR2X15_P0)
                                                         0.042 *    0.379 f
  datamem/par_mem_logic_inst/addr_crsbar_0/U113/Z (C8T28SOIDV_LLS_XNOR2X4_P0)
                                                         0.027 *    0.406 f
  datamem/par_mem_logic_inst/addr_crsbar_0/U48/Z (C8T28SOIDV_LLS_XNOR2X4_P0)
                                                         0.033 *    0.439 f
  datamem/par_mem_logic_inst/addr_crsbar_0/module_nums[1] (addr_crsbar_PORTS2_LSU_ADDRW14_CTRLW1_PM_FUNC2)
                                                         0.000      0.439 f
  datamem/par_mem_logic_inst/ctrl_units_0/module_nums[1] (ctrl_units_PORTS2_CTRLW1)
                                                         0.000      0.439 f
  datamem/par_mem_logic_inst/ctrl_units_0/ctrl_uniti_1/module_num[0] (ctrl_unit_PORTS2_CTRLW1_0)
                                                         0.000      0.439 f
  datamem/par_mem_logic_inst/ctrl_units_0/ctrl_uniti_1/U12/Z (C8T28SOI_LL_CNNOR2X8_P0)
                                                         0.024 *    0.463 r
  datamem/par_mem_logic_inst/ctrl_units_0/ctrl_uniti_1/ctrl_matrix_row_out[0] (ctrl_unit_PORTS2_CTRLW1_0)
                                                         0.000      0.463 r
  datamem/par_mem_logic_inst/ctrl_units_0/ctrl_uniti_0/t_ctrl_matrix_row_in[1] (ctrl_unit_PORTS2_CTRLW1_1)
                                                         0.000      0.463 r
  datamem/par_mem_logic_inst/ctrl_units_0/ctrl_uniti_0/U6/Z (C8T28SOIDV_LL_CNIVX18_P0)
                                                         0.014 *    0.477 f
  datamem/par_mem_logic_inst/ctrl_units_0/ctrl_uniti_0/U4/Z (C8T28SOIDV_LL_NOR2AX39_P4)
                                                         0.028 *    0.505 r
  datamem/par_mem_logic_inst/ctrl_units_0/ctrl_uniti_0/addr_mux_ctrl[0] (ctrl_unit_PORTS2_CTRLW1_1)
                                                         0.000      0.505 r
  datamem/par_mem_logic_inst/ctrl_units_0/addr_mux_ctrls[0] (ctrl_units_PORTS2_CTRLW1)
                                                         0.000      0.505 r
  datamem/par_mem_logic_inst/addr_crsbar_0/ctrl[0] (addr_crsbar_PORTS2_LSU_ADDRW14_CTRLW1_PM_FUNC2)
                                                         0.000      0.505 r
  datamem/par_mem_logic_inst/addr_crsbar_0/U52/Z (C8T28SOIDV_LL_CNIVX55_P0)
                                                         0.025 *    0.530 f
  datamem/par_mem_logic_inst/addr_crsbar_0/U80/Z (C8T28SOI_LL_NAND2X12_P16)
                                                         0.022 *    0.552 r
  datamem/par_mem_logic_inst/addr_crsbar_0/U81/Z (C8T28SOI_LL_OAI21X10_P4)
                                                         0.024 *    0.576 f
  datamem/par_mem_logic_inst/addr_crsbar_0/mem_addrs_out[12] (addr_crsbar_PORTS2_LSU_ADDRW14_CTRLW1_PM_FUNC2)
                                                         0.000      0.576 f
  datamem/par_mem_logic_inst/addrs_to_mems[12] (par_mem_logic_PORTS2_LSU_ADDRW14_CTRLW1_DATAW32_PM_FUNC2)
                                                         0.000      0.576 f
  datamem/dmem_2/addr[12] (synch_singleport_mem_wrapper_DATAW32_ADDRW13_0)
                                                         0.000      0.576 f
  datamem/dmem_2/en_wr_arbiter/addr[12] (block_en_wr_arbiter_ADDRW13_NBLOCKS9_0)
                                                         0.000      0.576 f
  datamem/dmem_2/en_wr_arbiter/U2/Z (C8T28SOI_LL_CNNOR2X8_P0)
                                                         0.024 *    0.600 r
  datamem/dmem_2/en_wr_arbiter/U3/Z (C8T28SOIDV_LL_NAND2AX9_P10)
                                                         0.021 *    0.620 f
  datamem/dmem_2/en_wr_arbiter/U12/Z (C8T28SOIDV_LL_NOR2AX19_P10)
                                                         0.027 *    0.647 r
  datamem/dmem_2/en_wr_arbiter/U11/Z (C8T28SOIDV_LL_NAND2AX17_P4)
                                                         0.018 *    0.664 f
  datamem/dmem_2/en_wr_arbiter/U13/Z (C8T28SOI_LL_CNIVX14_P0)
                                                         0.012 *    0.676 r
  datamem/dmem_2/en_wr_arbiter/U14/Z (C8T28SOIDV_LL_NAND2X18_P4)
                                                         0.013 *    0.690 f
  datamem/dmem_2/en_wr_arbiter/U28/Z (C8T28SOI_LL_CNNOR2X8_P10)
                                                         0.020 *    0.710 r
  datamem/dmem_2/en_wr_arbiter/U29/Z (C8T28SOIDV_LL_NAND2X9_P16)
                                                         0.019 *    0.729 f
  datamem/dmem_2/en_wr_arbiter/en_blocks[0] (block_en_wr_arbiter_ADDRW13_NBLOCKS9_0)
                                                         0.000      0.729 f
  datamem/dmem_2/cacti_mem_0/en_x (cacti_mem_wrapper_DATAW32_ADDRW5_1)
                                                         0.000      0.729 f
  datamem/dmem_2/cacti_mem_0/mem_32x32/mem_en_x (ram_32x32)
                                                         0.000 *    0.729 f
  data arrival time                                                 0.729

  clock clk (rise edge)                                  1.333      1.333
  clock network delay (ideal)                            0.010      1.343
  clock uncertainty                                     -0.010      1.333
  datamem/dmem_2/cacti_mem_0/mem_32x32/clk (ram_32x32)
                                                         0.000      1.333 r
  library setup time                                    -0.506      0.827
  data required time                                                0.827
  --------------------------------------------------------------------------
  data required time                                                0.827
  data arrival time                                                -0.729
  --------------------------------------------------------------------------
  slack (MET)                                                       0.098


  Startpoint: datamem/scheduler/addr_a_conv/clk_r_REG2190_S1
              (rising edge-triggered flip-flop clocked by clk)
  Endpoint: datamem/dmem_2/cacti_mem_x_3/mem_128x32
            (rising edge-triggered flip-flop clocked by clk)
  Path Group: clk
  Path Type: max

  Point                                                   Incr       Path
  --------------------------------------------------------------------------
  clock clk (rise edge)                                  0.000      0.000
  clock network delay (ideal)                            0.010      0.010
  datamem/scheduler/addr_a_conv/clk_r_REG2190_S1/CP (C8T28SOIDV_LL_DFPRQX10_P0)
                                                         0.000      0.010 r
  datamem/scheduler/addr_a_conv/clk_r_REG2190_S1/Q (C8T28SOIDV_LL_DFPRQX10_P0)
                                                         0.076      0.086 r
  datamem/scheduler/addr_a_conv/en_out[1]_BAR (ser_par_conv_portw14_port_cnt2_1)
                                                         0.000      0.086 r
  datamem/scheduler/U85/Z (C8T28SOIDV_LL_CNIVX18_P0)     0.015 *    0.101 f
  datamem/scheduler/U87/Z (C8T28SOIDV_LL_NAND2X18_P0)    0.015 *    0.117 r
  datamem/scheduler/U61/Z (C8T28SOIDV_LL_CNBFX55_P0)     0.031 *    0.148 r
  datamem/scheduler/U236/Z (C8T28SOI_LL_MUXI21X2_P4)     0.053 *    0.201 r
  datamem/scheduler/U237/Z (C8T28SOIDV_LL_IVX23_P10)     0.026 *    0.227 f
  datamem/scheduler/addr[23] (par_mem_scheduler_dataw32_addrw14_ports2_rd_delay1)
                                                         0.000      0.227 f
  datamem/par_mem_logic_inst/addrs_from_lsus[23] (par_mem_logic_PORTS2_LSU_ADDRW14_CTRLW1_DATAW32_PM_FUNC2)
                                                         0.000      0.227 f
  datamem/par_mem_logic_inst/addr_crsbar_0/addrs_from_lsus[23] (addr_crsbar_PORTS2_LSU_ADDRW14_CTRLW1_PM_FUNC2)
                                                         0.000      0.227 f
  datamem/par_mem_logic_inst/addr_crsbar_0/U27/Z (C8T28SOI_LL_OAI21X7_P4)
                                                         0.041 *    0.268 r
  datamem/par_mem_logic_inst/addr_crsbar_0/U28/Z (C8T28SOI_LL_IVX10_P16)
                                                         0.030 *    0.297 f
  datamem/par_mem_logic_inst/addr_crsbar_0/U107/Z (C8T28SOI_LL_CNXOR2X9_P0)
                                                         0.040 *    0.337 r
  datamem/par_mem_logic_inst/addr_crsbar_0/U120/Z (C8T28SOI_LL_CNXOR2X15_P0)
                                                         0.042 *    0.379 f
  datamem/par_mem_logic_inst/addr_crsbar_0/U113/Z (C8T28SOIDV_LLS_XNOR2X4_P0)
                                                         0.027 *    0.406 f
  datamem/par_mem_logic_inst/addr_crsbar_0/U48/Z (C8T28SOIDV_LLS_XNOR2X4_P0)
                                                         0.033 *    0.439 f
  datamem/par_mem_logic_inst/addr_crsbar_0/module_nums[1] (addr_crsbar_PORTS2_LSU_ADDRW14_CTRLW1_PM_FUNC2)
                                                         0.000      0.439 f
  datamem/par_mem_logic_inst/ctrl_units_0/module_nums[1] (ctrl_units_PORTS2_CTRLW1)
                                                         0.000      0.439 f
  datamem/par_mem_logic_inst/ctrl_units_0/ctrl_uniti_1/module_num[0] (ctrl_unit_PORTS2_CTRLW1_0)
                                                         0.000      0.439 f
  datamem/par_mem_logic_inst/ctrl_units_0/ctrl_uniti_1/U12/Z (C8T28SOI_LL_CNNOR2X8_P0)
                                                         0.024 *    0.463 r
  datamem/par_mem_logic_inst/ctrl_units_0/ctrl_uniti_1/ctrl_matrix_row_out[0] (ctrl_unit_PORTS2_CTRLW1_0)
                                                         0.000      0.463 r
  datamem/par_mem_logic_inst/ctrl_units_0/ctrl_uniti_0/t_ctrl_matrix_row_in[1] (ctrl_unit_PORTS2_CTRLW1_1)
                                                         0.000      0.463 r
  datamem/par_mem_logic_inst/ctrl_units_0/ctrl_uniti_0/U6/Z (C8T28SOIDV_LL_CNIVX18_P0)
                                                         0.014 *    0.477 f
  datamem/par_mem_logic_inst/ctrl_units_0/ctrl_uniti_0/U4/Z (C8T28SOIDV_LL_NOR2AX39_P4)
                                                         0.028 *    0.505 r
  datamem/par_mem_logic_inst/ctrl_units_0/ctrl_uniti_0/addr_mux_ctrl[0] (ctrl_unit_PORTS2_CTRLW1_1)
                                                         0.000      0.505 r
  datamem/par_mem_logic_inst/ctrl_units_0/addr_mux_ctrls[0] (ctrl_units_PORTS2_CTRLW1)
                                                         0.000      0.505 r
  datamem/par_mem_logic_inst/addr_crsbar_0/ctrl[0] (addr_crsbar_PORTS2_LSU_ADDRW14_CTRLW1_PM_FUNC2)
                                                         0.000      0.505 r
  datamem/par_mem_logic_inst/addr_crsbar_0/U52/Z (C8T28SOIDV_LL_CNIVX55_P0)
                                                         0.025 *    0.530 f
  datamem/par_mem_logic_inst/addr_crsbar_0/U80/Z (C8T28SOI_LL_NAND2X12_P16)
                                                         0.022 *    0.552 r
  datamem/par_mem_logic_inst/addr_crsbar_0/U81/Z (C8T28SOI_LL_OAI21X10_P4)
                                                         0.024 *    0.576 f
  datamem/par_mem_logic_inst/addr_crsbar_0/mem_addrs_out[12] (addr_crsbar_PORTS2_LSU_ADDRW14_CTRLW1_PM_FUNC2)
                                                         0.000      0.576 f
  datamem/par_mem_logic_inst/addrs_to_mems[12] (par_mem_logic_PORTS2_LSU_ADDRW14_CTRLW1_DATAW32_PM_FUNC2)
                                                         0.000      0.576 f
  datamem/dmem_2/addr[12] (synch_singleport_mem_wrapper_DATAW32_ADDRW13_0)
                                                         0.000      0.576 f
  datamem/dmem_2/en_wr_arbiter/addr[12] (block_en_wr_arbiter_ADDRW13_NBLOCKS9_0)
                                                         0.000      0.576 f
  datamem/dmem_2/en_wr_arbiter/U2/Z (C8T28SOI_LL_CNNOR2X8_P0)
                                                         0.024 *    0.600 r
  datamem/dmem_2/en_wr_arbiter/U3/Z (C8T28SOIDV_LL_NAND2AX9_P10)
                                                         0.021 *    0.620 f
  datamem/dmem_2/en_wr_arbiter/U12/Z (C8T28SOIDV_LL_NOR2AX19_P10)
                                                         0.027 *    0.647 r
  datamem/dmem_2/en_wr_arbiter/U11/Z (C8T28SOIDV_LL_NAND2AX17_P4)
                                                         0.018 *    0.664 f
  datamem/dmem_2/en_wr_arbiter/U18/Z (C8T28SOI_LL_NOR2X4_P4)
                                                         0.034 *    0.698 r
  datamem/dmem_2/en_wr_arbiter/U20/Z (C8T28SOI_LLBR0P8_NAND2X4_P10)
                                                         0.029 *    0.727 f
  datamem/dmem_2/en_wr_arbiter/en_blocks[3] (block_en_wr_arbiter_ADDRW13_NBLOCKS9_0)
                                                         0.000      0.727 f
  datamem/dmem_2/cacti_mem_x_3/en_x (cacti_mem_wrapper_DATAW32_ADDRW7_0)
                                                         0.000      0.727 f
  datamem/dmem_2/cacti_mem_x_3/mem_128x32/mem_en_x (ram_128x32)
                                                         0.000 *    0.727 f
  data arrival time                                                 0.727

  clock clk (rise edge)                                  1.333      1.333
  clock network delay (ideal)                            0.010      1.343
  clock uncertainty                                     -0.010      1.333
  datamem/dmem_2/cacti_mem_x_3/mem_128x32/clk (ram_128x32)
                                                         0.000      1.333 r
  library setup time                                    -0.508      0.825
  data required time                                                0.825
  --------------------------------------------------------------------------
  data required time                                                0.825
  data arrival time                                                -0.727
  --------------------------------------------------------------------------
  slack (MET)                                                       0.098


  Startpoint: datamem/scheduler/addr_a_conv/clk_r_REG2190_S1
              (rising edge-triggered flip-flop clocked by clk)
  Endpoint: datamem/dmem_2/cacti_mem_x_1/mem_32x32
            (rising edge-triggered flip-flop clocked by clk)
  Path Group: clk
  Path Type: max

  Point                                                   Incr       Path
  --------------------------------------------------------------------------
  clock clk (rise edge)                                  0.000      0.000
  clock network delay (ideal)                            0.010      0.010
  datamem/scheduler/addr_a_conv/clk_r_REG2190_S1/CP (C8T28SOIDV_LL_DFPRQX10_P0)
                                                         0.000      0.010 r
  datamem/scheduler/addr_a_conv/clk_r_REG2190_S1/Q (C8T28SOIDV_LL_DFPRQX10_P0)
                                                         0.076      0.086 r
  datamem/scheduler/addr_a_conv/en_out[1]_BAR (ser_par_conv_portw14_port_cnt2_1)
                                                         0.000      0.086 r
  datamem/scheduler/U85/Z (C8T28SOIDV_LL_CNIVX18_P0)     0.015 *    0.101 f
  datamem/scheduler/U87/Z (C8T28SOIDV_LL_NAND2X18_P0)    0.015 *    0.117 r
  datamem/scheduler/U61/Z (C8T28SOIDV_LL_CNBFX55_P0)     0.031 *    0.148 r
  datamem/scheduler/U236/Z (C8T28SOI_LL_MUXI21X2_P4)     0.053 *    0.201 r
  datamem/scheduler/U237/Z (C8T28SOIDV_LL_IVX23_P10)     0.026 *    0.227 f
  datamem/scheduler/addr[23] (par_mem_scheduler_dataw32_addrw14_ports2_rd_delay1)
                                                         0.000      0.227 f
  datamem/par_mem_logic_inst/addrs_from_lsus[23] (par_mem_logic_PORTS2_LSU_ADDRW14_CTRLW1_DATAW32_PM_FUNC2)
                                                         0.000      0.227 f
  datamem/par_mem_logic_inst/addr_crsbar_0/addrs_from_lsus[23] (addr_crsbar_PORTS2_LSU_ADDRW14_CTRLW1_PM_FUNC2)
                                                         0.000      0.227 f
  datamem/par_mem_logic_inst/addr_crsbar_0/U27/Z (C8T28SOI_LL_OAI21X7_P4)
                                                         0.041 *    0.268 r
  datamem/par_mem_logic_inst/addr_crsbar_0/U28/Z (C8T28SOI_LL_IVX10_P16)
                                                         0.030 *    0.297 f
  datamem/par_mem_logic_inst/addr_crsbar_0/U107/Z (C8T28SOI_LL_CNXOR2X9_P0)
                                                         0.040 *    0.337 r
  datamem/par_mem_logic_inst/addr_crsbar_0/U120/Z (C8T28SOI_LL_CNXOR2X15_P0)
                                                         0.042 *    0.379 f
  datamem/par_mem_logic_inst/addr_crsbar_0/U113/Z (C8T28SOIDV_LLS_XNOR2X4_P0)
                                                         0.027 *    0.406 f
  datamem/par_mem_logic_inst/addr_crsbar_0/U48/Z (C8T28SOIDV_LLS_XNOR2X4_P0)
                                                         0.033 *    0.439 f
  datamem/par_mem_logic_inst/addr_crsbar_0/module_nums[1] (addr_crsbar_PORTS2_LSU_ADDRW14_CTRLW1_PM_FUNC2)
                                                         0.000      0.439 f
  datamem/par_mem_logic_inst/ctrl_units_0/module_nums[1] (ctrl_units_PORTS2_CTRLW1)
                                                         0.000      0.439 f
  datamem/par_mem_logic_inst/ctrl_units_0/ctrl_uniti_1/module_num[0] (ctrl_unit_PORTS2_CTRLW1_0)
                                                         0.000      0.439 f
  datamem/par_mem_logic_inst/ctrl_units_0/ctrl_uniti_1/U12/Z (C8T28SOI_LL_CNNOR2X8_P0)
                                                         0.024 *    0.463 r
  datamem/par_mem_logic_inst/ctrl_units_0/ctrl_uniti_1/ctrl_matrix_row_out[0] (ctrl_unit_PORTS2_CTRLW1_0)
                                                         0.000      0.463 r
  datamem/par_mem_logic_inst/ctrl_units_0/ctrl_uniti_0/t_ctrl_matrix_row_in[1] (ctrl_unit_PORTS2_CTRLW1_1)
                                                         0.000      0.463 r
  datamem/par_mem_logic_inst/ctrl_units_0/ctrl_uniti_0/U6/Z (C8T28SOIDV_LL_CNIVX18_P0)
                                                         0.014 *    0.477 f
  datamem/par_mem_logic_inst/ctrl_units_0/ctrl_uniti_0/U4/Z (C8T28SOIDV_LL_NOR2AX39_P4)
                                                         0.028 *    0.505 r
  datamem/par_mem_logic_inst/ctrl_units_0/ctrl_uniti_0/addr_mux_ctrl[0] (ctrl_unit_PORTS2_CTRLW1_1)
                                                         0.000      0.505 r
  datamem/par_mem_logic_inst/ctrl_units_0/addr_mux_ctrls[0] (ctrl_units_PORTS2_CTRLW1)
                                                         0.000      0.505 r
  datamem/par_mem_logic_inst/addr_crsbar_0/ctrl[0] (addr_crsbar_PORTS2_LSU_ADDRW14_CTRLW1_PM_FUNC2)
                                                         0.000      0.505 r
  datamem/par_mem_logic_inst/addr_crsbar_0/U52/Z (C8T28SOIDV_LL_CNIVX55_P0)
                                                         0.025 *    0.530 f
  datamem/par_mem_logic_inst/addr_crsbar_0/U80/Z (C8T28SOI_LL_NAND2X12_P16)
                                                         0.022 *    0.552 r
  datamem/par_mem_logic_inst/addr_crsbar_0/U81/Z (C8T28SOI_LL_OAI21X10_P4)
                                                         0.024 *    0.576 f
  datamem/par_mem_logic_inst/addr_crsbar_0/mem_addrs_out[12] (addr_crsbar_PORTS2_LSU_ADDRW14_CTRLW1_PM_FUNC2)
                                                         0.000      0.576 f
  datamem/par_mem_logic_inst/addrs_to_mems[12] (par_mem_logic_PORTS2_LSU_ADDRW14_CTRLW1_DATAW32_PM_FUNC2)
                                                         0.000      0.576 f
  datamem/dmem_2/addr[12] (synch_singleport_mem_wrapper_DATAW32_ADDRW13_0)
                                                         0.000      0.576 f
  datamem/dmem_2/en_wr_arbiter/addr[12] (block_en_wr_arbiter_ADDRW13_NBLOCKS9_0)
                                                         0.000      0.576 f
  datamem/dmem_2/en_wr_arbiter/U2/Z (C8T28SOI_LL_CNNOR2X8_P0)
                                                         0.024 *    0.600 r
  datamem/dmem_2/en_wr_arbiter/U3/Z (C8T28SOIDV_LL_NAND2AX9_P10)
                                                         0.021 *    0.620 f
  datamem/dmem_2/en_wr_arbiter/U12/Z (C8T28SOIDV_LL_NOR2AX19_P10)
                                                         0.027 *    0.647 r
  datamem/dmem_2/en_wr_arbiter/U11/Z (C8T28SOIDV_LL_NAND2AX17_P4)
                                                         0.018 *    0.664 f
  datamem/dmem_2/en_wr_arbiter/U13/Z (C8T28SOI_LL_CNIVX14_P0)
                                                         0.012 *    0.676 r
  datamem/dmem_2/en_wr_arbiter/U14/Z (C8T28SOIDV_LL_NAND2X18_P4)
                                                         0.013 *    0.690 f
  datamem/dmem_2/en_wr_arbiter/U15/Z (C8T28SOIDV_LL_NOR2AX19_P4)
                                                         0.020 *    0.710 r
  datamem/dmem_2/en_wr_arbiter/U26/Z (C8T28SOIDV_LL_NAND2X9_P4)
                                                         0.018 *    0.728 f
  datamem/dmem_2/en_wr_arbiter/en_blocks[1] (block_en_wr_arbiter_ADDRW13_NBLOCKS9_0)
                                                         0.000      0.728 f
  datamem/dmem_2/cacti_mem_x_1/en_x (cacti_mem_wrapper_DATAW32_ADDRW5_0)
                                                         0.000      0.728 f
  datamem/dmem_2/cacti_mem_x_1/mem_32x32/mem_en_x (ram_32x32)
                                                         0.000 *    0.728 f
  data arrival time                                                 0.728

  clock clk (rise edge)                                  1.333      1.333
  clock network delay (ideal)                            0.010      1.343
  clock uncertainty                                     -0.010      1.333
  datamem/dmem_2/cacti_mem_x_1/mem_32x32/clk (ram_32x32)
                                                         0.000      1.333 r
  library setup time                                    -0.506      0.827
  data required time                                                0.827
  --------------------------------------------------------------------------
  data required time                                                0.827
  data arrival time                                                -0.728
  --------------------------------------------------------------------------
  slack (MET)                                                       0.099


  Startpoint: datamem/scheduler/addr_a_conv/clk_r_REG2190_S1
              (rising edge-triggered flip-flop clocked by clk)
  Endpoint: datamem/dmem_2/cacti_mem_x_1/mem_32x32
            (rising edge-triggered flip-flop clocked by clk)
  Path Group: clk
  Path Type: max

  Point                                                   Incr       Path
  --------------------------------------------------------------------------
  clock clk (rise edge)                                  0.000      0.000
  clock network delay (ideal)                            0.010      0.010
  datamem/scheduler/addr_a_conv/clk_r_REG2190_S1/CP (C8T28SOIDV_LL_DFPRQX10_P0)
                                                         0.000      0.010 r
  datamem/scheduler/addr_a_conv/clk_r_REG2190_S1/Q (C8T28SOIDV_LL_DFPRQX10_P0)
                                                         0.076      0.086 r
  datamem/scheduler/addr_a_conv/en_out[1]_BAR (ser_par_conv_portw14_port_cnt2_1)
                                                         0.000      0.086 r
  datamem/scheduler/U85/Z (C8T28SOIDV_LL_CNIVX18_P0)     0.015 *    0.101 f
  datamem/scheduler/U87/Z (C8T28SOIDV_LL_NAND2X18_P0)    0.015 *    0.117 r
  datamem/scheduler/U61/Z (C8T28SOIDV_LL_CNBFX55_P0)     0.031 *    0.148 r
  datamem/scheduler/U236/Z (C8T28SOI_LL_MUXI21X2_P4)     0.053 *    0.201 r
  datamem/scheduler/U237/Z (C8T28SOIDV_LL_IVX23_P10)     0.026 *    0.227 f
  datamem/scheduler/addr[23] (par_mem_scheduler_dataw32_addrw14_ports2_rd_delay1)
                                                         0.000      0.227 f
  datamem/par_mem_logic_inst/addrs_from_lsus[23] (par_mem_logic_PORTS2_LSU_ADDRW14_CTRLW1_DATAW32_PM_FUNC2)
                                                         0.000      0.227 f
  datamem/par_mem_logic_inst/addr_crsbar_0/addrs_from_lsus[23] (addr_crsbar_PORTS2_LSU_ADDRW14_CTRLW1_PM_FUNC2)
                                                         0.000      0.227 f
  datamem/par_mem_logic_inst/addr_crsbar_0/U27/Z (C8T28SOI_LL_OAI21X7_P4)
                                                         0.041 *    0.268 r
  datamem/par_mem_logic_inst/addr_crsbar_0/U28/Z (C8T28SOI_LL_IVX10_P16)
                                                         0.030 *    0.297 f
  datamem/par_mem_logic_inst/addr_crsbar_0/U107/Z (C8T28SOI_LL_CNXOR2X9_P0)
                                                         0.040 *    0.337 r
  datamem/par_mem_logic_inst/addr_crsbar_0/U120/Z (C8T28SOI_LL_CNXOR2X15_P0)
                                                         0.042 *    0.379 f
  datamem/par_mem_logic_inst/addr_crsbar_0/U113/Z (C8T28SOIDV_LLS_XNOR2X4_P0)
                                                         0.027 *    0.406 f
  datamem/par_mem_logic_inst/addr_crsbar_0/U48/Z (C8T28SOIDV_LLS_XNOR2X4_P0)
                                                         0.033 *    0.439 f
  datamem/par_mem_logic_inst/addr_crsbar_0/module_nums[1] (addr_crsbar_PORTS2_LSU_ADDRW14_CTRLW1_PM_FUNC2)
                                                         0.000      0.439 f
  datamem/par_mem_logic_inst/ctrl_units_0/module_nums[1] (ctrl_units_PORTS2_CTRLW1)
                                                         0.000      0.439 f
  datamem/par_mem_logic_inst/ctrl_units_0/ctrl_uniti_1/module_num[0] (ctrl_unit_PORTS2_CTRLW1_0)
                                                         0.000      0.439 f
  datamem/par_mem_logic_inst/ctrl_units_0/ctrl_uniti_1/U12/Z (C8T28SOI_LL_CNNOR2X8_P0)
                                                         0.024 *    0.463 r
  datamem/par_mem_logic_inst/ctrl_units_0/ctrl_uniti_1/ctrl_matrix_row_out[0] (ctrl_unit_PORTS2_CTRLW1_0)
                                                         0.000      0.463 r
  datamem/par_mem_logic_inst/ctrl_units_0/ctrl_uniti_0/t_ctrl_matrix_row_in[1] (ctrl_unit_PORTS2_CTRLW1_1)
                                                         0.000      0.463 r
  datamem/par_mem_logic_inst/ctrl_units_0/ctrl_uniti_0/U6/Z (C8T28SOIDV_LL_CNIVX18_P0)
                                                         0.014 *    0.477 f
  datamem/par_mem_logic_inst/ctrl_units_0/ctrl_uniti_0/U4/Z (C8T28SOIDV_LL_NOR2AX39_P4)
                                                         0.028 *    0.505 r
  datamem/par_mem_logic_inst/ctrl_units_0/ctrl_uniti_0/addr_mux_ctrl[0] (ctrl_unit_PORTS2_CTRLW1_1)
                                                         0.000      0.505 r
  datamem/par_mem_logic_inst/ctrl_units_0/addr_mux_ctrls[0] (ctrl_units_PORTS2_CTRLW1)
                                                         0.000      0.505 r
  datamem/par_mem_logic_inst/addr_crsbar_0/ctrl[0] (addr_crsbar_PORTS2_LSU_ADDRW14_CTRLW1_PM_FUNC2)
                                                         0.000      0.505 r
  datamem/par_mem_logic_inst/addr_crsbar_0/U52/Z (C8T28SOIDV_LL_CNIVX55_P0)
                                                         0.025 *    0.530 f
  datamem/par_mem_logic_inst/addr_crsbar_0/U80/Z (C8T28SOI_LL_NAND2X12_P16)
                                                         0.022 *    0.552 r
  datamem/par_mem_logic_inst/addr_crsbar_0/U81/Z (C8T28SOI_LL_OAI21X10_P4)
                                                         0.024 *    0.576 f
  datamem/par_mem_logic_inst/addr_crsbar_0/mem_addrs_out[12] (addr_crsbar_PORTS2_LSU_ADDRW14_CTRLW1_PM_FUNC2)
                                                         0.000      0.576 f
  datamem/par_mem_logic_inst/addrs_to_mems[12] (par_mem_logic_PORTS2_LSU_ADDRW14_CTRLW1_DATAW32_PM_FUNC2)
                                                         0.000      0.576 f
  datamem/dmem_2/addr[12] (synch_singleport_mem_wrapper_DATAW32_ADDRW13_0)
                                                         0.000      0.576 f
  datamem/dmem_2/en_wr_arbiter/addr[12] (block_en_wr_arbiter_ADDRW13_NBLOCKS9_0)
                                                         0.000      0.576 f
  datamem/dmem_2/en_wr_arbiter/U2/Z (C8T28SOI_LL_CNNOR2X8_P0)
                                                         0.024 *    0.600 r
  datamem/dmem_2/en_wr_arbiter/U3/Z (C8T28SOIDV_LL_NAND2AX9_P10)
                                                         0.021 *    0.620 f
  datamem/dmem_2/en_wr_arbiter/U12/Z (C8T28SOIDV_LL_NOR2AX19_P10)
                                                         0.027 *    0.647 r
  datamem/dmem_2/en_wr_arbiter/U11/Z (C8T28SOIDV_LL_NAND2AX17_P4)
                                                         0.018 *    0.664 f
  datamem/dmem_2/en_wr_arbiter/U13/Z (C8T28SOI_LL_CNIVX14_P0)
                                                         0.012 *    0.676 r
  datamem/dmem_2/en_wr_arbiter/U14/Z (C8T28SOIDV_LL_NAND2X18_P4)
                                                         0.013 *    0.690 f
  datamem/dmem_2/en_wr_arbiter/U15/Z (C8T28SOIDV_LL_NOR2AX19_P4)
                                                         0.020 *    0.710 r
  datamem/dmem_2/en_wr_arbiter/U10/Z (C8T28SOIDV_LL_NAND2AX9_P10)
                                                         0.018 *    0.728 f
  datamem/dmem_2/en_wr_arbiter/wr_blocks[1] (block_en_wr_arbiter_ADDRW13_NBLOCKS9_0)
                                                         0.000      0.728 f
  datamem/dmem_2/cacti_mem_x_1/wr_x (cacti_mem_wrapper_DATAW32_ADDRW5_0)
                                                         0.000      0.728 f
  datamem/dmem_2/cacti_mem_x_1/mem_32x32/wr_en_x (ram_32x32)
                                                         0.000 *    0.728 f
  data arrival time                                                 0.728

  clock clk (rise edge)                                  1.333      1.333
  clock network delay (ideal)                            0.010      1.343
  clock uncertainty                                     -0.010      1.333
  datamem/dmem_2/cacti_mem_x_1/mem_32x32/clk (ram_32x32)
                                                         0.000      1.333 r
  library setup time                                    -0.506      0.827
  data required time                                                0.827
  --------------------------------------------------------------------------
  data required time                                                0.827
  data arrival time                                                -0.728
  --------------------------------------------------------------------------
  slack (MET)                                                       0.099


  Startpoint: datamem/scheduler/addr_a_conv/clk_r_REG2190_S1
              (rising edge-triggered flip-flop clocked by clk)
  Endpoint: datamem/dmem_2/cacti_mem_x_2/mem_64x32
            (rising edge-triggered flip-flop clocked by clk)
  Path Group: clk
  Path Type: max

  Point                                                   Incr       Path
  --------------------------------------------------------------------------
  clock clk (rise edge)                                  0.000      0.000
  clock network delay (ideal)                            0.010      0.010
  datamem/scheduler/addr_a_conv/clk_r_REG2190_S1/CP (C8T28SOIDV_LL_DFPRQX10_P0)
                                                         0.000      0.010 r
  datamem/scheduler/addr_a_conv/clk_r_REG2190_S1/Q (C8T28SOIDV_LL_DFPRQX10_P0)
                                                         0.076      0.086 r
  datamem/scheduler/addr_a_conv/en_out[1]_BAR (ser_par_conv_portw14_port_cnt2_1)
                                                         0.000      0.086 r
  datamem/scheduler/U85/Z (C8T28SOIDV_LL_CNIVX18_P0)     0.015 *    0.101 f
  datamem/scheduler/U87/Z (C8T28SOIDV_LL_NAND2X18_P0)    0.015 *    0.117 r
  datamem/scheduler/U61/Z (C8T28SOIDV_LL_CNBFX55_P0)     0.031 *    0.148 r
  datamem/scheduler/U236/Z (C8T28SOI_LL_MUXI21X2_P4)     0.053 *    0.201 r
  datamem/scheduler/U237/Z (C8T28SOIDV_LL_IVX23_P10)     0.026 *    0.227 f
  datamem/scheduler/addr[23] (par_mem_scheduler_dataw32_addrw14_ports2_rd_delay1)
                                                         0.000      0.227 f
  datamem/par_mem_logic_inst/addrs_from_lsus[23] (par_mem_logic_PORTS2_LSU_ADDRW14_CTRLW1_DATAW32_PM_FUNC2)
                                                         0.000      0.227 f
  datamem/par_mem_logic_inst/addr_crsbar_0/addrs_from_lsus[23] (addr_crsbar_PORTS2_LSU_ADDRW14_CTRLW1_PM_FUNC2)
                                                         0.000      0.227 f
  datamem/par_mem_logic_inst/addr_crsbar_0/U27/Z (C8T28SOI_LL_OAI21X7_P4)
                                                         0.041 *    0.268 r
  datamem/par_mem_logic_inst/addr_crsbar_0/U28/Z (C8T28SOI_LL_IVX10_P16)
                                                         0.030 *    0.297 f
  datamem/par_mem_logic_inst/addr_crsbar_0/U107/Z (C8T28SOI_LL_CNXOR2X9_P0)
                                                         0.040 *    0.337 r
  datamem/par_mem_logic_inst/addr_crsbar_0/U120/Z (C8T28SOI_LL_CNXOR2X15_P0)
                                                         0.042 *    0.379 f
  datamem/par_mem_logic_inst/addr_crsbar_0/U113/Z (C8T28SOIDV_LLS_XNOR2X4_P0)
                                                         0.027 *    0.406 f
  datamem/par_mem_logic_inst/addr_crsbar_0/U48/Z (C8T28SOIDV_LLS_XNOR2X4_P0)
                                                         0.033 *    0.439 f
  datamem/par_mem_logic_inst/addr_crsbar_0/module_nums[1] (addr_crsbar_PORTS2_LSU_ADDRW14_CTRLW1_PM_FUNC2)
                                                         0.000      0.439 f
  datamem/par_mem_logic_inst/ctrl_units_0/module_nums[1] (ctrl_units_PORTS2_CTRLW1)
                                                         0.000      0.439 f
  datamem/par_mem_logic_inst/ctrl_units_0/ctrl_uniti_1/module_num[0] (ctrl_unit_PORTS2_CTRLW1_0)
                                                         0.000      0.439 f
  datamem/par_mem_logic_inst/ctrl_units_0/ctrl_uniti_1/U12/Z (C8T28SOI_LL_CNNOR2X8_P0)
                                                         0.024 *    0.463 r
  datamem/par_mem_logic_inst/ctrl_units_0/ctrl_uniti_1/ctrl_matrix_row_out[0] (ctrl_unit_PORTS2_CTRLW1_0)
                                                         0.000      0.463 r
  datamem/par_mem_logic_inst/ctrl_units_0/ctrl_uniti_0/t_ctrl_matrix_row_in[1] (ctrl_unit_PORTS2_CTRLW1_1)
                                                         0.000      0.463 r
  datamem/par_mem_logic_inst/ctrl_units_0/ctrl_uniti_0/U6/Z (C8T28SOIDV_LL_CNIVX18_P0)
                                                         0.014 *    0.477 f
  datamem/par_mem_logic_inst/ctrl_units_0/ctrl_uniti_0/U4/Z (C8T28SOIDV_LL_NOR2AX39_P4)
                                                         0.028 *    0.505 r
  datamem/par_mem_logic_inst/ctrl_units_0/ctrl_uniti_0/addr_mux_ctrl[0] (ctrl_unit_PORTS2_CTRLW1_1)
                                                         0.000      0.505 r
  datamem/par_mem_logic_inst/ctrl_units_0/addr_mux_ctrls[0] (ctrl_units_PORTS2_CTRLW1)
                                                         0.000      0.505 r
  datamem/par_mem_logic_inst/addr_crsbar_0/ctrl[0] (addr_crsbar_PORTS2_LSU_ADDRW14_CTRLW1_PM_FUNC2)
                                                         0.000      0.505 r
  datamem/par_mem_logic_inst/addr_crsbar_0/U52/Z (C8T28SOIDV_LL_CNIVX55_P0)
                                                         0.025 *    0.530 f
  datamem/par_mem_logic_inst/addr_crsbar_0/U80/Z (C8T28SOI_LL_NAND2X12_P16)
                                                         0.022 *    0.552 r
  datamem/par_mem_logic_inst/addr_crsbar_0/U81/Z (C8T28SOI_LL_OAI21X10_P4)
                                                         0.024 *    0.576 f
  datamem/par_mem_logic_inst/addr_crsbar_0/mem_addrs_out[12] (addr_crsbar_PORTS2_LSU_ADDRW14_CTRLW1_PM_FUNC2)
                                                         0.000      0.576 f
  datamem/par_mem_logic_inst/addrs_to_mems[12] (par_mem_logic_PORTS2_LSU_ADDRW14_CTRLW1_DATAW32_PM_FUNC2)
                                                         0.000      0.576 f
  datamem/dmem_2/addr[12] (synch_singleport_mem_wrapper_DATAW32_ADDRW13_0)
                                                         0.000      0.576 f
  datamem/dmem_2/en_wr_arbiter/addr[12] (block_en_wr_arbiter_ADDRW13_NBLOCKS9_0)
                                                         0.000      0.576 f
  datamem/dmem_2/en_wr_arbiter/U2/Z (C8T28SOI_LL_CNNOR2X8_P0)
                                                         0.024 *    0.600 r
  datamem/dmem_2/en_wr_arbiter/U3/Z (C8T28SOIDV_LL_NAND2AX9_P10)
                                                         0.021 *    0.620 f
  datamem/dmem_2/en_wr_arbiter/U12/Z (C8T28SOIDV_LL_NOR2AX19_P10)
                                                         0.027 *    0.647 r
  datamem/dmem_2/en_wr_arbiter/U11/Z (C8T28SOIDV_LL_NAND2AX17_P4)
                                                         0.018 *    0.664 f
  datamem/dmem_2/en_wr_arbiter/U22/Z (C8T28SOI_LL_NOR3X7_P4)
                                                         0.030 *    0.694 r
  datamem/dmem_2/en_wr_arbiter/U23/Z (C8T28SOI_LLBR0P8_NAND2X4_P10)
                                                         0.029 *    0.724 f
  datamem/dmem_2/en_wr_arbiter/en_blocks[2] (block_en_wr_arbiter_ADDRW13_NBLOCKS9_0)
                                                         0.000      0.724 f
  datamem/dmem_2/cacti_mem_x_2/en_x (cacti_mem_wrapper_DATAW32_ADDRW6_0)
                                                         0.000      0.724 f
  datamem/dmem_2/cacti_mem_x_2/mem_64x32/mem_en_x (ram_64x32)
                                                         0.000 *    0.724 f
  data arrival time                                                 0.724

  clock clk (rise edge)                                  1.333      1.333
  clock network delay (ideal)                            0.010      1.343
  clock uncertainty                                     -0.010      1.333
  datamem/dmem_2/cacti_mem_x_2/mem_64x32/clk (ram_64x32)
                                                         0.000      1.333 r
  library setup time                                    -0.509      0.824
  data required time                                                0.824
  --------------------------------------------------------------------------
  data required time                                                0.824
  data arrival time                                                -0.724
  --------------------------------------------------------------------------
  slack (MET)                                                       0.100


  Startpoint: datamem/scheduler/addr_a_conv/clk_r_REG2190_S1
              (rising edge-triggered flip-flop clocked by clk)
  Endpoint: datamem/dmem_2/cacti_mem_0/mem_32x32
            (rising edge-triggered flip-flop clocked by clk)
  Path Group: clk
  Path Type: max

  Point                                                   Incr       Path
  --------------------------------------------------------------------------
  clock clk (rise edge)                                  0.000      0.000
  clock network delay (ideal)                            0.010      0.010
  datamem/scheduler/addr_a_conv/clk_r_REG2190_S1/CP (C8T28SOIDV_LL_DFPRQX10_P0)
                                                         0.000      0.010 r
  datamem/scheduler/addr_a_conv/clk_r_REG2190_S1/Q (C8T28SOIDV_LL_DFPRQX10_P0)
                                                         0.076      0.086 r
  datamem/scheduler/addr_a_conv/en_out[1]_BAR (ser_par_conv_portw14_port_cnt2_1)
                                                         0.000      0.086 r
  datamem/scheduler/U85/Z (C8T28SOIDV_LL_CNIVX18_P0)     0.015 *    0.101 f
  datamem/scheduler/U87/Z (C8T28SOIDV_LL_NAND2X18_P0)    0.015 *    0.117 r
  datamem/scheduler/U61/Z (C8T28SOIDV_LL_CNBFX55_P0)     0.031 *    0.148 r
  datamem/scheduler/U236/Z (C8T28SOI_LL_MUXI21X2_P4)     0.053 *    0.201 r
  datamem/scheduler/U237/Z (C8T28SOIDV_LL_IVX23_P10)     0.026 *    0.227 f
  datamem/scheduler/addr[23] (par_mem_scheduler_dataw32_addrw14_ports2_rd_delay1)
                                                         0.000      0.227 f
  datamem/par_mem_logic_inst/addrs_from_lsus[23] (par_mem_logic_PORTS2_LSU_ADDRW14_CTRLW1_DATAW32_PM_FUNC2)
                                                         0.000      0.227 f
  datamem/par_mem_logic_inst/addr_crsbar_0/addrs_from_lsus[23] (addr_crsbar_PORTS2_LSU_ADDRW14_CTRLW1_PM_FUNC2)
                                                         0.000      0.227 f
  datamem/par_mem_logic_inst/addr_crsbar_0/U27/Z (C8T28SOI_LL_OAI21X7_P4)
                                                         0.041 *    0.268 r
  datamem/par_mem_logic_inst/addr_crsbar_0/U28/Z (C8T28SOI_LL_IVX10_P16)
                                                         0.030 *    0.297 f
  datamem/par_mem_logic_inst/addr_crsbar_0/U107/Z (C8T28SOI_LL_CNXOR2X9_P0)
                                                         0.040 *    0.337 r
  datamem/par_mem_logic_inst/addr_crsbar_0/U120/Z (C8T28SOI_LL_CNXOR2X15_P0)
                                                         0.042 *    0.379 f
  datamem/par_mem_logic_inst/addr_crsbar_0/U113/Z (C8T28SOIDV_LLS_XNOR2X4_P0)
                                                         0.027 *    0.406 f
  datamem/par_mem_logic_inst/addr_crsbar_0/U48/Z (C8T28SOIDV_LLS_XNOR2X4_P0)
                                                         0.033 *    0.439 f
  datamem/par_mem_logic_inst/addr_crsbar_0/module_nums[1] (addr_crsbar_PORTS2_LSU_ADDRW14_CTRLW1_PM_FUNC2)
                                                         0.000      0.439 f
  datamem/par_mem_logic_inst/ctrl_units_0/module_nums[1] (ctrl_units_PORTS2_CTRLW1)
                                                         0.000      0.439 f
  datamem/par_mem_logic_inst/ctrl_units_0/ctrl_uniti_1/module_num[0] (ctrl_unit_PORTS2_CTRLW1_0)
                                                         0.000      0.439 f
  datamem/par_mem_logic_inst/ctrl_units_0/ctrl_uniti_1/U12/Z (C8T28SOI_LL_CNNOR2X8_P0)
                                                         0.024 *    0.463 r
  datamem/par_mem_logic_inst/ctrl_units_0/ctrl_uniti_1/ctrl_matrix_row_out[0] (ctrl_unit_PORTS2_CTRLW1_0)
                                                         0.000      0.463 r
  datamem/par_mem_logic_inst/ctrl_units_0/ctrl_uniti_0/t_ctrl_matrix_row_in[1] (ctrl_unit_PORTS2_CTRLW1_1)
                                                         0.000      0.463 r
  datamem/par_mem_logic_inst/ctrl_units_0/ctrl_uniti_0/U6/Z (C8T28SOIDV_LL_CNIVX18_P0)
                                                         0.014 *    0.477 f
  datamem/par_mem_logic_inst/ctrl_units_0/ctrl_uniti_0/U4/Z (C8T28SOIDV_LL_NOR2AX39_P4)
                                                         0.028 *    0.505 r
  datamem/par_mem_logic_inst/ctrl_units_0/ctrl_uniti_0/addr_mux_ctrl[0] (ctrl_unit_PORTS2_CTRLW1_1)
                                                         0.000      0.505 r
  datamem/par_mem_logic_inst/ctrl_units_0/addr_mux_ctrls[0] (ctrl_units_PORTS2_CTRLW1)
                                                         0.000      0.505 r
  datamem/par_mem_logic_inst/addr_crsbar_0/ctrl[0] (addr_crsbar_PORTS2_LSU_ADDRW14_CTRLW1_PM_FUNC2)
                                                         0.000      0.505 r
  datamem/par_mem_logic_inst/addr_crsbar_0/U52/Z (C8T28SOIDV_LL_CNIVX55_P0)
                                                         0.025 *    0.530 f
  datamem/par_mem_logic_inst/addr_crsbar_0/U80/Z (C8T28SOI_LL_NAND2X12_P16)
                                                         0.022 *    0.552 r
  datamem/par_mem_logic_inst/addr_crsbar_0/U81/Z (C8T28SOI_LL_OAI21X10_P4)
                                                         0.024 *    0.576 f
  datamem/par_mem_logic_inst/addr_crsbar_0/mem_addrs_out[12] (addr_crsbar_PORTS2_LSU_ADDRW14_CTRLW1_PM_FUNC2)
                                                         0.000      0.576 f
  datamem/par_mem_logic_inst/addrs_to_mems[12] (par_mem_logic_PORTS2_LSU_ADDRW14_CTRLW1_DATAW32_PM_FUNC2)
                                                         0.000      0.576 f
  datamem/dmem_2/addr[12] (synch_singleport_mem_wrapper_DATAW32_ADDRW13_0)
                                                         0.000      0.576 f
  datamem/dmem_2/en_wr_arbiter/addr[12] (block_en_wr_arbiter_ADDRW13_NBLOCKS9_0)
                                                         0.000      0.576 f
  datamem/dmem_2/en_wr_arbiter/U2/Z (C8T28SOI_LL_CNNOR2X8_P0)
                                                         0.024 *    0.600 r
  datamem/dmem_2/en_wr_arbiter/U3/Z (C8T28SOIDV_LL_NAND2AX9_P10)
                                                         0.021 *    0.620 f
  datamem/dmem_2/en_wr_arbiter/U12/Z (C8T28SOIDV_LL_NOR2AX19_P10)
                                                         0.027 *    0.647 r
  datamem/dmem_2/en_wr_arbiter/U11/Z (C8T28SOIDV_LL_NAND2AX17_P4)
                                                         0.018 *    0.664 f
  datamem/dmem_2/en_wr_arbiter/U13/Z (C8T28SOI_LL_CNIVX14_P0)
                                                         0.012 *    0.676 r
  datamem/dmem_2/en_wr_arbiter/U14/Z (C8T28SOIDV_LL_NAND2X18_P4)
                                                         0.013 *    0.690 f
  datamem/dmem_2/en_wr_arbiter/U44/Z (C8T28SOI_LL_IVX5_P10)
                                                         0.015 *    0.705 r
  datamem/dmem_2/en_wr_arbiter/U45/Z (C8T28SOI_LLBR0P6_NAND3X3_P10)
                                                         0.016 *    0.721 f
  datamem/dmem_2/en_wr_arbiter/wr_blocks[0] (block_en_wr_arbiter_ADDRW13_NBLOCKS9_0)
                                                         0.000      0.721 f
  datamem/dmem_2/cacti_mem_0/wr_x (cacti_mem_wrapper_DATAW32_ADDRW5_1)
                                                         0.000      0.721 f
  datamem/dmem_2/cacti_mem_0/mem_32x32/wr_en_x (ram_32x32)
                                                         0.000 *    0.721 f
  data arrival time                                                 0.721

  clock clk (rise edge)                                  1.333      1.333
  clock network delay (ideal)                            0.010      1.343
  clock uncertainty                                     -0.010      1.333
  datamem/dmem_2/cacti_mem_0/mem_32x32/clk (ram_32x32)
                                                         0.000      1.333 r
  library setup time                                    -0.508      0.825
  data required time                                                0.825
  --------------------------------------------------------------------------
  data required time                                                0.825
  data arrival time                                                -0.721
  --------------------------------------------------------------------------
  slack (MET)                                                       0.104


  Startpoint: datamem/scheduler/addr_a_conv/clk_r_REG2190_S1
              (rising edge-triggered flip-flop clocked by clk)
  Endpoint: datamem/dmem_1/cacti_mem_0/mem_32x32
            (rising edge-triggered flip-flop clocked by clk)
  Path Group: clk
  Path Type: max

  Point                                                   Incr       Path
  --------------------------------------------------------------------------
  clock clk (rise edge)                                  0.000      0.000
  clock network delay (ideal)                            0.010      0.010
  datamem/scheduler/addr_a_conv/clk_r_REG2190_S1/CP (C8T28SOIDV_LL_DFPRQX10_P0)
                                                         0.000      0.010 r
  datamem/scheduler/addr_a_conv/clk_r_REG2190_S1/Q (C8T28SOIDV_LL_DFPRQX10_P0)
                                                         0.076      0.086 r
  datamem/scheduler/addr_a_conv/en_out[1]_BAR (ser_par_conv_portw14_port_cnt2_1)
                                                         0.000      0.086 r
  datamem/scheduler/U85/Z (C8T28SOIDV_LL_CNIVX18_P0)     0.015 *    0.101 f
  datamem/scheduler/U87/Z (C8T28SOIDV_LL_NAND2X18_P0)    0.015 *    0.117 r
  datamem/scheduler/U61/Z (C8T28SOIDV_LL_CNBFX55_P0)     0.031 *    0.148 r
  datamem/scheduler/U236/Z (C8T28SOI_LL_MUXI21X2_P4)     0.053 *    0.201 r
  datamem/scheduler/U237/Z (C8T28SOIDV_LL_IVX23_P10)     0.026 *    0.227 f
  datamem/scheduler/addr[23] (par_mem_scheduler_dataw32_addrw14_ports2_rd_delay1)
                                                         0.000      0.227 f
  datamem/par_mem_logic_inst/addrs_from_lsus[23] (par_mem_logic_PORTS2_LSU_ADDRW14_CTRLW1_DATAW32_PM_FUNC2)
                                                         0.000      0.227 f
  datamem/par_mem_logic_inst/addr_crsbar_0/addrs_from_lsus[23] (addr_crsbar_PORTS2_LSU_ADDRW14_CTRLW1_PM_FUNC2)
                                                         0.000      0.227 f
  datamem/par_mem_logic_inst/addr_crsbar_0/U27/Z (C8T28SOI_LL_OAI21X7_P4)
                                                         0.041 *    0.268 r
  datamem/par_mem_logic_inst/addr_crsbar_0/U28/Z (C8T28SOI_LL_IVX10_P16)
                                                         0.030 *    0.297 f
  datamem/par_mem_logic_inst/addr_crsbar_0/U107/Z (C8T28SOI_LL_CNXOR2X9_P0)
                                                         0.040 *    0.337 r
  datamem/par_mem_logic_inst/addr_crsbar_0/U120/Z (C8T28SOI_LL_CNXOR2X15_P0)
                                                         0.035 *    0.372 r
  datamem/par_mem_logic_inst/addr_crsbar_0/U113/Z (C8T28SOIDV_LLS_XNOR2X4_P0)
                                                         0.029 *    0.402 r
  datamem/par_mem_logic_inst/addr_crsbar_0/U48/Z (C8T28SOIDV_LLS_XNOR2X4_P0)
                                                         0.041 *    0.443 r
  datamem/par_mem_logic_inst/addr_crsbar_0/module_nums[1] (addr_crsbar_PORTS2_LSU_ADDRW14_CTRLW1_PM_FUNC2)
                                                         0.000      0.443 r
  datamem/par_mem_logic_inst/ctrl_units_0/module_nums[1] (ctrl_units_PORTS2_CTRLW1)
                                                         0.000      0.443 r
  datamem/par_mem_logic_inst/ctrl_units_0/ctrl_uniti_1/module_num[0] (ctrl_unit_PORTS2_CTRLW1_0)
                                                         0.000      0.443 r
  datamem/par_mem_logic_inst/ctrl_units_0/ctrl_uniti_1/U19/Z (C8T28SOI_LL_CNBFX8_P0)
                                                         0.041 *    0.485 r
  datamem/par_mem_logic_inst/ctrl_units_0/ctrl_uniti_1/U4/Z (C8T28SOIDV_LL_NAND2AX17_P4)
                                                         0.018 *    0.502 f
  datamem/par_mem_logic_inst/ctrl_units_0/ctrl_uniti_1/addr_mux_ctrl[0] (ctrl_unit_PORTS2_CTRLW1_0)
                                                         0.000      0.502 f
  datamem/par_mem_logic_inst/ctrl_units_0/addr_mux_ctrls[1] (ctrl_units_PORTS2_CTRLW1)
                                                         0.000      0.502 f
  datamem/par_mem_logic_inst/U4/Z (C8T28SOIDV_LL_CNIVX37_P0)
                                                         0.019 *    0.521 r
  datamem/par_mem_logic_inst/addr_crsbar_0/ctrl[1] (addr_crsbar_PORTS2_LSU_ADDRW14_CTRLW1_PM_FUNC2)
                                                         0.000      0.521 r
  datamem/par_mem_logic_inst/addr_crsbar_0/U50/Z (C8T28SOIDV_LL_CNIVX55_P0)
                                                         0.016 *    0.536 f
  datamem/par_mem_logic_inst/addr_crsbar_0/U76/Z (C8T28SOI_LL_NAND2X8_P4)
                                                         0.013 *    0.549 r
  datamem/par_mem_logic_inst/addr_crsbar_0/U77/Z (C8T28SOI_LL_OAI21X7_P4)
                                                         0.024 *    0.573 f
  datamem/par_mem_logic_inst/addr_crsbar_0/mem_addrs_out[24] (addr_crsbar_PORTS2_LSU_ADDRW14_CTRLW1_PM_FUNC2)
                                                         0.000      0.573 f
  datamem/par_mem_logic_inst/addrs_to_mems[24] (par_mem_logic_PORTS2_LSU_ADDRW14_CTRLW1_DATAW32_PM_FUNC2)
                                                         0.000      0.573 f
  datamem/dmem_1/addr[11] (synch_singleport_mem_wrapper_DATAW32_ADDRW13_1)
                                                         0.000      0.573 f
  datamem/dmem_1/en_wr_arbiter/addr[11] (block_en_wr_arbiter_ADDRW13_NBLOCKS9_1)
                                                         0.000      0.573 f
  datamem/dmem_1/en_wr_arbiter/U7/Z (C8T28SOI_LL_CNNOR2X8_P4)
                                                         0.032 *    0.606 r
  datamem/dmem_1/en_wr_arbiter/U24/Z (C8T28SOIDV_LL_NAND2X18_P4)
                                                         0.020 *    0.626 f
  datamem/dmem_1/en_wr_arbiter/U9/Z (C8T28SOI_LL_CNNOR2X8_P4)
                                                         0.022 *    0.648 r
  datamem/dmem_1/en_wr_arbiter/U23/Z (C8T28SOIDV_LL_NAND2AX17_P4)
                                                         0.019 *    0.667 f
  datamem/dmem_1/en_wr_arbiter/U25/Z (C8T28SOIDV_LL_CNIVX18_P0)
                                                         0.012 *    0.679 r
  datamem/dmem_1/en_wr_arbiter/U26/Z (C8T28SOIDV_LL_NAND2X18_P4)
                                                         0.011 *    0.691 f
  datamem/dmem_1/en_wr_arbiter/U6/Z (C8T28SOIDV_LL_NOR2AX19_P4)
                                                         0.019 *    0.709 r
  datamem/dmem_1/en_wr_arbiter/U37/Z (C8T28SOI_LL_CNNAND2X8_P4)
                                                         0.015 *    0.724 f
  datamem/dmem_1/en_wr_arbiter/wr_blocks[0] (block_en_wr_arbiter_ADDRW13_NBLOCKS9_1)
                                                         0.000      0.724 f
  datamem/dmem_1/cacti_mem_0/wr_x (cacti_mem_wrapper_DATAW32_ADDRW5_3)
                                                         0.000      0.724 f
  datamem/dmem_1/cacti_mem_0/mem_32x32/wr_en_x (ram_32x32)
                                                         0.000 *    0.724 f
  data arrival time                                                 0.724

  clock clk (rise edge)                                  1.333      1.333
  clock network delay (ideal)                            0.010      1.343
  clock uncertainty                                     -0.010      1.333
  datamem/dmem_1/cacti_mem_0/mem_32x32/clk (ram_32x32)
                                                         0.000      1.333 r
  library setup time                                    -0.505      0.828
  data required time                                                0.828
  --------------------------------------------------------------------------
  data required time                                                0.828
  data arrival time                                                -0.724
  --------------------------------------------------------------------------
  slack (MET)                                                       0.104


  Startpoint: datamem/scheduler/addr_a_conv/clk_r_REG2190_S1
              (rising edge-triggered flip-flop clocked by clk)
  Endpoint: datamem/dmem_1/cacti_mem_x_1/mem_32x32
            (rising edge-triggered flip-flop clocked by clk)
  Path Group: clk
  Path Type: max

  Point                                                   Incr       Path
  --------------------------------------------------------------------------
  clock clk (rise edge)                                  0.000      0.000
  clock network delay (ideal)                            0.010      0.010
  datamem/scheduler/addr_a_conv/clk_r_REG2190_S1/CP (C8T28SOIDV_LL_DFPRQX10_P0)
                                                         0.000      0.010 r
  datamem/scheduler/addr_a_conv/clk_r_REG2190_S1/Q (C8T28SOIDV_LL_DFPRQX10_P0)
                                                         0.076      0.086 r
  datamem/scheduler/addr_a_conv/en_out[1]_BAR (ser_par_conv_portw14_port_cnt2_1)
                                                         0.000      0.086 r
  datamem/scheduler/U85/Z (C8T28SOIDV_LL_CNIVX18_P0)     0.015 *    0.101 f
  datamem/scheduler/U87/Z (C8T28SOIDV_LL_NAND2X18_P0)    0.015 *    0.117 r
  datamem/scheduler/U61/Z (C8T28SOIDV_LL_CNBFX55_P0)     0.031 *    0.148 r
  datamem/scheduler/U236/Z (C8T28SOI_LL_MUXI21X2_P4)     0.053 *    0.201 r
  datamem/scheduler/U237/Z (C8T28SOIDV_LL_IVX23_P10)     0.026 *    0.227 f
  datamem/scheduler/addr[23] (par_mem_scheduler_dataw32_addrw14_ports2_rd_delay1)
                                                         0.000      0.227 f
  datamem/par_mem_logic_inst/addrs_from_lsus[23] (par_mem_logic_PORTS2_LSU_ADDRW14_CTRLW1_DATAW32_PM_FUNC2)
                                                         0.000      0.227 f
  datamem/par_mem_logic_inst/addr_crsbar_0/addrs_from_lsus[23] (addr_crsbar_PORTS2_LSU_ADDRW14_CTRLW1_PM_FUNC2)
                                                         0.000      0.227 f
  datamem/par_mem_logic_inst/addr_crsbar_0/U27/Z (C8T28SOI_LL_OAI21X7_P4)
                                                         0.041 *    0.268 r
  datamem/par_mem_logic_inst/addr_crsbar_0/U28/Z (C8T28SOI_LL_IVX10_P16)
                                                         0.030 *    0.297 f
  datamem/par_mem_logic_inst/addr_crsbar_0/U107/Z (C8T28SOI_LL_CNXOR2X9_P0)
                                                         0.040 *    0.337 r
  datamem/par_mem_logic_inst/addr_crsbar_0/U120/Z (C8T28SOI_LL_CNXOR2X15_P0)
                                                         0.035 *    0.372 r
  datamem/par_mem_logic_inst/addr_crsbar_0/U113/Z (C8T28SOIDV_LLS_XNOR2X4_P0)
                                                         0.029 *    0.402 r
  datamem/par_mem_logic_inst/addr_crsbar_0/U48/Z (C8T28SOIDV_LLS_XNOR2X4_P0)
                                                         0.041 *    0.443 r
  datamem/par_mem_logic_inst/addr_crsbar_0/module_nums[1] (addr_crsbar_PORTS2_LSU_ADDRW14_CTRLW1_PM_FUNC2)
                                                         0.000      0.443 r
  datamem/par_mem_logic_inst/ctrl_units_0/module_nums[1] (ctrl_units_PORTS2_CTRLW1)
                                                         0.000      0.443 r
  datamem/par_mem_logic_inst/ctrl_units_0/ctrl_uniti_1/module_num[0] (ctrl_unit_PORTS2_CTRLW1_0)
                                                         0.000      0.443 r
  datamem/par_mem_logic_inst/ctrl_units_0/ctrl_uniti_1/U19/Z (C8T28SOI_LL_CNBFX8_P0)
                                                         0.041 *    0.485 r
  datamem/par_mem_logic_inst/ctrl_units_0/ctrl_uniti_1/U4/Z (C8T28SOIDV_LL_NAND2AX17_P4)
                                                         0.018 *    0.502 f
  datamem/par_mem_logic_inst/ctrl_units_0/ctrl_uniti_1/addr_mux_ctrl[0] (ctrl_unit_PORTS2_CTRLW1_0)
                                                         0.000      0.502 f
  datamem/par_mem_logic_inst/ctrl_units_0/addr_mux_ctrls[1] (ctrl_units_PORTS2_CTRLW1)
                                                         0.000      0.502 f
  datamem/par_mem_logic_inst/U4/Z (C8T28SOIDV_LL_CNIVX37_P0)
                                                         0.019 *    0.521 r
  datamem/par_mem_logic_inst/addr_crsbar_0/ctrl[1] (addr_crsbar_PORTS2_LSU_ADDRW14_CTRLW1_PM_FUNC2)
                                                         0.000      0.521 r
  datamem/par_mem_logic_inst/addr_crsbar_0/U50/Z (C8T28SOIDV_LL_CNIVX55_P0)
                                                         0.016 *    0.536 f
  datamem/par_mem_logic_inst/addr_crsbar_0/U76/Z (C8T28SOI_LL_NAND2X8_P4)
                                                         0.013 *    0.549 r
  datamem/par_mem_logic_inst/addr_crsbar_0/U77/Z (C8T28SOI_LL_OAI21X7_P4)
                                                         0.024 *    0.573 f
  datamem/par_mem_logic_inst/addr_crsbar_0/mem_addrs_out[24] (addr_crsbar_PORTS2_LSU_ADDRW14_CTRLW1_PM_FUNC2)
                                                         0.000      0.573 f
  datamem/par_mem_logic_inst/addrs_to_mems[24] (par_mem_logic_PORTS2_LSU_ADDRW14_CTRLW1_DATAW32_PM_FUNC2)
                                                         0.000      0.573 f
  datamem/dmem_1/addr[11] (synch_singleport_mem_wrapper_DATAW32_ADDRW13_1)
                                                         0.000      0.573 f
  datamem/dmem_1/en_wr_arbiter/addr[11] (block_en_wr_arbiter_ADDRW13_NBLOCKS9_1)
                                                         0.000      0.573 f
  datamem/dmem_1/en_wr_arbiter/U7/Z (C8T28SOI_LL_CNNOR2X8_P4)
                                                         0.032 *    0.606 r
  datamem/dmem_1/en_wr_arbiter/U24/Z (C8T28SOIDV_LL_NAND2X18_P4)
                                                         0.020 *    0.626 f
  datamem/dmem_1/en_wr_arbiter/U9/Z (C8T28SOI_LL_CNNOR2X8_P4)
                                                         0.022 *    0.648 r
  datamem/dmem_1/en_wr_arbiter/U23/Z (C8T28SOIDV_LL_NAND2AX17_P4)
                                                         0.019 *    0.667 f
  datamem/dmem_1/en_wr_arbiter/U25/Z (C8T28SOIDV_LL_CNIVX18_P0)
                                                         0.012 *    0.679 r
  datamem/dmem_1/en_wr_arbiter/U26/Z (C8T28SOIDV_LL_NAND2X18_P4)
                                                         0.011 *    0.691 f
  datamem/dmem_1/en_wr_arbiter/U27/Z (C8T28SOI_LL_CNNOR2X8_P0)
                                                         0.016 *    0.707 r
  datamem/dmem_1/en_wr_arbiter/U34/Z (C8T28SOIDV_LL_NAND2AX9_P10)
                                                         0.016 *    0.722 f
  datamem/dmem_1/en_wr_arbiter/en_blocks[1] (block_en_wr_arbiter_ADDRW13_NBLOCKS9_1)
                                                         0.000      0.722 f
  datamem/dmem_1/cacti_mem_x_1/en_x (cacti_mem_wrapper_DATAW32_ADDRW5_2)
                                                         0.000      0.722 f
  datamem/dmem_1/cacti_mem_x_1/mem_32x32/mem_en_x (ram_32x32)
                                                         0.000 *    0.722 f
  data arrival time                                                 0.722

  clock clk (rise edge)                                  1.333      1.333
  clock network delay (ideal)                            0.010      1.343
  clock uncertainty                                     -0.010      1.333
  datamem/dmem_1/cacti_mem_x_1/mem_32x32/clk (ram_32x32)
                                                         0.000      1.333 r
  library setup time                                    -0.505      0.828
  data required time                                                0.828
  --------------------------------------------------------------------------
  data required time                                                0.828
  data arrival time                                                -0.722
  --------------------------------------------------------------------------
  slack (MET)                                                       0.105


1
