Warning: There are 82 switching activity information conflicts. (PWR-19)
 
****************************************
Report : saif
Design : proc
Version: M-2016.12-SP5-1
Date   : Sat Jul 28 16:45:26 2018
****************************************

  

--------------------------------------------------------------------------------
              User              Default           Propagated
Object type   Annotated (%)     Activity (%)      Activity (%)       Total
--------------------------------------------------------------------------------
  
 Nets         285(65.07%)       0(0.00%)          153(34.93%)        438
 Ports        229(100.00%)      0(0.00%)          0(0.00%)           229
 Pins         258(37.12%)       0(0.00%)          437(62.88%)        695
--------------------------------------------------------------------------------
1
