Information: Propagating switching activity (high effort zero delay simulation). (PWR-6)
Warning: Invalid switching activity annotation on constant net(s) is being ignored. (PWR-421)
Warning: Design has unannotated sequential cell outputs. (PWR-415)
Warning: Design has unannotated black box outputs. (PWR-428)
 
****************************************
Report : power
        -analysis_effort high
Design : proc
Version: M-2016.12-SP5-1
Date   : Sat Jul 28 02:42:54 2018
****************************************


Library(s) Used:

    C28SOI_SC_8_COREPBP16_LL (File: /home/software/cmos28fdsoi_25f/C28SOI_SC_8_COREPBP16_LL/3.3-00/libs/C28SOI_SC_8_COREPBP16_LL_tt28_0.80V_0.00V_0.00V_0.00V_25C.db)
    C28SOI_SC_8_CLK_LL (File: /home/software/cmos28fdsoi_25f/C28SOI_SC_8_CLK_LL/3.2-00/libs/C28SOI_SC_8_CLK_LL_tt28_0.80V_0.00V_0.00V_0.00V_25C.db)
    ram_64x51 (File: /home/zadnik/designs/fft_full_lbuf/vhdl/mem/cacti_mem/ram_300k_028nm_0_80v_64x51/ram_64x51.db)
    ram_4096x32 (File: /home/zadnik/designs/fft_full_lbuf/vhdl/mem/cacti_mem/ram_300k_028nm_0_80v_4096x32/ram_4096x32.db)
    ram_2048x32 (File: /home/zadnik/designs/fft_full_lbuf/vhdl/mem/cacti_mem/ram_300k_028nm_0_80v_2048x32/ram_2048x32.db)
    ram_1024x32 (File: /home/zadnik/designs/fft_full_lbuf/vhdl/mem/cacti_mem/ram_300k_028nm_0_80v_1024x32/ram_1024x32.db)
    ram_512x32 (File: /home/zadnik/designs/fft_full_lbuf/vhdl/mem/cacti_mem/ram_300k_028nm_0_80v_512x32/ram_512x32.db)
    ram_256x32 (File: /home/zadnik/designs/fft_full_lbuf/vhdl/mem/cacti_mem/ram_300k_028nm_0_80v_256x32/ram_256x32.db)
    ram_128x32 (File: /home/zadnik/designs/fft_full_lbuf/vhdl/mem/cacti_mem/ram_300k_028nm_0_80v_128x32/ram_128x32.db)
    ram_64x32 (File: /home/zadnik/designs/fft_full_lbuf/vhdl/mem/cacti_mem/ram_300k_028nm_0_80v_64x32/ram_64x32.db)
    ram_32x32 (File: /home/zadnik/designs/fft_full_lbuf/vhdl/mem/cacti_mem/ram_300k_028nm_0_80v_32x32/ram_32x32.db)


Operating Conditions: tt28_0.80V_0.00V_0.00V_0.00V_25C   Library: C28SOI_SC_8_CLK_LL
Wire Load Model Mode: Inactive.


Global Operating Voltage = 0.8  
Power-specific unit information :
    Voltage Units = 1V
    Capacitance Units = 1.000000pf
    Time Units = 1ns
    Dynamic Power Units = 1mW    (derived from V,C,T units)
    Leakage Power Units = 1mW

Warning: Cannot report correlated power unless power prediction mode is set. (PWR-727)
Power Breakdown
---------------

                             Cell        Driven Net  Tot Dynamic      Cell
                             Internal    Switching   Power (mW)       Leakage
Cell                         Power (mW)  Power (mW)  (% Cell/Tot)     Power (mW)
--------------------------------------------------------------------------------
Netlist Power                   1.0727      0.7216      1.7942 (60%)     6.8253
Estimated Clock Tree Power   N/A         N/A          (N/A)           N/A
--------------------------------------------------------------------------------

                 Internal         Switching           Leakage            Total
Power Group      Power            Power               Power              Power   (   %    )  Attrs
--------------------------------------------------------------------------------------------------
io_pad             0.0000            0.0000            0.0000            0.0000  (   0.00%)
memory             0.1225        4.0018e-03            6.8240            6.9505  (  80.64%)
black_box          0.0000            0.0000            0.0000            0.0000  (   0.00%)
clock_network  2.6248e-02            0.1280        1.8944e-04            0.1544  (   1.79%)
register           0.6118        2.2216e-02        4.7404e-04            0.6345  (   7.36%)
sequential         0.0000            0.0000            0.0000            0.0000  (   0.00%)
combinational      0.3121            0.5674        5.6765e-04            0.8801  (  10.21%)
--------------------------------------------------------------------------------------------------
Total              1.0727 mW         0.7216 mW         6.8253 mW         8.6195 mW
1
