Warning: There are 79 switching activity information conflicts. (PWR-19)
 
****************************************
Report : saif
Design : proc
Version: M-2016.12-SP5-1
Date   : Tue Jul 31 10:36:31 2018
****************************************

  

--------------------------------------------------------------------------------
              User              Default           Propagated
Object type   Annotated (%)     Activity (%)      Activity (%)       Total
--------------------------------------------------------------------------------
  
 Nets         277(75.27%)       0(0.00%)          91(24.73%)         368
 Ports        229(100.00%)      0(0.00%)          0(0.00%)           229
 Pins         210(40.78%)       0(0.00%)          305(59.22%)        515
--------------------------------------------------------------------------------
1
