********************************************************************************
                        Threshold Voltage Group Report                         

Vth Group                All                Blackbox           Non-blackbox
Name                    cells                cells                cells
********************************************************************************
undefined           15368 (100.00%)        118 (100.00%)      15250 (100.00%)   
********************************************************************************

Vth Group                All                Blackbox           Non-blackbox
Name                  cell area            cell area            cell area
********************************************************************************
undefined       537105.03 (100.00%)  488433.39 (100.00%)   48671.64 (100.00%)   
********************************************************************************
1
