Warning: There are 66 switching activity information conflicts. (PWR-19)
 
****************************************
Report : saif
Design : proc
Version: M-2016.12-SP5-1
Date   : Sat Jul 28 01:50:39 2018
****************************************

  

--------------------------------------------------------------------------------
              User              Default           Propagated
Object type   Annotated (%)     Activity (%)      Activity (%)       Total
--------------------------------------------------------------------------------
  
 Nets         287(65.08%)       0(0.00%)          154(34.92%)        441
 Ports        229(100.00%)      0(0.00%)          0(0.00%)           229
 Pins         240(34.33%)       0(0.00%)          459(65.67%)        699
--------------------------------------------------------------------------------
1
