Warning: There are 82 switching activity information conflicts. (PWR-19)
 
****************************************
Report : saif
Design : proc
Version: M-2016.12-SP5-1
Date   : Sat Jul 28 15:17:37 2018
****************************************

  

--------------------------------------------------------------------------------
              User              Default           Propagated
Object type   Annotated (%)     Activity (%)      Activity (%)       Total
--------------------------------------------------------------------------------
  
 Nets         287(64.93%)       0(0.00%)          155(35.07%)        442
 Ports        229(100.00%)      0(0.00%)          0(0.00%)           229
 Pins         241(34.38%)       0(0.00%)          460(65.62%)        701
--------------------------------------------------------------------------------
1
