Warning: There are 90 switching activity information conflicts. (PWR-19)
 
****************************************
Report : saif
Design : proc
Version: M-2016.12-SP5-1
Date   : Sun Jul 29 02:54:06 2018
****************************************

  

--------------------------------------------------------------------------------
              User              Default           Propagated
Object type   Annotated (%)     Activity (%)      Activity (%)       Total
--------------------------------------------------------------------------------
  
 Nets         293(63.28%)       0(0.00%)          170(36.72%)        463
 Ports        229(100.00%)      0(0.00%)          0(0.00%)           229
 Pins         246(36.28%)       0(0.00%)          432(63.72%)        678
--------------------------------------------------------------------------------
1
