Warning: There are 87 switching activity information conflicts. (PWR-19)
 
****************************************
Report : saif
Design : proc
Version: M-2016.12-SP5-1
Date   : Sat Jul 28 11:57:49 2018
****************************************

  

--------------------------------------------------------------------------------
              User              Default           Propagated
Object type   Annotated (%)     Activity (%)      Activity (%)       Total
--------------------------------------------------------------------------------
  
 Nets         297(63.33%)       0(0.00%)          172(36.67%)        469
 Ports        229(100.00%)      0(0.00%)          0(0.00%)           229
 Pins         272(39.71%)       0(0.00%)          413(60.29%)        685
--------------------------------------------------------------------------------
1
