********************************************************************************
                        Threshold Voltage Group Report                         

Vth Group                All                Blackbox           Non-blackbox
Name                    cells                cells                cells
********************************************************************************
undefined           19839 (100.00%)        119 (100.00%)      19720 (100.00%)   
********************************************************************************

Vth Group                All                Blackbox           Non-blackbox
Name                  cell area            cell area            cell area
********************************************************************************
undefined       111896.52 (100.00%)   96332.14 (100.00%)   15564.38 (100.00%)   
********************************************************************************
1
