Warning: There are 96 switching activity information conflicts. (PWR-19)
 
****************************************
Report : saif
Design : proc
Version: M-2016.12-SP5-1
Date   : Sun Jul 29 00:18:12 2018
****************************************

  

--------------------------------------------------------------------------------
              User              Default           Propagated
Object type   Annotated (%)     Activity (%)      Activity (%)       Total
--------------------------------------------------------------------------------
  
 Nets         284(65.44%)       0(0.00%)          150(34.56%)        434
 Ports        229(100.00%)      0(0.00%)          0(0.00%)           229
 Pins         266(38.66%)       0(0.00%)          422(61.34%)        688
--------------------------------------------------------------------------------
1
