Warning: There are 92 switching activity information conflicts. (PWR-19)
 
****************************************
Report : saif
Design : proc
Version: M-2016.12-SP5-1
Date   : Sun Jul 29 08:15:51 2018
****************************************

  

--------------------------------------------------------------------------------
              User              Default           Propagated
Object type   Annotated (%)     Activity (%)      Activity (%)       Total
--------------------------------------------------------------------------------
  
 Nets         272(66.34%)       0(0.00%)          138(33.66%)        410
 Ports        229(100.00%)      0(0.00%)          0(0.00%)           229
 Pins         233(37.70%)       0(0.00%)          385(62.30%)        618
--------------------------------------------------------------------------------
1
