Warning: There are 83 switching activity information conflicts. (PWR-19)
 
****************************************
Report : saif
Design : proc
Version: M-2016.12-SP5-1
Date   : Sat Jul 28 19:17:15 2018
****************************************

  

--------------------------------------------------------------------------------
              User              Default           Propagated
Object type   Annotated (%)     Activity (%)      Activity (%)       Total
--------------------------------------------------------------------------------
  
 Nets         300(63.16%)       0(0.00%)          175(36.84%)        475
 Ports        229(100.00%)      0(0.00%)          0(0.00%)           229
 Pins         238(34.24%)       0(0.00%)          457(65.76%)        695
--------------------------------------------------------------------------------
1
