Information: Updating design information... (UID-85)
 
****************************************
Report : timing
        -path full
        -delay max
        -max_paths 10
Design : proc
Version: M-2016.12-SP5-1
Date   : Sat Jul 28 19:16:56 2018
****************************************

 * Some/all delay information is back-annotated.

Operating Conditions: tt28_0.90V_0.00V_0.00V_0.00V_25C   Library: C28SOI_SC_8_CLK_LL
Wire Load Model Mode: Inactive.

  Startpoint: core/rf_rf_def/clk_r_REG1882_S29
              (rising edge-triggered flip-flop clocked by clk)
  Endpoint: core/fu_CMUL/fu_arch/clk_r_REG358_S14
            (rising edge-triggered flip-flop clocked by clk)
  Path Group: clk
  Path Type: max

  Point                                                   Incr       Path
  --------------------------------------------------------------------------
  clock clk (rise edge)                                  0.000      0.000
  clock network delay (ideal)                            0.010      0.010
  core/rf_rf_def/clk_r_REG1882_S29/CP (C8T28SOIDV_LL_DFPRQX19_P4)
                                                         0.000      0.010 r
  core/rf_rf_def/clk_r_REG1882_S29/Q (C8T28SOIDV_LL_DFPRQX19_P4)
                                                         0.106      0.116 f
  core/rf_rf_def/U129/Z (C8T28SOIDV_LL_NOR2AX19_P4)      0.051 *    0.167 r
  core/rf_rf_def/U67/Z (C8T28SOI_LL_NAND2X4_P4)          0.030 *    0.197 f
  core/rf_rf_def/U26/Z (C8T28SOI_LL_NAND3X10_P16)        0.024 *    0.221 r
  core/rf_rf_def/r1data[13] (rf_1wr_1rd_always_1_guarded_0_dataw32_rf_size3)
                                                         0.000      0.221 r
  core/ic/socket_rf_def_o1_data0[13] (tta0_interconn)    0.000      0.221 r
  core/ic/rf_def_o1/data0[13] (tta0_output_socket_cons_2_1_BUSW_032_BUSW_132_DATAW_032_0)
                                                         0.000      0.221 r
  core/ic/rf_def_o1/U19/Z (C8T28SOI_LL_AND2X19_P10)      0.031 *    0.252 r
  core/ic/rf_def_o1/databus0_alt[13] (tta0_output_socket_cons_2_1_BUSW_032_BUSW_132_DATAW_032_0)
                                                         0.000      0.252 r
  core/ic/U250/Z (C8T28SOI_LL_NAND2AX23_P16)             0.025 *    0.277 r
  core/ic/socket_CMUL_i2_data[13] (tta0_interconn)       0.000      0.277 r
  core/fu_CMUL/o1data[13] (fu_cmul_always_3_dataw32_busw32)
                                                         0.000      0.277 r
  core/fu_CMUL/U39/Z (C8T28SOIDV_LL_NAND2X18_P16)        0.016 *    0.293 f
  core/fu_CMUL/U101/Z (C8T28SOIDV_LL_NAND2X36_P16)       0.054 *    0.347 r
  core/fu_CMUL/fu_arch/B[13] (cmul_pipe_1_dataw32_halfw16)
                                                         0.000      0.347 r
  core/fu_CMUL/fu_arch/U1381/Z (C8T28SOIDV_LLS_XNOR2X11_P16)
                                                         0.074 *    0.421 r
  core/fu_CMUL/fu_arch/U1384/Z (C8T28SOIDV_LL_NAND2X18_P16)
                                                         0.043 *    0.464 f
  core/fu_CMUL/fu_arch/U1493/Z (C8T28SOI_LL_OAI22X8_P16)
                                                         0.034 *    0.498 r
  core/fu_CMUL/fu_arch/U1507/S0 (C8T28SOIDV_LLS1_FA1X4_P16)
                                                         0.120 *    0.618 f
  core/fu_CMUL/fu_arch/U2622/Z (C8T28SOIDV_LLS_XNOR2X4_P16)
                                                         0.044 *    0.663 r
  core/fu_CMUL/fu_arch/U3339/Z (C8T28SOIDV_LLS_XNOR2X4_P16)
                                                         0.048 *    0.711 r
  core/fu_CMUL/fu_arch/U3431/Z (C8T28SOI_LL_IVX10_P16)
                                                         0.018 *    0.728 f
  core/fu_CMUL/fu_arch/U3490/Z (C8T28SOI_LL_OAI12X10_P16)
                                                         0.024 *    0.752 r
  core/fu_CMUL/fu_arch/U1735/CO (C8T28SOIDV_LLS1_FA1X9_P16)
                                                         0.046 *    0.799 r
  core/fu_CMUL/fu_arch/U3337/Z (C8T28SOIDV_LLS_XNOR2X11_P16)
                                                         0.044 *    0.843 r
  core/fu_CMUL/fu_arch/U3489/Z (C8T28SOIDV_LLS_XNOR2X11_P16)
                                                         0.045 *    0.888 r
  core/fu_CMUL/fu_arch/U3387/Z (C8T28SOIDV_LLS_XNOR2X11_P16)
                                                         0.051 *    0.939 r
  core/fu_CMUL/fu_arch/U2652/Z (C8T28SOI_LL_NOR2X12_P16)
                                                         0.027 *    0.965 f
  core/fu_CMUL/fu_arch/U2654/Z (C8T28SOI_LL_NOR2X12_P16)
                                                         0.026 *    0.992 r
  core/fu_CMUL/fu_arch/U1684/Z (C8T28SOIDV_LL_NOR2AX19_P10)
                                                         0.036 *    1.027 r
  core/fu_CMUL/fu_arch/U342/Z (C8T28SOI_LL_NAND2X12_P16)
                                                         0.016 *    1.044 f
  core/fu_CMUL/fu_arch/U3526/Z (C8T28SOIDV_LL_NAND2X18_P16)
                                                         0.023 *    1.067 r
  core/fu_CMUL/fu_arch/U3523/Z (C8T28SOI_LL_AOI13X17_P16)
                                                         0.029 *    1.096 f
  core/fu_CMUL/fu_arch/U265/Z (C8T28SOIDV_LL_NAND2X9_P16)
                                                         0.022 *    1.118 r
  core/fu_CMUL/fu_arch/U3354/Z (C8T28SOI_LL_AOI12X10_P16)
                                                         0.014 *    1.131 f
  core/fu_CMUL/fu_arch/U3423/Z (C8T28SOIDV_LLS_XNOR2X4_P16)
                                                         0.028 *    1.160 f
  core/fu_CMUL/fu_arch/clk_r_REG358_S14/D (C8T28SOIDV_LL_DFPRQX19_P16)
                                                         0.000 *    1.160 f
  data arrival time                                                 1.160

  clock clk (rise edge)                                  1.250      1.250
  clock network delay (ideal)                            0.010      1.260
  clock uncertainty                                     -0.010      1.250
  core/fu_CMUL/fu_arch/clk_r_REG358_S14/CP (C8T28SOIDV_LL_DFPRQX19_P16)
                                                         0.000      1.250 r
  library setup time                                    -0.036      1.214
  data required time                                                1.214
  --------------------------------------------------------------------------
  data required time                                                1.214
  data arrival time                                                -1.160
  --------------------------------------------------------------------------
  slack (MET)                                                       0.054


  Startpoint: core/rf_rf_def/clk_r_REG1882_S29
              (rising edge-triggered flip-flop clocked by clk)
  Endpoint: core/fu_CMUL/fu_arch/clk_r_REG923_S14
            (rising edge-triggered flip-flop clocked by clk)
  Path Group: clk
  Path Type: max

  Point                                                   Incr       Path
  --------------------------------------------------------------------------
  clock clk (rise edge)                                  0.000      0.000
  clock network delay (ideal)                            0.010      0.010
  core/rf_rf_def/clk_r_REG1882_S29/CP (C8T28SOIDV_LL_DFPRQX19_P4)
                                                         0.000      0.010 r
  core/rf_rf_def/clk_r_REG1882_S29/Q (C8T28SOIDV_LL_DFPRQX19_P4)
                                                         0.106      0.116 f
  core/rf_rf_def/U7/Z (C8T28SOIDV_LL_NOR2AX19_P4)        0.048 *    0.164 r
  core/rf_rf_def/U8/Z (C8T28SOI_LL_NAND2X8_P16)          0.024 *    0.188 f
  core/rf_rf_def/U148/Z (C8T28SOI_LL_NAND3X7_P16)        0.020 *    0.207 r
  core/rf_rf_def/r1data[9] (rf_1wr_1rd_always_1_guarded_0_dataw32_rf_size3)
                                                         0.000      0.207 r
  core/ic/socket_rf_def_o1_data0[9] (tta0_interconn)     0.000      0.207 r
  core/ic/rf_def_o1/data0[9] (tta0_output_socket_cons_2_1_BUSW_032_BUSW_132_DATAW_032_0)
                                                         0.000      0.207 r
  core/ic/rf_def_o1/U18/Z (C8T28SOIDV_LL_AND2X11_P16)    0.035 *    0.242 r
  core/ic/rf_def_o1/databus0_alt[9] (tta0_output_socket_cons_2_1_BUSW_032_BUSW_132_DATAW_032_0)
                                                         0.000      0.242 r
  core/ic/U66/Z (C8T28SOIDV_LL_IVX23_P16)                0.013 *    0.255 f
  core/ic/U84/Z (C8T28SOIDV_LL_NAND2X36_P16)             0.012 *    0.267 r
  core/ic/socket_CMUL_i2_data[9] (tta0_interconn)        0.000      0.267 r
  core/fu_CMUL/o1data[9] (fu_cmul_always_3_dataw32_busw32)
                                                         0.000      0.267 r
  core/fu_CMUL/U62/Z (C8T28SOI_LL_AOI22X9_P4)            0.024 *    0.290 f
  core/fu_CMUL/U55/Z (C8T28SOIDV_LL_IVX68_P16)           0.048 *    0.339 r
  core/fu_CMUL/fu_arch/B[9] (cmul_pipe_1_dataw32_halfw16)
                                                         0.000      0.339 r
  core/fu_CMUL/fu_arch/U1326/Z (C8T28SOIDV_LLS_XNOR2X11_P16)
                                                         0.056 *    0.395 r
  core/fu_CMUL/fu_arch/U1281/Z (C8T28SOIDV_LL_NAND2X18_P16)
                                                         0.032 *    0.427 f
  core/fu_CMUL/fu_arch/U2390/Z (C8T28SOI_LL_OAI22X3_P16)
                                                         0.062 *    0.489 r
  core/fu_CMUL/fu_arch/U2415/S0 (C8T28SOIDV_LL_FA1X5_P16)
                                                         0.112 *    0.601 f
  core/fu_CMUL/fu_arch/U2412/S0 (C8T28SOIDV_LL_FA1X5_P16)
                                                         0.101 *    0.702 r
  core/fu_CMUL/fu_arch/U2199/Z (C8T28SOIDV_LLS_XNOR2X4_P16)
                                                         0.047 *    0.749 r
  core/fu_CMUL/fu_arch/U853/Z (C8T28SOIDV_LLS_XNOR2X8_P16)
                                                         0.062 *    0.811 r
  core/fu_CMUL/fu_arch/U3288/Z (C8T28SOI_LL_NAND2X4_P16)
                                                         0.037 *    0.848 f
  core/fu_CMUL/fu_arch/U633/Z (C8T28SOI_LL_NAND2X8_P16)
                                                         0.029 *    0.877 r
  core/fu_CMUL/fu_arch/U1856/Z (C8T28SOI_LL_IVX10_P16)
                                                         0.013 *    0.891 f
  core/fu_CMUL/fu_arch/U1811/Z (C8T28SOIDV_LLS_XNOR2X4_P16)
                                                         0.031 *    0.922 f
  core/fu_CMUL/fu_arch/U2471/Z (C8T28SOI_LL_NOR2X8_P16)
                                                         0.038 *    0.961 r
  core/fu_CMUL/fu_arch/U3226/Z (C8T28SOI_LL_OAI12X10_P16)
                                                         0.029 *    0.989 f
  core/fu_CMUL/fu_arch/U3105/Z (C8T28SOI_LL_AOI12X10_P16)
                                                         0.031 *    1.020 r
  core/fu_CMUL/fu_arch/U2607/Z (C8T28SOI_LL_OAI12X10_P16)
                                                         0.024 *    1.044 f
  core/fu_CMUL/fu_arch/U1595/Z (C8T28SOI_LL_AOI12X10_P16)
                                                         0.031 *    1.075 r
  core/fu_CMUL/fu_arch/U3227/Z (C8T28SOI_LL_OAI12X10_P16)
                                                         0.024 *    1.099 f
  core/fu_CMUL/fu_arch/U3285/Z (C8T28SOI_LL_AOI21X12_P16)
                                                         0.030 *    1.129 r
  core/fu_CMUL/fu_arch/U2807/Z (C8T28SOIDV_LLS_XNOR2X4_P16)
                                                         0.039 *    1.168 r
  core/fu_CMUL/fu_arch/clk_r_REG923_S14/D (C8T28SOIDV_LL_DFPRQX10_P16)
                                                         0.000 *    1.168 r
  data arrival time                                                 1.168

  clock clk (rise edge)                                  1.250      1.250
  clock network delay (ideal)                            0.010      1.260
  clock uncertainty                                     -0.010      1.250
  core/fu_CMUL/fu_arch/clk_r_REG923_S14/CP (C8T28SOIDV_LL_DFPRQX10_P16)
                                                         0.000      1.250 r
  library setup time                                    -0.027      1.223
  data required time                                                1.223
  --------------------------------------------------------------------------
  data required time                                                1.223
  data arrival time                                                -1.168
  --------------------------------------------------------------------------
  slack (MET)                                                       0.055


  Startpoint: core/rf_rf_def/clk_r_REG1882_S29
              (rising edge-triggered flip-flop clocked by clk)
  Endpoint: core/fu_CMUL/fu_arch/clk_r_REG254_S14
            (rising edge-triggered flip-flop clocked by clk)
  Path Group: clk
  Path Type: max

  Point                                                   Incr       Path
  --------------------------------------------------------------------------
  clock clk (rise edge)                                  0.000      0.000
  clock network delay (ideal)                            0.010      0.010
  core/rf_rf_def/clk_r_REG1882_S29/CP (C8T28SOIDV_LL_DFPRQX19_P4)
                                                         0.000      0.010 r
  core/rf_rf_def/clk_r_REG1882_S29/Q (C8T28SOIDV_LL_DFPRQX19_P4)
                                                         0.106      0.116 f
  core/rf_rf_def/U7/Z (C8T28SOIDV_LL_NOR2AX19_P4)        0.048 *    0.164 r
  core/rf_rf_def/U8/Z (C8T28SOI_LL_NAND2X8_P16)          0.024 *    0.188 f
  core/rf_rf_def/U148/Z (C8T28SOI_LL_NAND3X7_P16)        0.020 *    0.207 r
  core/rf_rf_def/r1data[9] (rf_1wr_1rd_always_1_guarded_0_dataw32_rf_size3)
                                                         0.000      0.207 r
  core/ic/socket_rf_def_o1_data0[9] (tta0_interconn)     0.000      0.207 r
  core/ic/rf_def_o1/data0[9] (tta0_output_socket_cons_2_1_BUSW_032_BUSW_132_DATAW_032_0)
                                                         0.000      0.207 r
  core/ic/rf_def_o1/U18/Z (C8T28SOIDV_LL_AND2X11_P16)    0.035 *    0.242 r
  core/ic/rf_def_o1/databus0_alt[9] (tta0_output_socket_cons_2_1_BUSW_032_BUSW_132_DATAW_032_0)
                                                         0.000      0.242 r
  core/ic/U66/Z (C8T28SOIDV_LL_IVX23_P16)                0.013 *    0.255 f
  core/ic/U84/Z (C8T28SOIDV_LL_NAND2X36_P16)             0.012 *    0.267 r
  core/ic/socket_CMUL_i2_data[9] (tta0_interconn)        0.000      0.267 r
  core/fu_CMUL/o1data[9] (fu_cmul_always_3_dataw32_busw32)
                                                         0.000      0.267 r
  core/fu_CMUL/U62/Z (C8T28SOI_LL_AOI22X9_P4)            0.024 *    0.290 f
  core/fu_CMUL/U55/Z (C8T28SOIDV_LL_IVX68_P16)           0.048 *    0.339 r
  core/fu_CMUL/fu_arch/B[9] (cmul_pipe_1_dataw32_halfw16)
                                                         0.000      0.339 r
  core/fu_CMUL/fu_arch/U1326/Z (C8T28SOIDV_LLS_XNOR2X11_P16)
                                                         0.056 *    0.395 r
  core/fu_CMUL/fu_arch/U1281/Z (C8T28SOIDV_LL_NAND2X18_P16)
                                                         0.032 *    0.427 f
  core/fu_CMUL/fu_arch/U2390/Z (C8T28SOI_LL_OAI22X3_P16)
                                                         0.062 *    0.489 r
  core/fu_CMUL/fu_arch/U2415/S0 (C8T28SOIDV_LL_FA1X5_P16)
                                                         0.112 *    0.601 f
  core/fu_CMUL/fu_arch/U2412/S0 (C8T28SOIDV_LL_FA1X5_P16)
                                                         0.101 *    0.702 r
  core/fu_CMUL/fu_arch/U2199/Z (C8T28SOIDV_LLS_XNOR2X4_P16)
                                                         0.047 *    0.749 r
  core/fu_CMUL/fu_arch/U853/Z (C8T28SOIDV_LLS_XNOR2X8_P16)
                                                         0.062 *    0.811 r
  core/fu_CMUL/fu_arch/U3288/Z (C8T28SOI_LL_NAND2X4_P16)
                                                         0.037 *    0.848 f
  core/fu_CMUL/fu_arch/U633/Z (C8T28SOI_LL_NAND2X8_P16)
                                                         0.029 *    0.877 r
  core/fu_CMUL/fu_arch/U1856/Z (C8T28SOI_LL_IVX10_P16)
                                                         0.013 *    0.891 f
  core/fu_CMUL/fu_arch/U1811/Z (C8T28SOIDV_LLS_XNOR2X4_P16)
                                                         0.031 *    0.922 f
  core/fu_CMUL/fu_arch/U2471/Z (C8T28SOI_LL_NOR2X8_P16)
                                                         0.038 *    0.961 r
  core/fu_CMUL/fu_arch/U3226/Z (C8T28SOI_LL_OAI12X10_P16)
                                                         0.029 *    0.989 f
  core/fu_CMUL/fu_arch/U3105/Z (C8T28SOI_LL_AOI12X10_P16)
                                                         0.031 *    1.020 r
  core/fu_CMUL/fu_arch/U2607/Z (C8T28SOI_LL_OAI12X10_P16)
                                                         0.024 *    1.044 f
  core/fu_CMUL/fu_arch/U1595/Z (C8T28SOI_LL_AOI12X10_P16)
                                                         0.031 *    1.075 r
  core/fu_CMUL/fu_arch/U3227/Z (C8T28SOI_LL_OAI12X10_P16)
                                                         0.024 *    1.099 f
  core/fu_CMUL/fu_arch/U3285/Z (C8T28SOI_LL_AOI21X12_P16)
                                                         0.030 *    1.129 r
  core/fu_CMUL/fu_arch/U3462/Z (C8T28SOI_LL_OAI12X10_P16)
                                                         0.017 *    1.146 f
  core/fu_CMUL/fu_arch/U14/Z (C8T28SOI_LL_AOI12X3_P16)
                                                         0.024 *    1.169 r
  core/fu_CMUL/fu_arch/clk_r_REG254_S14/D (C8T28SOIDV_LL_DFPRQX10_P10)
                                                         0.000 *    1.169 r
  data arrival time                                                 1.169

  clock clk (rise edge)                                  1.250      1.250
  clock network delay (ideal)                            0.010      1.260
  clock uncertainty                                     -0.010      1.250
  core/fu_CMUL/fu_arch/clk_r_REG254_S14/CP (C8T28SOIDV_LL_DFPRQX10_P10)
                                                         0.000      1.250 r
  library setup time                                    -0.025      1.225
  data required time                                                1.225
  --------------------------------------------------------------------------
  data required time                                                1.225
  data arrival time                                                -1.169
  --------------------------------------------------------------------------
  slack (MET)                                                       0.056


  Startpoint: core/rf_rf_def/clk_r_REG1882_S29
              (rising edge-triggered flip-flop clocked by clk)
  Endpoint: core/fu_CMUL/fu_arch/clk_r_REG64_S4
            (rising edge-triggered flip-flop clocked by clk)
  Path Group: clk
  Path Type: max

  Point                                                   Incr       Path
  --------------------------------------------------------------------------
  clock clk (rise edge)                                  0.000      0.000
  clock network delay (ideal)                            0.010      0.010
  core/rf_rf_def/clk_r_REG1882_S29/CP (C8T28SOIDV_LL_DFPRQX19_P4)
                                                         0.000      0.010 r
  core/rf_rf_def/clk_r_REG1882_S29/Q (C8T28SOIDV_LL_DFPRQX19_P4)
                                                         0.106      0.116 f
  core/rf_rf_def/U108/Z (C8T28SOIDV_LL_NOR2AX19_P10)     0.049 *    0.166 r
  core/rf_rf_def/U81/Z (C8T28SOI_LL_NAND2X8_P16)         0.022 *    0.188 f
  core/rf_rf_def/U136/Z (C8T28SOI_LL_NAND3X7_P16)        0.020 *    0.208 r
  core/rf_rf_def/r1data[18] (rf_1wr_1rd_always_1_guarded_0_dataw32_rf_size3)
                                                         0.000      0.208 r
  core/ic/socket_rf_def_o1_data0[18] (tta0_interconn)    0.000      0.208 r
  core/ic/rf_def_o1/data0[18] (tta0_output_socket_cons_2_1_BUSW_032_BUSW_132_DATAW_032_0)
                                                         0.000      0.208 r
  core/ic/rf_def_o1/U8/Z (C8T28SOI_LL_AND2X10_P16)       0.035 *    0.243 r
  core/ic/rf_def_o1/databus0_alt[18] (tta0_output_socket_cons_2_1_BUSW_032_BUSW_132_DATAW_032_0)
                                                         0.000      0.243 r
  core/ic/U252/Z (C8T28SOI_LL_IVX10_P16)                 0.010 *    0.254 f
  core/ic/U253/Z (C8T28SOI_LL_NAND2X12_P16)              0.015 *    0.269 r
  core/ic/socket_CMUL_i2_data[18] (tta0_interconn)       0.000      0.269 r
  core/fu_CMUL/o1data[18] (fu_cmul_always_3_dataw32_busw32)
                                                         0.000      0.269 r
  core/fu_CMUL/U57/Z (C8T28SOI_LL_IVX14_P16)             0.012 *    0.281 f
  core/fu_CMUL/U58/Z (C8T28SOI_LL_OAI22X11_P16)          0.050 *    0.331 r
  core/fu_CMUL/fu_arch/B[18] (cmul_pipe_1_dataw32_halfw16)
                                                         0.000      0.331 r
  core/fu_CMUL/fu_arch/U316/Z (C8T28SOIDV_LL_BFX46_P16)
                                                         0.058 *    0.388 r
  core/fu_CMUL/fu_arch/U3455/Z (C8T28SOIDV_LLS_XNOR2X11_P16)
                                                         0.054 *    0.442 r
  core/fu_CMUL/fu_arch/U322/Z (C8T28SOI_LL_OAI22X11_P16)
                                                         0.050 *    0.492 f
  core/fu_CMUL/fu_arch/U416/S0 (C8T28SOIDV_LL_FA1X5_P16)
                                                         0.107 *    0.600 r
  core/fu_CMUL/fu_arch/U2530/Z (C8T28SOI_LL_OAI12X3_P4)
                                                         0.025 *    0.625 f
  core/fu_CMUL/fu_arch/U421/Z (C8T28SOIDV_LL_NAND2X9_P16)
                                                         0.024 *    0.649 r
  core/fu_CMUL/fu_arch/U970/Z (C8T28SOIDV_LLS_XNOR2X8_P16)
                                                         0.048 *    0.697 r
  core/fu_CMUL/fu_arch/U898/Z (C8T28SOIDV_LLS_XNOR2X11_P16)
                                                         0.049 *    0.747 r
  core/fu_CMUL/fu_arch/U2151/Z (C8T28SOI_LL_IVX10_P16)
                                                         0.017 *    0.764 f
  core/fu_CMUL/fu_arch/U850/Z (C8T28SOI_LL_OAI22X8_P16)
                                                         0.034 *    0.797 r
  core/fu_CMUL/fu_arch/U702/Z (C8T28SOIDV_LL_NAND2X9_P16)
                                                         0.027 *    0.824 f
  core/fu_CMUL/fu_arch/U3456/Z (C8T28SOIDV_LL_NAND2X18_P16)
                                                         0.021 *    0.845 r
  core/fu_CMUL/fu_arch/U3541/Z (C8T28SOIDV_LLS_XNOR2X11_P16)
                                                         0.040 *    0.885 r
  core/fu_CMUL/fu_arch/U3531/Z (C8T28SOI_LL_XNOR2X19_P16)
                                                         0.056 *    0.941 f
  core/fu_CMUL/fu_arch/U605/Z (C8T28SOIDV_LL_NAND2X9_P16)
                                                         0.028 *    0.970 r
  core/fu_CMUL/fu_arch/U607/Z (C8T28SOI_LL_OAI12X10_P16)
                                                         0.023 *    0.993 f
  core/fu_CMUL/fu_arch/U337/Z (C8T28SOI_LL_AOI21X6_P16)
                                                         0.040 *    1.032 r
  core/fu_CMUL/fu_arch/U3290/Z (C8T28SOI_LL_OAI12X10_P16)
                                                         0.028 *    1.061 f
  core/fu_CMUL/fu_arch/U3142/Z (C8T28SOIDV_LL_IVX23_P16)
                                                         0.028 *    1.088 r
  core/fu_CMUL/fu_arch/U215/Z (C8T28SOI_LL_NAND2X15_P16)
                                                         0.018 *    1.106 f
  core/fu_CMUL/fu_arch/U72/Z (C8T28SOIDV_LL_NAND2X9_P16)
                                                         0.015 *    1.121 r
  core/fu_CMUL/fu_arch/U2942/Z (C8T28SOI_LL_NAND2X8_P16)
                                                         0.012 *    1.133 f
  core/fu_CMUL/fu_arch/U3503/Z (C8T28SOIDV_LLS_XNOR2X4_P16)
                                                         0.028 *    1.161 f
  core/fu_CMUL/fu_arch/clk_r_REG64_S4/D (C8T28SOIDV_LL_DFPRQX10_P10)
                                                         0.000 *    1.161 f
  data arrival time                                                 1.161

  clock clk (rise edge)                                  1.250      1.250
  clock network delay (ideal)                            0.010      1.260
  clock uncertainty                                     -0.010      1.250
  core/fu_CMUL/fu_arch/clk_r_REG64_S4/CP (C8T28SOIDV_LL_DFPRQX10_P10)
                                                         0.000      1.250 r
  library setup time                                    -0.033      1.217
  data required time                                                1.217
  --------------------------------------------------------------------------
  data required time                                                1.217
  data arrival time                                                -1.161
  --------------------------------------------------------------------------
  slack (MET)                                                       0.056


  Startpoint: core/rf_rf_def/clk_r_REG1882_S29
              (rising edge-triggered flip-flop clocked by clk)
  Endpoint: core/fu_CMUL/fu_arch/clk_r_REG143_S4
            (rising edge-triggered flip-flop clocked by clk)
  Path Group: clk
  Path Type: max

  Point                                                   Incr       Path
  --------------------------------------------------------------------------
  clock clk (rise edge)                                  0.000      0.000
  clock network delay (ideal)                            0.010      0.010
  core/rf_rf_def/clk_r_REG1882_S29/CP (C8T28SOIDV_LL_DFPRQX19_P4)
                                                         0.000      0.010 r
  core/rf_rf_def/clk_r_REG1882_S29/Q (C8T28SOIDV_LL_DFPRQX19_P4)
                                                         0.106      0.116 f
  core/rf_rf_def/U108/Z (C8T28SOIDV_LL_NOR2AX19_P10)     0.049 *    0.166 r
  core/rf_rf_def/U81/Z (C8T28SOI_LL_NAND2X8_P16)         0.022 *    0.188 f
  core/rf_rf_def/U136/Z (C8T28SOI_LL_NAND3X7_P16)        0.020 *    0.208 r
  core/rf_rf_def/r1data[18] (rf_1wr_1rd_always_1_guarded_0_dataw32_rf_size3)
                                                         0.000      0.208 r
  core/ic/socket_rf_def_o1_data0[18] (tta0_interconn)    0.000      0.208 r
  core/ic/rf_def_o1/data0[18] (tta0_output_socket_cons_2_1_BUSW_032_BUSW_132_DATAW_032_0)
                                                         0.000      0.208 r
  core/ic/rf_def_o1/U8/Z (C8T28SOI_LL_AND2X10_P16)       0.035 *    0.243 r
  core/ic/rf_def_o1/databus0_alt[18] (tta0_output_socket_cons_2_1_BUSW_032_BUSW_132_DATAW_032_0)
                                                         0.000      0.243 r
  core/ic/U252/Z (C8T28SOI_LL_IVX10_P16)                 0.010 *    0.254 f
  core/ic/U253/Z (C8T28SOI_LL_NAND2X12_P16)              0.015 *    0.269 r
  core/ic/socket_CMUL_i2_data[18] (tta0_interconn)       0.000      0.269 r
  core/fu_CMUL/o1data[18] (fu_cmul_always_3_dataw32_busw32)
                                                         0.000      0.269 r
  core/fu_CMUL/U57/Z (C8T28SOI_LL_IVX14_P16)             0.012 *    0.281 f
  core/fu_CMUL/U58/Z (C8T28SOI_LL_OAI22X11_P16)          0.050 *    0.331 r
  core/fu_CMUL/fu_arch/B[18] (cmul_pipe_1_dataw32_halfw16)
                                                         0.000      0.331 r
  core/fu_CMUL/fu_arch/U316/Z (C8T28SOIDV_LL_BFX46_P16)
                                                         0.058 *    0.388 r
  core/fu_CMUL/fu_arch/U3455/Z (C8T28SOIDV_LLS_XNOR2X11_P16)
                                                         0.054 *    0.442 r
  core/fu_CMUL/fu_arch/U322/Z (C8T28SOI_LL_OAI22X11_P16)
                                                         0.050 *    0.492 f
  core/fu_CMUL/fu_arch/U416/S0 (C8T28SOIDV_LL_FA1X5_P16)
                                                         0.107 *    0.600 r
  core/fu_CMUL/fu_arch/U2530/Z (C8T28SOI_LL_OAI12X3_P4)
                                                         0.025 *    0.625 f
  core/fu_CMUL/fu_arch/U421/Z (C8T28SOIDV_LL_NAND2X9_P16)
                                                         0.024 *    0.649 r
  core/fu_CMUL/fu_arch/U970/Z (C8T28SOIDV_LLS_XNOR2X8_P16)
                                                         0.048 *    0.697 r
  core/fu_CMUL/fu_arch/U898/Z (C8T28SOIDV_LLS_XNOR2X11_P16)
                                                         0.049 *    0.747 r
  core/fu_CMUL/fu_arch/U2151/Z (C8T28SOI_LL_IVX10_P16)
                                                         0.017 *    0.764 f
  core/fu_CMUL/fu_arch/U850/Z (C8T28SOI_LL_OAI22X8_P16)
                                                         0.034 *    0.797 r
  core/fu_CMUL/fu_arch/U702/Z (C8T28SOIDV_LL_NAND2X9_P16)
                                                         0.027 *    0.824 f
  core/fu_CMUL/fu_arch/U3456/Z (C8T28SOIDV_LL_NAND2X18_P16)
                                                         0.021 *    0.845 r
  core/fu_CMUL/fu_arch/U3541/Z (C8T28SOIDV_LLS_XNOR2X11_P16)
                                                         0.040 *    0.885 r
  core/fu_CMUL/fu_arch/U3531/Z (C8T28SOI_LL_XNOR2X19_P16)
                                                         0.056 *    0.941 f
  core/fu_CMUL/fu_arch/U605/Z (C8T28SOIDV_LL_NAND2X9_P16)
                                                         0.028 *    0.970 r
  core/fu_CMUL/fu_arch/U607/Z (C8T28SOI_LL_OAI12X10_P16)
                                                         0.023 *    0.993 f
  core/fu_CMUL/fu_arch/U337/Z (C8T28SOI_LL_AOI21X6_P16)
                                                         0.040 *    1.032 r
  core/fu_CMUL/fu_arch/U3290/Z (C8T28SOI_LL_OAI12X10_P16)
                                                         0.028 *    1.061 f
  core/fu_CMUL/fu_arch/U3142/Z (C8T28SOIDV_LL_IVX23_P16)
                                                         0.028 *    1.088 r
  core/fu_CMUL/fu_arch/U215/Z (C8T28SOI_LL_NAND2X15_P16)
                                                         0.018 *    1.106 f
  core/fu_CMUL/fu_arch/U1583/Z (C8T28SOIDV_LL_NAND2AX9_P16)
                                                         0.012 *    1.119 r
  core/fu_CMUL/fu_arch/U22/Z (C8T28SOI_LL_NAND2X4_P4)    0.013 *    1.132 f
  core/fu_CMUL/fu_arch/U2950/Z (C8T28SOIDV_LLS_XNOR2X4_P16)
                                                         0.030 *    1.162 f
  core/fu_CMUL/fu_arch/clk_r_REG143_S4/D (C8T28SOIDV_LL_DFPRQX10_P10)
                                                         0.000 *    1.162 f
  data arrival time                                                 1.162

  clock clk (rise edge)                                  1.250      1.250
  clock network delay (ideal)                            0.010      1.260
  clock uncertainty                                     -0.010      1.250
  core/fu_CMUL/fu_arch/clk_r_REG143_S4/CP (C8T28SOIDV_LL_DFPRQX10_P10)
                                                         0.000      1.250 r
  library setup time                                    -0.032      1.218
  data required time                                                1.218
  --------------------------------------------------------------------------
  data required time                                                1.218
  data arrival time                                                -1.162
  --------------------------------------------------------------------------
  slack (MET)                                                       0.056


  Startpoint: core/rf_rf_def/clk_r_REG1882_S29
              (rising edge-triggered flip-flop clocked by clk)
  Endpoint: core/fu_CMUL/fu_arch/clk_r_REG424_S14
            (rising edge-triggered flip-flop clocked by clk)
  Path Group: clk
  Path Type: max

  Point                                                   Incr       Path
  --------------------------------------------------------------------------
  clock clk (rise edge)                                  0.000      0.000
  clock network delay (ideal)                            0.010      0.010
  core/rf_rf_def/clk_r_REG1882_S29/CP (C8T28SOIDV_LL_DFPRQX19_P4)
                                                         0.000      0.010 r
  core/rf_rf_def/clk_r_REG1882_S29/Q (C8T28SOIDV_LL_DFPRQX19_P4)
                                                         0.106      0.116 f
  core/rf_rf_def/U129/Z (C8T28SOIDV_LL_NOR2AX19_P4)      0.051 *    0.167 r
  core/rf_rf_def/U67/Z (C8T28SOI_LL_NAND2X4_P4)          0.030 *    0.197 f
  core/rf_rf_def/U26/Z (C8T28SOI_LL_NAND3X10_P16)        0.024 *    0.221 r
  core/rf_rf_def/r1data[13] (rf_1wr_1rd_always_1_guarded_0_dataw32_rf_size3)
                                                         0.000      0.221 r
  core/ic/socket_rf_def_o1_data0[13] (tta0_interconn)    0.000      0.221 r
  core/ic/rf_def_o1/data0[13] (tta0_output_socket_cons_2_1_BUSW_032_BUSW_132_DATAW_032_0)
                                                         0.000      0.221 r
  core/ic/rf_def_o1/U19/Z (C8T28SOI_LL_AND2X19_P10)      0.031 *    0.252 r
  core/ic/rf_def_o1/databus0_alt[13] (tta0_output_socket_cons_2_1_BUSW_032_BUSW_132_DATAW_032_0)
                                                         0.000      0.252 r
  core/ic/U250/Z (C8T28SOI_LL_NAND2AX23_P16)             0.025 *    0.277 r
  core/ic/socket_CMUL_i2_data[13] (tta0_interconn)       0.000      0.277 r
  core/fu_CMUL/o1data[13] (fu_cmul_always_3_dataw32_busw32)
                                                         0.000      0.277 r
  core/fu_CMUL/U39/Z (C8T28SOIDV_LL_NAND2X18_P16)        0.016 *    0.293 f
  core/fu_CMUL/U101/Z (C8T28SOIDV_LL_NAND2X36_P16)       0.054 *    0.347 r
  core/fu_CMUL/fu_arch/B[13] (cmul_pipe_1_dataw32_halfw16)
                                                         0.000      0.347 r
  core/fu_CMUL/fu_arch/U1381/Z (C8T28SOIDV_LLS_XNOR2X11_P16)
                                                         0.074 *    0.421 r
  core/fu_CMUL/fu_arch/U1384/Z (C8T28SOIDV_LL_NAND2X18_P16)
                                                         0.043 *    0.464 f
  core/fu_CMUL/fu_arch/U1493/Z (C8T28SOI_LL_OAI22X8_P16)
                                                         0.034 *    0.498 r
  core/fu_CMUL/fu_arch/U1507/S0 (C8T28SOIDV_LLS1_FA1X4_P16)
                                                         0.120 *    0.618 f
  core/fu_CMUL/fu_arch/U2622/Z (C8T28SOIDV_LLS_XNOR2X4_P16)
                                                         0.044 *    0.663 r
  core/fu_CMUL/fu_arch/U3339/Z (C8T28SOIDV_LLS_XNOR2X4_P16)
                                                         0.048 *    0.711 r
  core/fu_CMUL/fu_arch/U3431/Z (C8T28SOI_LL_IVX10_P16)
                                                         0.018 *    0.728 f
  core/fu_CMUL/fu_arch/U3490/Z (C8T28SOI_LL_OAI12X10_P16)
                                                         0.024 *    0.752 r
  core/fu_CMUL/fu_arch/U1735/CO (C8T28SOIDV_LLS1_FA1X9_P16)
                                                         0.046 *    0.799 r
  core/fu_CMUL/fu_arch/U3337/Z (C8T28SOIDV_LLS_XNOR2X11_P16)
                                                         0.044 *    0.843 r
  core/fu_CMUL/fu_arch/U3489/Z (C8T28SOIDV_LLS_XNOR2X11_P16)
                                                         0.045 *    0.888 r
  core/fu_CMUL/fu_arch/U2081/Z (C8T28SOI_LL_OAI21X7_P16)
                                                         0.030 *    0.918 f
  core/fu_CMUL/fu_arch/U2082/Z (C8T28SOIDV_LL_NAND2X18_P16)
                                                         0.028 *    0.945 r
  core/fu_CMUL/fu_arch/U1732/Z (C8T28SOI_LL_IVX10_P16)
                                                         0.014 *    0.960 f
  core/fu_CMUL/fu_arch/U415/Z (C8T28SOIDV_LLS_XNOR2X4_P16)
                                                         0.028 *    0.988 r
  core/fu_CMUL/fu_arch/U2131/Z (C8T28SOIDV_LL_NAND2AX9_P16)
                                                         0.029 *    1.017 f
  core/fu_CMUL/fu_arch/U2549/Z (C8T28SOI_LL_OAI12X20_P16)
                                                         0.031 *    1.048 r
  core/fu_CMUL/fu_arch/U1594/Z (C8T28SOIDV_LL_NAND2X18_P16)
                                                         0.022 *    1.069 f
  core/fu_CMUL/fu_arch/U1582/Z (C8T28SOI_LLBR0P6_NAND3X14_P4)
                                                         0.021 *    1.090 r
  core/fu_CMUL/fu_arch/U1571/Z (C8T28SOI_LL_IVX5_P10)    0.013 *    1.103 f
  core/fu_CMUL/fu_arch/U2567/Z (C8T28SOI_LL_OAI12X3_P16)
                                                         0.026 *    1.129 r
  core/fu_CMUL/fu_arch/U2568/Z (C8T28SOIDV_LLS_XNOR2X4_P16)
                                                         0.041 *    1.170 r
  core/fu_CMUL/fu_arch/clk_r_REG424_S14/D (C8T28SOIDV_LL_DFPRQX10_P10)
                                                         0.000 *    1.170 r
  data arrival time                                                 1.170

  clock clk (rise edge)                                  1.250      1.250
  clock network delay (ideal)                            0.010      1.260
  clock uncertainty                                     -0.010      1.250
  core/fu_CMUL/fu_arch/clk_r_REG424_S14/CP (C8T28SOIDV_LL_DFPRQX10_P10)
                                                         0.000      1.250 r
  library setup time                                    -0.024      1.226
  data required time                                                1.226
  --------------------------------------------------------------------------
  data required time                                                1.226
  data arrival time                                                -1.170
  --------------------------------------------------------------------------
  slack (MET)                                                       0.057


  Startpoint: datamem/scheduler/addr_b_conv/clk_r_REG2174_S1
              (rising edge-triggered flip-flop clocked by clk)
  Endpoint: datamem/dmem_2/cacti_mem_0/mem_32x32
            (rising edge-triggered flip-flop clocked by clk)
  Path Group: clk
  Path Type: max

  Point                                                   Incr       Path
  --------------------------------------------------------------------------
  clock clk (rise edge)                                  0.000      0.000
  clock network delay (ideal)                            0.010      0.010
  datamem/scheduler/addr_b_conv/clk_r_REG2174_S1/CP (C8T28SOIDV_LL_DFPRQX10_P10)
                                                         0.000      0.010 r
  datamem/scheduler/addr_b_conv/clk_r_REG2174_S1/Q (C8T28SOIDV_LL_DFPRQX10_P10)
                                                         0.069      0.079 r
  datamem/scheduler/addr_b_conv/en_out[1]_BAR (ser_par_conv_portw14_port_cnt2_0)
                                                         0.000      0.079 r
  datamem/scheduler/U2/Z (C8T28SOIDV_LL_NOR2AX19_P10)    0.036 *    0.115 r
  datamem/scheduler/U44/Z (C8T28SOIDV_LL_CNBFX55_P4)     0.030 *    0.145 r
  datamem/scheduler/U217/Z (C8T28SOI_LL_MUX21X9_P16)     0.050 *    0.195 f
  datamem/scheduler/addr[22] (par_mem_scheduler_dataw32_addrw14_ports2_rd_delay1)
                                                         0.000      0.195 f
  datamem/par_mem_logic_inst/addrs_from_lsus[22] (par_mem_logic_PORTS2_LSU_ADDRW14_CTRLW1_DATAW32_PM_FUNC2)
                                                         0.000      0.195 f
  datamem/par_mem_logic_inst/addr_crsbar_0/addrs_from_lsus[22] (addr_crsbar_PORTS2_LSU_ADDRW14_CTRLW1_PM_FUNC2)
                                                         0.000      0.195 f
  datamem/par_mem_logic_inst/addr_crsbar_0/U63/Z (C8T28SOI_LL_MUXI21X12_P16)
                                                         0.039 *    0.234 r
  datamem/par_mem_logic_inst/addr_crsbar_0/U56/Z (C8T28SOIDV_LLS_XNOR2X4_P16)
                                                         0.047 *    0.281 r
  datamem/par_mem_logic_inst/addr_crsbar_0/U77/Z (C8T28SOIDV_LLS_XNOR2X4_P16)
                                                         0.041 *    0.322 r
  datamem/par_mem_logic_inst/addr_crsbar_0/U28/Z (C8T28SOIDV_LLS_XNOR2X4_P4)
                                                         0.031 *    0.353 r
  datamem/par_mem_logic_inst/addr_crsbar_0/U44/Z (C8T28SOIDV_LLS_XNOR2X4_P4)
                                                         0.033 *    0.386 r
  datamem/par_mem_logic_inst/addr_crsbar_0/U43/Z (C8T28SOIDV_LLS_XNOR2X8_P4)
                                                         0.046 *    0.432 r
  datamem/par_mem_logic_inst/addr_crsbar_0/module_nums[1] (addr_crsbar_PORTS2_LSU_ADDRW14_CTRLW1_PM_FUNC2)
                                                         0.000      0.432 r
  datamem/par_mem_logic_inst/ctrl_units_0/module_nums[1] (ctrl_units_PORTS2_CTRLW1)
                                                         0.000      0.432 r
  datamem/par_mem_logic_inst/ctrl_units_0/ctrl_uniti_1/module_num[0] (ctrl_unit_PORTS2_CTRLW1_0)
                                                         0.000      0.432 r
  datamem/par_mem_logic_inst/ctrl_units_0/ctrl_uniti_1/U7/Z (C8T28SOIDV_LL_NOR2AX19_P10)
                                                         0.024 *    0.456 f
  datamem/par_mem_logic_inst/ctrl_units_0/ctrl_uniti_1/ctrl_matrix_row_out[0] (ctrl_unit_PORTS2_CTRLW1_0)
                                                         0.000      0.456 f
  datamem/par_mem_logic_inst/ctrl_units_0/ctrl_uniti_0/t_ctrl_matrix_row_in[1] (ctrl_unit_PORTS2_CTRLW1_1)
                                                         0.000      0.456 f
  datamem/par_mem_logic_inst/ctrl_units_0/ctrl_uniti_0/U21/Z (C8T28SOI_LL_NAND2AX31_P10)
                                                         0.016 *    0.472 r
  datamem/par_mem_logic_inst/ctrl_units_0/ctrl_uniti_0/addr_mux_ctrl[0] (ctrl_unit_PORTS2_CTRLW1_1)
                                                         0.000      0.472 r
  datamem/par_mem_logic_inst/ctrl_units_0/addr_mux_ctrls[0] (ctrl_units_PORTS2_CTRLW1)
                                                         0.000      0.472 r
  datamem/par_mem_logic_inst/U6/Z (C8T28SOIDV_LL_CNIVX55_P4)
                                                         0.017 *    0.489 f
  datamem/par_mem_logic_inst/addr_crsbar_0/ctrl[0] (addr_crsbar_PORTS2_LSU_ADDRW14_CTRLW1_PM_FUNC2)
                                                         0.000      0.489 f
  datamem/par_mem_logic_inst/addr_crsbar_0/U102/Z (C8T28SOI_LL_MUXI21X9_P16)
                                                         0.040 *    0.529 f
  datamem/par_mem_logic_inst/addr_crsbar_0/mem_addrs_out[12] (addr_crsbar_PORTS2_LSU_ADDRW14_CTRLW1_PM_FUNC2)
                                                         0.000      0.529 f
  datamem/par_mem_logic_inst/addrs_to_mems[12] (par_mem_logic_PORTS2_LSU_ADDRW14_CTRLW1_DATAW32_PM_FUNC2)
                                                         0.000      0.529 f
  datamem/dmem_2/addr[12] (synch_singleport_mem_wrapper_DATAW32_ADDRW13_0)
                                                         0.000      0.529 f
  datamem/dmem_2/en_wr_arbiter/addr[12] (block_en_wr_arbiter_ADDRW13_NBLOCKS9_0)
                                                         0.000      0.529 f
  datamem/dmem_2/en_wr_arbiter/U46/Z (C8T28SOI_LL_NOR2X16_P16)
                                                         0.031 *    0.560 r
  datamem/dmem_2/en_wr_arbiter/U50/Z (C8T28SOIDV_LL_NAND2X18_P16)
                                                         0.017 *    0.577 f
  datamem/dmem_2/en_wr_arbiter/U49/Z (C8T28SOIDV_LL_NOR2AX19_P16)
                                                         0.018 *    0.595 r
  datamem/dmem_2/en_wr_arbiter/U7/Z (C8T28SOIDV_LL_NAND2AX9_P16)
                                                         0.017 *    0.613 f
  datamem/dmem_2/en_wr_arbiter/U45/Z (C8T28SOIDV_LL_NOR2AX19_P10)
                                                         0.019 *    0.632 r
  datamem/dmem_2/en_wr_arbiter/U22/Z (C8T28SOIDV_LL_NAND2X9_P16)
                                                         0.017 *    0.649 f
  datamem/dmem_2/en_wr_arbiter/U15/Z (C8T28SOI_LL_IVX10_P16)
                                                         0.018 *    0.667 r
  datamem/dmem_2/en_wr_arbiter/U16/Z (C8T28SOI_LLBR0P6_NAND3X3_P16)
                                                         0.017 *    0.684 f
  datamem/dmem_2/en_wr_arbiter/wr_blocks[0] (block_en_wr_arbiter_ADDRW13_NBLOCKS9_0)
                                                         0.000      0.684 f
  datamem/dmem_2/cacti_mem_0/wr_x (cacti_mem_wrapper_DATAW32_ADDRW5_1)
                                                         0.000      0.684 f
  datamem/dmem_2/cacti_mem_0/mem_32x32/wr_en_x (ram_32x32)
                                                         0.000 *    0.684 f
  data arrival time                                                 0.684

  clock clk (rise edge)                                  1.250      1.250
  clock network delay (ideal)                            0.010      1.260
  clock uncertainty                                     -0.010      1.250
  datamem/dmem_2/cacti_mem_0/mem_32x32/clk (ram_32x32)
                                                         0.000      1.250 r
  library setup time                                    -0.508      0.742
  data required time                                                0.742
  --------------------------------------------------------------------------
  data required time                                                0.742
  data arrival time                                                -0.684
  --------------------------------------------------------------------------
  slack (MET)                                                       0.057


  Startpoint: core/rf_rf_def/clk_r_REG1882_S29
              (rising edge-triggered flip-flop clocked by clk)
  Endpoint: core/fu_CMUL/fu_arch/clk_r_REG337_S14
            (rising edge-triggered flip-flop clocked by clk)
  Path Group: clk
  Path Type: max

  Point                                                   Incr       Path
  --------------------------------------------------------------------------
  clock clk (rise edge)                                  0.000      0.000
  clock network delay (ideal)                            0.010      0.010
  core/rf_rf_def/clk_r_REG1882_S29/CP (C8T28SOIDV_LL_DFPRQX19_P4)
                                                         0.000      0.010 r
  core/rf_rf_def/clk_r_REG1882_S29/Q (C8T28SOIDV_LL_DFPRQX19_P4)
                                                         0.106      0.116 f
  core/rf_rf_def/U129/Z (C8T28SOIDV_LL_NOR2AX19_P4)      0.051 *    0.167 r
  core/rf_rf_def/U67/Z (C8T28SOI_LL_NAND2X4_P4)          0.030 *    0.197 f
  core/rf_rf_def/U26/Z (C8T28SOI_LL_NAND3X10_P16)        0.024 *    0.221 r
  core/rf_rf_def/r1data[13] (rf_1wr_1rd_always_1_guarded_0_dataw32_rf_size3)
                                                         0.000      0.221 r
  core/ic/socket_rf_def_o1_data0[13] (tta0_interconn)    0.000      0.221 r
  core/ic/rf_def_o1/data0[13] (tta0_output_socket_cons_2_1_BUSW_032_BUSW_132_DATAW_032_0)
                                                         0.000      0.221 r
  core/ic/rf_def_o1/U19/Z (C8T28SOI_LL_AND2X19_P10)      0.031 *    0.252 r
  core/ic/rf_def_o1/databus0_alt[13] (tta0_output_socket_cons_2_1_BUSW_032_BUSW_132_DATAW_032_0)
                                                         0.000      0.252 r
  core/ic/U250/Z (C8T28SOI_LL_NAND2AX23_P16)             0.025 *    0.277 r
  core/ic/socket_CMUL_i2_data[13] (tta0_interconn)       0.000      0.277 r
  core/fu_CMUL/o1data[13] (fu_cmul_always_3_dataw32_busw32)
                                                         0.000      0.277 r
  core/fu_CMUL/U39/Z (C8T28SOIDV_LL_NAND2X18_P16)        0.016 *    0.293 f
  core/fu_CMUL/U101/Z (C8T28SOIDV_LL_NAND2X36_P16)       0.054 *    0.347 r
  core/fu_CMUL/fu_arch/B[13] (cmul_pipe_1_dataw32_halfw16)
                                                         0.000      0.347 r
  core/fu_CMUL/fu_arch/U1381/Z (C8T28SOIDV_LLS_XNOR2X11_P16)
                                                         0.074 *    0.421 r
  core/fu_CMUL/fu_arch/U1384/Z (C8T28SOIDV_LL_NAND2X18_P16)
                                                         0.043 *    0.464 f
  core/fu_CMUL/fu_arch/U1493/Z (C8T28SOI_LL_OAI22X8_P16)
                                                         0.034 *    0.498 r
  core/fu_CMUL/fu_arch/U1507/S0 (C8T28SOIDV_LLS1_FA1X4_P16)
                                                         0.120 *    0.618 f
  core/fu_CMUL/fu_arch/U2622/Z (C8T28SOIDV_LLS_XNOR2X4_P16)
                                                         0.044 *    0.663 r
  core/fu_CMUL/fu_arch/U3339/Z (C8T28SOIDV_LLS_XNOR2X4_P16)
                                                         0.048 *    0.711 r
  core/fu_CMUL/fu_arch/U3431/Z (C8T28SOI_LL_IVX10_P16)
                                                         0.018 *    0.728 f
  core/fu_CMUL/fu_arch/U3490/Z (C8T28SOI_LL_OAI12X10_P16)
                                                         0.024 *    0.752 r
  core/fu_CMUL/fu_arch/U1735/CO (C8T28SOIDV_LLS1_FA1X9_P16)
                                                         0.046 *    0.799 r
  core/fu_CMUL/fu_arch/U3337/Z (C8T28SOIDV_LLS_XNOR2X11_P16)
                                                         0.044 *    0.843 r
  core/fu_CMUL/fu_arch/U3489/Z (C8T28SOIDV_LLS_XNOR2X11_P16)
                                                         0.045 *    0.888 r
  core/fu_CMUL/fu_arch/U3387/Z (C8T28SOIDV_LLS_XNOR2X11_P16)
                                                         0.051 *    0.939 r
  core/fu_CMUL/fu_arch/U2652/Z (C8T28SOI_LL_NOR2X12_P16)
                                                         0.027 *    0.965 f
  core/fu_CMUL/fu_arch/U2654/Z (C8T28SOI_LL_NOR2X12_P16)
                                                         0.026 *    0.992 r
  core/fu_CMUL/fu_arch/U1684/Z (C8T28SOIDV_LL_NOR2AX19_P10)
                                                         0.036 *    1.027 r
  core/fu_CMUL/fu_arch/U342/Z (C8T28SOI_LL_NAND2X12_P16)
                                                         0.016 *    1.044 f
  core/fu_CMUL/fu_arch/U3526/Z (C8T28SOIDV_LL_NAND2X18_P16)
                                                         0.023 *    1.067 r
  core/fu_CMUL/fu_arch/U2755/Z (C8T28SOIDV_LL_NAND2X18_P16)
                                                         0.017 *    1.084 f
  core/fu_CMUL/fu_arch/U2756/Z (C8T28SOIDV_LL_NAND2X18_P16)
                                                         0.015 *    1.099 r
  core/fu_CMUL/fu_arch/U2883/Z (C8T28SOI_LL_AOI12X3_P16)
                                                         0.018 *    1.117 f
  core/fu_CMUL/fu_arch/U2884/Z (C8T28SOIDV_LLS_XOR2X4_P16)
                                                         0.036 *    1.154 f
  core/fu_CMUL/fu_arch/clk_r_REG337_S14/D (C8T28SOIDV_LL_DFPRQX10_P16)
                                                         0.000 *    1.154 f
  data arrival time                                                 1.154

  clock clk (rise edge)                                  1.250      1.250
  clock network delay (ideal)                            0.010      1.260
  clock uncertainty                                     -0.010      1.250
  core/fu_CMUL/fu_arch/clk_r_REG337_S14/CP (C8T28SOIDV_LL_DFPRQX10_P16)
                                                         0.000      1.250 r
  library setup time                                    -0.039      1.211
  data required time                                                1.211
  --------------------------------------------------------------------------
  data required time                                                1.211
  data arrival time                                                -1.154
  --------------------------------------------------------------------------
  slack (MET)                                                       0.057


  Startpoint: core/rf_rf_def/clk_r_REG1882_S29
              (rising edge-triggered flip-flop clocked by clk)
  Endpoint: core/fu_CMUL/fu_arch/clk_r_REG419_S14
            (rising edge-triggered flip-flop clocked by clk)
  Path Group: clk
  Path Type: max

  Point                                                   Incr       Path
  --------------------------------------------------------------------------
  clock clk (rise edge)                                  0.000      0.000
  clock network delay (ideal)                            0.010      0.010
  core/rf_rf_def/clk_r_REG1882_S29/CP (C8T28SOIDV_LL_DFPRQX19_P4)
                                                         0.000      0.010 r
  core/rf_rf_def/clk_r_REG1882_S29/Q (C8T28SOIDV_LL_DFPRQX19_P4)
                                                         0.106      0.116 f
  core/rf_rf_def/U129/Z (C8T28SOIDV_LL_NOR2AX19_P4)      0.051 *    0.167 r
  core/rf_rf_def/U67/Z (C8T28SOI_LL_NAND2X4_P4)          0.030 *    0.197 f
  core/rf_rf_def/U26/Z (C8T28SOI_LL_NAND3X10_P16)        0.024 *    0.221 r
  core/rf_rf_def/r1data[13] (rf_1wr_1rd_always_1_guarded_0_dataw32_rf_size3)
                                                         0.000      0.221 r
  core/ic/socket_rf_def_o1_data0[13] (tta0_interconn)    0.000      0.221 r
  core/ic/rf_def_o1/data0[13] (tta0_output_socket_cons_2_1_BUSW_032_BUSW_132_DATAW_032_0)
                                                         0.000      0.221 r
  core/ic/rf_def_o1/U19/Z (C8T28SOI_LL_AND2X19_P10)      0.031 *    0.252 r
  core/ic/rf_def_o1/databus0_alt[13] (tta0_output_socket_cons_2_1_BUSW_032_BUSW_132_DATAW_032_0)
                                                         0.000      0.252 r
  core/ic/U250/Z (C8T28SOI_LL_NAND2AX23_P16)             0.025 *    0.277 r
  core/ic/socket_CMUL_i2_data[13] (tta0_interconn)       0.000      0.277 r
  core/fu_CMUL/o1data[13] (fu_cmul_always_3_dataw32_busw32)
                                                         0.000      0.277 r
  core/fu_CMUL/U39/Z (C8T28SOIDV_LL_NAND2X18_P16)        0.016 *    0.293 f
  core/fu_CMUL/U101/Z (C8T28SOIDV_LL_NAND2X36_P16)       0.054 *    0.347 r
  core/fu_CMUL/fu_arch/B[13] (cmul_pipe_1_dataw32_halfw16)
                                                         0.000      0.347 r
  core/fu_CMUL/fu_arch/U1381/Z (C8T28SOIDV_LLS_XNOR2X11_P16)
                                                         0.074 *    0.421 r
  core/fu_CMUL/fu_arch/U1384/Z (C8T28SOIDV_LL_NAND2X18_P16)
                                                         0.043 *    0.464 f
  core/fu_CMUL/fu_arch/U1493/Z (C8T28SOI_LL_OAI22X8_P16)
                                                         0.034 *    0.498 r
  core/fu_CMUL/fu_arch/U1507/S0 (C8T28SOIDV_LLS1_FA1X4_P16)
                                                         0.120 *    0.618 f
  core/fu_CMUL/fu_arch/U2622/Z (C8T28SOIDV_LLS_XNOR2X4_P16)
                                                         0.044 *    0.663 r
  core/fu_CMUL/fu_arch/U3339/Z (C8T28SOIDV_LLS_XNOR2X4_P16)
                                                         0.048 *    0.711 r
  core/fu_CMUL/fu_arch/U3431/Z (C8T28SOI_LL_IVX10_P16)
                                                         0.018 *    0.728 f
  core/fu_CMUL/fu_arch/U3490/Z (C8T28SOI_LL_OAI12X10_P16)
                                                         0.024 *    0.752 r
  core/fu_CMUL/fu_arch/U1735/CO (C8T28SOIDV_LLS1_FA1X9_P16)
                                                         0.046 *    0.799 r
  core/fu_CMUL/fu_arch/U3337/Z (C8T28SOIDV_LLS_XNOR2X11_P16)
                                                         0.044 *    0.843 r
  core/fu_CMUL/fu_arch/U3489/Z (C8T28SOIDV_LLS_XNOR2X11_P16)
                                                         0.045 *    0.888 r
  core/fu_CMUL/fu_arch/U2081/Z (C8T28SOI_LL_OAI21X7_P16)
                                                         0.030 *    0.918 f
  core/fu_CMUL/fu_arch/U2082/Z (C8T28SOIDV_LL_NAND2X18_P16)
                                                         0.028 *    0.945 r
  core/fu_CMUL/fu_arch/U1734/Z (C8T28SOI_LL_IVX10_P16)
                                                         0.014 *    0.960 f
  core/fu_CMUL/fu_arch/U1725/Z (C8T28SOIDV_LLS_XNOR2X4_P16)
                                                         0.029 *    0.989 r
  core/fu_CMUL/fu_arch/U2133/Z (C8T28SOIDV_LL_NOR2AX10_P16)
                                                         0.023 *    1.012 f
  core/fu_CMUL/fu_arch/U2824/Z (C8T28SOI_LL_NOR2X4_P16)
                                                         0.038 *    1.051 r
  core/fu_CMUL/fu_arch/U2825/Z (C8T28SOI_LL_NAND3X7_P16)
                                                         0.036 *    1.086 f
  core/fu_CMUL/fu_arch/U2826/Z (C8T28SOI_LL_NAND2X8_P16)
                                                         0.024 *    1.110 r
  core/fu_CMUL/fu_arch/U3190/Z (C8T28SOI_LL_AOI12X10_P16)
                                                         0.016 *    1.126 f
  core/fu_CMUL/fu_arch/U3189/Z (C8T28SOIDV_LLS_XNOR2X4_P16)
                                                         0.028 *    1.153 f
  core/fu_CMUL/fu_arch/clk_r_REG419_S14/D (C8T28SOIDV_LL_DFPRQX10_P16)
                                                         0.000 *    1.153 f
  data arrival time                                                 1.153

  clock clk (rise edge)                                  1.250      1.250
  clock network delay (ideal)                            0.010      1.260
  clock uncertainty                                     -0.010      1.250
  core/fu_CMUL/fu_arch/clk_r_REG419_S14/CP (C8T28SOIDV_LL_DFPRQX10_P16)
                                                         0.000      1.250 r
  library setup time                                    -0.039      1.211
  data required time                                                1.211
  --------------------------------------------------------------------------
  data required time                                                1.211
  data arrival time                                                -1.153
  --------------------------------------------------------------------------
  slack (MET)                                                       0.058


  Startpoint: datamem/scheduler/addr_b_conv/clk_r_REG2174_S1
              (rising edge-triggered flip-flop clocked by clk)
  Endpoint: datamem/dmem_2/cacti_mem_x_1/mem_32x32
            (rising edge-triggered flip-flop clocked by clk)
  Path Group: clk
  Path Type: max

  Point                                                   Incr       Path
  --------------------------------------------------------------------------
  clock clk (rise edge)                                  0.000      0.000
  clock network delay (ideal)                            0.010      0.010
  datamem/scheduler/addr_b_conv/clk_r_REG2174_S1/CP (C8T28SOIDV_LL_DFPRQX10_P10)
                                                         0.000      0.010 r
  datamem/scheduler/addr_b_conv/clk_r_REG2174_S1/Q (C8T28SOIDV_LL_DFPRQX10_P10)
                                                         0.069      0.079 r
  datamem/scheduler/addr_b_conv/en_out[1]_BAR (ser_par_conv_portw14_port_cnt2_0)
                                                         0.000      0.079 r
  datamem/scheduler/U2/Z (C8T28SOIDV_LL_NOR2AX19_P10)    0.036 *    0.115 r
  datamem/scheduler/U44/Z (C8T28SOIDV_LL_CNBFX55_P4)     0.030 *    0.145 r
  datamem/scheduler/U217/Z (C8T28SOI_LL_MUX21X9_P16)     0.050 *    0.195 f
  datamem/scheduler/addr[22] (par_mem_scheduler_dataw32_addrw14_ports2_rd_delay1)
                                                         0.000      0.195 f
  datamem/par_mem_logic_inst/addrs_from_lsus[22] (par_mem_logic_PORTS2_LSU_ADDRW14_CTRLW1_DATAW32_PM_FUNC2)
                                                         0.000      0.195 f
  datamem/par_mem_logic_inst/addr_crsbar_0/addrs_from_lsus[22] (addr_crsbar_PORTS2_LSU_ADDRW14_CTRLW1_PM_FUNC2)
                                                         0.000      0.195 f
  datamem/par_mem_logic_inst/addr_crsbar_0/U63/Z (C8T28SOI_LL_MUXI21X12_P16)
                                                         0.039 *    0.234 r
  datamem/par_mem_logic_inst/addr_crsbar_0/U56/Z (C8T28SOIDV_LLS_XNOR2X4_P16)
                                                         0.047 *    0.281 r
  datamem/par_mem_logic_inst/addr_crsbar_0/U77/Z (C8T28SOIDV_LLS_XNOR2X4_P16)
                                                         0.041 *    0.322 r
  datamem/par_mem_logic_inst/addr_crsbar_0/U28/Z (C8T28SOIDV_LLS_XNOR2X4_P4)
                                                         0.031 *    0.353 r
  datamem/par_mem_logic_inst/addr_crsbar_0/U44/Z (C8T28SOIDV_LLS_XNOR2X4_P4)
                                                         0.033 *    0.386 r
  datamem/par_mem_logic_inst/addr_crsbar_0/U43/Z (C8T28SOIDV_LLS_XNOR2X8_P4)
                                                         0.046 *    0.432 r
  datamem/par_mem_logic_inst/addr_crsbar_0/module_nums[1] (addr_crsbar_PORTS2_LSU_ADDRW14_CTRLW1_PM_FUNC2)
                                                         0.000      0.432 r
  datamem/par_mem_logic_inst/ctrl_units_0/module_nums[1] (ctrl_units_PORTS2_CTRLW1)
                                                         0.000      0.432 r
  datamem/par_mem_logic_inst/ctrl_units_0/ctrl_uniti_1/module_num[0] (ctrl_unit_PORTS2_CTRLW1_0)
                                                         0.000      0.432 r
  datamem/par_mem_logic_inst/ctrl_units_0/ctrl_uniti_1/U7/Z (C8T28SOIDV_LL_NOR2AX19_P10)
                                                         0.024 *    0.456 f
  datamem/par_mem_logic_inst/ctrl_units_0/ctrl_uniti_1/ctrl_matrix_row_out[0] (ctrl_unit_PORTS2_CTRLW1_0)
                                                         0.000      0.456 f
  datamem/par_mem_logic_inst/ctrl_units_0/ctrl_uniti_0/t_ctrl_matrix_row_in[1] (ctrl_unit_PORTS2_CTRLW1_1)
                                                         0.000      0.456 f
  datamem/par_mem_logic_inst/ctrl_units_0/ctrl_uniti_0/U21/Z (C8T28SOI_LL_NAND2AX31_P10)
                                                         0.016 *    0.472 r
  datamem/par_mem_logic_inst/ctrl_units_0/ctrl_uniti_0/addr_mux_ctrl[0] (ctrl_unit_PORTS2_CTRLW1_1)
                                                         0.000      0.472 r
  datamem/par_mem_logic_inst/ctrl_units_0/addr_mux_ctrls[0] (ctrl_units_PORTS2_CTRLW1)
                                                         0.000      0.472 r
  datamem/par_mem_logic_inst/U6/Z (C8T28SOIDV_LL_CNIVX55_P4)
                                                         0.017 *    0.489 f
  datamem/par_mem_logic_inst/addr_crsbar_0/ctrl[0] (addr_crsbar_PORTS2_LSU_ADDRW14_CTRLW1_PM_FUNC2)
                                                         0.000      0.489 f
  datamem/par_mem_logic_inst/addr_crsbar_0/U102/Z (C8T28SOI_LL_MUXI21X9_P16)
                                                         0.040 *    0.529 f
  datamem/par_mem_logic_inst/addr_crsbar_0/mem_addrs_out[12] (addr_crsbar_PORTS2_LSU_ADDRW14_CTRLW1_PM_FUNC2)
                                                         0.000      0.529 f
  datamem/par_mem_logic_inst/addrs_to_mems[12] (par_mem_logic_PORTS2_LSU_ADDRW14_CTRLW1_DATAW32_PM_FUNC2)
                                                         0.000      0.529 f
  datamem/dmem_2/addr[12] (synch_singleport_mem_wrapper_DATAW32_ADDRW13_0)
                                                         0.000      0.529 f
  datamem/dmem_2/en_wr_arbiter/addr[12] (block_en_wr_arbiter_ADDRW13_NBLOCKS9_0)
                                                         0.000      0.529 f
  datamem/dmem_2/en_wr_arbiter/U46/Z (C8T28SOI_LL_NOR2X16_P16)
                                                         0.031 *    0.560 r
  datamem/dmem_2/en_wr_arbiter/U50/Z (C8T28SOIDV_LL_NAND2X18_P16)
                                                         0.017 *    0.577 f
  datamem/dmem_2/en_wr_arbiter/U49/Z (C8T28SOIDV_LL_NOR2AX19_P16)
                                                         0.018 *    0.595 r
  datamem/dmem_2/en_wr_arbiter/U7/Z (C8T28SOIDV_LL_NAND2AX9_P16)
                                                         0.017 *    0.613 f
  datamem/dmem_2/en_wr_arbiter/U45/Z (C8T28SOIDV_LL_NOR2AX19_P10)
                                                         0.019 *    0.632 r
  datamem/dmem_2/en_wr_arbiter/U22/Z (C8T28SOIDV_LL_NAND2X9_P16)
                                                         0.017 *    0.649 f
  datamem/dmem_2/en_wr_arbiter/U10/Z (C8T28SOI_LL_CNNOR2X8_P4)
                                                         0.019 *    0.668 r
  datamem/dmem_2/en_wr_arbiter/U11/Z (C8T28SOI_LL_NAND2X8_P16)
                                                         0.016 *    0.684 f
  datamem/dmem_2/en_wr_arbiter/wr_blocks[1] (block_en_wr_arbiter_ADDRW13_NBLOCKS9_0)
                                                         0.000      0.684 f
  datamem/dmem_2/cacti_mem_x_1/wr_x (cacti_mem_wrapper_DATAW32_ADDRW5_0)
                                                         0.000      0.684 f
  datamem/dmem_2/cacti_mem_x_1/mem_32x32/wr_en_x (ram_32x32)
                                                         0.000 *    0.684 f
  data arrival time                                                 0.684

  clock clk (rise edge)                                  1.250      1.250
  clock network delay (ideal)                            0.010      1.260
  clock uncertainty                                     -0.010      1.250
  datamem/dmem_2/cacti_mem_x_1/mem_32x32/clk (ram_32x32)
                                                         0.000      1.250 r
  library setup time                                    -0.506      0.744
  data required time                                                0.744
  --------------------------------------------------------------------------
  data required time                                                0.744
  data arrival time                                                -0.684
  --------------------------------------------------------------------------
  slack (MET)                                                       0.060


1
