Warning: There are 109 switching activity information conflicts. (PWR-19)
 
****************************************
Report : saif
Design : proc
Version: M-2016.12-SP5-1
Date   : Sat Jul 28 04:31:28 2018
****************************************

  

--------------------------------------------------------------------------------
              User              Default           Propagated
Object type   Annotated (%)     Activity (%)      Activity (%)       Total
--------------------------------------------------------------------------------
  
 Nets         276(66.51%)       0(0.00%)          139(33.49%)        415
 Ports        229(100.00%)      0(0.00%)          0(0.00%)           229
 Pins         215(34.40%)       0(0.00%)          410(65.60%)        625
--------------------------------------------------------------------------------
1
