Warning: There are 89 switching activity information conflicts. (PWR-19)
 
****************************************
Report : saif
Design : proc
Version: M-2016.12-SP5-1
Date   : Sat Jul 28 04:51:07 2018
****************************************

  

--------------------------------------------------------------------------------
              User              Default           Propagated
Object type   Annotated (%)     Activity (%)      Activity (%)       Total
--------------------------------------------------------------------------------
  
 Nets         301(64.04%)       0(0.00%)          169(35.96%)        470
 Ports        229(100.00%)      0(0.00%)          0(0.00%)           229
 Pins         252(36.84%)       0(0.00%)          432(63.16%)        684
--------------------------------------------------------------------------------
1
