Information: Updating design information... (UID-85)
 
****************************************
Report : timing
        -path full
        -delay max
        -max_paths 10
Design : proc
Version: M-2016.12-SP5-1
Date   : Sat Jul 28 04:50:24 2018
****************************************

 * Some/all delay information is back-annotated.

Operating Conditions: tt28_0.80V_0.00V_0.00V_0.00V_25C   Library: C28SOI_SC_8_CLK_LL
Wire Load Model Mode: Inactive.

  Startpoint: core/fu_TFG/fu_arch/u5/lut/clk_r_REG685_S19
              (rising edge-triggered flip-flop clocked by clk)
  Endpoint: core/fu_TFG/fu_arch/u6/clk_r_REG647_S20
            (rising edge-triggered flip-flop clocked by clk)
  Path Group: clk
  Path Type: max

  Point                                                   Incr       Path
  --------------------------------------------------------------------------
  clock clk (rise edge)                                  0.000      0.000
  clock network delay (ideal)                            0.010      0.010
  core/fu_TFG/fu_arch/u5/lut/clk_r_REG685_S19/CP (C8T28SOIDV_LL_DFPRQX10_P16)
                                                         0.000      0.010 r
  core/fu_TFG/fu_arch/u5/lut/clk_r_REG685_S19/Q (C8T28SOIDV_LL_DFPRQX10_P16)
                                                         0.104      0.114 r
  core/fu_TFG/fu_arch/u5/lut/U14/Z (C8T28SOI_LL_BFX13_P16)
                                                         0.074 *    0.188 r
  core/fu_TFG/fu_arch/u5/lut/U15/Z (C8T28SOI_LL_IVX10_P16)
                                                         0.082 *    0.270 f
  core/fu_TFG/fu_arch/u5/lut/U46/Z (C8T28SOI_LL_NAND2X4_P16)
                                                         0.090 *    0.361 r
  core/fu_TFG/fu_arch/u5/lut/U47/Z (C8T28SOI_LL_IVX5_P16)
                                                         0.071 *    0.432 f
  core/fu_TFG/fu_arch/u5/lut/U64/Z (C8T28SOI_LL_NAND2X4_P16)
                                                         0.129 *    0.560 r
  core/fu_TFG/fu_arch/u5/lut/U140/Z (C8T28SOI_LL_IVX5_P16)
                                                         0.127 *    0.687 f
  core/fu_TFG/fu_arch/u5/lut/U917/Z (C8T28SOI_LL_NOR2X2_P16)
                                                         0.076 *    0.762 r
  core/fu_TFG/fu_arch/u5/lut/U289/Z (C8T28SOI_LL_BFX5_P16)
                                                         0.120 *    0.883 r
  core/fu_TFG/fu_arch/u5/lut/U2175/Z (C8T28SOI_LL_NOR2X4_P16)
                                                         0.078 *    0.960 f
  core/fu_TFG/fu_arch/u5/lut/U2177/Z (C8T28SOI_LL_NOR3X3_P16)
                                                         0.071 *    1.031 r
  core/fu_TFG/fu_arch/u5/lut/U2178/Z (C8T28SOI_LL_NAND2X4_P16)
                                                         0.054 *    1.085 f
  core/fu_TFG/fu_arch/u5/lut/U2196/Z (C8T28SOI_LL_NOR3X3_P16)
                                                         0.060 *    1.146 r
  core/fu_TFG/fu_arch/u5/lut/U2197/Z (C8T28SOI_LL_NAND3X3_P16)
                                                         0.046 *    1.191 f
  core/fu_TFG/fu_arch/u5/lut/U2198/Z (C8T28SOI_LL_NOR2X4_P16)
                                                         0.051 *    1.242 r
  core/fu_TFG/fu_arch/u5/lut/U2238/Z (C8T28SOI_LL_NOR3AX3_P16)
                                                         0.081 *    1.324 r
  core/fu_TFG/fu_arch/u5/lut/U2243/Z (C8T28SOI_LL_OAI22X3_P16)
                                                         0.041 *    1.365 f
  core/fu_TFG/fu_arch/u5/lut/U2244/Z (C8T28SOI_LL_CBI4I6X3_P16)
                                                         0.061 *    1.426 r
  core/fu_TFG/fu_arch/u5/lut/U2248/Z (C8T28SOI_LL_OAI211X3_P16)
                                                         0.049 *    1.475 f
  core/fu_TFG/fu_arch/u5/lut/U2249/Z (C8T28SOI_LL_CBI4I6X3_P16)
                                                         0.059 *    1.533 r
  core/fu_TFG/fu_arch/u5/lut/U2253/Z (C8T28SOI_LL_NAND3X3_P16)
                                                         0.044 *    1.578 f
  core/fu_TFG/fu_arch/u5/lut/U2254/Z (C8T28SOI_LL_AOI22X2_P16)
                                                         0.047 *    1.625 r
  core/fu_TFG/fu_arch/u5/lut/U2273/Z (C8T28SOI_LL_OA112X4_P16)
                                                         0.088 *    1.712 r
  core/fu_TFG/fu_arch/u5/lut/U2274/Z (C8T28SOI_LL_OAI12X3_P16)
                                                         0.032 *    1.744 f
  core/fu_TFG/fu_arch/u5/lut/tf_o[24] (distr_2049x32_synch_dataw32_lut_addrw12)
                                                         0.000      1.744 f
  core/fu_TFG/fu_arch/u5/tf_o[24] (tf_lut_synch_dataw32_lut_addrw12)
                                                         0.000      1.744 f
  core/fu_TFG/fu_arch/u6/tf_lut_i[24] (twiddle_twist_dataw32_halfw16)
                                                         0.000      1.744 f
  core/fu_TFG/fu_arch/u6/clk_r_REG647_S20/D (C8T28SOIDV_LL_DFPRQX10_P16)
                                                         0.000 *    1.744 f
  data arrival time                                                 1.744

  clock clk (rise edge)                                  1.818      1.818
  clock network delay (ideal)                            0.010      1.828
  clock uncertainty                                     -0.010      1.818
  core/fu_TFG/fu_arch/u6/clk_r_REG647_S20/CP (C8T28SOIDV_LL_DFPRQX10_P16)
                                                         0.000      1.818 r
  library setup time                                    -0.066      1.752
  data required time                                                1.752
  --------------------------------------------------------------------------
  data required time                                                1.752
  data arrival time                                                -1.744
  --------------------------------------------------------------------------
  slack (MET)                                                       0.007


  Startpoint: datamem/scheduler/addr_a_conv/clk_r_REG2164_S1
              (rising edge-triggered flip-flop clocked by clk)
  Endpoint: datamem/dmem_2/cacti_mem_x_1/mem_32x32
            (rising edge-triggered flip-flop clocked by clk)
  Path Group: clk
  Path Type: max

  Point                                                   Incr       Path
  --------------------------------------------------------------------------
  clock clk (rise edge)                                  0.000      0.000
  clock network delay (ideal)                            0.010      0.010
  datamem/scheduler/addr_a_conv/clk_r_REG2164_S1/CP (C8T28SOIDV_LL_DFPRQX10_P16)
                                                         0.000      0.010 r
  datamem/scheduler/addr_a_conv/clk_r_REG2164_S1/Q (C8T28SOIDV_LL_DFPRQX10_P16)
                                                         0.099      0.109 r
  datamem/scheduler/addr_a_conv/en_out[1]_BAR (ser_par_conv_portw14_port_cnt2_1)
                                                         0.000      0.109 r
  datamem/scheduler/U2/Z (C8T28SOI_LL_IVX5_P16)          0.021 *    0.130 f
  datamem/scheduler/U3/Z (C8T28SOI_LL_NAND2X12_P16)      0.035 *    0.165 r
  datamem/scheduler/U215/Z (C8T28SOI_LL_IVX10_P16)       0.060 *    0.225 f
  datamem/scheduler/U199/Z (C8T28SOI_LL_AOI22X2_P16)     0.071 *    0.296 r
  datamem/scheduler/U200/Z (C8T28SOI_LL_IVX3_P16)        0.040 *    0.336 f
  datamem/scheduler/addr[25] (par_mem_scheduler_dataw32_addrw14_ports2_rd_delay1)
                                                         0.000      0.336 f
  datamem/par_mem_logic_inst/addrs_from_lsus[25] (par_mem_logic_PORTS2_LSU_ADDRW14_CTRLW1_DATAW32_PM_FUNC2)
                                                         0.000      0.336 f
  datamem/par_mem_logic_inst/addr_crsbar_0/addrs_from_lsus[25] (addr_crsbar_PORTS2_LSU_ADDRW14_CTRLW1_PM_FUNC2)
                                                         0.000      0.336 f
  datamem/par_mem_logic_inst/addr_crsbar_0/U30/Z (C8T28SOI_LL_AOI22X2_P16)
                                                         0.139 *    0.475 r
  datamem/par_mem_logic_inst/addr_crsbar_0/U76/Z (C8T28SOIDV_LLS_XNOR2X4_P16)
                                                         0.115 *    0.590 r
  datamem/par_mem_logic_inst/addr_crsbar_0/U34/Z (C8T28SOI_LL_NAND2X4_P16)
                                                         0.029 *    0.619 f
  datamem/par_mem_logic_inst/addr_crsbar_0/U35/Z (C8T28SOI_LL_OAI12X3_P16)
                                                         0.029 *    0.647 r
  datamem/par_mem_logic_inst/addr_crsbar_0/U83/Z (C8T28SOIDV_LLS_XNOR2X4_P16)
                                                         0.061 *    0.708 r
  datamem/par_mem_logic_inst/addr_crsbar_0/U32/Z (C8T28SOIDV_LLS_XNOR2X4_P16)
                                                         0.063 *    0.771 r
  datamem/par_mem_logic_inst/addr_crsbar_0/module_nums[1] (addr_crsbar_PORTS2_LSU_ADDRW14_CTRLW1_PM_FUNC2)
                                                         0.000      0.771 r
  datamem/par_mem_logic_inst/ctrl_units_0/module_nums[1] (ctrl_units_PORTS2_CTRLW1)
                                                         0.000      0.771 r
  datamem/par_mem_logic_inst/ctrl_units_0/ctrl_uniti_1/module_num[0] (ctrl_unit_PORTS2_CTRLW1_0)
                                                         0.000      0.771 r
  datamem/par_mem_logic_inst/ctrl_units_0/ctrl_uniti_1/U6/Z (C8T28SOI_LL_NOR2X8_P16)
                                                         0.029 *    0.800 f
  datamem/par_mem_logic_inst/ctrl_units_0/ctrl_uniti_1/ctrl_matrix_row_out[0] (ctrl_unit_PORTS2_CTRLW1_0)
                                                         0.000      0.800 f
  datamem/par_mem_logic_inst/ctrl_units_0/ctrl_uniti_0/t_ctrl_matrix_row_in[1] (ctrl_unit_PORTS2_CTRLW1_1)
                                                         0.000      0.800 f
  datamem/par_mem_logic_inst/ctrl_units_0/ctrl_uniti_0/U3/Z (C8T28SOI_LL_NAND2X8_P16)
                                                         0.024 *    0.824 r
  datamem/par_mem_logic_inst/ctrl_units_0/ctrl_uniti_0/addr_mux_ctrl[0] (ctrl_unit_PORTS2_CTRLW1_1)
                                                         0.000      0.824 r
  datamem/par_mem_logic_inst/ctrl_units_0/addr_mux_ctrls[0] (ctrl_units_PORTS2_CTRLW1)
                                                         0.000      0.824 r
  datamem/par_mem_logic_inst/U7/Z (C8T28SOIDV_LL_IVX23_P16)
                                                         0.031 *    0.855 f
  datamem/par_mem_logic_inst/addr_crsbar_0/ctrl[0] (addr_crsbar_PORTS2_LSU_ADDRW14_CTRLW1_PM_FUNC2)
                                                         0.000      0.855 f
  datamem/par_mem_logic_inst/addr_crsbar_0/U74/Z (C8T28SOI_LL_IVX19_P16)
                                                         0.043 *    0.898 r
  datamem/par_mem_logic_inst/addr_crsbar_0/U139/Z (C8T28SOI_LL_AOI22X2_P16)
                                                         0.076 *    0.973 f
  datamem/par_mem_logic_inst/addr_crsbar_0/mem_addrs_out[12] (addr_crsbar_PORTS2_LSU_ADDRW14_CTRLW1_PM_FUNC2)
                                                         0.000      0.973 f
  datamem/par_mem_logic_inst/addrs_to_mems[12] (par_mem_logic_PORTS2_LSU_ADDRW14_CTRLW1_DATAW32_PM_FUNC2)
                                                         0.000      0.973 f
  datamem/dmem_2/addr[12] (synch_singleport_mem_wrapper_DATAW32_ADDRW13_0)
                                                         0.000      0.973 f
  datamem/dmem_2/en_wr_arbiter/addr[12] (block_en_wr_arbiter_ADDRW13_NBLOCKS9_0)
                                                         0.000      0.973 f
  datamem/dmem_2/en_wr_arbiter/U4/Z (C8T28SOI_LL_NAND2AX4_P16)
                                                         0.107 *    1.081 f
  datamem/dmem_2/en_wr_arbiter/U19/Z (C8T28SOI_LL_NOR2X12_P16)
                                                         0.051 *    1.132 r
  datamem/dmem_2/en_wr_arbiter/U17/Z (C8T28SOIDV_LL_NAND2X9_P16)
                                                         0.036 *    1.168 f
  datamem/dmem_2/en_wr_arbiter/U20/Z (C8T28SOI_LL_NOR2X8_P16)
                                                         0.027 *    1.195 r
  datamem/dmem_2/en_wr_arbiter/U21/Z (C8T28SOI_LL_AND2X10_P16)
                                                         0.059 *    1.254 r
  datamem/dmem_2/en_wr_arbiter/U22/Z (C8T28SOI_LL_NAND3X7_P16)
                                                         0.037 *    1.291 f
  datamem/dmem_2/en_wr_arbiter/en_blocks[1] (block_en_wr_arbiter_ADDRW13_NBLOCKS9_0)
                                                         0.000      1.291 f
  datamem/dmem_2/cacti_mem_x_1/en_x (cacti_mem_wrapper_DATAW32_ADDRW5_0)
                                                         0.000      1.291 f
  datamem/dmem_2/cacti_mem_x_1/mem_32x32/mem_en_x (ram_32x32)
                                                         0.000 *    1.291 f
  data arrival time                                                 1.291

  clock clk (rise edge)                                  1.818      1.818
  clock network delay (ideal)                            0.010      1.828
  clock uncertainty                                     -0.010      1.818
  datamem/dmem_2/cacti_mem_x_1/mem_32x32/clk (ram_32x32)
                                                         0.000      1.818 r
  library setup time                                    -0.518      1.300
  data required time                                                1.300
  --------------------------------------------------------------------------
  data required time                                                1.300
  data arrival time                                                -1.291
  --------------------------------------------------------------------------
  slack (MET)                                                       0.009


  Startpoint: core/ic/rf_def_o1/clk_r_REG1968_S19
              (rising edge-triggered flip-flop clocked by clk)
  Endpoint: core/fu_CMUL/fu_arch/clk_r_REG324_S14
            (rising edge-triggered flip-flop clocked by clk)
  Path Group: clk
  Path Type: max

  Point                                                   Incr       Path
  --------------------------------------------------------------------------
  clock clk (rise edge)                                  0.000      0.000
  clock network delay (ideal)                            0.010      0.010
  core/ic/rf_def_o1/clk_r_REG1968_S19/CP (C8T28SOIDV_LL_DFPRQX10_P16)
                                                         0.000      0.010 r
  core/ic/rf_def_o1/clk_r_REG1968_S19/Q (C8T28SOIDV_LL_DFPRQX10_P16)
                                                         0.150      0.160 f
  core/ic/rf_def_o1/U1/Z (C8T28SOI_LL_IVX5_P16)          0.077 *    0.237 r
  core/ic/rf_def_o1/U2/Z (C8T28SOI_LL_NAND2AX2_P16)      0.055 *    0.292 r
  core/ic/rf_def_o1/U3/Z (C8T28SOI_LL_IVX5_P16)          0.018 *    0.310 f
  core/ic/rf_def_o1/databus0_alt[2] (tta0_output_socket_cons_2_1_BUSW_032_BUSW_132_DATAW_032_0)
                                                         0.000      0.310 f
  core/ic/U187/Z (C8T28SOI_LL_OR3X5_P16)                 0.088 *    0.397 f
  core/ic/CMUL_i2/databus0[2] (tta0_input_socket_cons_1_BUSW_032_DATAW32_9)
                                                         0.000      0.397 f
  core/ic/CMUL_i2/U19/Z (C8T28SOI_LL_BFX13_P16)          0.051 *    0.449 f
  core/ic/CMUL_i2/data[2] (tta0_input_socket_cons_1_BUSW_032_DATAW32_9)
                                                         0.000      0.449 f
  core/ic/socket_CMUL_i2_data[2] (tta0_interconn)        0.000      0.449 f
  core/fu_CMUL/o1data[2] (fu_cmul_always_3_dataw32_busw32)
                                                         0.000      0.449 f
  core/fu_CMUL/U14/Z (C8T28SOI_LL_NAND2X8_P16)           0.018 *    0.467 r
  core/fu_CMUL/U15/Z (C8T28SOI_LL_NAND2X12_P16)          0.042 *    0.509 f
  core/fu_CMUL/fu_arch/B[2] (cmul_pipe_1_dataw32_halfw16)
                                                         0.000      0.509 f
  core/fu_CMUL/fu_arch/U1498/Z (C8T28SOIDV_LLS_XNOR2X11_P16)
                                                         0.112 *    0.621 r
  core/fu_CMUL/fu_arch/U1501/Z (C8T28SOIDV_LL_NAND2X18_P16)
                                                         0.075 *    0.696 f
  core/fu_CMUL/fu_arch/U1904/Z (C8T28SOI_LL_OAI22X3_P16)
                                                         0.093 *    0.789 r
  core/fu_CMUL/fu_arch/U1950/CO (C8T28SOIDV_LL_FA1X5_P16)
                                                         0.124 *    0.914 r
  core/fu_CMUL/fu_arch/U1918/S0 (C8T28SOIDV_LL_FA1X5_P16)
                                                         0.108 *    1.022 f
  core/fu_CMUL/fu_arch/U1955/S0 (C8T28SOIDV_LL_FA1X5_P16)
                                                         0.126 *    1.148 r
  core/fu_CMUL/fu_arch/U1467/Z (C8T28SOI_LL_AND2X5_P16)
                                                         0.052 *    1.201 r
  core/fu_CMUL/fu_arch/U1960/Z (C8T28SOI_LL_AOI12X3_P16)
                                                         0.021 *    1.222 f
  core/fu_CMUL/fu_arch/U1962/Z (C8T28SOI_LL_OAI12X3_P16)
                                                         0.040 *    1.262 r
  core/fu_CMUL/fu_arch/U1965/Z (C8T28SOI_LL_AOI12X3_P16)
                                                         0.029 *    1.291 f
  core/fu_CMUL/fu_arch/U1623/Z (C8T28SOI_LL_OA12X5_P16)
                                                         0.055 *    1.346 f
  core/fu_CMUL/fu_arch/U1978/Z (C8T28SOI_LL_OAI12X10_P16)
                                                         0.032 *    1.378 r
  core/fu_CMUL/fu_arch/U1972/Z (C8T28SOI_LL_NAND2X8_P16)
                                                         0.026 *    1.404 f
  core/fu_CMUL/fu_arch/U1973/Z (C8T28SOIDV_LL_NAND2X9_P16)
                                                         0.025 *    1.429 r
  core/fu_CMUL/fu_arch/U2188/Z (C8T28SOI_LL_AOI12X10_P16)
                                                         0.021 *    1.450 f
  core/fu_CMUL/fu_arch/U2271/Z (C8T28SOI_LL_OAI12X10_P16)
                                                         0.045 *    1.496 r
  core/fu_CMUL/fu_arch/U1986/Z (C8T28SOI_LL_AOI12X19_P16)
                                                         0.041 *    1.537 f
  core/fu_CMUL/fu_arch/U2219/Z (C8T28SOI_LL_OAI12X10_P16)
                                                         0.041 *    1.578 r
  core/fu_CMUL/fu_arch/U2709/Z (C8T28SOI_LL_NAND2X8_P16)
                                                         0.030 *    1.608 f
  core/fu_CMUL/fu_arch/U2272/Z (C8T28SOI_LL_OAI12X10_P16)
                                                         0.033 *    1.642 r
  core/fu_CMUL/fu_arch/U2187/Z (C8T28SOIDV_LL_NAND2X18_P16)
                                                         0.024 *    1.666 f
  core/fu_CMUL/fu_arch/U2713/Z (C8T28SOI_LLBR0P6_NAND3X20_P4)
                                                         0.026 *    1.692 r
  core/fu_CMUL/fu_arch/U2730/Z (C8T28SOI_LL_AOI12X10_P16)
                                                         0.023 *    1.715 f
  core/fu_CMUL/fu_arch/U2731/Z (C8T28SOIDV_LLS_XNOR2X4_P16)
                                                         0.038 *    1.753 f
  core/fu_CMUL/fu_arch/clk_r_REG324_S14/D (C8T28SOIDV_LL_DFPRQX10_P16)
                                                         0.000 *    1.753 f
  data arrival time                                                 1.753

  clock clk (rise edge)                                  1.818      1.818
  clock network delay (ideal)                            0.010      1.828
  clock uncertainty                                     -0.010      1.818
  core/fu_CMUL/fu_arch/clk_r_REG324_S14/CP (C8T28SOIDV_LL_DFPRQX10_P16)
                                                         0.000      1.818 r
  library setup time                                    -0.054      1.764
  data required time                                                1.764
  --------------------------------------------------------------------------
  data required time                                                1.764
  data arrival time                                                -1.753
  --------------------------------------------------------------------------
  slack (MET)                                                       0.011


  Startpoint: core/ic/rf_def_o1/clk_r_REG1968_S19
              (rising edge-triggered flip-flop clocked by clk)
  Endpoint: core/fu_CMUL/fu_arch/clk_r_REG269_S14
            (rising edge-triggered flip-flop clocked by clk)
  Path Group: clk
  Path Type: max

  Point                                                   Incr       Path
  --------------------------------------------------------------------------
  clock clk (rise edge)                                  0.000      0.000
  clock network delay (ideal)                            0.010      0.010
  core/ic/rf_def_o1/clk_r_REG1968_S19/CP (C8T28SOIDV_LL_DFPRQX10_P16)
                                                         0.000      0.010 r
  core/ic/rf_def_o1/clk_r_REG1968_S19/Q (C8T28SOIDV_LL_DFPRQX10_P16)
                                                         0.150      0.160 f
  core/ic/rf_def_o1/U1/Z (C8T28SOI_LL_IVX5_P16)          0.077 *    0.237 r
  core/ic/rf_def_o1/U2/Z (C8T28SOI_LL_NAND2AX2_P16)      0.055 *    0.292 r
  core/ic/rf_def_o1/U3/Z (C8T28SOI_LL_IVX5_P16)          0.018 *    0.310 f
  core/ic/rf_def_o1/databus0_alt[2] (tta0_output_socket_cons_2_1_BUSW_032_BUSW_132_DATAW_032_0)
                                                         0.000      0.310 f
  core/ic/U187/Z (C8T28SOI_LL_OR3X5_P16)                 0.088 *    0.397 f
  core/ic/CMUL_i2/databus0[2] (tta0_input_socket_cons_1_BUSW_032_DATAW32_9)
                                                         0.000      0.397 f
  core/ic/CMUL_i2/U19/Z (C8T28SOI_LL_BFX13_P16)          0.051 *    0.449 f
  core/ic/CMUL_i2/data[2] (tta0_input_socket_cons_1_BUSW_032_DATAW32_9)
                                                         0.000      0.449 f
  core/ic/socket_CMUL_i2_data[2] (tta0_interconn)        0.000      0.449 f
  core/fu_CMUL/o1data[2] (fu_cmul_always_3_dataw32_busw32)
                                                         0.000      0.449 f
  core/fu_CMUL/U14/Z (C8T28SOI_LL_NAND2X8_P16)           0.018 *    0.467 r
  core/fu_CMUL/U15/Z (C8T28SOI_LL_NAND2X12_P16)          0.042 *    0.509 f
  core/fu_CMUL/fu_arch/B[2] (cmul_pipe_1_dataw32_halfw16)
                                                         0.000      0.509 f
  core/fu_CMUL/fu_arch/U1498/Z (C8T28SOIDV_LLS_XNOR2X11_P16)
                                                         0.112 *    0.621 r
  core/fu_CMUL/fu_arch/U1501/Z (C8T28SOIDV_LL_NAND2X18_P16)
                                                         0.075 *    0.696 f
  core/fu_CMUL/fu_arch/U1904/Z (C8T28SOI_LL_OAI22X3_P16)
                                                         0.093 *    0.789 r
  core/fu_CMUL/fu_arch/U1950/CO (C8T28SOIDV_LL_FA1X5_P16)
                                                         0.124 *    0.914 r
  core/fu_CMUL/fu_arch/U1918/S0 (C8T28SOIDV_LL_FA1X5_P16)
                                                         0.108 *    1.022 f
  core/fu_CMUL/fu_arch/U1955/S0 (C8T28SOIDV_LL_FA1X5_P16)
                                                         0.126 *    1.148 r
  core/fu_CMUL/fu_arch/U1467/Z (C8T28SOI_LL_AND2X5_P16)
                                                         0.052 *    1.201 r
  core/fu_CMUL/fu_arch/U1960/Z (C8T28SOI_LL_AOI12X3_P16)
                                                         0.021 *    1.222 f
  core/fu_CMUL/fu_arch/U1962/Z (C8T28SOI_LL_OAI12X3_P16)
                                                         0.040 *    1.262 r
  core/fu_CMUL/fu_arch/U1965/Z (C8T28SOI_LL_AOI12X3_P16)
                                                         0.029 *    1.291 f
  core/fu_CMUL/fu_arch/U1623/Z (C8T28SOI_LL_OA12X5_P16)
                                                         0.055 *    1.346 f
  core/fu_CMUL/fu_arch/U1978/Z (C8T28SOI_LL_OAI12X10_P16)
                                                         0.032 *    1.378 r
  core/fu_CMUL/fu_arch/U1972/Z (C8T28SOI_LL_NAND2X8_P16)
                                                         0.026 *    1.404 f
  core/fu_CMUL/fu_arch/U1973/Z (C8T28SOIDV_LL_NAND2X9_P16)
                                                         0.025 *    1.429 r
  core/fu_CMUL/fu_arch/U2188/Z (C8T28SOI_LL_AOI12X10_P16)
                                                         0.021 *    1.450 f
  core/fu_CMUL/fu_arch/U2271/Z (C8T28SOI_LL_OAI12X10_P16)
                                                         0.045 *    1.496 r
  core/fu_CMUL/fu_arch/U1986/Z (C8T28SOI_LL_AOI12X19_P16)
                                                         0.041 *    1.537 f
  core/fu_CMUL/fu_arch/U2219/Z (C8T28SOI_LL_OAI12X10_P16)
                                                         0.041 *    1.578 r
  core/fu_CMUL/fu_arch/U2709/Z (C8T28SOI_LL_NAND2X8_P16)
                                                         0.030 *    1.608 f
  core/fu_CMUL/fu_arch/U2272/Z (C8T28SOI_LL_OAI12X10_P16)
                                                         0.033 *    1.642 r
  core/fu_CMUL/fu_arch/U2187/Z (C8T28SOIDV_LL_NAND2X18_P16)
                                                         0.024 *    1.666 f
  core/fu_CMUL/fu_arch/U2713/Z (C8T28SOI_LLBR0P6_NAND3X20_P4)
                                                         0.026 *    1.692 r
  core/fu_CMUL/fu_arch/U2714/Z (C8T28SOI_LL_IVX10_P16)
                                                         0.020 *    1.712 f
  core/fu_CMUL/fu_arch/U2189/Z (C8T28SOI_LL_OAI12X10_P16)
                                                         0.021 *    1.733 r
  core/fu_CMUL/fu_arch/U2776/Z (C8T28SOI_LL_AOI12X3_P16)
                                                         0.021 *    1.753 f
  core/fu_CMUL/fu_arch/clk_r_REG269_S14/D (C8T28SOIDV_LL_DFPRQX10_P16)
                                                         0.000 *    1.753 f
  data arrival time                                                 1.753

  clock clk (rise edge)                                  1.818      1.818
  clock network delay (ideal)                            0.010      1.828
  clock uncertainty                                     -0.010      1.818
  core/fu_CMUL/fu_arch/clk_r_REG269_S14/CP (C8T28SOIDV_LL_DFPRQX10_P16)
                                                         0.000      1.818 r
  library setup time                                    -0.053      1.765
  data required time                                                1.765
  --------------------------------------------------------------------------
  data required time                                                1.765
  data arrival time                                                -1.753
  --------------------------------------------------------------------------
  slack (MET)                                                       0.011


  Startpoint: core/fu_CADD1/fu_arch/inst_cadd_reg/clk_r_REG2192_S1
              (rising edge-triggered flip-flop clocked by clk)
  Endpoint: datamem/scheduler/d_b_conv/clk_r_REG275_S19
            (rising edge-triggered flip-flop clocked by clk)
  Path Group: clk
  Path Type: max

  Point                                                   Incr       Path
  --------------------------------------------------------------------------
  clock clk (rise edge)                                  0.000      0.000
  clock network delay (ideal)                            0.010      0.010
  core/fu_CADD1/fu_arch/inst_cadd_reg/clk_r_REG2192_S1/CP (C8T28SOIDV_LL_DFPRQX19_P10)
                                                         0.000      0.010 r
  core/fu_CADD1/fu_arch/inst_cadd_reg/clk_r_REG2192_S1/Q (C8T28SOIDV_LL_DFPRQX19_P10)
                                                         0.122      0.132 f
  core/fu_CADD1/fu_arch/inst_cadd_reg/opc_o[1] (cadd_reg_dataw32)
                                                         0.000      0.132 f
  core/fu_CADD1/fu_arch/inst_cadd_arith/opc_i[1] (cadd_arith_dataw32_halfw16)
                                                         0.000      0.132 f
  core/fu_CADD1/fu_arch/inst_cadd_arith/U19/Z (C8T28SOI_LL_NOR3X14_P4)
                                                         0.138 *    0.270 r
  core/fu_CADD1/fu_arch/inst_cadd_arith/U10/Z (C8T28SOIDV_LL_IVX46_P16)
                                                         0.077 *    0.346 f
  core/fu_CADD1/fu_arch/inst_cadd_arith/U295/Z (C8T28SOI_LL_OAI22X6_P16)
                                                         0.045 *    0.391 r
  core/fu_CADD1/fu_arch/inst_cadd_arith/U297/Z (C8T28SOI_LL_MUX21X5_P16)
                                                         0.071 *    0.462 r
  core/fu_CADD1/fu_arch/inst_cadd_arith/U312/CO (C8T28SOI_LL_HA1X5_P16)
                                                         0.072 *    0.534 r
  core/fu_CADD1/fu_arch/inst_cadd_arith/U325/CO (C8T28SOI_LL_HA1X9_P16)
                                                         0.061 *    0.595 r
  core/fu_CADD1/fu_arch/inst_cadd_arith/U327/S0 (C8T28SOI_LL_HA1X9_P16)
                                                         0.079 *    0.674 f
  core/fu_CADD1/fu_arch/inst_cadd_arith/U326/Z (C8T28SOI_LL_NOR2X4_P16)
                                                         0.047 *    0.721 r
  core/fu_CADD1/fu_arch/inst_cadd_arith/U443/Z (C8T28SOI_LL_IVX3_P16)
                                                         0.033 *    0.754 f
  core/fu_CADD1/fu_arch/inst_cadd_arith/U444/Z (C8T28SOI_LL_NAND2X4_P16)
                                                         0.036 *    0.790 r
  core/fu_CADD1/fu_arch/inst_cadd_arith/U445/Z (C8T28SOIDV_LLS_XOR2X4_P16)
                                                         0.076 *    0.866 r
  core/fu_CADD1/fu_arch/inst_cadd_arith/U346/Z (C8T28SOI_LL_NAND2AX4_P16)
                                                         0.042 *    0.908 f
  core/fu_CADD1/fu_arch/inst_cadd_arith/U131/Z (C8T28SOI_LL_NAND2X8_P16)
                                                         0.027 *    0.934 r
  core/fu_CADD1/fu_arch/inst_cadd_arith/U449/Z (C8T28SOI_LL_NAND2X2_P16)
                                                         0.033 *    0.967 f
  core/fu_CADD1/fu_arch/inst_cadd_arith/U450/Z (C8T28SOI_LL_IVX3_P16)
                                                         0.033 *    1.000 r
  core/fu_CADD1/fu_arch/inst_cadd_arith/U451/Z (C8T28SOI_LL_AOI12X3_P16)
                                                         0.025 *    1.025 f
  core/fu_CADD1/fu_arch/inst_cadd_arith/U462/Z (C8T28SOI_LL_OAI12X3_P16)
                                                         0.078 *    1.103 r
  core/fu_CADD1/fu_arch/inst_cadd_arith/U237/Z (C8T28SOI_LL_AOI12X10_P16)
                                                         0.051 *    1.155 f
  core/fu_CADD1/fu_arch/inst_cadd_arith/U184/Z (C8T28SOI_LL_OAI21X7_P16)
                                                         0.048 *    1.203 r
  core/fu_CADD1/fu_arch/inst_cadd_arith/U484/Z (C8T28SOI_LL_AOI21X6_P16)
                                                         0.041 *    1.244 f
  core/fu_CADD1/fu_arch/inst_cadd_arith/U486/Z (C8T28SOI_LL_OAI12X10_P16)
                                                         0.036 *    1.279 r
  core/fu_CADD1/fu_arch/inst_cadd_arith/U487/Z (C8T28SOI_LL_NAND2X4_P16)
                                                         0.029 *    1.308 f
  core/fu_CADD1/fu_arch/inst_cadd_arith/U488/Z (C8T28SOI_LL_NAND2X8_P16)
                                                         0.028 *    1.336 r
  core/fu_CADD1/fu_arch/inst_cadd_arith/U499/Z (C8T28SOI_LL_AOI12X10_P16)
                                                         0.027 *    1.364 f
  core/fu_CADD1/fu_arch/inst_cadd_arith/U700/Z (C8T28SOI_LL_OA21X10_P16)
                                                         0.055 *    1.419 f
  core/fu_CADD1/fu_arch/inst_cadd_arith/U682/Z (C8T28SOI_LL_OAI12X10_P16)
                                                         0.034 *    1.452 r
  core/fu_CADD1/fu_arch/inst_cadd_arith/U537/Z (C8T28SOI_LL_AOI12X10_P16)
                                                         0.027 *    1.479 f
  core/fu_CADD1/fu_arch/inst_cadd_arith/U538/Z (C8T28SOI_LL_IVX10_P16)
                                                         0.022 *    1.501 r
  core/fu_CADD1/fu_arch/inst_cadd_arith/U558/Z (C8T28SOI_LL_AOI12X10_P16)
                                                         0.023 *    1.524 f
  core/fu_CADD1/fu_arch/inst_cadd_arith/U16/Z (C8T28SOI_LL_OA12X10_P10)
                                                         0.054 *    1.578 f
  core/fu_CADD1/fu_arch/inst_cadd_arith/U701/Z (C8T28SOI_LL_OAI12X10_P16)
                                                         0.030 *    1.608 r
  core/fu_CADD1/fu_arch/inst_cadd_arith/U587/Z (C8T28SOIDV_LLS_XNOR2X4_P16)
                                                         0.049 *    1.658 r
  core/fu_CADD1/fu_arch/inst_cadd_arith/res_o[30] (cadd_arith_dataw32_halfw16)
                                                         0.000      1.658 r
  core/fu_CADD1/fu_arch/res_o[30] (cadd_full_dataw32_halfw16)
                                                         0.000      1.658 r
  core/fu_CADD1/r1data[30] (fu_cadd_always_1_dataw32_busw32)
                                                         0.000      1.658 r
  core/ic/socket_CADD1_o1_data0[30] (tta0_interconn)     0.000      1.658 r
  core/ic/CADD1_o1/data0[30] (tta0_output_socket_cons_1_1_BUSW_032_DATAW_032_5)
                                                         0.000      1.658 r
  core/ic/CADD1_o1/U4/Z (C8T28SOI_LL_NAND2AX4_P16)       0.025 *    1.682 f
  core/ic/CADD1_o1/U5/Z (C8T28SOI_LL_IVX5_P10)           0.020 *    1.702 r
  core/ic/CADD1_o1/databus0_alt[30] (tta0_output_socket_cons_1_1_BUSW_032_DATAW_032_5)
                                                         0.000      1.702 r
  core/ic/lsu_w_i2/databus0[30] (tta0_input_socket_cons_1_BUSW_032_DATAW32_2)
                                                         0.000      1.702 r
  core/ic/lsu_w_i2/U27/Z (C8T28SOI_LL_CNBFX8_P10)        0.032 *    1.734 r
  core/ic/lsu_w_i2/data[30] (tta0_input_socket_cons_1_BUSW_032_DATAW32_2)
                                                         0.000      1.734 r
  core/ic/socket_lsu_w_i2_data[30] (tta0_interconn)      0.000      1.734 r
  core/fu_lsu_w/o1data[30] (fu_ldw_stw_always_4_dataw32_addrw16_0)
                                                         0.000      1.734 r
  core/fu_lsu_w/U14/Z (C8T28SOI_LL_NAND2X8_P16)          0.015 *    1.749 f
  core/fu_lsu_w/U15/Z (C8T28SOI_LL_NAND2X4_P16)          0.024 *    1.772 r
  core/fu_lsu_w/data_out[30] (fu_ldw_stw_always_4_dataw32_addrw16_0)
                                                         0.000      1.772 r
  datamem/scheduler/lsu_d_b[30] (par_mem_scheduler_dataw32_addrw14_ports2_rd_delay1)
                                                         0.000      1.772 r
  datamem/scheduler/d_b_conv/data_in[30] (ser_par_conv_portw32_port_cnt2_1)
                                                         0.000      1.772 r
  datamem/scheduler/d_b_conv/clk_r_REG275_S19/D (C8T28SOIDV_LL_DFPRQX10_P16)
                                                         0.000 *    1.772 r
  data arrival time                                                 1.772

  clock clk (rise edge)                                  1.818      1.818
  clock network delay (ideal)                            0.010      1.828
  clock uncertainty                                     -0.010      1.818
  datamem/scheduler/d_b_conv/clk_r_REG275_S19/CP (C8T28SOIDV_LL_DFPRQX10_P16)
                                                         0.000      1.818 r
  library setup time                                    -0.033      1.785
  data required time                                                1.785
  --------------------------------------------------------------------------
  data required time                                                1.785
  data arrival time                                                -1.772
  --------------------------------------------------------------------------
  slack (MET)                                                       0.013


  Startpoint: core/ic/rf_def_o1/clk_r_REG1968_S19
              (rising edge-triggered flip-flop clocked by clk)
  Endpoint: core/fu_CMUL/fu_arch/clk_r_REG309_S14
            (rising edge-triggered flip-flop clocked by clk)
  Path Group: clk
  Path Type: max

  Point                                                   Incr       Path
  --------------------------------------------------------------------------
  clock clk (rise edge)                                  0.000      0.000
  clock network delay (ideal)                            0.010      0.010
  core/ic/rf_def_o1/clk_r_REG1968_S19/CP (C8T28SOIDV_LL_DFPRQX10_P16)
                                                         0.000      0.010 r
  core/ic/rf_def_o1/clk_r_REG1968_S19/Q (C8T28SOIDV_LL_DFPRQX10_P16)
                                                         0.150      0.160 f
  core/ic/rf_def_o1/U1/Z (C8T28SOI_LL_IVX5_P16)          0.077 *    0.237 r
  core/ic/rf_def_o1/U2/Z (C8T28SOI_LL_NAND2AX2_P16)      0.055 *    0.292 r
  core/ic/rf_def_o1/U3/Z (C8T28SOI_LL_IVX5_P16)          0.018 *    0.310 f
  core/ic/rf_def_o1/databus0_alt[2] (tta0_output_socket_cons_2_1_BUSW_032_BUSW_132_DATAW_032_0)
                                                         0.000      0.310 f
  core/ic/U187/Z (C8T28SOI_LL_OR3X5_P16)                 0.088 *    0.397 f
  core/ic/CMUL_i2/databus0[2] (tta0_input_socket_cons_1_BUSW_032_DATAW32_9)
                                                         0.000      0.397 f
  core/ic/CMUL_i2/U19/Z (C8T28SOI_LL_BFX13_P16)          0.051 *    0.449 f
  core/ic/CMUL_i2/data[2] (tta0_input_socket_cons_1_BUSW_032_DATAW32_9)
                                                         0.000      0.449 f
  core/ic/socket_CMUL_i2_data[2] (tta0_interconn)        0.000      0.449 f
  core/fu_CMUL/o1data[2] (fu_cmul_always_3_dataw32_busw32)
                                                         0.000      0.449 f
  core/fu_CMUL/U14/Z (C8T28SOI_LL_NAND2X8_P16)           0.018 *    0.467 r
  core/fu_CMUL/U15/Z (C8T28SOI_LL_NAND2X12_P16)          0.042 *    0.509 f
  core/fu_CMUL/fu_arch/B[2] (cmul_pipe_1_dataw32_halfw16)
                                                         0.000      0.509 f
  core/fu_CMUL/fu_arch/U1498/Z (C8T28SOIDV_LLS_XNOR2X11_P16)
                                                         0.112 *    0.621 r
  core/fu_CMUL/fu_arch/U1501/Z (C8T28SOIDV_LL_NAND2X18_P16)
                                                         0.075 *    0.696 f
  core/fu_CMUL/fu_arch/U1904/Z (C8T28SOI_LL_OAI22X3_P16)
                                                         0.093 *    0.789 r
  core/fu_CMUL/fu_arch/U1950/CO (C8T28SOIDV_LL_FA1X5_P16)
                                                         0.124 *    0.914 r
  core/fu_CMUL/fu_arch/U1918/S0 (C8T28SOIDV_LL_FA1X5_P16)
                                                         0.108 *    1.022 f
  core/fu_CMUL/fu_arch/U1955/S0 (C8T28SOIDV_LL_FA1X5_P16)
                                                         0.126 *    1.148 r
  core/fu_CMUL/fu_arch/U1467/Z (C8T28SOI_LL_AND2X5_P16)
                                                         0.052 *    1.201 r
  core/fu_CMUL/fu_arch/U1960/Z (C8T28SOI_LL_AOI12X3_P16)
                                                         0.021 *    1.222 f
  core/fu_CMUL/fu_arch/U1962/Z (C8T28SOI_LL_OAI12X3_P16)
                                                         0.040 *    1.262 r
  core/fu_CMUL/fu_arch/U1965/Z (C8T28SOI_LL_AOI12X3_P16)
                                                         0.029 *    1.291 f
  core/fu_CMUL/fu_arch/U1623/Z (C8T28SOI_LL_OA12X5_P16)
                                                         0.055 *    1.346 f
  core/fu_CMUL/fu_arch/U1978/Z (C8T28SOI_LL_OAI12X10_P16)
                                                         0.032 *    1.378 r
  core/fu_CMUL/fu_arch/U1972/Z (C8T28SOI_LL_NAND2X8_P16)
                                                         0.026 *    1.404 f
  core/fu_CMUL/fu_arch/U1973/Z (C8T28SOIDV_LL_NAND2X9_P16)
                                                         0.025 *    1.429 r
  core/fu_CMUL/fu_arch/U2188/Z (C8T28SOI_LL_AOI12X10_P16)
                                                         0.021 *    1.450 f
  core/fu_CMUL/fu_arch/U2271/Z (C8T28SOI_LL_OAI12X10_P16)
                                                         0.045 *    1.496 r
  core/fu_CMUL/fu_arch/U1986/Z (C8T28SOI_LL_AOI12X19_P16)
                                                         0.041 *    1.537 f
  core/fu_CMUL/fu_arch/U2219/Z (C8T28SOI_LL_OAI12X10_P16)
                                                         0.041 *    1.578 r
  core/fu_CMUL/fu_arch/U2709/Z (C8T28SOI_LL_NAND2X8_P16)
                                                         0.030 *    1.608 f
  core/fu_CMUL/fu_arch/U2272/Z (C8T28SOI_LL_OAI12X10_P16)
                                                         0.033 *    1.642 r
  core/fu_CMUL/fu_arch/U2187/Z (C8T28SOIDV_LL_NAND2X18_P16)
                                                         0.024 *    1.666 f
  core/fu_CMUL/fu_arch/U2713/Z (C8T28SOI_LLBR0P6_NAND3X20_P4)
                                                         0.026 *    1.692 r
  core/fu_CMUL/fu_arch/U2743/Z (C8T28SOI_LL_AOI12X10_P16)
                                                         0.023 *    1.715 f
  core/fu_CMUL/fu_arch/U2744/Z (C8T28SOIDV_LLS_XNOR2X4_P16)
                                                         0.037 *    1.752 f
  core/fu_CMUL/fu_arch/clk_r_REG309_S14/D (C8T28SOIDV_LL_DFPRQX10_P16)
                                                         0.000 *    1.752 f
  data arrival time                                                 1.752

  clock clk (rise edge)                                  1.818      1.818
  clock network delay (ideal)                            0.010      1.828
  clock uncertainty                                     -0.010      1.818
  core/fu_CMUL/fu_arch/clk_r_REG309_S14/CP (C8T28SOIDV_LL_DFPRQX10_P16)
                                                         0.000      1.818 r
  library setup time                                    -0.053      1.765
  data required time                                                1.765
  --------------------------------------------------------------------------
  data required time                                                1.765
  data arrival time                                                -1.752
  --------------------------------------------------------------------------
  slack (MET)                                                       0.013


  Startpoint: datamem/scheduler/addr_a_conv/clk_r_REG2164_S1
              (rising edge-triggered flip-flop clocked by clk)
  Endpoint: datamem/dmem_2/cacti_mem_0/mem_32x32
            (rising edge-triggered flip-flop clocked by clk)
  Path Group: clk
  Path Type: max

  Point                                                   Incr       Path
  --------------------------------------------------------------------------
  clock clk (rise edge)                                  0.000      0.000
  clock network delay (ideal)                            0.010      0.010
  datamem/scheduler/addr_a_conv/clk_r_REG2164_S1/CP (C8T28SOIDV_LL_DFPRQX10_P16)
                                                         0.000      0.010 r
  datamem/scheduler/addr_a_conv/clk_r_REG2164_S1/Q (C8T28SOIDV_LL_DFPRQX10_P16)
                                                         0.099      0.109 r
  datamem/scheduler/addr_a_conv/en_out[1]_BAR (ser_par_conv_portw14_port_cnt2_1)
                                                         0.000      0.109 r
  datamem/scheduler/U2/Z (C8T28SOI_LL_IVX5_P16)          0.021 *    0.130 f
  datamem/scheduler/U3/Z (C8T28SOI_LL_NAND2X12_P16)      0.035 *    0.165 r
  datamem/scheduler/U215/Z (C8T28SOI_LL_IVX10_P16)       0.060 *    0.225 f
  datamem/scheduler/U199/Z (C8T28SOI_LL_AOI22X2_P16)     0.071 *    0.296 r
  datamem/scheduler/U200/Z (C8T28SOI_LL_IVX3_P16)        0.040 *    0.336 f
  datamem/scheduler/addr[25] (par_mem_scheduler_dataw32_addrw14_ports2_rd_delay1)
                                                         0.000      0.336 f
  datamem/par_mem_logic_inst/addrs_from_lsus[25] (par_mem_logic_PORTS2_LSU_ADDRW14_CTRLW1_DATAW32_PM_FUNC2)
                                                         0.000      0.336 f
  datamem/par_mem_logic_inst/addr_crsbar_0/addrs_from_lsus[25] (addr_crsbar_PORTS2_LSU_ADDRW14_CTRLW1_PM_FUNC2)
                                                         0.000      0.336 f
  datamem/par_mem_logic_inst/addr_crsbar_0/U30/Z (C8T28SOI_LL_AOI22X2_P16)
                                                         0.139 *    0.475 r
  datamem/par_mem_logic_inst/addr_crsbar_0/U76/Z (C8T28SOIDV_LLS_XNOR2X4_P16)
                                                         0.115 *    0.590 r
  datamem/par_mem_logic_inst/addr_crsbar_0/U34/Z (C8T28SOI_LL_NAND2X4_P16)
                                                         0.029 *    0.619 f
  datamem/par_mem_logic_inst/addr_crsbar_0/U35/Z (C8T28SOI_LL_OAI12X3_P16)
                                                         0.029 *    0.647 r
  datamem/par_mem_logic_inst/addr_crsbar_0/U83/Z (C8T28SOIDV_LLS_XNOR2X4_P16)
                                                         0.061 *    0.708 r
  datamem/par_mem_logic_inst/addr_crsbar_0/U32/Z (C8T28SOIDV_LLS_XNOR2X4_P16)
                                                         0.063 *    0.771 r
  datamem/par_mem_logic_inst/addr_crsbar_0/module_nums[1] (addr_crsbar_PORTS2_LSU_ADDRW14_CTRLW1_PM_FUNC2)
                                                         0.000      0.771 r
  datamem/par_mem_logic_inst/ctrl_units_0/module_nums[1] (ctrl_units_PORTS2_CTRLW1)
                                                         0.000      0.771 r
  datamem/par_mem_logic_inst/ctrl_units_0/ctrl_uniti_1/module_num[0] (ctrl_unit_PORTS2_CTRLW1_0)
                                                         0.000      0.771 r
  datamem/par_mem_logic_inst/ctrl_units_0/ctrl_uniti_1/U6/Z (C8T28SOI_LL_NOR2X8_P16)
                                                         0.029 *    0.800 f
  datamem/par_mem_logic_inst/ctrl_units_0/ctrl_uniti_1/ctrl_matrix_row_out[0] (ctrl_unit_PORTS2_CTRLW1_0)
                                                         0.000      0.800 f
  datamem/par_mem_logic_inst/ctrl_units_0/ctrl_uniti_0/t_ctrl_matrix_row_in[1] (ctrl_unit_PORTS2_CTRLW1_1)
                                                         0.000      0.800 f
  datamem/par_mem_logic_inst/ctrl_units_0/ctrl_uniti_0/U3/Z (C8T28SOI_LL_NAND2X8_P16)
                                                         0.024 *    0.824 r
  datamem/par_mem_logic_inst/ctrl_units_0/ctrl_uniti_0/addr_mux_ctrl[0] (ctrl_unit_PORTS2_CTRLW1_1)
                                                         0.000      0.824 r
  datamem/par_mem_logic_inst/ctrl_units_0/addr_mux_ctrls[0] (ctrl_units_PORTS2_CTRLW1)
                                                         0.000      0.824 r
  datamem/par_mem_logic_inst/U7/Z (C8T28SOIDV_LL_IVX23_P16)
                                                         0.031 *    0.855 f
  datamem/par_mem_logic_inst/addr_crsbar_0/ctrl[0] (addr_crsbar_PORTS2_LSU_ADDRW14_CTRLW1_PM_FUNC2)
                                                         0.000      0.855 f
  datamem/par_mem_logic_inst/addr_crsbar_0/U74/Z (C8T28SOI_LL_IVX19_P16)
                                                         0.043 *    0.898 r
  datamem/par_mem_logic_inst/addr_crsbar_0/U139/Z (C8T28SOI_LL_AOI22X2_P16)
                                                         0.076 *    0.973 f
  datamem/par_mem_logic_inst/addr_crsbar_0/mem_addrs_out[12] (addr_crsbar_PORTS2_LSU_ADDRW14_CTRLW1_PM_FUNC2)
                                                         0.000      0.973 f
  datamem/par_mem_logic_inst/addrs_to_mems[12] (par_mem_logic_PORTS2_LSU_ADDRW14_CTRLW1_DATAW32_PM_FUNC2)
                                                         0.000      0.973 f
  datamem/dmem_2/addr[12] (synch_singleport_mem_wrapper_DATAW32_ADDRW13_0)
                                                         0.000      0.973 f
  datamem/dmem_2/en_wr_arbiter/addr[12] (block_en_wr_arbiter_ADDRW13_NBLOCKS9_0)
                                                         0.000      0.973 f
  datamem/dmem_2/en_wr_arbiter/U4/Z (C8T28SOI_LL_NAND2AX4_P16)
                                                         0.107 *    1.081 f
  datamem/dmem_2/en_wr_arbiter/U19/Z (C8T28SOI_LL_NOR2X12_P16)
                                                         0.051 *    1.132 r
  datamem/dmem_2/en_wr_arbiter/U17/Z (C8T28SOIDV_LL_NAND2X9_P16)
                                                         0.036 *    1.168 f
  datamem/dmem_2/en_wr_arbiter/U20/Z (C8T28SOI_LL_NOR2X8_P16)
                                                         0.027 *    1.195 r
  datamem/dmem_2/en_wr_arbiter/U21/Z (C8T28SOI_LL_AND2X10_P16)
                                                         0.059 *    1.254 r
  datamem/dmem_2/en_wr_arbiter/U35/Z (C8T28SOI_LL_NAND3X7_P16)
                                                         0.038 *    1.292 f
  datamem/dmem_2/en_wr_arbiter/en_blocks[0] (block_en_wr_arbiter_ADDRW13_NBLOCKS9_0)
                                                         0.000      1.292 f
  datamem/dmem_2/cacti_mem_0/en_x (cacti_mem_wrapper_DATAW32_ADDRW5_1)
                                                         0.000      1.292 f
  datamem/dmem_2/cacti_mem_0/mem_32x32/mem_en_x (ram_32x32)
                                                         0.000 *    1.292 f
  data arrival time                                                 1.292

  clock clk (rise edge)                                  1.818      1.818
  clock network delay (ideal)                            0.010      1.828
  clock uncertainty                                     -0.010      1.818
  datamem/dmem_2/cacti_mem_0/mem_32x32/clk (ram_32x32)
                                                         0.000      1.818 r
  library setup time                                    -0.513      1.305
  data required time                                                1.305
  --------------------------------------------------------------------------
  data required time                                                1.305
  data arrival time                                                -1.292
  --------------------------------------------------------------------------
  slack (MET)                                                       0.013


  Startpoint: core/ic/rf_def_o1/clk_r_REG1968_S19
              (rising edge-triggered flip-flop clocked by clk)
  Endpoint: core/fu_CMUL/fu_arch/clk_r_REG354_S14
            (rising edge-triggered flip-flop clocked by clk)
  Path Group: clk
  Path Type: max

  Point                                                   Incr       Path
  --------------------------------------------------------------------------
  clock clk (rise edge)                                  0.000      0.000
  clock network delay (ideal)                            0.010      0.010
  core/ic/rf_def_o1/clk_r_REG1968_S19/CP (C8T28SOIDV_LL_DFPRQX10_P16)
                                                         0.000      0.010 r
  core/ic/rf_def_o1/clk_r_REG1968_S19/Q (C8T28SOIDV_LL_DFPRQX10_P16)
                                                         0.150      0.160 f
  core/ic/rf_def_o1/U1/Z (C8T28SOI_LL_IVX5_P16)          0.077 *    0.237 r
  core/ic/rf_def_o1/U2/Z (C8T28SOI_LL_NAND2AX2_P16)      0.055 *    0.292 r
  core/ic/rf_def_o1/U3/Z (C8T28SOI_LL_IVX5_P16)          0.018 *    0.310 f
  core/ic/rf_def_o1/databus0_alt[2] (tta0_output_socket_cons_2_1_BUSW_032_BUSW_132_DATAW_032_0)
                                                         0.000      0.310 f
  core/ic/U187/Z (C8T28SOI_LL_OR3X5_P16)                 0.088 *    0.397 f
  core/ic/CMUL_i2/databus0[2] (tta0_input_socket_cons_1_BUSW_032_DATAW32_9)
                                                         0.000      0.397 f
  core/ic/CMUL_i2/U19/Z (C8T28SOI_LL_BFX13_P16)          0.051 *    0.449 f
  core/ic/CMUL_i2/data[2] (tta0_input_socket_cons_1_BUSW_032_DATAW32_9)
                                                         0.000      0.449 f
  core/ic/socket_CMUL_i2_data[2] (tta0_interconn)        0.000      0.449 f
  core/fu_CMUL/o1data[2] (fu_cmul_always_3_dataw32_busw32)
                                                         0.000      0.449 f
  core/fu_CMUL/U14/Z (C8T28SOI_LL_NAND2X8_P16)           0.018 *    0.467 r
  core/fu_CMUL/U15/Z (C8T28SOI_LL_NAND2X12_P16)          0.042 *    0.509 f
  core/fu_CMUL/fu_arch/B[2] (cmul_pipe_1_dataw32_halfw16)
                                                         0.000      0.509 f
  core/fu_CMUL/fu_arch/U1498/Z (C8T28SOIDV_LLS_XNOR2X11_P16)
                                                         0.112 *    0.621 r
  core/fu_CMUL/fu_arch/U1501/Z (C8T28SOIDV_LL_NAND2X18_P16)
                                                         0.075 *    0.696 f
  core/fu_CMUL/fu_arch/U1904/Z (C8T28SOI_LL_OAI22X3_P16)
                                                         0.093 *    0.789 r
  core/fu_CMUL/fu_arch/U1950/CO (C8T28SOIDV_LL_FA1X5_P16)
                                                         0.124 *    0.914 r
  core/fu_CMUL/fu_arch/U1918/S0 (C8T28SOIDV_LL_FA1X5_P16)
                                                         0.108 *    1.022 f
  core/fu_CMUL/fu_arch/U1955/S0 (C8T28SOIDV_LL_FA1X5_P16)
                                                         0.126 *    1.148 r
  core/fu_CMUL/fu_arch/U1467/Z (C8T28SOI_LL_AND2X5_P16)
                                                         0.052 *    1.201 r
  core/fu_CMUL/fu_arch/U1960/Z (C8T28SOI_LL_AOI12X3_P16)
                                                         0.021 *    1.222 f
  core/fu_CMUL/fu_arch/U1962/Z (C8T28SOI_LL_OAI12X3_P16)
                                                         0.040 *    1.262 r
  core/fu_CMUL/fu_arch/U1965/Z (C8T28SOI_LL_AOI12X3_P16)
                                                         0.029 *    1.291 f
  core/fu_CMUL/fu_arch/U1623/Z (C8T28SOI_LL_OA12X5_P16)
                                                         0.055 *    1.346 f
  core/fu_CMUL/fu_arch/U1978/Z (C8T28SOI_LL_OAI12X10_P16)
                                                         0.032 *    1.378 r
  core/fu_CMUL/fu_arch/U1972/Z (C8T28SOI_LL_NAND2X8_P16)
                                                         0.026 *    1.404 f
  core/fu_CMUL/fu_arch/U1973/Z (C8T28SOIDV_LL_NAND2X9_P16)
                                                         0.025 *    1.429 r
  core/fu_CMUL/fu_arch/U2188/Z (C8T28SOI_LL_AOI12X10_P16)
                                                         0.021 *    1.450 f
  core/fu_CMUL/fu_arch/U2271/Z (C8T28SOI_LL_OAI12X10_P16)
                                                         0.045 *    1.496 r
  core/fu_CMUL/fu_arch/U1986/Z (C8T28SOI_LL_AOI12X19_P16)
                                                         0.041 *    1.537 f
  core/fu_CMUL/fu_arch/U2219/Z (C8T28SOI_LL_OAI12X10_P16)
                                                         0.041 *    1.578 r
  core/fu_CMUL/fu_arch/U2709/Z (C8T28SOI_LL_NAND2X8_P16)
                                                         0.030 *    1.608 f
  core/fu_CMUL/fu_arch/U2272/Z (C8T28SOI_LL_OAI12X10_P16)
                                                         0.033 *    1.642 r
  core/fu_CMUL/fu_arch/U2187/Z (C8T28SOIDV_LL_NAND2X18_P16)
                                                         0.024 *    1.666 f
  core/fu_CMUL/fu_arch/U2713/Z (C8T28SOI_LLBR0P6_NAND3X20_P4)
                                                         0.026 *    1.692 r
  core/fu_CMUL/fu_arch/U54/Z (C8T28SOI_LL_IVX5_P10)      0.021 *    1.713 f
  core/fu_CMUL/fu_arch/U2715/Z (C8T28SOIDV_LLS_XNOR2X4_P16)
                                                         0.037 *    1.750 f
  core/fu_CMUL/fu_arch/clk_r_REG354_S14/D (C8T28SOIDV_LL_DFPRQX10_P16)
                                                         0.000 *    1.750 f
  data arrival time                                                 1.750

  clock clk (rise edge)                                  1.818      1.818
  clock network delay (ideal)                            0.010      1.828
  clock uncertainty                                     -0.010      1.818
  core/fu_CMUL/fu_arch/clk_r_REG354_S14/CP (C8T28SOIDV_LL_DFPRQX10_P16)
                                                         0.000      1.818 r
  library setup time                                    -0.055      1.763
  data required time                                                1.763
  --------------------------------------------------------------------------
  data required time                                                1.763
  data arrival time                                                -1.750
  --------------------------------------------------------------------------
  slack (MET)                                                       0.013


  Startpoint: datamem/scheduler/addr_a_conv/clk_r_REG2164_S1
              (rising edge-triggered flip-flop clocked by clk)
  Endpoint: datamem/dmem_2/cacti_mem_x_1/mem_32x32
            (rising edge-triggered flip-flop clocked by clk)
  Path Group: clk
  Path Type: max

  Point                                                   Incr       Path
  --------------------------------------------------------------------------
  clock clk (rise edge)                                  0.000      0.000
  clock network delay (ideal)                            0.010      0.010
  datamem/scheduler/addr_a_conv/clk_r_REG2164_S1/CP (C8T28SOIDV_LL_DFPRQX10_P16)
                                                         0.000      0.010 r
  datamem/scheduler/addr_a_conv/clk_r_REG2164_S1/Q (C8T28SOIDV_LL_DFPRQX10_P16)
                                                         0.099      0.109 r
  datamem/scheduler/addr_a_conv/en_out[1]_BAR (ser_par_conv_portw14_port_cnt2_1)
                                                         0.000      0.109 r
  datamem/scheduler/U2/Z (C8T28SOI_LL_IVX5_P16)          0.021 *    0.130 f
  datamem/scheduler/U3/Z (C8T28SOI_LL_NAND2X12_P16)      0.035 *    0.165 r
  datamem/scheduler/U215/Z (C8T28SOI_LL_IVX10_P16)       0.060 *    0.225 f
  datamem/scheduler/U199/Z (C8T28SOI_LL_AOI22X2_P16)     0.071 *    0.296 r
  datamem/scheduler/U200/Z (C8T28SOI_LL_IVX3_P16)        0.040 *    0.336 f
  datamem/scheduler/addr[25] (par_mem_scheduler_dataw32_addrw14_ports2_rd_delay1)
                                                         0.000      0.336 f
  datamem/par_mem_logic_inst/addrs_from_lsus[25] (par_mem_logic_PORTS2_LSU_ADDRW14_CTRLW1_DATAW32_PM_FUNC2)
                                                         0.000      0.336 f
  datamem/par_mem_logic_inst/addr_crsbar_0/addrs_from_lsus[25] (addr_crsbar_PORTS2_LSU_ADDRW14_CTRLW1_PM_FUNC2)
                                                         0.000      0.336 f
  datamem/par_mem_logic_inst/addr_crsbar_0/U30/Z (C8T28SOI_LL_AOI22X2_P16)
                                                         0.139 *    0.475 r
  datamem/par_mem_logic_inst/addr_crsbar_0/U76/Z (C8T28SOIDV_LLS_XNOR2X4_P16)
                                                         0.115 *    0.590 r
  datamem/par_mem_logic_inst/addr_crsbar_0/U34/Z (C8T28SOI_LL_NAND2X4_P16)
                                                         0.029 *    0.619 f
  datamem/par_mem_logic_inst/addr_crsbar_0/U35/Z (C8T28SOI_LL_OAI12X3_P16)
                                                         0.029 *    0.647 r
  datamem/par_mem_logic_inst/addr_crsbar_0/U83/Z (C8T28SOIDV_LLS_XNOR2X4_P16)
                                                         0.061 *    0.708 r
  datamem/par_mem_logic_inst/addr_crsbar_0/U32/Z (C8T28SOIDV_LLS_XNOR2X4_P16)
                                                         0.063 *    0.771 r
  datamem/par_mem_logic_inst/addr_crsbar_0/module_nums[1] (addr_crsbar_PORTS2_LSU_ADDRW14_CTRLW1_PM_FUNC2)
                                                         0.000      0.771 r
  datamem/par_mem_logic_inst/ctrl_units_0/module_nums[1] (ctrl_units_PORTS2_CTRLW1)
                                                         0.000      0.771 r
  datamem/par_mem_logic_inst/ctrl_units_0/ctrl_uniti_1/module_num[0] (ctrl_unit_PORTS2_CTRLW1_0)
                                                         0.000      0.771 r
  datamem/par_mem_logic_inst/ctrl_units_0/ctrl_uniti_1/U6/Z (C8T28SOI_LL_NOR2X8_P16)
                                                         0.029 *    0.800 f
  datamem/par_mem_logic_inst/ctrl_units_0/ctrl_uniti_1/ctrl_matrix_row_out[0] (ctrl_unit_PORTS2_CTRLW1_0)
                                                         0.000      0.800 f
  datamem/par_mem_logic_inst/ctrl_units_0/ctrl_uniti_0/t_ctrl_matrix_row_in[1] (ctrl_unit_PORTS2_CTRLW1_1)
                                                         0.000      0.800 f
  datamem/par_mem_logic_inst/ctrl_units_0/ctrl_uniti_0/U3/Z (C8T28SOI_LL_NAND2X8_P16)
                                                         0.024 *    0.824 r
  datamem/par_mem_logic_inst/ctrl_units_0/ctrl_uniti_0/addr_mux_ctrl[0] (ctrl_unit_PORTS2_CTRLW1_1)
                                                         0.000      0.824 r
  datamem/par_mem_logic_inst/ctrl_units_0/addr_mux_ctrls[0] (ctrl_units_PORTS2_CTRLW1)
                                                         0.000      0.824 r
  datamem/par_mem_logic_inst/U7/Z (C8T28SOIDV_LL_IVX23_P16)
                                                         0.031 *    0.855 f
  datamem/par_mem_logic_inst/addr_crsbar_0/ctrl[0] (addr_crsbar_PORTS2_LSU_ADDRW14_CTRLW1_PM_FUNC2)
                                                         0.000      0.855 f
  datamem/par_mem_logic_inst/addr_crsbar_0/U74/Z (C8T28SOI_LL_IVX19_P16)
                                                         0.043 *    0.898 r
  datamem/par_mem_logic_inst/addr_crsbar_0/U139/Z (C8T28SOI_LL_AOI22X2_P16)
                                                         0.076 *    0.973 f
  datamem/par_mem_logic_inst/addr_crsbar_0/mem_addrs_out[12] (addr_crsbar_PORTS2_LSU_ADDRW14_CTRLW1_PM_FUNC2)
                                                         0.000      0.973 f
  datamem/par_mem_logic_inst/addrs_to_mems[12] (par_mem_logic_PORTS2_LSU_ADDRW14_CTRLW1_DATAW32_PM_FUNC2)
                                                         0.000      0.973 f
  datamem/dmem_2/addr[12] (synch_singleport_mem_wrapper_DATAW32_ADDRW13_0)
                                                         0.000      0.973 f
  datamem/dmem_2/en_wr_arbiter/addr[12] (block_en_wr_arbiter_ADDRW13_NBLOCKS9_0)
                                                         0.000      0.973 f
  datamem/dmem_2/en_wr_arbiter/U4/Z (C8T28SOI_LL_NAND2AX4_P16)
                                                         0.107 *    1.081 f
  datamem/dmem_2/en_wr_arbiter/U19/Z (C8T28SOI_LL_NOR2X12_P16)
                                                         0.051 *    1.132 r
  datamem/dmem_2/en_wr_arbiter/U17/Z (C8T28SOIDV_LL_NAND2X9_P16)
                                                         0.036 *    1.168 f
  datamem/dmem_2/en_wr_arbiter/U20/Z (C8T28SOI_LL_NOR2X8_P16)
                                                         0.027 *    1.195 r
  datamem/dmem_2/en_wr_arbiter/U21/Z (C8T28SOI_LL_AND2X10_P16)
                                                         0.059 *    1.254 r
  datamem/dmem_2/en_wr_arbiter/U37/Z (C8T28SOI_LL_NAND3X3_P16)
                                                         0.034 *    1.288 f
  datamem/dmem_2/en_wr_arbiter/wr_blocks[1] (block_en_wr_arbiter_ADDRW13_NBLOCKS9_0)
                                                         0.000      1.288 f
  datamem/dmem_2/cacti_mem_x_1/wr_x (cacti_mem_wrapper_DATAW32_ADDRW5_0)
                                                         0.000      1.288 f
  datamem/dmem_2/cacti_mem_x_1/mem_32x32/wr_en_x (ram_32x32)
                                                         0.000 *    1.288 f
  data arrival time                                                 1.288

  clock clk (rise edge)                                  1.818      1.818
  clock network delay (ideal)                            0.010      1.828
  clock uncertainty                                     -0.010      1.818
  datamem/dmem_2/cacti_mem_x_1/mem_32x32/clk (ram_32x32)
                                                         0.000      1.818 r
  library setup time                                    -0.517      1.301
  data required time                                                1.301
  --------------------------------------------------------------------------
  data required time                                                1.301
  data arrival time                                                -1.288
  --------------------------------------------------------------------------
  slack (MET)                                                       0.013


  Startpoint: datamem/scheduler/addr_a_conv/clk_r_REG2164_S1
              (rising edge-triggered flip-flop clocked by clk)
  Endpoint: datamem/dmem_2/cacti_mem_0/mem_32x32
            (rising edge-triggered flip-flop clocked by clk)
  Path Group: clk
  Path Type: max

  Point                                                   Incr       Path
  --------------------------------------------------------------------------
  clock clk (rise edge)                                  0.000      0.000
  clock network delay (ideal)                            0.010      0.010
  datamem/scheduler/addr_a_conv/clk_r_REG2164_S1/CP (C8T28SOIDV_LL_DFPRQX10_P16)
                                                         0.000      0.010 r
  datamem/scheduler/addr_a_conv/clk_r_REG2164_S1/Q (C8T28SOIDV_LL_DFPRQX10_P16)
                                                         0.099      0.109 r
  datamem/scheduler/addr_a_conv/en_out[1]_BAR (ser_par_conv_portw14_port_cnt2_1)
                                                         0.000      0.109 r
  datamem/scheduler/U2/Z (C8T28SOI_LL_IVX5_P16)          0.021 *    0.130 f
  datamem/scheduler/U3/Z (C8T28SOI_LL_NAND2X12_P16)      0.035 *    0.165 r
  datamem/scheduler/U215/Z (C8T28SOI_LL_IVX10_P16)       0.060 *    0.225 f
  datamem/scheduler/U199/Z (C8T28SOI_LL_AOI22X2_P16)     0.071 *    0.296 r
  datamem/scheduler/U200/Z (C8T28SOI_LL_IVX3_P16)        0.040 *    0.336 f
  datamem/scheduler/addr[25] (par_mem_scheduler_dataw32_addrw14_ports2_rd_delay1)
                                                         0.000      0.336 f
  datamem/par_mem_logic_inst/addrs_from_lsus[25] (par_mem_logic_PORTS2_LSU_ADDRW14_CTRLW1_DATAW32_PM_FUNC2)
                                                         0.000      0.336 f
  datamem/par_mem_logic_inst/addr_crsbar_0/addrs_from_lsus[25] (addr_crsbar_PORTS2_LSU_ADDRW14_CTRLW1_PM_FUNC2)
                                                         0.000      0.336 f
  datamem/par_mem_logic_inst/addr_crsbar_0/U30/Z (C8T28SOI_LL_AOI22X2_P16)
                                                         0.139 *    0.475 r
  datamem/par_mem_logic_inst/addr_crsbar_0/U76/Z (C8T28SOIDV_LLS_XNOR2X4_P16)
                                                         0.115 *    0.590 r
  datamem/par_mem_logic_inst/addr_crsbar_0/U34/Z (C8T28SOI_LL_NAND2X4_P16)
                                                         0.029 *    0.619 f
  datamem/par_mem_logic_inst/addr_crsbar_0/U35/Z (C8T28SOI_LL_OAI12X3_P16)
                                                         0.029 *    0.647 r
  datamem/par_mem_logic_inst/addr_crsbar_0/U83/Z (C8T28SOIDV_LLS_XNOR2X4_P16)
                                                         0.061 *    0.708 r
  datamem/par_mem_logic_inst/addr_crsbar_0/U32/Z (C8T28SOIDV_LLS_XNOR2X4_P16)
                                                         0.063 *    0.771 r
  datamem/par_mem_logic_inst/addr_crsbar_0/module_nums[1] (addr_crsbar_PORTS2_LSU_ADDRW14_CTRLW1_PM_FUNC2)
                                                         0.000      0.771 r
  datamem/par_mem_logic_inst/ctrl_units_0/module_nums[1] (ctrl_units_PORTS2_CTRLW1)
                                                         0.000      0.771 r
  datamem/par_mem_logic_inst/ctrl_units_0/ctrl_uniti_1/module_num[0] (ctrl_unit_PORTS2_CTRLW1_0)
                                                         0.000      0.771 r
  datamem/par_mem_logic_inst/ctrl_units_0/ctrl_uniti_1/U6/Z (C8T28SOI_LL_NOR2X8_P16)
                                                         0.029 *    0.800 f
  datamem/par_mem_logic_inst/ctrl_units_0/ctrl_uniti_1/ctrl_matrix_row_out[0] (ctrl_unit_PORTS2_CTRLW1_0)
                                                         0.000      0.800 f
  datamem/par_mem_logic_inst/ctrl_units_0/ctrl_uniti_0/t_ctrl_matrix_row_in[1] (ctrl_unit_PORTS2_CTRLW1_1)
                                                         0.000      0.800 f
  datamem/par_mem_logic_inst/ctrl_units_0/ctrl_uniti_0/U3/Z (C8T28SOI_LL_NAND2X8_P16)
                                                         0.024 *    0.824 r
  datamem/par_mem_logic_inst/ctrl_units_0/ctrl_uniti_0/addr_mux_ctrl[0] (ctrl_unit_PORTS2_CTRLW1_1)
                                                         0.000      0.824 r
  datamem/par_mem_logic_inst/ctrl_units_0/addr_mux_ctrls[0] (ctrl_units_PORTS2_CTRLW1)
                                                         0.000      0.824 r
  datamem/par_mem_logic_inst/U7/Z (C8T28SOIDV_LL_IVX23_P16)
                                                         0.031 *    0.855 f
  datamem/par_mem_logic_inst/addr_crsbar_0/ctrl[0] (addr_crsbar_PORTS2_LSU_ADDRW14_CTRLW1_PM_FUNC2)
                                                         0.000      0.855 f
  datamem/par_mem_logic_inst/addr_crsbar_0/U74/Z (C8T28SOI_LL_IVX19_P16)
                                                         0.043 *    0.898 r
  datamem/par_mem_logic_inst/addr_crsbar_0/U139/Z (C8T28SOI_LL_AOI22X2_P16)
                                                         0.076 *    0.973 f
  datamem/par_mem_logic_inst/addr_crsbar_0/mem_addrs_out[12] (addr_crsbar_PORTS2_LSU_ADDRW14_CTRLW1_PM_FUNC2)
                                                         0.000      0.973 f
  datamem/par_mem_logic_inst/addrs_to_mems[12] (par_mem_logic_PORTS2_LSU_ADDRW14_CTRLW1_DATAW32_PM_FUNC2)
                                                         0.000      0.973 f
  datamem/dmem_2/addr[12] (synch_singleport_mem_wrapper_DATAW32_ADDRW13_0)
                                                         0.000      0.973 f
  datamem/dmem_2/en_wr_arbiter/addr[12] (block_en_wr_arbiter_ADDRW13_NBLOCKS9_0)
                                                         0.000      0.973 f
  datamem/dmem_2/en_wr_arbiter/U4/Z (C8T28SOI_LL_NAND2AX4_P16)
                                                         0.107 *    1.081 f
  datamem/dmem_2/en_wr_arbiter/U19/Z (C8T28SOI_LL_NOR2X12_P16)
                                                         0.051 *    1.132 r
  datamem/dmem_2/en_wr_arbiter/U17/Z (C8T28SOIDV_LL_NAND2X9_P16)
                                                         0.036 *    1.168 f
  datamem/dmem_2/en_wr_arbiter/U20/Z (C8T28SOI_LL_NOR2X8_P16)
                                                         0.027 *    1.195 r
  datamem/dmem_2/en_wr_arbiter/U21/Z (C8T28SOI_LL_AND2X10_P16)
                                                         0.059 *    1.254 r
  datamem/dmem_2/en_wr_arbiter/U36/Z (C8T28SOI_LL_NAND3X3_P16)
                                                         0.033 *    1.287 f
  datamem/dmem_2/en_wr_arbiter/wr_blocks[0] (block_en_wr_arbiter_ADDRW13_NBLOCKS9_0)
                                                         0.000      1.287 f
  datamem/dmem_2/cacti_mem_0/wr_x (cacti_mem_wrapper_DATAW32_ADDRW5_1)
                                                         0.000      1.287 f
  datamem/dmem_2/cacti_mem_0/mem_32x32/wr_en_x (ram_32x32)
                                                         0.000 *    1.287 f
  data arrival time                                                 1.287

  clock clk (rise edge)                                  1.818      1.818
  clock network delay (ideal)                            0.010      1.828
  clock uncertainty                                     -0.010      1.818
  datamem/dmem_2/cacti_mem_0/mem_32x32/clk (ram_32x32)
                                                         0.000      1.818 r
  library setup time                                    -0.517      1.301
  data required time                                                1.301
  --------------------------------------------------------------------------
  data required time                                                1.301
  data arrival time                                                -1.287
  --------------------------------------------------------------------------
  slack (MET)                                                       0.014


1
