Warning: There are 90 switching activity information conflicts. (PWR-19)
 
****************************************
Report : saif
Design : proc
Version: M-2016.12-SP5-1
Date   : Sat Jul 28 17:21:29 2018
****************************************

  

--------------------------------------------------------------------------------
              User              Default           Propagated
Object type   Annotated (%)     Activity (%)      Activity (%)       Total
--------------------------------------------------------------------------------
  
 Nets         284(64.84%)       0(0.00%)          154(35.16%)        438
 Ports        229(100.00%)      0(0.00%)          0(0.00%)           229
 Pins         251(35.91%)       0(0.00%)          448(64.09%)        699
--------------------------------------------------------------------------------
1
