Warning: There are 73 switching activity information conflicts. (PWR-19)
 
****************************************
Report : saif
Design : proc
Version: M-2016.12-SP5-1
Date   : Fri Jul 27 18:07:34 2018
****************************************

  

--------------------------------------------------------------------------------
              User              Default           Propagated
Object type   Annotated (%)     Activity (%)      Activity (%)       Total
--------------------------------------------------------------------------------
  
 Nets         284(73.96%)       0(0.00%)          100(26.04%)        384
 Ports        229(100.00%)      0(0.00%)          0(0.00%)           229
 Pins         215(40.34%)       0(0.00%)          318(59.66%)        533
--------------------------------------------------------------------------------
1
