Information: Updating design information... (UID-85)
 
****************************************
Report : timing
        -path full
        -delay max
        -max_paths 10
Design : proc
Version: M-2016.12-SP5-1
Date   : Fri Jul 27 18:07:17 2018
****************************************

 * Some/all delay information is back-annotated.

Operating Conditions: uk65lscllmvbbh_100c25_tc   Library: uk65lscllmvbbh_100c25_tc
Wire Load Model Mode: Inactive.

  Startpoint: core/rf_rf_def/clk_r_REG1729_S11_IP
              (rising edge-triggered flip-flop clocked by clk)
  Endpoint: core/ic/add_o1/clk_r_REG248_S34
            (rising edge-triggered flip-flop clocked by clk)
  Path Group: clk
  Path Type: max

  Point                                                   Incr       Path
  --------------------------------------------------------------------------
  clock clk (rise edge)                                  0.000      0.000
  clock network delay (ideal)                            0.010      0.010
  core/rf_rf_def/clk_r_REG1729_S11_IP/CK (DFERM2SA)      0.000      0.010 r
  core/rf_rf_def/clk_r_REG1729_S11_IP/QB (DFERM2SA)      0.419      0.429 r
  core/rf_rf_def/U6/Z (INVM4S)                           0.149 *    0.578 f
  core/rf_rf_def/U60/Z (AO222M2SA)                       0.425 *    1.003 f
  core/rf_rf_def/r1data[0] (rf_1wr_1rd_always_1_guarded_0_dataw32_rf_size3)
                                                         0.000      1.003 f
  core/ic/socket_rf_def_o1_data0[0] (tta0_interconn)     0.000      1.003 f
  core/ic/rf_def_o1/data0[0] (tta0_output_socket_cons_2_1_BUSW_032_BUSW_132_DATAW_032_0)
                                                         0.000      1.003 f
  core/ic/rf_def_o1/U75/Z (INVM2S)                       0.077 *    1.079 r
  core/ic/rf_def_o1/U76/Z (NR2M2S)                       0.050 *    1.130 f
  core/ic/rf_def_o1/databus0_alt[0] (tta0_output_socket_cons_2_1_BUSW_032_BUSW_132_DATAW_032_0)
                                                         0.000      1.130 f
  core/ic/U130/Z (OR3M4S)                                0.256 *    1.386 f
  core/ic/add_i2/databus0[0] (tta0_input_socket_cons_1_BUSW_032_DATAW32_5)
                                                         0.000      1.386 f
  core/ic/add_i2/U32/Z (BUFM2S)                          0.127 *    1.513 f
  core/ic/add_i2/data[0] (tta0_input_socket_cons_1_BUSW_032_DATAW32_5)
                                                         0.000      1.513 f
  core/ic/socket_add_i2_data[0] (tta0_interconn)         0.000      1.513 f
  core/fu_add/o1data[0] (fu_add_sub_always_1_dataw32_busw32)
                                                         0.000      1.513 f
  core/fu_add/U12/Z (AO22M1SA)                           0.266 *    1.779 f
  core/fu_add/fu_arch/B[0] (add_sub_arith_dataw32)       0.000      1.779 f
  core/fu_add/fu_arch/U4/Z (MAOI22M2SA)                  0.159 *    1.938 r
  core/fu_add/fu_arch/U6/CO (ADFM2SA)                    0.298 *    2.236 r
  core/fu_add/fu_arch/U8/CO (ADFM2SA)                    0.230 *    2.465 r
  core/fu_add/fu_arch/U10/CO (ADFM2SA)                   0.228 *    2.693 r
  core/fu_add/fu_arch/U12/CO (ADFM2SA)                   0.228 *    2.921 r
  core/fu_add/fu_arch/U14/CO (ADFM2SA)                   0.231 *    3.153 r
  core/fu_add/fu_arch/U16/CO (ADFM2SA)                   0.232 *    3.385 r
  core/fu_add/fu_arch/U18/CO (ADFM2SA)                   0.230 *    3.615 r
  core/fu_add/fu_arch/U20/CO (ADFM2SA)                   0.228 *    3.842 r
  core/fu_add/fu_arch/U22/CO (ADFM2SA)                   0.227 *    4.070 r
  core/fu_add/fu_arch/U24/CO (ADFM2SA)                   0.227 *    4.297 r
  core/fu_add/fu_arch/U26/CO (ADFM2SA)                   0.227 *    4.524 r
  core/fu_add/fu_arch/U28/CO (ADFM2SA)                   0.229 *    4.753 r
  core/fu_add/fu_arch/U30/CO (ADFM2SA)                   0.228 *    4.981 r
  core/fu_add/fu_arch/U32/CO (ADFM2SA)                   0.230 *    5.211 r
  core/fu_add/fu_arch/U34/CO (ADFM2SA)                   0.232 *    5.443 r
  core/fu_add/fu_arch/U36/CO (ADFM2SA)                   0.231 *    5.674 r
  core/fu_add/fu_arch/U38/CO (ADFM2SA)                   0.230 *    5.905 r
  core/fu_add/fu_arch/U40/CO (ADFM2SA)                   0.230 *    6.135 r
  core/fu_add/fu_arch/U42/CO (ADFM2SA)                   0.230 *    6.365 r
  core/fu_add/fu_arch/U44/CO (ADFM2SA)                   0.227 *    6.592 r
  core/fu_add/fu_arch/U46/CO (ADFM2SA)                   0.222 *    6.814 r
  core/fu_add/fu_arch/U48/CO (ADFM1SA)                   0.261 *    7.075 r
  core/fu_add/fu_arch/U50/CO (ADFM1SA)                   0.270 *    7.345 r
  core/fu_add/fu_arch/U52/CO (ADFM1SA)                   0.267 *    7.612 r
  core/fu_add/fu_arch/U54/CO (ADFM1SA)                   0.269 *    7.881 r
  core/fu_add/fu_arch/U56/CO (ADFM1SA)                   0.270 *    8.151 r
  core/fu_add/fu_arch/U58/CO (ADFM1SA)                   0.269 *    8.420 r
  core/fu_add/fu_arch/U60/CO (ADFM1SA)                   0.270 *    8.690 r
  core/fu_add/fu_arch/U62/CO (ADFM1SA)                   0.269 *    8.959 r
  core/fu_add/fu_arch/U64/CO (ADFM1SA)                   0.268 *    9.227 r
  core/fu_add/fu_arch/U66/CO (ADFM1SA)                   0.260 *    9.487 r
  core/fu_add/fu_arch/U67/Z (MAOI22M2SA)                 0.206 *    9.693 r
  core/fu_add/fu_arch/U68/Z (MAOI22M2SA)                 0.213 *    9.906 r
  core/fu_add/fu_arch/S[31] (add_sub_arith_dataw32)      0.000      9.906 r
  core/fu_add/r1data[31] (fu_add_sub_always_1_dataw32_busw32)
                                                         0.000      9.906 r
  core/ic/socket_add_o1_data0[31] (tta0_interconn)       0.000      9.906 r
  core/ic/add_o1/data0[31] (tta0_output_socket_cons_3_1_BUSW_032_BUSW_132_BUSW_232_DATAW_032_1)
                                                         0.000      9.906 r
  core/ic/add_o1/U15/Z (INVM2S)                          0.069 *    9.975 f
  core/ic/add_o1/clk_r_REG248_S34/D (DFQSM1SA)           0.000 *    9.975 f
  data arrival time                                                 9.975

  clock clk (rise edge)                                 10.000     10.000
  clock network delay (ideal)                            0.010     10.010
  clock uncertainty                                     -0.010     10.000
  core/ic/add_o1/clk_r_REG248_S34/CK (DFQSM1SA)          0.000     10.000 r
  library setup time                                    -0.023      9.977
  data required time                                                9.977
  --------------------------------------------------------------------------
  data required time                                                9.977
  data arrival time                                                -9.975
  --------------------------------------------------------------------------
  slack (MET)                                                       0.002


  Startpoint: core/inst_decoder/clk_r_REG1903_S11
              (rising edge-triggered flip-flop clocked by clk)
  Endpoint: core/fu_CMUL/fu_arch/DP_OP_25J13_122_449/R_5_clk_r_REG264_S4
            (rising edge-triggered flip-flop clocked by clk)
  Path Group: clk
  Path Type: max

  Point                                                   Incr       Path
  --------------------------------------------------------------------------
  clock clk (rise edge)                                  0.000      0.000
  clock network delay (ideal)                            0.010      0.010
  core/inst_decoder/clk_r_REG1903_S11/CK (DFQRM2SA)      0.000      0.010 r
  core/inst_decoder/clk_r_REG1903_S11/Q (DFQRM2SA)       0.562      0.572 r
  core/inst_decoder/socket_TFG_o1_bus_cntrl[0] (tta0_decoder)
                                                         0.000      0.572 r
  core/fu_CMUL/t1load (fu_cmul_always_3_dataw32_busw32)
                                                         0.000      0.572 r
  core/fu_CMUL/U3/Z (INVM2S)                             0.306 *    0.879 f
  core/fu_CMUL/U5/Z (NR2M6S)                             0.390 *    1.269 r
  core/fu_CMUL/U43/Z (AO22M2S)                           0.609 *    1.878 r
  core/fu_CMUL/fu_arch/B[16] (cmul_pipe_1_dataw32_halfw16)
                                                         0.000      1.878 r
  core/fu_CMUL/fu_arch/U141/Z (BUFM6S)                   0.332 *    2.210 r
  core/fu_CMUL/fu_arch/U636/Z (AO32M2SA)                 0.342 *    2.551 r
  core/fu_CMUL/fu_arch/U641/S (ADFM2SA)                  0.374 *    2.925 f
  core/fu_CMUL/fu_arch/U642/Z (ND2M2S)                   0.065 *    2.990 r
  core/fu_CMUL/fu_arch/U643/Z (AOI221M2S)                0.062 *    3.052 f
  core/fu_CMUL/fu_arch/U644/Z (MAO222M1SA)               0.335 *    3.387 f
  core/fu_CMUL/fu_arch/U645/Z (MAO222M2SA)               0.298 *    3.685 f
  core/fu_CMUL/fu_arch/U646/Z (MAO222M1SA)               0.323 *    4.008 f
  core/fu_CMUL/fu_arch/U647/Z (MAO222M2SA)               0.303 *    4.312 f
  core/fu_CMUL/fu_arch/U648/Z (MAO222M1SA)               0.324 *    4.635 f
  core/fu_CMUL/fu_arch/U649/Z (MAO222M2SA)               0.297 *    4.933 f
  core/fu_CMUL/fu_arch/U650/Z (MAO222M1SA)               0.316 *    5.249 f
  core/fu_CMUL/fu_arch/U651/Z (MAO222M2SA)               0.301 *    5.549 f
  core/fu_CMUL/fu_arch/U652/Z (MAO222M1SA)               0.316 *    5.865 f
  core/fu_CMUL/fu_arch/U653/Z (MAO222M2SA)               0.298 *    6.163 f
  core/fu_CMUL/fu_arch/U654/Z (MAO222M1SA)               0.322 *    6.485 f
  core/fu_CMUL/fu_arch/U655/Z (MAO222M4SA)               0.269 *    6.754 f
  core/fu_CMUL/fu_arch/U656/Z (MAO222M4SA)               0.260 *    7.015 f
  core/fu_CMUL/fu_arch/U702/CO (ADFM2SA)                 0.230 *    7.245 f
  core/fu_CMUL/fu_arch/U747/CO (ADFM2SA)                 0.225 *    7.469 f
  core/fu_CMUL/fu_arch/U788/CO (ADFM2SA)                 0.224 *    7.694 f
  core/fu_CMUL/fu_arch/U827/CO (ADFM2SA)                 0.233 *    7.927 f
  core/fu_CMUL/fu_arch/U862/CO (ADFM2SA)                 0.233 *    8.160 f
  core/fu_CMUL/fu_arch/U895/CO (ADFM2SA)                 0.232 *    8.392 f
  core/fu_CMUL/fu_arch/U924/CO (ADFM2SA)                 0.241 *    8.633 f
  core/fu_CMUL/fu_arch/U951/CO (ADFM2SA)                 0.235 *    8.868 f
  core/fu_CMUL/fu_arch/U993/CO (ADFM2SA)                 0.228 *    9.096 f
  core/fu_CMUL/fu_arch/U996/CO (ADFM2SA)                 0.225 *    9.321 f
  core/fu_CMUL/fu_arch/U997/CO (ADFM2SA)                 0.227 *    9.547 f
  core/fu_CMUL/fu_arch/U2039/S (ADFM2SA)                 0.340 *    9.887 r
  core/fu_CMUL/fu_arch/DP_OP_25J13_122_449/R_5_clk_r_REG264_S4/D (DFQBRM1SA)
                                                         0.000 *    9.887 r
  data arrival time                                                 9.887

  clock clk (rise edge)                                 10.000     10.000
  clock network delay (ideal)                            0.010     10.010
  clock uncertainty                                     -0.010     10.000
  core/fu_CMUL/fu_arch/DP_OP_25J13_122_449/R_5_clk_r_REG264_S4/CK (DFQBRM1SA)
                                                         0.000     10.000 r
  library setup time                                    -0.091      9.909
  data required time                                                9.909
  --------------------------------------------------------------------------
  data required time                                                9.909
  data arrival time                                                -9.887
  --------------------------------------------------------------------------
  slack (MET)                                                       0.022


  Startpoint: core/inst_decoder/clk_r_REG1903_S11
              (rising edge-triggered flip-flop clocked by clk)
  Endpoint: core/fu_CMUL/fu_arch/DP_OP_26J13_123_449/clk_r_REG198_S14
            (rising edge-triggered flip-flop clocked by clk)
  Path Group: clk
  Path Type: max

  Point                                                   Incr       Path
  --------------------------------------------------------------------------
  clock clk (rise edge)                                  0.000      0.000
  clock network delay (ideal)                            0.010      0.010
  core/inst_decoder/clk_r_REG1903_S11/CK (DFQRM2SA)      0.000      0.010 r
  core/inst_decoder/clk_r_REG1903_S11/Q (DFQRM2SA)       0.562      0.572 r
  core/inst_decoder/socket_TFG_o1_bus_cntrl[0] (tta0_decoder)
                                                         0.000      0.572 r
  core/ic/socket_TFG_o1_bus_cntrl[0] (tta0_interconn)    0.000      0.572 r
  core/ic/TFG_o1/databus_cntrl[0] (tta0_output_socket_cons_1_1_BUSW_032_DATAW_032_2)
                                                         0.000      0.572 r
  core/ic/TFG_o1/U37/Z (AN2M2S)                          0.339 *    0.912 r
  core/ic/TFG_o1/databus0_alt[1] (tta0_output_socket_cons_1_1_BUSW_032_DATAW_032_2)
                                                         0.000      0.912 r
  core/ic/CMUL_i1/databus0[1] (tta0_input_socket_cons_1_BUSW_032_DATAW32_10)
                                                         0.000      0.912 r
  core/ic/CMUL_i1/U3/Z (BUFM2S)                          0.097 *    1.009 r
  core/ic/CMUL_i1/data[1] (tta0_input_socket_cons_1_BUSW_032_DATAW32_10)
                                                         0.000      1.009 r
  core/ic/socket_CMUL_i1_data[1] (tta0_interconn)        0.000      1.009 r
  U123/Z (BUFM2S)                                        0.259 *    1.268 r
  core/fu_CMUL/t1data[1] (fu_cmul_always_3_dataw32_busw32)
                                                         0.000      1.268 r
  core/fu_CMUL/fu_arch/A[1] (cmul_pipe_1_dataw32_halfw16)
                                                         0.000      1.268 r
  core/fu_CMUL/fu_arch/U14/Z (BUFM2S)                    0.352 *    1.619 r
  core/fu_CMUL/fu_arch/U15/Z (INVM2S)                    0.279 *    1.898 f
  core/fu_CMUL/fu_arch/U1198/Z (AOI22M4S)                0.406 *    2.304 r
  core/fu_CMUL/fu_arch/U1581/Z (NR2M2S)                  0.209 *    2.513 f
  core/fu_CMUL/fu_arch/U1601/S (ADHM1SA)                 0.234 *    2.746 r
  core/fu_CMUL/fu_arch/U1613/S (ADFM2SA)                 0.344 *    3.091 f
  core/fu_CMUL/fu_arch/U1619/Z (MAO222M1SA)              0.295 *    3.385 f
  core/fu_CMUL/fu_arch/U1620/Z (MAO222M1SA)              0.327 *    3.712 f
  core/fu_CMUL/fu_arch/U1621/Z (MAO222M1SA)              0.327 *    4.039 f
  core/fu_CMUL/fu_arch/U1622/Z (MAO222M1SA)              0.329 *    4.368 f
  core/fu_CMUL/fu_arch/U1623/Z (MAO222M1SA)              0.330 *    4.698 f
  core/fu_CMUL/fu_arch/U1624/Z (MAO222M1SA)              0.331 *    5.029 f
  core/fu_CMUL/fu_arch/U1625/Z (MAO222M2SA)              0.301 *    5.330 f
  core/fu_CMUL/fu_arch/U1626/Z (MAO222M2SA)              0.298 *    5.628 f
  core/fu_CMUL/fu_arch/U1627/Z (MAO222M2SA)              0.301 *    5.929 f
  core/fu_CMUL/fu_arch/U1628/Z (MAO222M1SA)              0.332 *    6.261 f
  core/fu_CMUL/fu_arch/U1629/Z (MAO222M1SA)              0.327 *    6.588 f
  core/fu_CMUL/fu_arch/U1630/Z (MAO222M2SA)              0.301 *    6.889 f
  core/fu_CMUL/fu_arch/U1631/Z (MAO222M4SA)              0.287 *    7.176 f
  core/fu_CMUL/fu_arch/U1677/CO (ADFM2SA)                0.299 *    7.475 f
  core/fu_CMUL/fu_arch/U1722/CO (ADFM2SA)                0.263 *    7.737 f
  core/fu_CMUL/fu_arch/U1763/CO (ADFM2SA)                0.235 *    7.972 f
  core/fu_CMUL/fu_arch/U1802/CO (ADFM2SA)                0.230 *    8.202 f
  core/fu_CMUL/fu_arch/U1837/CO (ADFM2SA)                0.223 *    8.425 f
  core/fu_CMUL/fu_arch/U1870/CO (ADFM2SA)                0.223 *    8.648 f
  core/fu_CMUL/fu_arch/U1899/CO (ADFM2SA)                0.223 *    8.871 f
  core/fu_CMUL/fu_arch/U1926/CO (ADFM2SA)                0.220 *    9.092 f
  core/fu_CMUL/fu_arch/U1968/CO (ADFM2SA)                0.222 *    9.313 f
  core/fu_CMUL/fu_arch/U1971/CO (ADFM2SA)                0.221 *    9.534 f
  core/fu_CMUL/fu_arch/U1972/S (ADFM2SA)                 0.332 *    9.866 r
  core/fu_CMUL/fu_arch/DP_OP_26J13_123_449/clk_r_REG198_S14/D (DFQRM1SA)
                                                         0.000 *    9.866 r
  data arrival time                                                 9.866

  clock clk (rise edge)                                 10.000     10.000
  clock network delay (ideal)                            0.010     10.010
  clock uncertainty                                     -0.010     10.000
  core/fu_CMUL/fu_arch/DP_OP_26J13_123_449/clk_r_REG198_S14/CK (DFQRM1SA)
                                                         0.000     10.000 r
  library setup time                                    -0.090      9.910
  data required time                                                9.910
  --------------------------------------------------------------------------
  data required time                                                9.910
  data arrival time                                                -9.866
  --------------------------------------------------------------------------
  slack (MET)                                                       0.045


  Startpoint: core/fu_AG/fu_arch/clk_r_REG136_S4
              (rising edge-triggered flip-flop clocked by clk)
  Endpoint: core/ic/AG_o1/clk_r_REG800_S13
            (rising edge-triggered flip-flop clocked by clk)
  Path Group: clk
  Path Type: max

  Point                                                   Incr       Path
  --------------------------------------------------------------------------
  clock clk (rise edge)                                  0.000      0.000
  clock network delay (ideal)                            0.010      0.010
  core/fu_AG/fu_arch/clk_r_REG136_S4/CK (DFQRM2SA)       0.000      0.010 r
  core/fu_AG/fu_arch/clk_r_REG136_S4/Q (DFQRM2SA)        0.471      0.481 f
  core/fu_AG/fu_arch/u0/nexp_i[0] (idx_stage_split_dataw32_nexpw4_stagew3_idxw16_0)
                                                         0.000      0.481 f
  core/fu_AG/fu_arch/u0/U13/Z (ND2M2S)                   0.221 *    0.701 r
  core/fu_AG/fu_arch/u0/U19/Z (INVM2S)                   0.130 *    0.832 f
  core/fu_AG/fu_arch/u0/U30/Z (AOI222M1SA)               0.281 *    1.112 r
  core/fu_AG/fu_arch/u0/U31/Z (OAI22M2S)                 0.224 *    1.337 f
  core/fu_AG/fu_arch/u0/U35/Z (OAI32M2S)                 0.228 *    1.565 r
  core/fu_AG/fu_arch/u0/U39/Z (AOI32M2S)                 0.292 *    1.857 f
  core/fu_AG/fu_arch/u0/stage_o[0] (idx_stage_split_dataw32_nexpw4_stagew3_idxw16_0)
                                                         0.000      1.857 f
  core/fu_AG/fu_arch/U15/Z (ND2M2S)                      0.182 *    2.039 r
  core/fu_AG/fu_arch/U16/Z (OAI21M4S)                    0.208 *    2.247 f
  core/fu_AG/fu_arch/U22/Z (INVM2S)                      0.303 *    2.550 r
  core/fu_AG/fu_arch/U25/Z (ND2M2S)                      0.351 *    2.901 f
  core/fu_AG/fu_arch/U29/Z (INVM2S)                      0.317 *    3.218 r
  core/fu_AG/fu_arch/U91/Z (AOI222M1SA)                  0.273 *    3.491 f
  core/fu_AG/fu_arch/U92/Z (INVM2S)                      0.129 *    3.619 r
  core/fu_AG/fu_arch/U96/Z (AOI22M2S)                    0.143 *    3.762 f
  core/fu_AG/fu_arch/U100/Z (INVM2S)                     0.114 *    3.876 r
  core/fu_AG/fu_arch/U111/Z (OAI222M2SA)                 0.192 *    4.068 f
  core/fu_AG/fu_arch/U158/Z (AOI221M2S)                  0.321 *    4.389 r
  core/fu_AG/fu_arch/U173/Z (AOI222M1SA)                 0.343 *    4.732 f
  core/fu_AG/fu_arch/U199/Z (NR2M2S)                     0.231 *    4.963 r
  core/fu_AG/fu_arch/U200/Z (INVM2S)                     0.113 *    5.076 f
  core/fu_AG/fu_arch/U254/CO (ADFM2SA)                   0.232 *    5.308 f
  core/fu_AG/fu_arch/U251/CO (ADFM2SA)                   0.223 *    5.531 f
  core/fu_AG/fu_arch/U248/CO (ADFM2SA)                   0.221 *    5.752 f
  core/fu_AG/fu_arch/U242/S (ADFM2SA)                    0.333 *    6.085 r
  core/fu_AG/fu_arch/U243/Z (AOI211M2S)                  0.071 *    6.156 f
  core/fu_AG/fu_arch/U247/Z (AOI32M2S)                   0.213 *    6.369 r
  core/fu_AG/fu_arch/U281/CO (ADFM2SA)                   0.302 *    6.671 r
  core/fu_AG/fu_arch/U282/CO (ADFM2SA)                   0.227 *    6.898 r
  core/fu_AG/fu_arch/U283/CO (ADFM2SA)                   0.227 *    7.125 r
  core/fu_AG/fu_arch/U284/CO (ADFM2SA)                   0.226 *    7.351 r
  core/fu_AG/fu_arch/U285/CO (ADFM2SA)                   0.227 *    7.577 r
  core/fu_AG/fu_arch/U286/CO (ADFM2SA)                   0.224 *    7.801 r
  core/fu_AG/fu_arch/U287/CO (ADFM1SA)                   0.260 *    8.061 r
  core/fu_AG/fu_arch/U288/CO (ADFM1SA)                   0.272 *    8.333 r
  core/fu_AG/fu_arch/U289/CO (ADFM1SA)                   0.275 *    8.608 r
  core/fu_AG/fu_arch/U290/CO (ADFM1SA)                   0.317 *    8.925 r
  core/fu_AG/fu_arch/U273/CO (ADHM1SA)                   0.201 *    9.127 r
  core/fu_AG/fu_arch/U272/CO (ADHM1SA)                   0.163 *    9.290 r
  core/fu_AG/fu_arch/U271/CO (ADHM1SA)                   0.159 *    9.449 r
  core/fu_AG/fu_arch/U270/CO (ADHM1SA)                   0.157 *    9.606 r
  core/fu_AG/fu_arch/U259/S (ADHM1SA)                    0.153 *    9.759 f
  core/fu_AG/fu_arch/addr_o[20] (ag_arith_dataw32_nexpw4_idxw16_stagew3_mau_shift2)
                                                         0.000      9.759 f
  core/fu_AG/r1data[20] (fu_ag_always_2_dataw32_busw32_nexpw4)
                                                         0.000      9.759 f
  core/ic/socket_AG_o1_data0[20] (tta0_interconn)        0.000      9.759 f
  core/ic/AG_o1/data0[20] (tta0_output_socket_cons_2_1_BUSW_032_BUSW_132_DATAW_032_1)
                                                         0.000      9.759 f
  core/ic/AG_o1/U39/Z (INVM2S)                           0.052 *    9.811 r
  core/ic/AG_o1/clk_r_REG800_S13/D (DFQSM1SA)            0.000 *    9.811 r
  data arrival time                                                 9.811

  clock clk (rise edge)                                 10.000     10.000
  clock network delay (ideal)                            0.010     10.010
  clock uncertainty                                     -0.010     10.000
  core/ic/AG_o1/clk_r_REG800_S13/CK (DFQSM1SA)           0.000     10.000 r
  library setup time                                    -0.082      9.918
  data required time                                                9.918
  --------------------------------------------------------------------------
  data required time                                                9.918
  data arrival time                                                -9.811
  --------------------------------------------------------------------------
  slack (MET)                                                       0.108


  Startpoint: core/fu_AG/fu_arch/clk_r_REG136_S4
              (rising edge-triggered flip-flop clocked by clk)
  Endpoint: core/fu_AG/fu_arch/add_x_5/clk_r_REG799_S13
            (rising edge-triggered flip-flop clocked by clk)
  Path Group: clk
  Path Type: max

  Point                                                   Incr       Path
  --------------------------------------------------------------------------
  clock clk (rise edge)                                  0.000      0.000
  clock network delay (ideal)                            0.010      0.010
  core/fu_AG/fu_arch/clk_r_REG136_S4/CK (DFQRM2SA)       0.000      0.010 r
  core/fu_AG/fu_arch/clk_r_REG136_S4/Q (DFQRM2SA)        0.471      0.481 f
  core/fu_AG/fu_arch/u0/nexp_i[0] (idx_stage_split_dataw32_nexpw4_stagew3_idxw16_0)
                                                         0.000      0.481 f
  core/fu_AG/fu_arch/u0/U13/Z (ND2M2S)                   0.221 *    0.701 r
  core/fu_AG/fu_arch/u0/U19/Z (INVM2S)                   0.130 *    0.832 f
  core/fu_AG/fu_arch/u0/U30/Z (AOI222M1SA)               0.281 *    1.112 r
  core/fu_AG/fu_arch/u0/U31/Z (OAI22M2S)                 0.224 *    1.337 f
  core/fu_AG/fu_arch/u0/U35/Z (OAI32M2S)                 0.228 *    1.565 r
  core/fu_AG/fu_arch/u0/U39/Z (AOI32M2S)                 0.292 *    1.857 f
  core/fu_AG/fu_arch/u0/stage_o[0] (idx_stage_split_dataw32_nexpw4_stagew3_idxw16_0)
                                                         0.000      1.857 f
  core/fu_AG/fu_arch/U15/Z (ND2M2S)                      0.182 *    2.039 r
  core/fu_AG/fu_arch/U16/Z (OAI21M4S)                    0.208 *    2.247 f
  core/fu_AG/fu_arch/U22/Z (INVM2S)                      0.303 *    2.550 r
  core/fu_AG/fu_arch/U25/Z (ND2M2S)                      0.351 *    2.901 f
  core/fu_AG/fu_arch/U29/Z (INVM2S)                      0.317 *    3.218 r
  core/fu_AG/fu_arch/U91/Z (AOI222M1SA)                  0.273 *    3.491 f
  core/fu_AG/fu_arch/U92/Z (INVM2S)                      0.129 *    3.619 r
  core/fu_AG/fu_arch/U96/Z (AOI22M2S)                    0.143 *    3.762 f
  core/fu_AG/fu_arch/U100/Z (INVM2S)                     0.114 *    3.876 r
  core/fu_AG/fu_arch/U111/Z (OAI222M2SA)                 0.192 *    4.068 f
  core/fu_AG/fu_arch/U158/Z (AOI221M2S)                  0.321 *    4.389 r
  core/fu_AG/fu_arch/U173/Z (AOI222M1SA)                 0.343 *    4.732 f
  core/fu_AG/fu_arch/U199/Z (NR2M2S)                     0.231 *    4.963 r
  core/fu_AG/fu_arch/U200/Z (INVM2S)                     0.113 *    5.076 f
  core/fu_AG/fu_arch/U254/CO (ADFM2SA)                   0.232 *    5.308 f
  core/fu_AG/fu_arch/U251/CO (ADFM2SA)                   0.223 *    5.531 f
  core/fu_AG/fu_arch/U248/CO (ADFM2SA)                   0.221 *    5.752 f
  core/fu_AG/fu_arch/U242/S (ADFM2SA)                    0.333 *    6.085 r
  core/fu_AG/fu_arch/U243/Z (AOI211M2S)                  0.071 *    6.156 f
  core/fu_AG/fu_arch/U247/Z (AOI32M2S)                   0.213 *    6.369 r
  core/fu_AG/fu_arch/U281/CO (ADFM2SA)                   0.302 *    6.671 r
  core/fu_AG/fu_arch/U282/CO (ADFM2SA)                   0.227 *    6.898 r
  core/fu_AG/fu_arch/U283/CO (ADFM2SA)                   0.227 *    7.125 r
  core/fu_AG/fu_arch/U284/CO (ADFM2SA)                   0.226 *    7.351 r
  core/fu_AG/fu_arch/U285/CO (ADFM2SA)                   0.227 *    7.577 r
  core/fu_AG/fu_arch/U286/CO (ADFM2SA)                   0.224 *    7.801 r
  core/fu_AG/fu_arch/U287/CO (ADFM1SA)                   0.260 *    8.061 r
  core/fu_AG/fu_arch/U288/CO (ADFM1SA)                   0.272 *    8.333 r
  core/fu_AG/fu_arch/U289/CO (ADFM1SA)                   0.275 *    8.608 r
  core/fu_AG/fu_arch/U290/CO (ADFM1SA)                   0.317 *    8.925 r
  core/fu_AG/fu_arch/U273/CO (ADHM1SA)                   0.201 *    9.127 r
  core/fu_AG/fu_arch/U272/CO (ADHM1SA)                   0.163 *    9.290 r
  core/fu_AG/fu_arch/U271/CO (ADHM1SA)                   0.159 *    9.449 r
  core/fu_AG/fu_arch/U270/CO (ADHM1SA)                   0.157 *    9.606 r
  core/fu_AG/fu_arch/U259/CO (ADHM1SA)                   0.135 *    9.741 r
  core/fu_AG/fu_arch/add_x_5/clk_r_REG799_S13/D (DFQRM1SA)
                                                         0.000 *    9.741 r
  data arrival time                                                 9.741

  clock clk (rise edge)                                 10.000     10.000
  clock network delay (ideal)                            0.010     10.010
  clock uncertainty                                     -0.010     10.000
  core/fu_AG/fu_arch/add_x_5/clk_r_REG799_S13/CK (DFQRM1SA)
                                                         0.000     10.000 r
  library setup time                                    -0.081      9.919
  data required time                                                9.919
  --------------------------------------------------------------------------
  data required time                                                9.919
  data arrival time                                                -9.741
  --------------------------------------------------------------------------
  slack (MET)                                                       0.178


  Startpoint: core/inst_decoder/clk_r_REG1903_S11
              (rising edge-triggered flip-flop clocked by clk)
  Endpoint: core/fu_CMUL/fu_arch/DP_OP_25J13_122_449/R_4_clk_r_REG264_S4
            (rising edge-triggered flip-flop clocked by clk)
  Path Group: clk
  Path Type: max

  Point                                                   Incr       Path
  --------------------------------------------------------------------------
  clock clk (rise edge)                                  0.000      0.000
  clock network delay (ideal)                            0.010      0.010
  core/inst_decoder/clk_r_REG1903_S11/CK (DFQRM2SA)      0.000      0.010 r
  core/inst_decoder/clk_r_REG1903_S11/Q (DFQRM2SA)       0.562      0.572 r
  core/inst_decoder/socket_TFG_o1_bus_cntrl[0] (tta0_decoder)
                                                         0.000      0.572 r
  core/fu_CMUL/t1load (fu_cmul_always_3_dataw32_busw32)
                                                         0.000      0.572 r
  core/fu_CMUL/U3/Z (INVM2S)                             0.306 *    0.879 f
  core/fu_CMUL/U5/Z (NR2M6S)                             0.390 *    1.269 r
  core/fu_CMUL/U43/Z (AO22M2S)                           0.609 *    1.878 r
  core/fu_CMUL/fu_arch/B[16] (cmul_pipe_1_dataw32_halfw16)
                                                         0.000      1.878 r
  core/fu_CMUL/fu_arch/U141/Z (BUFM6S)                   0.332 *    2.210 r
  core/fu_CMUL/fu_arch/U636/Z (AO32M2SA)                 0.342 *    2.551 r
  core/fu_CMUL/fu_arch/U641/S (ADFM2SA)                  0.374 *    2.925 f
  core/fu_CMUL/fu_arch/U642/Z (ND2M2S)                   0.065 *    2.990 r
  core/fu_CMUL/fu_arch/U643/Z (AOI221M2S)                0.062 *    3.052 f
  core/fu_CMUL/fu_arch/U644/Z (MAO222M1SA)               0.335 *    3.387 f
  core/fu_CMUL/fu_arch/U645/Z (MAO222M2SA)               0.298 *    3.685 f
  core/fu_CMUL/fu_arch/U646/Z (MAO222M1SA)               0.323 *    4.008 f
  core/fu_CMUL/fu_arch/U647/Z (MAO222M2SA)               0.303 *    4.312 f
  core/fu_CMUL/fu_arch/U648/Z (MAO222M1SA)               0.324 *    4.635 f
  core/fu_CMUL/fu_arch/U649/Z (MAO222M2SA)               0.297 *    4.933 f
  core/fu_CMUL/fu_arch/U650/Z (MAO222M1SA)               0.316 *    5.249 f
  core/fu_CMUL/fu_arch/U651/Z (MAO222M2SA)               0.301 *    5.549 f
  core/fu_CMUL/fu_arch/U652/Z (MAO222M1SA)               0.316 *    5.865 f
  core/fu_CMUL/fu_arch/U653/Z (MAO222M2SA)               0.298 *    6.163 f
  core/fu_CMUL/fu_arch/U654/Z (MAO222M1SA)               0.322 *    6.485 f
  core/fu_CMUL/fu_arch/U655/Z (MAO222M4SA)               0.269 *    6.754 f
  core/fu_CMUL/fu_arch/U656/Z (MAO222M4SA)               0.260 *    7.015 f
  core/fu_CMUL/fu_arch/U702/CO (ADFM2SA)                 0.230 *    7.245 f
  core/fu_CMUL/fu_arch/U747/CO (ADFM2SA)                 0.225 *    7.469 f
  core/fu_CMUL/fu_arch/U788/CO (ADFM2SA)                 0.224 *    7.694 f
  core/fu_CMUL/fu_arch/U827/CO (ADFM2SA)                 0.233 *    7.927 f
  core/fu_CMUL/fu_arch/U862/CO (ADFM2SA)                 0.233 *    8.160 f
  core/fu_CMUL/fu_arch/U895/CO (ADFM2SA)                 0.232 *    8.392 f
  core/fu_CMUL/fu_arch/U924/CO (ADFM2SA)                 0.241 *    8.633 f
  core/fu_CMUL/fu_arch/U951/CO (ADFM2SA)                 0.235 *    8.868 f
  core/fu_CMUL/fu_arch/U993/CO (ADFM2SA)                 0.228 *    9.096 f
  core/fu_CMUL/fu_arch/U996/CO (ADFM2SA)                 0.225 *    9.321 f
  core/fu_CMUL/fu_arch/U997/CO (ADFM2SA)                 0.227 *    9.547 f
  core/fu_CMUL/fu_arch/U2039/CO (ADFM2SA)                0.204 *    9.751 f
  core/fu_CMUL/fu_arch/DP_OP_25J13_122_449/R_4_clk_r_REG264_S4/D (DFSM2SA)
                                                         0.000 *    9.751 f
  data arrival time                                                 9.751

  clock clk (rise edge)                                 10.000     10.000
  clock network delay (ideal)                            0.010     10.010
  clock uncertainty                                     -0.010     10.000
  core/fu_CMUL/fu_arch/DP_OP_25J13_122_449/R_4_clk_r_REG264_S4/CK (DFSM2SA)
                                                         0.000     10.000 r
  library setup time                                    -0.041      9.959
  data required time                                                9.959
  --------------------------------------------------------------------------
  data required time                                                9.959
  data arrival time                                                -9.751
  --------------------------------------------------------------------------
  slack (MET)                                                       0.208


  Startpoint: core/inst_decoder/clk_r_REG1903_S11
              (rising edge-triggered flip-flop clocked by clk)
  Endpoint: core/fu_CMUL/fu_arch/DP_OP_26J13_123_449/clk_r_REG197_S14
            (rising edge-triggered flip-flop clocked by clk)
  Path Group: clk
  Path Type: max

  Point                                                   Incr       Path
  --------------------------------------------------------------------------
  clock clk (rise edge)                                  0.000      0.000
  clock network delay (ideal)                            0.010      0.010
  core/inst_decoder/clk_r_REG1903_S11/CK (DFQRM2SA)      0.000      0.010 r
  core/inst_decoder/clk_r_REG1903_S11/Q (DFQRM2SA)       0.562      0.572 r
  core/inst_decoder/socket_TFG_o1_bus_cntrl[0] (tta0_decoder)
                                                         0.000      0.572 r
  core/ic/socket_TFG_o1_bus_cntrl[0] (tta0_interconn)    0.000      0.572 r
  core/ic/TFG_o1/databus_cntrl[0] (tta0_output_socket_cons_1_1_BUSW_032_DATAW_032_2)
                                                         0.000      0.572 r
  core/ic/TFG_o1/U37/Z (AN2M2S)                          0.339 *    0.912 r
  core/ic/TFG_o1/databus0_alt[1] (tta0_output_socket_cons_1_1_BUSW_032_DATAW_032_2)
                                                         0.000      0.912 r
  core/ic/CMUL_i1/databus0[1] (tta0_input_socket_cons_1_BUSW_032_DATAW32_10)
                                                         0.000      0.912 r
  core/ic/CMUL_i1/U3/Z (BUFM2S)                          0.097 *    1.009 r
  core/ic/CMUL_i1/data[1] (tta0_input_socket_cons_1_BUSW_032_DATAW32_10)
                                                         0.000      1.009 r
  core/ic/socket_CMUL_i1_data[1] (tta0_interconn)        0.000      1.009 r
  U123/Z (BUFM2S)                                        0.259 *    1.268 r
  core/fu_CMUL/t1data[1] (fu_cmul_always_3_dataw32_busw32)
                                                         0.000      1.268 r
  core/fu_CMUL/fu_arch/A[1] (cmul_pipe_1_dataw32_halfw16)
                                                         0.000      1.268 r
  core/fu_CMUL/fu_arch/U14/Z (BUFM2S)                    0.352 *    1.619 r
  core/fu_CMUL/fu_arch/U15/Z (INVM2S)                    0.279 *    1.898 f
  core/fu_CMUL/fu_arch/U1198/Z (AOI22M4S)                0.406 *    2.304 r
  core/fu_CMUL/fu_arch/U1581/Z (NR2M2S)                  0.209 *    2.513 f
  core/fu_CMUL/fu_arch/U1601/S (ADHM1SA)                 0.234 *    2.746 r
  core/fu_CMUL/fu_arch/U1613/S (ADFM2SA)                 0.344 *    3.091 f
  core/fu_CMUL/fu_arch/U1619/Z (MAO222M1SA)              0.295 *    3.385 f
  core/fu_CMUL/fu_arch/U1620/Z (MAO222M1SA)              0.327 *    3.712 f
  core/fu_CMUL/fu_arch/U1621/Z (MAO222M1SA)              0.327 *    4.039 f
  core/fu_CMUL/fu_arch/U1622/Z (MAO222M1SA)              0.329 *    4.368 f
  core/fu_CMUL/fu_arch/U1623/Z (MAO222M1SA)              0.330 *    4.698 f
  core/fu_CMUL/fu_arch/U1624/Z (MAO222M1SA)              0.331 *    5.029 f
  core/fu_CMUL/fu_arch/U1625/Z (MAO222M2SA)              0.301 *    5.330 f
  core/fu_CMUL/fu_arch/U1626/Z (MAO222M2SA)              0.298 *    5.628 f
  core/fu_CMUL/fu_arch/U1627/Z (MAO222M2SA)              0.301 *    5.929 f
  core/fu_CMUL/fu_arch/U1628/Z (MAO222M1SA)              0.332 *    6.261 f
  core/fu_CMUL/fu_arch/U1629/Z (MAO222M1SA)              0.327 *    6.588 f
  core/fu_CMUL/fu_arch/U1630/Z (MAO222M2SA)              0.301 *    6.889 f
  core/fu_CMUL/fu_arch/U1631/Z (MAO222M4SA)              0.287 *    7.176 f
  core/fu_CMUL/fu_arch/U1677/CO (ADFM2SA)                0.299 *    7.475 f
  core/fu_CMUL/fu_arch/U1722/CO (ADFM2SA)                0.263 *    7.737 f
  core/fu_CMUL/fu_arch/U1763/CO (ADFM2SA)                0.235 *    7.972 f
  core/fu_CMUL/fu_arch/U1802/CO (ADFM2SA)                0.230 *    8.202 f
  core/fu_CMUL/fu_arch/U1837/CO (ADFM2SA)                0.223 *    8.425 f
  core/fu_CMUL/fu_arch/U1870/CO (ADFM2SA)                0.223 *    8.648 f
  core/fu_CMUL/fu_arch/U1899/CO (ADFM2SA)                0.223 *    8.871 f
  core/fu_CMUL/fu_arch/U1926/CO (ADFM2SA)                0.220 *    9.092 f
  core/fu_CMUL/fu_arch/U1968/CO (ADFM2SA)                0.222 *    9.313 f
  core/fu_CMUL/fu_arch/U1971/CO (ADFM2SA)                0.221 *    9.534 f
  core/fu_CMUL/fu_arch/U1972/CO (ADFM2SA)                0.200 *    9.734 f
  core/fu_CMUL/fu_arch/DP_OP_26J13_123_449/clk_r_REG197_S14/D (DFQSM1SA)
                                                         0.000 *    9.734 f
  data arrival time                                                 9.734

  clock clk (rise edge)                                 10.000     10.000
  clock network delay (ideal)                            0.010     10.010
  clock uncertainty                                     -0.010     10.000
  core/fu_CMUL/fu_arch/DP_OP_26J13_123_449/clk_r_REG197_S14/CK (DFQSM1SA)
                                                         0.000     10.000 r
  library setup time                                    -0.034      9.966
  data required time                                                9.966
  --------------------------------------------------------------------------
  data required time                                                9.966
  data arrival time                                                -9.734
  --------------------------------------------------------------------------
  slack (MET)                                                       0.232


  Startpoint: core/rf_rf_def/clk_r_REG1729_S11_IP
              (rising edge-triggered flip-flop clocked by clk)
  Endpoint: core/ic/add_o1/clk_r_REG1192_S18
            (rising edge-triggered flip-flop clocked by clk)
  Path Group: clk
  Path Type: max

  Point                                                   Incr       Path
  --------------------------------------------------------------------------
  clock clk (rise edge)                                  0.000      0.000
  clock network delay (ideal)                            0.010      0.010
  core/rf_rf_def/clk_r_REG1729_S11_IP/CK (DFERM2SA)      0.000      0.010 r
  core/rf_rf_def/clk_r_REG1729_S11_IP/QB (DFERM2SA)      0.419      0.429 r
  core/rf_rf_def/U6/Z (INVM4S)                           0.149 *    0.578 f
  core/rf_rf_def/U60/Z (AO222M2SA)                       0.425 *    1.003 f
  core/rf_rf_def/r1data[0] (rf_1wr_1rd_always_1_guarded_0_dataw32_rf_size3)
                                                         0.000      1.003 f
  core/ic/socket_rf_def_o1_data0[0] (tta0_interconn)     0.000      1.003 f
  core/ic/rf_def_o1/data0[0] (tta0_output_socket_cons_2_1_BUSW_032_BUSW_132_DATAW_032_0)
                                                         0.000      1.003 f
  core/ic/rf_def_o1/U75/Z (INVM2S)                       0.077 *    1.079 r
  core/ic/rf_def_o1/U76/Z (NR2M2S)                       0.050 *    1.130 f
  core/ic/rf_def_o1/databus0_alt[0] (tta0_output_socket_cons_2_1_BUSW_032_BUSW_132_DATAW_032_0)
                                                         0.000      1.130 f
  core/ic/U130/Z (OR3M4S)                                0.256 *    1.386 f
  core/ic/add_i2/databus0[0] (tta0_input_socket_cons_1_BUSW_032_DATAW32_5)
                                                         0.000      1.386 f
  core/ic/add_i2/U32/Z (BUFM2S)                          0.127 *    1.513 f
  core/ic/add_i2/data[0] (tta0_input_socket_cons_1_BUSW_032_DATAW32_5)
                                                         0.000      1.513 f
  core/ic/socket_add_i2_data[0] (tta0_interconn)         0.000      1.513 f
  core/fu_add/o1data[0] (fu_add_sub_always_1_dataw32_busw32)
                                                         0.000      1.513 f
  core/fu_add/U12/Z (AO22M1SA)                           0.266 *    1.779 f
  core/fu_add/fu_arch/B[0] (add_sub_arith_dataw32)       0.000      1.779 f
  core/fu_add/fu_arch/U4/Z (MAOI22M2SA)                  0.159 *    1.938 r
  core/fu_add/fu_arch/U6/CO (ADFM2SA)                    0.298 *    2.236 r
  core/fu_add/fu_arch/U8/CO (ADFM2SA)                    0.230 *    2.465 r
  core/fu_add/fu_arch/U10/CO (ADFM2SA)                   0.228 *    2.693 r
  core/fu_add/fu_arch/U12/CO (ADFM2SA)                   0.228 *    2.921 r
  core/fu_add/fu_arch/U14/CO (ADFM2SA)                   0.231 *    3.153 r
  core/fu_add/fu_arch/U16/CO (ADFM2SA)                   0.232 *    3.385 r
  core/fu_add/fu_arch/U18/CO (ADFM2SA)                   0.230 *    3.615 r
  core/fu_add/fu_arch/U20/CO (ADFM2SA)                   0.228 *    3.842 r
  core/fu_add/fu_arch/U22/CO (ADFM2SA)                   0.227 *    4.070 r
  core/fu_add/fu_arch/U24/CO (ADFM2SA)                   0.227 *    4.297 r
  core/fu_add/fu_arch/U26/CO (ADFM2SA)                   0.227 *    4.524 r
  core/fu_add/fu_arch/U28/CO (ADFM2SA)                   0.229 *    4.753 r
  core/fu_add/fu_arch/U30/CO (ADFM2SA)                   0.228 *    4.981 r
  core/fu_add/fu_arch/U32/CO (ADFM2SA)                   0.230 *    5.211 r
  core/fu_add/fu_arch/U34/CO (ADFM2SA)                   0.232 *    5.443 r
  core/fu_add/fu_arch/U36/CO (ADFM2SA)                   0.231 *    5.674 r
  core/fu_add/fu_arch/U38/CO (ADFM2SA)                   0.230 *    5.905 r
  core/fu_add/fu_arch/U40/CO (ADFM2SA)                   0.230 *    6.135 r
  core/fu_add/fu_arch/U42/CO (ADFM2SA)                   0.230 *    6.365 r
  core/fu_add/fu_arch/U44/CO (ADFM2SA)                   0.227 *    6.592 r
  core/fu_add/fu_arch/U46/CO (ADFM2SA)                   0.222 *    6.814 r
  core/fu_add/fu_arch/U48/CO (ADFM1SA)                   0.261 *    7.075 r
  core/fu_add/fu_arch/U50/CO (ADFM1SA)                   0.270 *    7.345 r
  core/fu_add/fu_arch/U52/CO (ADFM1SA)                   0.267 *    7.612 r
  core/fu_add/fu_arch/U54/CO (ADFM1SA)                   0.269 *    7.881 r
  core/fu_add/fu_arch/U56/CO (ADFM1SA)                   0.270 *    8.151 r
  core/fu_add/fu_arch/U58/CO (ADFM1SA)                   0.269 *    8.420 r
  core/fu_add/fu_arch/U60/CO (ADFM1SA)                   0.270 *    8.690 r
  core/fu_add/fu_arch/U62/CO (ADFM1SA)                   0.269 *    8.959 r
  core/fu_add/fu_arch/U64/CO (ADFM1SA)                   0.268 *    9.227 r
  core/fu_add/fu_arch/U66/S (ADFM1SA)                    0.388 *    9.614 f
  core/fu_add/fu_arch/S[30] (add_sub_arith_dataw32)      0.000      9.614 f
  core/fu_add/r1data[30] (fu_add_sub_always_1_dataw32_busw32)
                                                         0.000      9.614 f
  core/ic/socket_add_o1_data0[30] (tta0_interconn)       0.000      9.614 f
  core/ic/add_o1/data0[30] (tta0_output_socket_cons_3_1_BUSW_032_BUSW_132_BUSW_232_DATAW_032_1)
                                                         0.000      9.614 f
  core/ic/add_o1/U19/Z (INVM2S)                          0.062 *    9.677 r
  core/ic/add_o1/clk_r_REG1192_S18/D (DFQSM1SA)          0.000 *    9.677 r
  data arrival time                                                 9.677

  clock clk (rise edge)                                 10.000     10.000
  clock network delay (ideal)                            0.010     10.010
  clock uncertainty                                     -0.010     10.000
  core/ic/add_o1/clk_r_REG1192_S18/CK (DFQSM1SA)         0.000     10.000 r
  library setup time                                    -0.083      9.917
  data required time                                                9.917
  --------------------------------------------------------------------------
  data required time                                                9.917
  data arrival time                                                -9.677
  --------------------------------------------------------------------------
  slack (MET)                                                       0.240


  Startpoint: core/inst_decoder/clk_r_REG1903_S11
              (rising edge-triggered flip-flop clocked by clk)
  Endpoint: core/fu_CMUL/fu_arch/DP_OP_25J13_122_449/clk_r_REG266_S4
            (rising edge-triggered flip-flop clocked by clk)
  Path Group: clk
  Path Type: max

  Point                                                   Incr       Path
  --------------------------------------------------------------------------
  clock clk (rise edge)                                  0.000      0.000
  clock network delay (ideal)                            0.010      0.010
  core/inst_decoder/clk_r_REG1903_S11/CK (DFQRM2SA)      0.000      0.010 r
  core/inst_decoder/clk_r_REG1903_S11/Q (DFQRM2SA)       0.562      0.572 r
  core/inst_decoder/socket_TFG_o1_bus_cntrl[0] (tta0_decoder)
                                                         0.000      0.572 r
  core/fu_CMUL/t1load (fu_cmul_always_3_dataw32_busw32)
                                                         0.000      0.572 r
  core/fu_CMUL/U3/Z (INVM2S)                             0.306 *    0.879 f
  core/fu_CMUL/U5/Z (NR2M6S)                             0.390 *    1.269 r
  core/fu_CMUL/U43/Z (AO22M2S)                           0.609 *    1.878 r
  core/fu_CMUL/fu_arch/B[16] (cmul_pipe_1_dataw32_halfw16)
                                                         0.000      1.878 r
  core/fu_CMUL/fu_arch/U141/Z (BUFM6S)                   0.332 *    2.210 r
  core/fu_CMUL/fu_arch/U636/Z (AO32M2SA)                 0.342 *    2.551 r
  core/fu_CMUL/fu_arch/U641/S (ADFM2SA)                  0.374 *    2.925 f
  core/fu_CMUL/fu_arch/U642/Z (ND2M2S)                   0.065 *    2.990 r
  core/fu_CMUL/fu_arch/U643/Z (AOI221M2S)                0.062 *    3.052 f
  core/fu_CMUL/fu_arch/U644/Z (MAO222M1SA)               0.335 *    3.387 f
  core/fu_CMUL/fu_arch/U645/Z (MAO222M2SA)               0.298 *    3.685 f
  core/fu_CMUL/fu_arch/U646/Z (MAO222M1SA)               0.323 *    4.008 f
  core/fu_CMUL/fu_arch/U647/Z (MAO222M2SA)               0.303 *    4.312 f
  core/fu_CMUL/fu_arch/U648/Z (MAO222M1SA)               0.324 *    4.635 f
  core/fu_CMUL/fu_arch/U649/Z (MAO222M2SA)               0.297 *    4.933 f
  core/fu_CMUL/fu_arch/U650/Z (MAO222M1SA)               0.316 *    5.249 f
  core/fu_CMUL/fu_arch/U651/Z (MAO222M2SA)               0.301 *    5.549 f
  core/fu_CMUL/fu_arch/U652/Z (MAO222M1SA)               0.316 *    5.865 f
  core/fu_CMUL/fu_arch/U653/Z (MAO222M2SA)               0.298 *    6.163 f
  core/fu_CMUL/fu_arch/U654/Z (MAO222M1SA)               0.322 *    6.485 f
  core/fu_CMUL/fu_arch/U655/Z (MAO222M4SA)               0.269 *    6.754 f
  core/fu_CMUL/fu_arch/U656/Z (MAO222M4SA)               0.260 *    7.015 f
  core/fu_CMUL/fu_arch/U702/CO (ADFM2SA)                 0.230 *    7.245 f
  core/fu_CMUL/fu_arch/U747/CO (ADFM2SA)                 0.225 *    7.469 f
  core/fu_CMUL/fu_arch/U788/CO (ADFM2SA)                 0.224 *    7.694 f
  core/fu_CMUL/fu_arch/U827/CO (ADFM2SA)                 0.233 *    7.927 f
  core/fu_CMUL/fu_arch/U862/CO (ADFM2SA)                 0.233 *    8.160 f
  core/fu_CMUL/fu_arch/U895/CO (ADFM2SA)                 0.232 *    8.392 f
  core/fu_CMUL/fu_arch/U924/CO (ADFM2SA)                 0.241 *    8.633 f
  core/fu_CMUL/fu_arch/U951/CO (ADFM2SA)                 0.235 *    8.868 f
  core/fu_CMUL/fu_arch/U993/CO (ADFM2SA)                 0.228 *    9.096 f
  core/fu_CMUL/fu_arch/U996/CO (ADFM2SA)                 0.225 *    9.321 f
  core/fu_CMUL/fu_arch/U997/S (ADFM2SA)                  0.332 *    9.653 r
  core/fu_CMUL/fu_arch/DP_OP_25J13_122_449/clk_r_REG266_S4/D (DFQRM2SA)
                                                         0.000 *    9.653 r
  data arrival time                                                 9.653

  clock clk (rise edge)                                 10.000     10.000
  clock network delay (ideal)                            0.010     10.010
  clock uncertainty                                     -0.010     10.000
  core/fu_CMUL/fu_arch/DP_OP_25J13_122_449/clk_r_REG266_S4/CK (DFQRM2SA)
                                                         0.000     10.000 r
  library setup time                                    -0.079      9.921
  data required time                                                9.921
  --------------------------------------------------------------------------
  data required time                                                9.921
  data arrival time                                                -9.653
  --------------------------------------------------------------------------
  slack (MET)                                                       0.268


  Startpoint: core/fu_AG/fu_arch/clk_r_REG136_S4
              (rising edge-triggered flip-flop clocked by clk)
  Endpoint: core/ic/AG_o1/clk_r_REG1305_S13
            (rising edge-triggered flip-flop clocked by clk)
  Path Group: clk
  Path Type: max

  Point                                                   Incr       Path
  --------------------------------------------------------------------------
  clock clk (rise edge)                                  0.000      0.000
  clock network delay (ideal)                            0.010      0.010
  core/fu_AG/fu_arch/clk_r_REG136_S4/CK (DFQRM2SA)       0.000      0.010 r
  core/fu_AG/fu_arch/clk_r_REG136_S4/Q (DFQRM2SA)        0.471      0.481 f
  core/fu_AG/fu_arch/u0/nexp_i[0] (idx_stage_split_dataw32_nexpw4_stagew3_idxw16_0)
                                                         0.000      0.481 f
  core/fu_AG/fu_arch/u0/U13/Z (ND2M2S)                   0.221 *    0.701 r
  core/fu_AG/fu_arch/u0/U19/Z (INVM2S)                   0.130 *    0.832 f
  core/fu_AG/fu_arch/u0/U30/Z (AOI222M1SA)               0.281 *    1.112 r
  core/fu_AG/fu_arch/u0/U31/Z (OAI22M2S)                 0.224 *    1.337 f
  core/fu_AG/fu_arch/u0/U35/Z (OAI32M2S)                 0.228 *    1.565 r
  core/fu_AG/fu_arch/u0/U39/Z (AOI32M2S)                 0.292 *    1.857 f
  core/fu_AG/fu_arch/u0/stage_o[0] (idx_stage_split_dataw32_nexpw4_stagew3_idxw16_0)
                                                         0.000      1.857 f
  core/fu_AG/fu_arch/U15/Z (ND2M2S)                      0.182 *    2.039 r
  core/fu_AG/fu_arch/U16/Z (OAI21M4S)                    0.208 *    2.247 f
  core/fu_AG/fu_arch/U22/Z (INVM2S)                      0.303 *    2.550 r
  core/fu_AG/fu_arch/U25/Z (ND2M2S)                      0.351 *    2.901 f
  core/fu_AG/fu_arch/U29/Z (INVM2S)                      0.317 *    3.218 r
  core/fu_AG/fu_arch/U91/Z (AOI222M1SA)                  0.273 *    3.491 f
  core/fu_AG/fu_arch/U92/Z (INVM2S)                      0.129 *    3.619 r
  core/fu_AG/fu_arch/U96/Z (AOI22M2S)                    0.143 *    3.762 f
  core/fu_AG/fu_arch/U100/Z (INVM2S)                     0.114 *    3.876 r
  core/fu_AG/fu_arch/U111/Z (OAI222M2SA)                 0.192 *    4.068 f
  core/fu_AG/fu_arch/U158/Z (AOI221M2S)                  0.321 *    4.389 r
  core/fu_AG/fu_arch/U173/Z (AOI222M1SA)                 0.343 *    4.732 f
  core/fu_AG/fu_arch/U199/Z (NR2M2S)                     0.231 *    4.963 r
  core/fu_AG/fu_arch/U200/Z (INVM2S)                     0.113 *    5.076 f
  core/fu_AG/fu_arch/U254/CO (ADFM2SA)                   0.232 *    5.308 f
  core/fu_AG/fu_arch/U251/CO (ADFM2SA)                   0.223 *    5.531 f
  core/fu_AG/fu_arch/U248/CO (ADFM2SA)                   0.221 *    5.752 f
  core/fu_AG/fu_arch/U242/S (ADFM2SA)                    0.333 *    6.085 r
  core/fu_AG/fu_arch/U243/Z (AOI211M2S)                  0.071 *    6.156 f
  core/fu_AG/fu_arch/U247/Z (AOI32M2S)                   0.213 *    6.369 r
  core/fu_AG/fu_arch/U281/CO (ADFM2SA)                   0.302 *    6.671 r
  core/fu_AG/fu_arch/U282/CO (ADFM2SA)                   0.227 *    6.898 r
  core/fu_AG/fu_arch/U283/CO (ADFM2SA)                   0.227 *    7.125 r
  core/fu_AG/fu_arch/U284/CO (ADFM2SA)                   0.226 *    7.351 r
  core/fu_AG/fu_arch/U285/CO (ADFM2SA)                   0.227 *    7.577 r
  core/fu_AG/fu_arch/U286/CO (ADFM2SA)                   0.224 *    7.801 r
  core/fu_AG/fu_arch/U287/CO (ADFM1SA)                   0.260 *    8.061 r
  core/fu_AG/fu_arch/U288/CO (ADFM1SA)                   0.272 *    8.333 r
  core/fu_AG/fu_arch/U289/CO (ADFM1SA)                   0.275 *    8.608 r
  core/fu_AG/fu_arch/U290/CO (ADFM1SA)                   0.317 *    8.925 r
  core/fu_AG/fu_arch/U273/CO (ADHM1SA)                   0.201 *    9.127 r
  core/fu_AG/fu_arch/U272/CO (ADHM1SA)                   0.163 *    9.290 r
  core/fu_AG/fu_arch/U271/CO (ADHM1SA)                   0.159 *    9.449 r
  core/fu_AG/fu_arch/U270/S (ADHM1SA)                    0.152 *    9.601 f
  core/fu_AG/fu_arch/addr_o[19] (ag_arith_dataw32_nexpw4_idxw16_stagew3_mau_shift2)
                                                         0.000      9.601 f
  core/fu_AG/r1data[19] (fu_ag_always_2_dataw32_busw32_nexpw4)
                                                         0.000      9.601 f
  core/ic/socket_AG_o1_data0[19] (tta0_interconn)        0.000      9.601 f
  core/ic/AG_o1/data0[19] (tta0_output_socket_cons_2_1_BUSW_032_BUSW_132_DATAW_032_1)
                                                         0.000      9.601 f
  core/ic/AG_o1/U41/Z (INVM2S)                           0.050 *    9.651 r
  core/ic/AG_o1/clk_r_REG1305_S13/D (DFQSM1SA)           0.000 *    9.651 r
  data arrival time                                                 9.651

  clock clk (rise edge)                                 10.000     10.000
  clock network delay (ideal)                            0.010     10.010
  clock uncertainty                                     -0.010     10.000
  core/ic/AG_o1/clk_r_REG1305_S13/CK (DFQSM1SA)          0.000     10.000 r
  library setup time                                    -0.081      9.919
  data required time                                                9.919
  --------------------------------------------------------------------------
  data required time                                                9.919
  data arrival time                                                -9.651
  --------------------------------------------------------------------------
  slack (MET)                                                       0.268


1
