Warning: There are 92 switching activity information conflicts. (PWR-19)
 
****************************************
Report : saif
Design : proc
Version: M-2016.12-SP5-1
Date   : Sat Jul 28 06:59:04 2018
****************************************

  

--------------------------------------------------------------------------------
              User              Default           Propagated
Object type   Annotated (%)     Activity (%)      Activity (%)       Total
--------------------------------------------------------------------------------
  
 Nets         237(60.77%)       0(0.00%)          153(39.23%)        390
 Ports        229(100.00%)      0(0.00%)          0(0.00%)           229
 Pins         210(35.59%)       0(0.00%)          380(64.41%)        590
--------------------------------------------------------------------------------
1
