Warning: There are 93 switching activity information conflicts. (PWR-19)
 
****************************************
Report : saif
Design : proc
Version: M-2016.12-SP5-1
Date   : Sun Jul 29 03:14:29 2018
****************************************

  

--------------------------------------------------------------------------------
              User              Default           Propagated
Object type   Annotated (%)     Activity (%)      Activity (%)       Total
--------------------------------------------------------------------------------
  
 Nets         275(59.27%)       0(0.00%)          189(40.73%)        464
 Ports        229(100.00%)      0(0.00%)          0(0.00%)           229
 Pins         234(34.56%)       0(0.00%)          443(65.44%)        677
--------------------------------------------------------------------------------
1
