********************************************************************************
                        Threshold Voltage Group Report                         

Vth Group                All                Blackbox           Non-blackbox
Name                    cells                cells                cells
********************************************************************************
undefined           19296 (100.00%)        119 (100.00%)      19177 (100.00%)   
********************************************************************************

Vth Group                All                Blackbox           Non-blackbox
Name                  cell area            cell area            cell area
********************************************************************************
undefined       112144.85 (100.00%)   96350.13 (100.00%)   15794.71 (100.00%)   
********************************************************************************
1
