Warning: There are 90 switching activity information conflicts. (PWR-19)
 
****************************************
Report : saif
Design : proc
Version: M-2016.12-SP5-1
Date   : Fri Jul 27 22:05:52 2018
****************************************

  

--------------------------------------------------------------------------------
              User              Default           Propagated
Object type   Annotated (%)     Activity (%)      Activity (%)       Total
--------------------------------------------------------------------------------
  
 Nets         287(64.93%)       0(0.00%)          155(35.07%)        442
 Ports        229(100.00%)      0(0.00%)          0(0.00%)           229
 Pins         256(36.52%)       0(0.00%)          445(63.48%)        701
--------------------------------------------------------------------------------
1
