Information: Updating design information... (UID-85)
 
****************************************
Report : timing
        -path full
        -delay max
        -max_paths 10
Design : proc
Version: M-2016.12-SP5-1
Date   : Fri Jul 27 22:05:40 2018
****************************************

 * Some/all delay information is back-annotated.

Operating Conditions: tt28_0.60V_0.00V_0.00V_0.00V_25C   Library: C28SOI_SC_8_CLK_LL
Wire Load Model Mode: Inactive.

  Startpoint: core/rf_rf_def/clk_r_REG1850_S29
              (rising edge-triggered flip-flop clocked by clk)
  Endpoint: core/ic/add_o1/clk_r_REG241_S24
            (rising edge-triggered flip-flop clocked by clk)
  Path Group: clk
  Path Type: max

  Point                                                   Incr       Path
  --------------------------------------------------------------------------
  clock clk (rise edge)                                  0.000      0.000
  clock network delay (ideal)                            0.010      0.010
  core/rf_rf_def/clk_r_REG1850_S29/CP (C8T28SOIDV_LL_DFPRQX19_P16)
                                                         0.000      0.010 r
  core/rf_rf_def/clk_r_REG1850_S29/Q (C8T28SOIDV_LL_DFPRQX19_P16)
                                                         0.444      0.454 f
  core/rf_rf_def/U14/Z (C8T28SOIDV_LL_NOR2AX19_P16)      0.381 *    0.835 r
  core/rf_rf_def/U18/Z (C8T28SOI_LL_AO222X5_P16)         0.387 *    1.221 r
  core/rf_rf_def/r1data[0] (rf_1wr_1rd_always_1_guarded_0_dataw32_rf_size3)
                                                         0.000      1.221 r
  core/ic/socket_rf_def_o1_data0[0] (tta0_interconn)     0.000      1.221 r
  core/ic/rf_def_o1/data0[0] (tta0_output_socket_cons_2_1_BUSW_032_BUSW_132_DATAW_032_0)
                                                         0.000      1.221 r
  core/ic/rf_def_o1/U34/Z (C8T28SOI_LL_AND2X5_P16)       0.146 *    1.368 r
  core/ic/rf_def_o1/databus0_alt[0] (tta0_output_socket_cons_2_1_BUSW_032_BUSW_132_DATAW_032_0)
                                                         0.000      1.368 r
  core/ic/U145/Z (C8T28SOI_LL_OR3X10_P16)                0.104 *    1.472 r
  core/ic/add_i2/databus0[0] (tta0_input_socket_cons_1_BUSW_032_DATAW32_5)
                                                         0.000      1.472 r
  core/ic/add_i2/U32/Z (C8T28SOI_LL_BFX5_P16)            0.116 *    1.587 r
  core/ic/add_i2/data[0] (tta0_input_socket_cons_1_BUSW_032_DATAW32_5)
                                                         0.000      1.587 r
  core/ic/socket_add_i2_data[0] (tta0_interconn)         0.000      1.587 r
  core/fu_add/o1data[0] (fu_add_sub_always_1_dataw32_busw32)
                                                         0.000      1.587 r
  core/fu_add/U10/Z (C8T28SOI_LL_AOI22X2_P16)            0.080 *    1.668 f
  core/fu_add/U11/Z (C8T28SOI_LL_IVX5_P16)               0.118 *    1.785 r
  core/fu_add/fu_arch/B[0] (add_sub_arith_dataw32)       0.000      1.785 r
  core/fu_add/fu_arch/U5/Z (C8T28SOI_LL_MUXI21X2_P16)    0.089 *    1.875 f
  core/fu_add/fu_arch/U62/CO (C8T28SOIDV_LL_FA1X5_P16)
                                                         0.297 *    2.171 f
  core/fu_add/fu_arch/U24/CO (C8T28SOIDV_LL_FA1X5_P16)
                                                         0.255 *    2.427 f
  core/fu_add/fu_arch/U61/CO (C8T28SOIDV_LL_FA1X5_P16)
                                                         0.251 *    2.678 f
  core/fu_add/fu_arch/U31/CO (C8T28SOIDV_LL_FA1X5_P16)
                                                         0.251 *    2.929 f
  core/fu_add/fu_arch/U60/CO (C8T28SOIDV_LL_FA1X5_P16)
                                                         0.250 *    3.179 f
  core/fu_add/fu_arch/U30/CO (C8T28SOIDV_LL_FA1X5_P16)
                                                         0.250 *    3.430 f
  core/fu_add/fu_arch/U59/CO (C8T28SOIDV_LL_FA1X5_P16)
                                                         0.250 *    3.679 f
  core/fu_add/fu_arch/U32/CO (C8T28SOIDV_LL_FA1X5_P16)
                                                         0.248 *    3.928 f
  core/fu_add/fu_arch/U58/CO (C8T28SOIDV_LL_FA1X5_P16)
                                                         0.251 *    4.178 f
  core/fu_add/fu_arch/U29/CO (C8T28SOIDV_LL_FA1X5_P16)
                                                         0.253 *    4.432 f
  core/fu_add/fu_arch/U57/CO (C8T28SOIDV_LL_FA1X5_P16)
                                                         0.254 *    4.686 f
  core/fu_add/fu_arch/U28/CO (C8T28SOIDV_LL_FA1X5_P16)
                                                         0.252 *    4.937 f
  core/fu_add/fu_arch/U56/CO (C8T28SOIDV_LL_FA1X5_P16)
                                                         0.249 *    5.186 f
  core/fu_add/fu_arch/U27/CO (C8T28SOIDV_LL_FA1X5_P16)
                                                         0.248 *    5.434 f
  core/fu_add/fu_arch/U55/CO (C8T28SOIDV_LL_FA1X5_P16)
                                                         0.252 *    5.686 f
  core/fu_add/fu_arch/U26/CO (C8T28SOIDV_LL_FA1X5_P16)
                                                         0.252 *    5.938 f
  core/fu_add/fu_arch/U54/CO (C8T28SOIDV_LL_FA1X5_P16)
                                                         0.253 *    6.191 f
  core/fu_add/fu_arch/U25/CO (C8T28SOIDV_LL_FA1X5_P16)
                                                         0.250 *    6.441 f
  core/fu_add/fu_arch/U53/CO (C8T28SOIDV_LL_FA1X5_P16)
                                                         0.249 *    6.690 f
  core/fu_add/fu_arch/U35/CO (C8T28SOIDV_LL_FA1X5_P16)
                                                         0.254 *    6.944 f
  core/fu_add/fu_arch/U52/CO (C8T28SOIDV_LL_FA1X5_P16)
                                                         0.252 *    7.196 f
  core/fu_add/fu_arch/U41/CO (C8T28SOIDV_LL_FA1X5_P16)
                                                         0.250 *    7.446 f
  core/fu_add/fu_arch/U51/CO (C8T28SOIDV_LL_FA1X5_P16)
                                                         0.249 *    7.695 f
  core/fu_add/fu_arch/U50/CO (C8T28SOIDV_LL_FA1X5_P16)
                                                         0.249 *    7.943 f
  core/fu_add/fu_arch/U42/CO (C8T28SOIDV_LLS1_FA1X4_P16)
                                                         0.160 *    8.103 f
  core/fu_add/fu_arch/U49/CO (C8T28SOIDV_LL_FA1X5_P16)
                                                         0.253 *    8.356 f
  core/fu_add/fu_arch/U45/CO (C8T28SOIDV_LLS1_FA1X4_P16)
                                                         0.160 *    8.517 f
  core/fu_add/fu_arch/U48/CO (C8T28SOIDV_LL_FA1X5_P16)
                                                         0.254 *    8.771 f
  core/fu_add/fu_arch/U47/CO (C8T28SOIDV_LLS1_FA1X4_P16)
                                                         0.161 *    8.932 f
  core/fu_add/fu_arch/U64/CO (C8T28SOIDV_LL_FA1X5_P16)
                                                         0.254 *    9.186 f
  core/fu_add/fu_arch/U66/CO (C8T28SOIDV_LLS1_FA1X4_P16)
                                                         0.154 *    9.340 f
  core/fu_add/fu_arch/U67/Z (C8T28SOIDV_LLS_XNOR2X4_P16)
                                                         0.116 *    9.456 r
  core/fu_add/fu_arch/U68/Z (C8T28SOI_LL_NAND2X4_P16)    0.074 *    9.530 f
  core/fu_add/fu_arch/U69/Z (C8T28SOI_LL_OAI12X3_P16)    0.076 *    9.605 r
  core/fu_add/fu_arch/S[31] (add_sub_arith_dataw32)      0.000      9.605 r
  core/fu_add/r1data[31] (fu_add_sub_always_1_dataw32_busw32)
                                                         0.000      9.605 r
  core/ic/socket_add_o1_data0[31] (tta0_interconn)       0.000      9.605 r
  core/ic/add_o1/data0[31] (tta0_output_socket_cons_3_1_BUSW_032_BUSW_132_BUSW_232_DATAW_032_1)
                                                         0.000      9.605 r
  core/ic/add_o1/U1/Z (C8T28SOI_LL_IVX5_P16)             0.063 *    9.669 f
  core/ic/add_o1/clk_r_REG241_S24/D (C8T28SOIDV_LL_DFPSQX10_P16)
                                                         0.000 *    9.669 f
  data arrival time                                                 9.669

  clock clk (rise edge)                                 10.000     10.000
  clock network delay (ideal)                            0.010     10.010
  clock uncertainty                                     -0.010     10.000
  core/ic/add_o1/clk_r_REG241_S24/CP (C8T28SOIDV_LL_DFPSQX10_P16)
                                                         0.000     10.000 r
  library setup time                                    -0.148      9.852
  data required time                                                9.852
  --------------------------------------------------------------------------
  data required time                                                9.852
  data arrival time                                                -9.669
  --------------------------------------------------------------------------
  slack (MET)                                                       0.183


  Startpoint: core/inst_decoder/clk_r_REG1921_S29
              (rising edge-triggered flip-flop clocked by clk)
  Endpoint: core/fu_CMUL/fu_arch/DP_OP_25J13_122_449/clk_r_REG540_S14
            (rising edge-triggered flip-flop clocked by clk)
  Path Group: clk
  Path Type: max

  Point                                                   Incr       Path
  --------------------------------------------------------------------------
  clock clk (rise edge)                                  0.000      0.000
  clock network delay (ideal)                            0.010      0.010
  core/inst_decoder/clk_r_REG1921_S29/CP (C8T28SOIDV_LL_DFPRQX19_P16)
                                                         0.000      0.010 r
  core/inst_decoder/clk_r_REG1921_S29/Q (C8T28SOIDV_LL_DFPRQX19_P16)
                                                         0.405      0.415 r
  core/inst_decoder/socket_TFG_o1_bus_cntrl[0] (tta0_decoder)
                                                         0.000      0.415 r
  core/ic/socket_TFG_o1_bus_cntrl[0] (tta0_interconn)    0.000      0.415 r
  core/ic/TFG_o1/databus_cntrl[0] (tta0_output_socket_cons_1_1_BUSW_032_DATAW_032_2)
                                                         0.000      0.415 r
  core/ic/TFG_o1/U21/Z (C8T28SOI_LL_AND2X5_P16)          0.225 *    0.639 r
  core/ic/TFG_o1/databus0_alt[25] (tta0_output_socket_cons_1_1_BUSW_032_DATAW_032_2)
                                                         0.000      0.639 r
  core/ic/CMUL_i1/databus0[25] (tta0_input_socket_cons_1_BUSW_032_DATAW32_10)
                                                         0.000      0.639 r
  core/ic/CMUL_i1/U13/Z (C8T28SOI_LL_BFX5_P16)           0.092 *    0.732 r
  core/ic/CMUL_i1/data[25] (tta0_input_socket_cons_1_BUSW_032_DATAW32_10)
                                                         0.000      0.732 r
  core/ic/socket_CMUL_i1_data[25] (tta0_interconn)       0.000      0.732 r
  U278/Z (C8T28SOI_LL_BFX5_P16)                          0.405 *    1.137 r
  core/fu_CMUL/t1data[25] (fu_cmul_always_3_dataw32_busw32)
                                                         0.000      1.137 r
  core/fu_CMUL/fu_arch/A[25] (cmul_pipe_1_dataw32_halfw16)
                                                         0.000      1.137 r
  core/fu_CMUL/fu_arch/U47/Z (C8T28SOI_LL_BFX5_P16)      0.614 *    1.750 r
  core/fu_CMUL/fu_arch/U48/Z (C8T28SOI_LL_IVX3_P16)      0.475 *    2.225 f
  core/fu_CMUL/fu_arch/U145/Z (C8T28SOI_LL_AOI22X2_P16)
                                                         0.920 *    3.145 r
  core/fu_CMUL/fu_arch/U151/Z (C8T28SOI_LL_OAI211X3_P16)
                                                         0.880 *    4.025 f
  core/fu_CMUL/fu_arch/U343/Z (C8T28SOI_LL_OAI22X3_P16)
                                                         0.479 *    4.504 r
  core/fu_CMUL/fu_arch/U516/CO (C8T28SOIDV_LL_FA1X5_P16)
                                                         0.349 *    4.853 r
  core/fu_CMUL/fu_arch/U514/S0 (C8T28SOIDV_LL_FA1X5_P16)
                                                         0.311 *    5.164 f
  core/fu_CMUL/fu_arch/U557/S0 (C8T28SOIDV_LL_FA1X5_P16)
                                                         0.258 *    5.422 f
  core/fu_CMUL/fu_arch/U585/S0 (C8T28SOIDV_LL_FA1X5_P16)
                                                         0.343 *    5.765 r
  core/fu_CMUL/fu_arch/U586/S0 (C8T28SOIDV_LL_FA1X5_P16)
                                                         0.278 *    6.042 f
  core/fu_CMUL/fu_arch/U725/Z (C8T28SOI_LL_PAO2X5_P10)
                                                         0.199 *    6.242 f
  core/fu_CMUL/fu_arch/U726/Z (C8T28SOI_LL_PAO2X5_P10)
                                                         0.170 *    6.412 f
  core/fu_CMUL/fu_arch/U727/Z (C8T28SOI_LL_PAO2X5_P10)
                                                         0.188 *    6.599 f
  core/fu_CMUL/fu_arch/U1014/CO (C8T28SOIDV_LLS1_FA1X4_P16)
                                                         0.161 *    6.760 f
  core/fu_CMUL/fu_arch/U2046/CO (C8T28SOIDV_LLS1_FA1X4_P16)
                                                         0.181 *    6.941 f
  core/fu_CMUL/fu_arch/U807/CO (C8T28SOIDV_LLS1_FA1X4_P16)
                                                         0.185 *    7.126 f
  core/fu_CMUL/fu_arch/U2045/CO (C8T28SOIDV_LLS1_FA1X4_P16)
                                                         0.184 *    7.310 f
  core/fu_CMUL/fu_arch/U902/CO (C8T28SOIDV_LLS1_FA1X4_P16)
                                                         0.182 *    7.492 f
  core/fu_CMUL/fu_arch/U2051/CO (C8T28SOIDV_LLS1_FA1X4_P16)
                                                         0.175 *    7.666 f
  core/fu_CMUL/fu_arch/U2050/CO (C8T28SOIDV_LLS1_FA1X4_P16)
                                                         0.170 *    7.837 f
  core/fu_CMUL/fu_arch/U987/CO (C8T28SOIDV_LLS1_FA1X4_P16)
                                                         0.166 *    8.003 f
  core/fu_CMUL/fu_arch/U2049/CO (C8T28SOIDV_LLS1_FA1X4_P16)
                                                         0.168 *    8.171 f
  core/fu_CMUL/fu_arch/U1013/CO (C8T28SOIDV_LLS1_FA1X4_P16)
                                                         0.168 *    8.339 f
  core/fu_CMUL/fu_arch/U2048/CO (C8T28SOIDV_LLS1_FA1X4_P16)
                                                         0.168 *    8.507 f
  core/fu_CMUL/fu_arch/U1012/CO (C8T28SOIDV_LLS1_FA1X4_P16)
                                                         0.171 *    8.678 f
  core/fu_CMUL/fu_arch/U2047/CO (C8T28SOIDV_LLS1_FA1X4_P16)
                                                         0.168 *    8.846 f
  core/fu_CMUL/fu_arch/U2039/CO (C8T28SOIDV_LLS1_FA1X4_P16)
                                                         0.171 *    9.017 f
  core/fu_CMUL/fu_arch/U2044/CO (C8T28SOIDV_LLS1_FA1X4_P16)
                                                         0.169 *    9.186 f
  core/fu_CMUL/fu_arch/U2042/CO (C8T28SOIDV_LLS1_FA1X4_P16)
                                                         0.167 *    9.353 f
  core/fu_CMUL/fu_arch/U2043/S0 (C8T28SOIDV_LLS1_FA1X4_P16)
                                                         0.216 *    9.568 f
  core/fu_CMUL/fu_arch/DP_OP_25J13_122_449/clk_r_REG540_S14/D (C8T28SOIDV_LL_DFPRQX10_P16)
                                                         0.000 *    9.568 f
  data arrival time                                                 9.568

  clock clk (rise edge)                                 10.000     10.000
  clock network delay (ideal)                            0.010     10.010
  clock uncertainty                                     -0.010     10.000
  core/fu_CMUL/fu_arch/DP_OP_25J13_122_449/clk_r_REG540_S14/CP (C8T28SOIDV_LL_DFPRQX10_P16)
                                                         0.000     10.000 r
  library setup time                                    -0.151      9.849
  data required time                                                9.849
  --------------------------------------------------------------------------
  data required time                                                9.849
  data arrival time                                                -9.568
  --------------------------------------------------------------------------
  slack (MET)                                                       0.281


  Startpoint: core/inst_decoder/clk_r_REG1921_S29
              (rising edge-triggered flip-flop clocked by clk)
  Endpoint: core/fu_CMUL/fu_arch/DP_OP_25J13_122_449/clk_r_REG539_S14
            (rising edge-triggered flip-flop clocked by clk)
  Path Group: clk
  Path Type: max

  Point                                                   Incr       Path
  --------------------------------------------------------------------------
  clock clk (rise edge)                                  0.000      0.000
  clock network delay (ideal)                            0.010      0.010
  core/inst_decoder/clk_r_REG1921_S29/CP (C8T28SOIDV_LL_DFPRQX19_P16)
                                                         0.000      0.010 r
  core/inst_decoder/clk_r_REG1921_S29/Q (C8T28SOIDV_LL_DFPRQX19_P16)
                                                         0.405      0.415 r
  core/inst_decoder/socket_TFG_o1_bus_cntrl[0] (tta0_decoder)
                                                         0.000      0.415 r
  core/ic/socket_TFG_o1_bus_cntrl[0] (tta0_interconn)    0.000      0.415 r
  core/ic/TFG_o1/databus_cntrl[0] (tta0_output_socket_cons_1_1_BUSW_032_DATAW_032_2)
                                                         0.000      0.415 r
  core/ic/TFG_o1/U21/Z (C8T28SOI_LL_AND2X5_P16)          0.225 *    0.639 r
  core/ic/TFG_o1/databus0_alt[25] (tta0_output_socket_cons_1_1_BUSW_032_DATAW_032_2)
                                                         0.000      0.639 r
  core/ic/CMUL_i1/databus0[25] (tta0_input_socket_cons_1_BUSW_032_DATAW32_10)
                                                         0.000      0.639 r
  core/ic/CMUL_i1/U13/Z (C8T28SOI_LL_BFX5_P16)           0.092 *    0.732 r
  core/ic/CMUL_i1/data[25] (tta0_input_socket_cons_1_BUSW_032_DATAW32_10)
                                                         0.000      0.732 r
  core/ic/socket_CMUL_i1_data[25] (tta0_interconn)       0.000      0.732 r
  U278/Z (C8T28SOI_LL_BFX5_P16)                          0.405 *    1.137 r
  core/fu_CMUL/t1data[25] (fu_cmul_always_3_dataw32_busw32)
                                                         0.000      1.137 r
  core/fu_CMUL/fu_arch/A[25] (cmul_pipe_1_dataw32_halfw16)
                                                         0.000      1.137 r
  core/fu_CMUL/fu_arch/U47/Z (C8T28SOI_LL_BFX5_P16)      0.614 *    1.750 r
  core/fu_CMUL/fu_arch/U48/Z (C8T28SOI_LL_IVX3_P16)      0.475 *    2.225 f
  core/fu_CMUL/fu_arch/U145/Z (C8T28SOI_LL_AOI22X2_P16)
                                                         0.920 *    3.145 r
  core/fu_CMUL/fu_arch/U151/Z (C8T28SOI_LL_OAI211X3_P16)
                                                         0.880 *    4.025 f
  core/fu_CMUL/fu_arch/U343/Z (C8T28SOI_LL_OAI22X3_P16)
                                                         0.479 *    4.504 r
  core/fu_CMUL/fu_arch/U516/CO (C8T28SOIDV_LL_FA1X5_P16)
                                                         0.349 *    4.853 r
  core/fu_CMUL/fu_arch/U514/S0 (C8T28SOIDV_LL_FA1X5_P16)
                                                         0.311 *    5.164 f
  core/fu_CMUL/fu_arch/U557/S0 (C8T28SOIDV_LL_FA1X5_P16)
                                                         0.258 *    5.422 f
  core/fu_CMUL/fu_arch/U585/S0 (C8T28SOIDV_LL_FA1X5_P16)
                                                         0.343 *    5.765 r
  core/fu_CMUL/fu_arch/U586/S0 (C8T28SOIDV_LL_FA1X5_P16)
                                                         0.278 *    6.042 f
  core/fu_CMUL/fu_arch/U725/Z (C8T28SOI_LL_PAO2X5_P10)
                                                         0.199 *    6.242 f
  core/fu_CMUL/fu_arch/U726/Z (C8T28SOI_LL_PAO2X5_P10)
                                                         0.170 *    6.412 f
  core/fu_CMUL/fu_arch/U727/Z (C8T28SOI_LL_PAO2X5_P10)
                                                         0.188 *    6.599 f
  core/fu_CMUL/fu_arch/U1014/CO (C8T28SOIDV_LLS1_FA1X4_P16)
                                                         0.161 *    6.760 f
  core/fu_CMUL/fu_arch/U2046/CO (C8T28SOIDV_LLS1_FA1X4_P16)
                                                         0.181 *    6.941 f
  core/fu_CMUL/fu_arch/U807/CO (C8T28SOIDV_LLS1_FA1X4_P16)
                                                         0.185 *    7.126 f
  core/fu_CMUL/fu_arch/U2045/CO (C8T28SOIDV_LLS1_FA1X4_P16)
                                                         0.184 *    7.310 f
  core/fu_CMUL/fu_arch/U902/CO (C8T28SOIDV_LLS1_FA1X4_P16)
                                                         0.182 *    7.492 f
  core/fu_CMUL/fu_arch/U2051/CO (C8T28SOIDV_LLS1_FA1X4_P16)
                                                         0.175 *    7.666 f
  core/fu_CMUL/fu_arch/U2050/CO (C8T28SOIDV_LLS1_FA1X4_P16)
                                                         0.170 *    7.837 f
  core/fu_CMUL/fu_arch/U987/CO (C8T28SOIDV_LLS1_FA1X4_P16)
                                                         0.166 *    8.003 f
  core/fu_CMUL/fu_arch/U2049/CO (C8T28SOIDV_LLS1_FA1X4_P16)
                                                         0.168 *    8.171 f
  core/fu_CMUL/fu_arch/U1013/CO (C8T28SOIDV_LLS1_FA1X4_P16)
                                                         0.168 *    8.339 f
  core/fu_CMUL/fu_arch/U2048/CO (C8T28SOIDV_LLS1_FA1X4_P16)
                                                         0.168 *    8.507 f
  core/fu_CMUL/fu_arch/U1012/CO (C8T28SOIDV_LLS1_FA1X4_P16)
                                                         0.171 *    8.678 f
  core/fu_CMUL/fu_arch/U2047/CO (C8T28SOIDV_LLS1_FA1X4_P16)
                                                         0.168 *    8.846 f
  core/fu_CMUL/fu_arch/U2039/CO (C8T28SOIDV_LLS1_FA1X4_P16)
                                                         0.171 *    9.017 f
  core/fu_CMUL/fu_arch/U2044/CO (C8T28SOIDV_LLS1_FA1X4_P16)
                                                         0.169 *    9.186 f
  core/fu_CMUL/fu_arch/U2042/CO (C8T28SOIDV_LLS1_FA1X4_P16)
                                                         0.167 *    9.353 f
  core/fu_CMUL/fu_arch/U2043/CO (C8T28SOIDV_LLS1_FA1X4_P16)
                                                         0.153 *    9.505 f
  core/fu_CMUL/fu_arch/DP_OP_25J13_122_449/clk_r_REG539_S14/D (C8T28SOIDV_LL_DFPSQX10_P16)
                                                         0.000 *    9.505 f
  data arrival time                                                 9.505

  clock clk (rise edge)                                 10.000     10.000
  clock network delay (ideal)                            0.010     10.010
  clock uncertainty                                     -0.010     10.000
  core/fu_CMUL/fu_arch/DP_OP_25J13_122_449/clk_r_REG539_S14/CP (C8T28SOIDV_LL_DFPSQX10_P16)
                                                         0.000     10.000 r
  library setup time                                    -0.161      9.839
  data required time                                                9.839
  --------------------------------------------------------------------------
  data required time                                                9.839
  data arrival time                                                -9.505
  --------------------------------------------------------------------------
  slack (MET)                                                       0.333


  Startpoint: core/loopbuffer/clk_r_REG245_S27
              (rising edge-triggered flip-flop clocked by clk)
  Endpoint: core/loopbuffer/clk_r_REG314_S29
            (rising edge-triggered flip-flop clocked by clk)
  Path Group: clk
  Path Type: max

  Point                                                   Incr       Path
  --------------------------------------------------------------------------
  clock clk (rise edge)                                  0.000      0.000
  clock network delay (ideal)                            0.010      0.010
  core/loopbuffer/clk_r_REG245_S27/CP (C8T28SOIDV_LL_DFPRQX10_P16)
                                                         0.000      0.010 r
  core/loopbuffer/clk_r_REG245_S27/Q (C8T28SOIDV_LL_DFPRQX10_P16)
                                                         0.361      0.371 r
  core/loopbuffer/U15/Z (C8T28SOI_LL_BFX5_P16)           0.320 *    0.691 r
  core/loopbuffer/U16/Z (C8T28SOI_LL_IVX3_P16)           0.266 *    0.957 f
  core/loopbuffer/U89/Z (C8T28SOI_LL_AOI22X2_P16)        0.230 *    1.187 r
  core/loopbuffer/U468/Z (C8T28SOI_LL_IVX3_P16)          0.141 *    1.328 f
  core/loopbuffer/U472/Z (C8T28SOI_LL_NOR3X3_P16)        0.219 *    1.547 r
  core/loopbuffer/U473/Z (C8T28SOI_LL_NOR2AX4_P16)       0.286 *    1.833 r
  core/loopbuffer/U475/Z (C8T28SOI_LL_NOR2AX4_P16)       0.251 *    2.084 r
  core/loopbuffer/U478/Z (C8T28SOI_LL_NOR2AX4_P16)       0.255 *    2.339 r
  core/loopbuffer/U481/Z (C8T28SOI_LL_NOR2AX4_P16)       0.257 *    2.597 r
  core/loopbuffer/U482/Z (C8T28SOI_LL_NOR2AX4_P16)       0.253 *    2.850 r
  core/loopbuffer/U485/Z (C8T28SOI_LL_NOR2AX4_P16)       0.251 *    3.101 r
  core/loopbuffer/U486/Z (C8T28SOI_LL_NOR2AX4_P16)       0.249 *    3.351 r
  core/loopbuffer/U488/Z (C8T28SOI_LL_NOR2AX4_P16)       0.250 *    3.601 r
  core/loopbuffer/U489/Z (C8T28SOI_LL_NOR2AX4_P16)       0.250 *    3.851 r
  core/loopbuffer/U490/Z (C8T28SOI_LL_NOR2AX4_P16)       0.252 *    4.103 r
  core/loopbuffer/U491/Z (C8T28SOI_LL_NOR2AX4_P16)       0.250 *    4.353 r
  core/loopbuffer/U492/Z (C8T28SOI_LL_NOR2AX4_P16)       0.254 *    4.607 r
  core/loopbuffer/U494/Z (C8T28SOI_LL_NOR2AX4_P16)       0.253 *    4.860 r
  core/loopbuffer/U496/Z (C8T28SOI_LL_NOR2AX4_P16)       0.251 *    5.111 r
  core/loopbuffer/U498/Z (C8T28SOI_LL_NOR2AX4_P16)       0.255 *    5.365 r
  core/loopbuffer/U499/Z (C8T28SOI_LL_NOR2AX4_P16)       0.258 *    5.623 r
  core/loopbuffer/U501/Z (C8T28SOI_LL_NOR2AX4_P16)       0.257 *    5.880 r
  core/loopbuffer/U502/Z (C8T28SOI_LL_NOR2AX4_P16)       0.252 *    6.132 r
  core/loopbuffer/U503/Z (C8T28SOI_LL_NOR2AX4_P16)       0.281 *    6.412 r
  core/loopbuffer/U505/Z (C8T28SOI_LL_NOR2AX4_P16)       0.277 *    6.689 r
  core/loopbuffer/U506/Z (C8T28SOI_LL_NOR2AX4_P16)       0.249 *    6.938 r
  core/loopbuffer/U507/Z (C8T28SOI_LL_NOR2AX4_P16)       0.250 *    7.188 r
  core/loopbuffer/U509/Z (C8T28SOI_LL_NOR2AX4_P16)       0.251 *    7.439 r
  core/loopbuffer/U510/Z (C8T28SOI_LL_NOR2AX4_P16)       0.250 *    7.689 r
  core/loopbuffer/U511/Z (C8T28SOI_LL_NOR2AX4_P16)       0.239 *    7.928 r
  core/loopbuffer/U560/Z (C8T28SOI_LL_OAI22X3_P16)       0.120 *    8.048 f
  core/loopbuffer/U561/Z (C8T28SOI_LL_AO212X5_P16)       0.367 *    8.415 f
  core/loopbuffer/U587/Z (C8T28SOI_LL_AOI112X3_P16)      0.174 *    8.589 r
  core/loopbuffer/U588/Z (C8T28SOI_LL_OAI12X3_P16)       0.106 *    8.695 f
  core/loopbuffer/U590/Z (C8T28SOI_LL_AOI112X3_P16)      0.168 *    8.863 r
  core/loopbuffer/U17/Z (C8T28SOI_LL_OAI211X3_P16)       0.145 *    9.008 f
  core/loopbuffer/U593/Z (C8T28SOI_LL_CBI4I6X3_P16)      0.215 *    9.223 r
  core/loopbuffer/U594/Z (C8T28SOI_LL_IVX3_P16)          0.101 *    9.324 f
  core/loopbuffer/U595/Z (C8T28SOI_LL_AOI22X2_P16)       0.095 *    9.419 r
  core/loopbuffer/U596/Z (C8T28SOI_LL_IVX3_P16)          0.079 *    9.498 f
  core/loopbuffer/clk_r_REG314_S29/D (C8T28SOIDV_LL_DFPRQX10_P16)
                                                         0.000 *    9.498 f
  data arrival time                                                 9.498

  clock clk (rise edge)                                 10.000     10.000
  clock network delay (ideal)                            0.010     10.010
  clock uncertainty                                     -0.010     10.000
  core/loopbuffer/clk_r_REG314_S29/CP (C8T28SOIDV_LL_DFPRQX10_P16)
                                                         0.000     10.000 r
  library setup time                                    -0.148      9.852
  data required time                                                9.852
  --------------------------------------------------------------------------
  data required time                                                9.852
  data arrival time                                                -9.498
  --------------------------------------------------------------------------
  slack (MET)                                                       0.353


  Startpoint: datamem/scheduler/addr_a_conv/clk_r_REG2136_S1
              (rising edge-triggered flip-flop clocked by clk)
  Endpoint: datamem/dmem_1/cacti_mem_0/mem_32x32
            (rising edge-triggered flip-flop clocked by clk)
  Path Group: clk
  Path Type: max

  Point                                                   Incr       Path
  --------------------------------------------------------------------------
  clock clk (rise edge)                                  0.000      0.000
  clock network delay (ideal)                            0.010      0.010
  datamem/scheduler/addr_a_conv/clk_r_REG2136_S1/CP (C8T28SOIDV_LL_DFPRQX10_P16)
                                                         0.000      0.010 r
  datamem/scheduler/addr_a_conv/clk_r_REG2136_S1/Q (C8T28SOIDV_LL_DFPRQX10_P16)
                                                         0.279      0.289 r
  datamem/scheduler/addr_a_conv/en_out[1]_BAR (ser_par_conv_portw14_port_cnt2_1)
                                                         0.000      0.289 r
  datamem/scheduler/U2/Z (C8T28SOI_LL_NAND2AX4_P16)      0.729 *    1.019 r
  datamem/scheduler/U26/Z (C8T28SOI_LL_BFX5_P16)         0.712 *    1.730 r
  datamem/scheduler/U27/Z (C8T28SOI_LL_IVX3_P16)         0.279 *    2.009 f
  datamem/scheduler/U199/Z (C8T28SOI_LL_AOI22X2_P16)     0.257 *    2.266 r
  datamem/scheduler/U200/Z (C8T28SOI_LL_IVX3_P16)        0.110 *    2.377 f
  datamem/scheduler/addr[17] (par_mem_scheduler_dataw32_addrw14_ports2_rd_delay1)
                                                         0.000      2.377 f
  datamem/par_mem_logic_inst/addrs_from_lsus[17] (par_mem_logic_PORTS2_LSU_ADDRW14_CTRLW1_DATAW32_PM_FUNC2)
                                                         0.000      2.377 f
  datamem/par_mem_logic_inst/addr_crsbar_0/addrs_from_lsus[17] (addr_crsbar_PORTS2_LSU_ADDRW14_CTRLW1_PM_FUNC2)
                                                         0.000      2.377 f
  datamem/par_mem_logic_inst/addr_crsbar_0/U74/Z (C8T28SOI_LL_AOI22X2_P16)
                                                         0.367 *    2.743 r
  datamem/par_mem_logic_inst/addr_crsbar_0/U76/Z (C8T28SOIDV_LLS_XNOR2X4_P16)
                                                         0.350 *    3.093 r
  datamem/par_mem_logic_inst/addr_crsbar_0/U77/Z (C8T28SOI_LL_NAND2X2_P16)
                                                         0.106 *    3.199 f
  datamem/par_mem_logic_inst/addr_crsbar_0/U78/Z (C8T28SOI_LL_OAI12X3_P16)
                                                         0.127 *    3.326 r
  datamem/par_mem_logic_inst/addr_crsbar_0/U79/Z (C8T28SOIDV_LLS_XOR2X4_P16)
                                                         0.202 *    3.528 r
  datamem/par_mem_logic_inst/addr_crsbar_0/U80/Z (C8T28SOIDV_LLS_XNOR2X4_P16)
                                                         0.178 *    3.706 r
  datamem/par_mem_logic_inst/addr_crsbar_0/U81/Z (C8T28SOI_LL_NAND2X2_P16)
                                                         0.102 *    3.809 f
  datamem/par_mem_logic_inst/addr_crsbar_0/U82/Z (C8T28SOI_LL_OAI12X3_P16)
                                                         0.133 *    3.941 r
  datamem/par_mem_logic_inst/addr_crsbar_0/U83/Z (C8T28SOIDV_LLS_XNOR2X4_P16)
                                                         0.194 *    4.135 r
  datamem/par_mem_logic_inst/addr_crsbar_0/U84/Z (C8T28SOI_LL_NAND2X2_P16)
                                                         0.153 *    4.289 f
  datamem/par_mem_logic_inst/addr_crsbar_0/U85/Z (C8T28SOI_LL_OAI12X3_P16)
                                                         0.159 *    4.448 r
  datamem/par_mem_logic_inst/addr_crsbar_0/U86/Z (C8T28SOIDV_LLS_XNOR2X4_P16)
                                                         0.196 *    4.644 r
  datamem/par_mem_logic_inst/addr_crsbar_0/U87/Z (C8T28SOI_LL_NAND2X2_P16)
                                                         0.123 *    4.766 f
  datamem/par_mem_logic_inst/addr_crsbar_0/U88/Z (C8T28SOI_LL_OAI12X3_P16)
                                                         0.157 *    4.924 r
  datamem/par_mem_logic_inst/addr_crsbar_0/module_nums[1] (addr_crsbar_PORTS2_LSU_ADDRW14_CTRLW1_PM_FUNC2)
                                                         0.000      4.924 r
  datamem/par_mem_logic_inst/ctrl_units_0/module_nums[1] (ctrl_units_PORTS2_CTRLW1)
                                                         0.000      4.924 r
  datamem/par_mem_logic_inst/ctrl_units_0/ctrl_uniti_1/module_num[0] (ctrl_unit_PORTS2_CTRLW1_0)
                                                         0.000      4.924 r
  datamem/par_mem_logic_inst/ctrl_units_0/ctrl_uniti_1/U2/Z (C8T28SOI_LL_IVX3_P16)
                                                         0.149 *    5.072 f
  datamem/par_mem_logic_inst/ctrl_units_0/ctrl_uniti_1/U3/Z (C8T28SOI_LL_NOR3X3_P16)
                                                         0.988 *    6.060 r
  datamem/par_mem_logic_inst/ctrl_units_0/ctrl_uniti_1/addr_mux_ctrl[0] (ctrl_unit_PORTS2_CTRLW1_0)
                                                         0.000      6.060 r
  datamem/par_mem_logic_inst/ctrl_units_0/addr_mux_ctrls[1] (ctrl_units_PORTS2_CTRLW1)
                                                         0.000      6.060 r
  datamem/par_mem_logic_inst/addr_crsbar_0/ctrl[1] (addr_crsbar_PORTS2_LSU_ADDRW14_CTRLW1_PM_FUNC2)
                                                         0.000      6.060 r
  datamem/par_mem_logic_inst/addr_crsbar_0/U27/Z (C8T28SOI_LL_IVX5_P16)
                                                         0.970 *    7.031 f
  datamem/par_mem_logic_inst/addr_crsbar_0/U9/Z (C8T28SOI_LL_AOI22X2_P16)
                                                         0.479 *    7.510 r
  datamem/par_mem_logic_inst/addr_crsbar_0/mem_wr_xs[1] (addr_crsbar_PORTS2_LSU_ADDRW14_CTRLW1_PM_FUNC2)
                                                         0.000      7.510 r
  datamem/par_mem_logic_inst/ctrl_units_0/mem_wr_xs[1] (ctrl_units_PORTS2_CTRLW1)
                                                         0.000      7.510 r
  datamem/par_mem_logic_inst/ctrl_units_0/ctrl_uniti_1/mem_wr_x (ctrl_unit_PORTS2_CTRLW1_0)
                                                         0.000      7.510 r
  datamem/par_mem_logic_inst/ctrl_units_0/ctrl_uniti_1/U19/Z (C8T28SOI_LL_NOR2X4_P16)
                                                         0.224 *    7.735 f
  datamem/par_mem_logic_inst/ctrl_units_0/ctrl_uniti_1/wr_mux_ctrl[0] (ctrl_unit_PORTS2_CTRLW1_0)
                                                         0.000      7.735 f
  datamem/par_mem_logic_inst/ctrl_units_0/wr_mux_ctrls[1] (ctrl_units_PORTS2_CTRLW1)
                                                         0.000      7.735 f
  datamem/par_mem_logic_inst/wr_crsbar_0/ctrl[1] (wr_crsbar_PORTS2_DATAW32_CTRLW1)
                                                         0.000      7.735 f
  datamem/par_mem_logic_inst/wr_crsbar_0/U129/Z (C8T28SOI_LL_NOR2X4_P16)
                                                         0.797 *    8.531 r
  datamem/par_mem_logic_inst/wr_crsbar_0/U168/Z (C8T28SOI_LL_AOI22X2_P16)
                                                         0.561 *    9.092 f
  datamem/par_mem_logic_inst/wr_crsbar_0/U169/Z (C8T28SOI_LL_NAND2X4_P16)
                                                         0.502 *    9.594 r
  datamem/par_mem_logic_inst/wr_crsbar_0/st_data_to_mems[59] (wr_crsbar_PORTS2_DATAW32_CTRLW1)
                                                         0.000      9.594 r
  datamem/par_mem_logic_inst/st_data_to_mems[59] (par_mem_logic_PORTS2_LSU_ADDRW14_CTRLW1_DATAW32_PM_FUNC2)
                                                         0.000      9.594 r
  datamem/dmem_1/d[27] (synch_singleport_mem_wrapper_DATAW32_ADDRW13_1)
                                                         0.000      9.594 r
  datamem/dmem_1/cacti_mem_0/d[27] (cacti_mem_wrapper_DATAW32_ADDRW5_3)
                                                         0.000      9.594 r
  datamem/dmem_1/cacti_mem_0/mem_32x32/wr_data[27] (ram_32x32)
                                                         0.002 *    9.596 r
  data arrival time                                                 9.596

  clock clk (rise edge)                                 10.000     10.000
  clock network delay (ideal)                            0.010     10.010
  clock uncertainty                                     -0.010     10.000
  datamem/dmem_1/cacti_mem_0/mem_32x32/clk (ram_32x32)
                                                         0.000     10.000 r
  library setup time                                    -0.033      9.967
  data required time                                                9.967
  --------------------------------------------------------------------------
  data required time                                                9.967
  data arrival time                                                -9.596
  --------------------------------------------------------------------------
  slack (MET)                                                       0.371


  Startpoint: datamem/scheduler/addr_a_conv/clk_r_REG2136_S1
              (rising edge-triggered flip-flop clocked by clk)
  Endpoint: datamem/dmem_1/cacti_mem_x_2/mem_64x32
            (rising edge-triggered flip-flop clocked by clk)
  Path Group: clk
  Path Type: max

  Point                                                   Incr       Path
  --------------------------------------------------------------------------
  clock clk (rise edge)                                  0.000      0.000
  clock network delay (ideal)                            0.010      0.010
  datamem/scheduler/addr_a_conv/clk_r_REG2136_S1/CP (C8T28SOIDV_LL_DFPRQX10_P16)
                                                         0.000      0.010 r
  datamem/scheduler/addr_a_conv/clk_r_REG2136_S1/Q (C8T28SOIDV_LL_DFPRQX10_P16)
                                                         0.279      0.289 r
  datamem/scheduler/addr_a_conv/en_out[1]_BAR (ser_par_conv_portw14_port_cnt2_1)
                                                         0.000      0.289 r
  datamem/scheduler/U2/Z (C8T28SOI_LL_NAND2AX4_P16)      0.729 *    1.019 r
  datamem/scheduler/U26/Z (C8T28SOI_LL_BFX5_P16)         0.712 *    1.730 r
  datamem/scheduler/U27/Z (C8T28SOI_LL_IVX3_P16)         0.279 *    2.009 f
  datamem/scheduler/U199/Z (C8T28SOI_LL_AOI22X2_P16)     0.257 *    2.266 r
  datamem/scheduler/U200/Z (C8T28SOI_LL_IVX3_P16)        0.110 *    2.377 f
  datamem/scheduler/addr[17] (par_mem_scheduler_dataw32_addrw14_ports2_rd_delay1)
                                                         0.000      2.377 f
  datamem/par_mem_logic_inst/addrs_from_lsus[17] (par_mem_logic_PORTS2_LSU_ADDRW14_CTRLW1_DATAW32_PM_FUNC2)
                                                         0.000      2.377 f
  datamem/par_mem_logic_inst/addr_crsbar_0/addrs_from_lsus[17] (addr_crsbar_PORTS2_LSU_ADDRW14_CTRLW1_PM_FUNC2)
                                                         0.000      2.377 f
  datamem/par_mem_logic_inst/addr_crsbar_0/U74/Z (C8T28SOI_LL_AOI22X2_P16)
                                                         0.367 *    2.743 r
  datamem/par_mem_logic_inst/addr_crsbar_0/U76/Z (C8T28SOIDV_LLS_XNOR2X4_P16)
                                                         0.350 *    3.093 r
  datamem/par_mem_logic_inst/addr_crsbar_0/U77/Z (C8T28SOI_LL_NAND2X2_P16)
                                                         0.106 *    3.199 f
  datamem/par_mem_logic_inst/addr_crsbar_0/U78/Z (C8T28SOI_LL_OAI12X3_P16)
                                                         0.127 *    3.326 r
  datamem/par_mem_logic_inst/addr_crsbar_0/U79/Z (C8T28SOIDV_LLS_XOR2X4_P16)
                                                         0.202 *    3.528 r
  datamem/par_mem_logic_inst/addr_crsbar_0/U80/Z (C8T28SOIDV_LLS_XNOR2X4_P16)
                                                         0.178 *    3.706 r
  datamem/par_mem_logic_inst/addr_crsbar_0/U81/Z (C8T28SOI_LL_NAND2X2_P16)
                                                         0.102 *    3.809 f
  datamem/par_mem_logic_inst/addr_crsbar_0/U82/Z (C8T28SOI_LL_OAI12X3_P16)
                                                         0.133 *    3.941 r
  datamem/par_mem_logic_inst/addr_crsbar_0/U83/Z (C8T28SOIDV_LLS_XNOR2X4_P16)
                                                         0.194 *    4.135 r
  datamem/par_mem_logic_inst/addr_crsbar_0/U84/Z (C8T28SOI_LL_NAND2X2_P16)
                                                         0.153 *    4.289 f
  datamem/par_mem_logic_inst/addr_crsbar_0/U85/Z (C8T28SOI_LL_OAI12X3_P16)
                                                         0.159 *    4.448 r
  datamem/par_mem_logic_inst/addr_crsbar_0/U86/Z (C8T28SOIDV_LLS_XNOR2X4_P16)
                                                         0.196 *    4.644 r
  datamem/par_mem_logic_inst/addr_crsbar_0/U87/Z (C8T28SOI_LL_NAND2X2_P16)
                                                         0.123 *    4.766 f
  datamem/par_mem_logic_inst/addr_crsbar_0/U88/Z (C8T28SOI_LL_OAI12X3_P16)
                                                         0.157 *    4.924 r
  datamem/par_mem_logic_inst/addr_crsbar_0/module_nums[1] (addr_crsbar_PORTS2_LSU_ADDRW14_CTRLW1_PM_FUNC2)
                                                         0.000      4.924 r
  datamem/par_mem_logic_inst/ctrl_units_0/module_nums[1] (ctrl_units_PORTS2_CTRLW1)
                                                         0.000      4.924 r
  datamem/par_mem_logic_inst/ctrl_units_0/ctrl_uniti_1/module_num[0] (ctrl_unit_PORTS2_CTRLW1_0)
                                                         0.000      4.924 r
  datamem/par_mem_logic_inst/ctrl_units_0/ctrl_uniti_1/U2/Z (C8T28SOI_LL_IVX3_P16)
                                                         0.149 *    5.072 f
  datamem/par_mem_logic_inst/ctrl_units_0/ctrl_uniti_1/U3/Z (C8T28SOI_LL_NOR3X3_P16)
                                                         0.988 *    6.060 r
  datamem/par_mem_logic_inst/ctrl_units_0/ctrl_uniti_1/addr_mux_ctrl[0] (ctrl_unit_PORTS2_CTRLW1_0)
                                                         0.000      6.060 r
  datamem/par_mem_logic_inst/ctrl_units_0/addr_mux_ctrls[1] (ctrl_units_PORTS2_CTRLW1)
                                                         0.000      6.060 r
  datamem/par_mem_logic_inst/addr_crsbar_0/ctrl[1] (addr_crsbar_PORTS2_LSU_ADDRW14_CTRLW1_PM_FUNC2)
                                                         0.000      6.060 r
  datamem/par_mem_logic_inst/addr_crsbar_0/U27/Z (C8T28SOI_LL_IVX5_P16)
                                                         0.970 *    7.031 f
  datamem/par_mem_logic_inst/addr_crsbar_0/U9/Z (C8T28SOI_LL_AOI22X2_P16)
                                                         0.479 *    7.510 r
  datamem/par_mem_logic_inst/addr_crsbar_0/mem_wr_xs[1] (addr_crsbar_PORTS2_LSU_ADDRW14_CTRLW1_PM_FUNC2)
                                                         0.000      7.510 r
  datamem/par_mem_logic_inst/ctrl_units_0/mem_wr_xs[1] (ctrl_units_PORTS2_CTRLW1)
                                                         0.000      7.510 r
  datamem/par_mem_logic_inst/ctrl_units_0/ctrl_uniti_1/mem_wr_x (ctrl_unit_PORTS2_CTRLW1_0)
                                                         0.000      7.510 r
  datamem/par_mem_logic_inst/ctrl_units_0/ctrl_uniti_1/U19/Z (C8T28SOI_LL_NOR2X4_P16)
                                                         0.224 *    7.735 f
  datamem/par_mem_logic_inst/ctrl_units_0/ctrl_uniti_1/wr_mux_ctrl[0] (ctrl_unit_PORTS2_CTRLW1_0)
                                                         0.000      7.735 f
  datamem/par_mem_logic_inst/ctrl_units_0/wr_mux_ctrls[1] (ctrl_units_PORTS2_CTRLW1)
                                                         0.000      7.735 f
  datamem/par_mem_logic_inst/wr_crsbar_0/ctrl[1] (wr_crsbar_PORTS2_DATAW32_CTRLW1)
                                                         0.000      7.735 f
  datamem/par_mem_logic_inst/wr_crsbar_0/U129/Z (C8T28SOI_LL_NOR2X4_P16)
                                                         0.797 *    8.531 r
  datamem/par_mem_logic_inst/wr_crsbar_0/U168/Z (C8T28SOI_LL_AOI22X2_P16)
                                                         0.561 *    9.092 f
  datamem/par_mem_logic_inst/wr_crsbar_0/U169/Z (C8T28SOI_LL_NAND2X4_P16)
                                                         0.502 *    9.594 r
  datamem/par_mem_logic_inst/wr_crsbar_0/st_data_to_mems[59] (wr_crsbar_PORTS2_DATAW32_CTRLW1)
                                                         0.000      9.594 r
  datamem/par_mem_logic_inst/st_data_to_mems[59] (par_mem_logic_PORTS2_LSU_ADDRW14_CTRLW1_DATAW32_PM_FUNC2)
                                                         0.000      9.594 r
  datamem/dmem_1/d[27] (synch_singleport_mem_wrapper_DATAW32_ADDRW13_1)
                                                         0.000      9.594 r
  datamem/dmem_1/cacti_mem_x_2/d[27] (cacti_mem_wrapper_DATAW32_ADDRW6_1)
                                                         0.000      9.594 r
  datamem/dmem_1/cacti_mem_x_2/mem_64x32/wr_data[27] (ram_64x32)
                                                         0.002 *    9.596 r
  data arrival time                                                 9.596

  clock clk (rise edge)                                 10.000     10.000
  clock network delay (ideal)                            0.010     10.010
  clock uncertainty                                     -0.010     10.000
  datamem/dmem_1/cacti_mem_x_2/mem_64x32/clk (ram_64x32)
                                                         0.000     10.000 r
  library setup time                                    -0.033      9.967
  data required time                                                9.967
  --------------------------------------------------------------------------
  data required time                                                9.967
  data arrival time                                                -9.596
  --------------------------------------------------------------------------
  slack (MET)                                                       0.371


  Startpoint: datamem/scheduler/addr_a_conv/clk_r_REG2136_S1
              (rising edge-triggered flip-flop clocked by clk)
  Endpoint: datamem/dmem_1/cacti_mem_x_3/mem_128x32
            (rising edge-triggered flip-flop clocked by clk)
  Path Group: clk
  Path Type: max

  Point                                                   Incr       Path
  --------------------------------------------------------------------------
  clock clk (rise edge)                                  0.000      0.000
  clock network delay (ideal)                            0.010      0.010
  datamem/scheduler/addr_a_conv/clk_r_REG2136_S1/CP (C8T28SOIDV_LL_DFPRQX10_P16)
                                                         0.000      0.010 r
  datamem/scheduler/addr_a_conv/clk_r_REG2136_S1/Q (C8T28SOIDV_LL_DFPRQX10_P16)
                                                         0.279      0.289 r
  datamem/scheduler/addr_a_conv/en_out[1]_BAR (ser_par_conv_portw14_port_cnt2_1)
                                                         0.000      0.289 r
  datamem/scheduler/U2/Z (C8T28SOI_LL_NAND2AX4_P16)      0.729 *    1.019 r
  datamem/scheduler/U26/Z (C8T28SOI_LL_BFX5_P16)         0.712 *    1.730 r
  datamem/scheduler/U27/Z (C8T28SOI_LL_IVX3_P16)         0.279 *    2.009 f
  datamem/scheduler/U199/Z (C8T28SOI_LL_AOI22X2_P16)     0.257 *    2.266 r
  datamem/scheduler/U200/Z (C8T28SOI_LL_IVX3_P16)        0.110 *    2.377 f
  datamem/scheduler/addr[17] (par_mem_scheduler_dataw32_addrw14_ports2_rd_delay1)
                                                         0.000      2.377 f
  datamem/par_mem_logic_inst/addrs_from_lsus[17] (par_mem_logic_PORTS2_LSU_ADDRW14_CTRLW1_DATAW32_PM_FUNC2)
                                                         0.000      2.377 f
  datamem/par_mem_logic_inst/addr_crsbar_0/addrs_from_lsus[17] (addr_crsbar_PORTS2_LSU_ADDRW14_CTRLW1_PM_FUNC2)
                                                         0.000      2.377 f
  datamem/par_mem_logic_inst/addr_crsbar_0/U74/Z (C8T28SOI_LL_AOI22X2_P16)
                                                         0.367 *    2.743 r
  datamem/par_mem_logic_inst/addr_crsbar_0/U76/Z (C8T28SOIDV_LLS_XNOR2X4_P16)
                                                         0.350 *    3.093 r
  datamem/par_mem_logic_inst/addr_crsbar_0/U77/Z (C8T28SOI_LL_NAND2X2_P16)
                                                         0.106 *    3.199 f
  datamem/par_mem_logic_inst/addr_crsbar_0/U78/Z (C8T28SOI_LL_OAI12X3_P16)
                                                         0.127 *    3.326 r
  datamem/par_mem_logic_inst/addr_crsbar_0/U79/Z (C8T28SOIDV_LLS_XOR2X4_P16)
                                                         0.202 *    3.528 r
  datamem/par_mem_logic_inst/addr_crsbar_0/U80/Z (C8T28SOIDV_LLS_XNOR2X4_P16)
                                                         0.178 *    3.706 r
  datamem/par_mem_logic_inst/addr_crsbar_0/U81/Z (C8T28SOI_LL_NAND2X2_P16)
                                                         0.102 *    3.809 f
  datamem/par_mem_logic_inst/addr_crsbar_0/U82/Z (C8T28SOI_LL_OAI12X3_P16)
                                                         0.133 *    3.941 r
  datamem/par_mem_logic_inst/addr_crsbar_0/U83/Z (C8T28SOIDV_LLS_XNOR2X4_P16)
                                                         0.194 *    4.135 r
  datamem/par_mem_logic_inst/addr_crsbar_0/U84/Z (C8T28SOI_LL_NAND2X2_P16)
                                                         0.153 *    4.289 f
  datamem/par_mem_logic_inst/addr_crsbar_0/U85/Z (C8T28SOI_LL_OAI12X3_P16)
                                                         0.159 *    4.448 r
  datamem/par_mem_logic_inst/addr_crsbar_0/U86/Z (C8T28SOIDV_LLS_XNOR2X4_P16)
                                                         0.196 *    4.644 r
  datamem/par_mem_logic_inst/addr_crsbar_0/U87/Z (C8T28SOI_LL_NAND2X2_P16)
                                                         0.123 *    4.766 f
  datamem/par_mem_logic_inst/addr_crsbar_0/U88/Z (C8T28SOI_LL_OAI12X3_P16)
                                                         0.157 *    4.924 r
  datamem/par_mem_logic_inst/addr_crsbar_0/module_nums[1] (addr_crsbar_PORTS2_LSU_ADDRW14_CTRLW1_PM_FUNC2)
                                                         0.000      4.924 r
  datamem/par_mem_logic_inst/ctrl_units_0/module_nums[1] (ctrl_units_PORTS2_CTRLW1)
                                                         0.000      4.924 r
  datamem/par_mem_logic_inst/ctrl_units_0/ctrl_uniti_1/module_num[0] (ctrl_unit_PORTS2_CTRLW1_0)
                                                         0.000      4.924 r
  datamem/par_mem_logic_inst/ctrl_units_0/ctrl_uniti_1/U2/Z (C8T28SOI_LL_IVX3_P16)
                                                         0.149 *    5.072 f
  datamem/par_mem_logic_inst/ctrl_units_0/ctrl_uniti_1/U3/Z (C8T28SOI_LL_NOR3X3_P16)
                                                         0.988 *    6.060 r
  datamem/par_mem_logic_inst/ctrl_units_0/ctrl_uniti_1/addr_mux_ctrl[0] (ctrl_unit_PORTS2_CTRLW1_0)
                                                         0.000      6.060 r
  datamem/par_mem_logic_inst/ctrl_units_0/addr_mux_ctrls[1] (ctrl_units_PORTS2_CTRLW1)
                                                         0.000      6.060 r
  datamem/par_mem_logic_inst/addr_crsbar_0/ctrl[1] (addr_crsbar_PORTS2_LSU_ADDRW14_CTRLW1_PM_FUNC2)
                                                         0.000      6.060 r
  datamem/par_mem_logic_inst/addr_crsbar_0/U27/Z (C8T28SOI_LL_IVX5_P16)
                                                         0.970 *    7.031 f
  datamem/par_mem_logic_inst/addr_crsbar_0/U9/Z (C8T28SOI_LL_AOI22X2_P16)
                                                         0.479 *    7.510 r
  datamem/par_mem_logic_inst/addr_crsbar_0/mem_wr_xs[1] (addr_crsbar_PORTS2_LSU_ADDRW14_CTRLW1_PM_FUNC2)
                                                         0.000      7.510 r
  datamem/par_mem_logic_inst/ctrl_units_0/mem_wr_xs[1] (ctrl_units_PORTS2_CTRLW1)
                                                         0.000      7.510 r
  datamem/par_mem_logic_inst/ctrl_units_0/ctrl_uniti_1/mem_wr_x (ctrl_unit_PORTS2_CTRLW1_0)
                                                         0.000      7.510 r
  datamem/par_mem_logic_inst/ctrl_units_0/ctrl_uniti_1/U19/Z (C8T28SOI_LL_NOR2X4_P16)
                                                         0.224 *    7.735 f
  datamem/par_mem_logic_inst/ctrl_units_0/ctrl_uniti_1/wr_mux_ctrl[0] (ctrl_unit_PORTS2_CTRLW1_0)
                                                         0.000      7.735 f
  datamem/par_mem_logic_inst/ctrl_units_0/wr_mux_ctrls[1] (ctrl_units_PORTS2_CTRLW1)
                                                         0.000      7.735 f
  datamem/par_mem_logic_inst/wr_crsbar_0/ctrl[1] (wr_crsbar_PORTS2_DATAW32_CTRLW1)
                                                         0.000      7.735 f
  datamem/par_mem_logic_inst/wr_crsbar_0/U129/Z (C8T28SOI_LL_NOR2X4_P16)
                                                         0.797 *    8.531 r
  datamem/par_mem_logic_inst/wr_crsbar_0/U168/Z (C8T28SOI_LL_AOI22X2_P16)
                                                         0.561 *    9.092 f
  datamem/par_mem_logic_inst/wr_crsbar_0/U169/Z (C8T28SOI_LL_NAND2X4_P16)
                                                         0.502 *    9.594 r
  datamem/par_mem_logic_inst/wr_crsbar_0/st_data_to_mems[59] (wr_crsbar_PORTS2_DATAW32_CTRLW1)
                                                         0.000      9.594 r
  datamem/par_mem_logic_inst/st_data_to_mems[59] (par_mem_logic_PORTS2_LSU_ADDRW14_CTRLW1_DATAW32_PM_FUNC2)
                                                         0.000      9.594 r
  datamem/dmem_1/d[27] (synch_singleport_mem_wrapper_DATAW32_ADDRW13_1)
                                                         0.000      9.594 r
  datamem/dmem_1/cacti_mem_x_3/d[27] (cacti_mem_wrapper_DATAW32_ADDRW7_1)
                                                         0.000      9.594 r
  datamem/dmem_1/cacti_mem_x_3/mem_128x32/wr_data[27] (ram_128x32)
                                                         0.002 *    9.596 r
  data arrival time                                                 9.596

  clock clk (rise edge)                                 10.000     10.000
  clock network delay (ideal)                            0.010     10.010
  clock uncertainty                                     -0.010     10.000
  datamem/dmem_1/cacti_mem_x_3/mem_128x32/clk (ram_128x32)
                                                         0.000     10.000 r
  library setup time                                    -0.033      9.967
  data required time                                                9.967
  --------------------------------------------------------------------------
  data required time                                                9.967
  data arrival time                                                -9.596
  --------------------------------------------------------------------------
  slack (MET)                                                       0.371


  Startpoint: datamem/scheduler/addr_a_conv/clk_r_REG2136_S1
              (rising edge-triggered flip-flop clocked by clk)
  Endpoint: datamem/dmem_1/cacti_mem_x_6/mem_1024x32
            (rising edge-triggered flip-flop clocked by clk)
  Path Group: clk
  Path Type: max

  Point                                                   Incr       Path
  --------------------------------------------------------------------------
  clock clk (rise edge)                                  0.000      0.000
  clock network delay (ideal)                            0.010      0.010
  datamem/scheduler/addr_a_conv/clk_r_REG2136_S1/CP (C8T28SOIDV_LL_DFPRQX10_P16)
                                                         0.000      0.010 r
  datamem/scheduler/addr_a_conv/clk_r_REG2136_S1/Q (C8T28SOIDV_LL_DFPRQX10_P16)
                                                         0.279      0.289 r
  datamem/scheduler/addr_a_conv/en_out[1]_BAR (ser_par_conv_portw14_port_cnt2_1)
                                                         0.000      0.289 r
  datamem/scheduler/U2/Z (C8T28SOI_LL_NAND2AX4_P16)      0.729 *    1.019 r
  datamem/scheduler/U26/Z (C8T28SOI_LL_BFX5_P16)         0.712 *    1.730 r
  datamem/scheduler/U27/Z (C8T28SOI_LL_IVX3_P16)         0.279 *    2.009 f
  datamem/scheduler/U199/Z (C8T28SOI_LL_AOI22X2_P16)     0.257 *    2.266 r
  datamem/scheduler/U200/Z (C8T28SOI_LL_IVX3_P16)        0.110 *    2.377 f
  datamem/scheduler/addr[17] (par_mem_scheduler_dataw32_addrw14_ports2_rd_delay1)
                                                         0.000      2.377 f
  datamem/par_mem_logic_inst/addrs_from_lsus[17] (par_mem_logic_PORTS2_LSU_ADDRW14_CTRLW1_DATAW32_PM_FUNC2)
                                                         0.000      2.377 f
  datamem/par_mem_logic_inst/addr_crsbar_0/addrs_from_lsus[17] (addr_crsbar_PORTS2_LSU_ADDRW14_CTRLW1_PM_FUNC2)
                                                         0.000      2.377 f
  datamem/par_mem_logic_inst/addr_crsbar_0/U74/Z (C8T28SOI_LL_AOI22X2_P16)
                                                         0.367 *    2.743 r
  datamem/par_mem_logic_inst/addr_crsbar_0/U76/Z (C8T28SOIDV_LLS_XNOR2X4_P16)
                                                         0.350 *    3.093 r
  datamem/par_mem_logic_inst/addr_crsbar_0/U77/Z (C8T28SOI_LL_NAND2X2_P16)
                                                         0.106 *    3.199 f
  datamem/par_mem_logic_inst/addr_crsbar_0/U78/Z (C8T28SOI_LL_OAI12X3_P16)
                                                         0.127 *    3.326 r
  datamem/par_mem_logic_inst/addr_crsbar_0/U79/Z (C8T28SOIDV_LLS_XOR2X4_P16)
                                                         0.202 *    3.528 r
  datamem/par_mem_logic_inst/addr_crsbar_0/U80/Z (C8T28SOIDV_LLS_XNOR2X4_P16)
                                                         0.178 *    3.706 r
  datamem/par_mem_logic_inst/addr_crsbar_0/U81/Z (C8T28SOI_LL_NAND2X2_P16)
                                                         0.102 *    3.809 f
  datamem/par_mem_logic_inst/addr_crsbar_0/U82/Z (C8T28SOI_LL_OAI12X3_P16)
                                                         0.133 *    3.941 r
  datamem/par_mem_logic_inst/addr_crsbar_0/U83/Z (C8T28SOIDV_LLS_XNOR2X4_P16)
                                                         0.194 *    4.135 r
  datamem/par_mem_logic_inst/addr_crsbar_0/U84/Z (C8T28SOI_LL_NAND2X2_P16)
                                                         0.153 *    4.289 f
  datamem/par_mem_logic_inst/addr_crsbar_0/U85/Z (C8T28SOI_LL_OAI12X3_P16)
                                                         0.159 *    4.448 r
  datamem/par_mem_logic_inst/addr_crsbar_0/U86/Z (C8T28SOIDV_LLS_XNOR2X4_P16)
                                                         0.196 *    4.644 r
  datamem/par_mem_logic_inst/addr_crsbar_0/U87/Z (C8T28SOI_LL_NAND2X2_P16)
                                                         0.123 *    4.766 f
  datamem/par_mem_logic_inst/addr_crsbar_0/U88/Z (C8T28SOI_LL_OAI12X3_P16)
                                                         0.157 *    4.924 r
  datamem/par_mem_logic_inst/addr_crsbar_0/module_nums[1] (addr_crsbar_PORTS2_LSU_ADDRW14_CTRLW1_PM_FUNC2)
                                                         0.000      4.924 r
  datamem/par_mem_logic_inst/ctrl_units_0/module_nums[1] (ctrl_units_PORTS2_CTRLW1)
                                                         0.000      4.924 r
  datamem/par_mem_logic_inst/ctrl_units_0/ctrl_uniti_1/module_num[0] (ctrl_unit_PORTS2_CTRLW1_0)
                                                         0.000      4.924 r
  datamem/par_mem_logic_inst/ctrl_units_0/ctrl_uniti_1/U2/Z (C8T28SOI_LL_IVX3_P16)
                                                         0.149 *    5.072 f
  datamem/par_mem_logic_inst/ctrl_units_0/ctrl_uniti_1/U3/Z (C8T28SOI_LL_NOR3X3_P16)
                                                         0.988 *    6.060 r
  datamem/par_mem_logic_inst/ctrl_units_0/ctrl_uniti_1/addr_mux_ctrl[0] (ctrl_unit_PORTS2_CTRLW1_0)
                                                         0.000      6.060 r
  datamem/par_mem_logic_inst/ctrl_units_0/addr_mux_ctrls[1] (ctrl_units_PORTS2_CTRLW1)
                                                         0.000      6.060 r
  datamem/par_mem_logic_inst/addr_crsbar_0/ctrl[1] (addr_crsbar_PORTS2_LSU_ADDRW14_CTRLW1_PM_FUNC2)
                                                         0.000      6.060 r
  datamem/par_mem_logic_inst/addr_crsbar_0/U27/Z (C8T28SOI_LL_IVX5_P16)
                                                         0.970 *    7.031 f
  datamem/par_mem_logic_inst/addr_crsbar_0/U9/Z (C8T28SOI_LL_AOI22X2_P16)
                                                         0.479 *    7.510 r
  datamem/par_mem_logic_inst/addr_crsbar_0/mem_wr_xs[1] (addr_crsbar_PORTS2_LSU_ADDRW14_CTRLW1_PM_FUNC2)
                                                         0.000      7.510 r
  datamem/par_mem_logic_inst/ctrl_units_0/mem_wr_xs[1] (ctrl_units_PORTS2_CTRLW1)
                                                         0.000      7.510 r
  datamem/par_mem_logic_inst/ctrl_units_0/ctrl_uniti_1/mem_wr_x (ctrl_unit_PORTS2_CTRLW1_0)
                                                         0.000      7.510 r
  datamem/par_mem_logic_inst/ctrl_units_0/ctrl_uniti_1/U19/Z (C8T28SOI_LL_NOR2X4_P16)
                                                         0.224 *    7.735 f
  datamem/par_mem_logic_inst/ctrl_units_0/ctrl_uniti_1/wr_mux_ctrl[0] (ctrl_unit_PORTS2_CTRLW1_0)
                                                         0.000      7.735 f
  datamem/par_mem_logic_inst/ctrl_units_0/wr_mux_ctrls[1] (ctrl_units_PORTS2_CTRLW1)
                                                         0.000      7.735 f
  datamem/par_mem_logic_inst/wr_crsbar_0/ctrl[1] (wr_crsbar_PORTS2_DATAW32_CTRLW1)
                                                         0.000      7.735 f
  datamem/par_mem_logic_inst/wr_crsbar_0/U129/Z (C8T28SOI_LL_NOR2X4_P16)
                                                         0.797 *    8.531 r
  datamem/par_mem_logic_inst/wr_crsbar_0/U168/Z (C8T28SOI_LL_AOI22X2_P16)
                                                         0.561 *    9.092 f
  datamem/par_mem_logic_inst/wr_crsbar_0/U169/Z (C8T28SOI_LL_NAND2X4_P16)
                                                         0.502 *    9.594 r
  datamem/par_mem_logic_inst/wr_crsbar_0/st_data_to_mems[59] (wr_crsbar_PORTS2_DATAW32_CTRLW1)
                                                         0.000      9.594 r
  datamem/par_mem_logic_inst/st_data_to_mems[59] (par_mem_logic_PORTS2_LSU_ADDRW14_CTRLW1_DATAW32_PM_FUNC2)
                                                         0.000      9.594 r
  datamem/dmem_1/d[27] (synch_singleport_mem_wrapper_DATAW32_ADDRW13_1)
                                                         0.000      9.594 r
  datamem/dmem_1/cacti_mem_x_6/d[27] (cacti_mem_wrapper_DATAW32_ADDRW10_1)
                                                         0.000      9.594 r
  datamem/dmem_1/cacti_mem_x_6/mem_1024x32/wr_data[27] (ram_1024x32)
                                                         0.002 *    9.596 r
  data arrival time                                                 9.596

  clock clk (rise edge)                                 10.000     10.000
  clock network delay (ideal)                            0.010     10.010
  clock uncertainty                                     -0.010     10.000
  datamem/dmem_1/cacti_mem_x_6/mem_1024x32/clk (ram_1024x32)
                                                         0.000     10.000 r
  library setup time                                    -0.033      9.967
  data required time                                                9.967
  --------------------------------------------------------------------------
  data required time                                                9.967
  data arrival time                                                -9.596
  --------------------------------------------------------------------------
  slack (MET)                                                       0.371


  Startpoint: datamem/scheduler/addr_a_conv/clk_r_REG2136_S1
              (rising edge-triggered flip-flop clocked by clk)
  Endpoint: datamem/dmem_1/cacti_mem_x_5/mem_512x32
            (rising edge-triggered flip-flop clocked by clk)
  Path Group: clk
  Path Type: max

  Point                                                   Incr       Path
  --------------------------------------------------------------------------
  clock clk (rise edge)                                  0.000      0.000
  clock network delay (ideal)                            0.010      0.010
  datamem/scheduler/addr_a_conv/clk_r_REG2136_S1/CP (C8T28SOIDV_LL_DFPRQX10_P16)
                                                         0.000      0.010 r
  datamem/scheduler/addr_a_conv/clk_r_REG2136_S1/Q (C8T28SOIDV_LL_DFPRQX10_P16)
                                                         0.279      0.289 r
  datamem/scheduler/addr_a_conv/en_out[1]_BAR (ser_par_conv_portw14_port_cnt2_1)
                                                         0.000      0.289 r
  datamem/scheduler/U2/Z (C8T28SOI_LL_NAND2AX4_P16)      0.729 *    1.019 r
  datamem/scheduler/U26/Z (C8T28SOI_LL_BFX5_P16)         0.712 *    1.730 r
  datamem/scheduler/U27/Z (C8T28SOI_LL_IVX3_P16)         0.279 *    2.009 f
  datamem/scheduler/U199/Z (C8T28SOI_LL_AOI22X2_P16)     0.257 *    2.266 r
  datamem/scheduler/U200/Z (C8T28SOI_LL_IVX3_P16)        0.110 *    2.377 f
  datamem/scheduler/addr[17] (par_mem_scheduler_dataw32_addrw14_ports2_rd_delay1)
                                                         0.000      2.377 f
  datamem/par_mem_logic_inst/addrs_from_lsus[17] (par_mem_logic_PORTS2_LSU_ADDRW14_CTRLW1_DATAW32_PM_FUNC2)
                                                         0.000      2.377 f
  datamem/par_mem_logic_inst/addr_crsbar_0/addrs_from_lsus[17] (addr_crsbar_PORTS2_LSU_ADDRW14_CTRLW1_PM_FUNC2)
                                                         0.000      2.377 f
  datamem/par_mem_logic_inst/addr_crsbar_0/U74/Z (C8T28SOI_LL_AOI22X2_P16)
                                                         0.367 *    2.743 r
  datamem/par_mem_logic_inst/addr_crsbar_0/U76/Z (C8T28SOIDV_LLS_XNOR2X4_P16)
                                                         0.350 *    3.093 r
  datamem/par_mem_logic_inst/addr_crsbar_0/U77/Z (C8T28SOI_LL_NAND2X2_P16)
                                                         0.106 *    3.199 f
  datamem/par_mem_logic_inst/addr_crsbar_0/U78/Z (C8T28SOI_LL_OAI12X3_P16)
                                                         0.127 *    3.326 r
  datamem/par_mem_logic_inst/addr_crsbar_0/U79/Z (C8T28SOIDV_LLS_XOR2X4_P16)
                                                         0.202 *    3.528 r
  datamem/par_mem_logic_inst/addr_crsbar_0/U80/Z (C8T28SOIDV_LLS_XNOR2X4_P16)
                                                         0.178 *    3.706 r
  datamem/par_mem_logic_inst/addr_crsbar_0/U81/Z (C8T28SOI_LL_NAND2X2_P16)
                                                         0.102 *    3.809 f
  datamem/par_mem_logic_inst/addr_crsbar_0/U82/Z (C8T28SOI_LL_OAI12X3_P16)
                                                         0.133 *    3.941 r
  datamem/par_mem_logic_inst/addr_crsbar_0/U83/Z (C8T28SOIDV_LLS_XNOR2X4_P16)
                                                         0.194 *    4.135 r
  datamem/par_mem_logic_inst/addr_crsbar_0/U84/Z (C8T28SOI_LL_NAND2X2_P16)
                                                         0.153 *    4.289 f
  datamem/par_mem_logic_inst/addr_crsbar_0/U85/Z (C8T28SOI_LL_OAI12X3_P16)
                                                         0.159 *    4.448 r
  datamem/par_mem_logic_inst/addr_crsbar_0/U86/Z (C8T28SOIDV_LLS_XNOR2X4_P16)
                                                         0.196 *    4.644 r
  datamem/par_mem_logic_inst/addr_crsbar_0/U87/Z (C8T28SOI_LL_NAND2X2_P16)
                                                         0.123 *    4.766 f
  datamem/par_mem_logic_inst/addr_crsbar_0/U88/Z (C8T28SOI_LL_OAI12X3_P16)
                                                         0.157 *    4.924 r
  datamem/par_mem_logic_inst/addr_crsbar_0/module_nums[1] (addr_crsbar_PORTS2_LSU_ADDRW14_CTRLW1_PM_FUNC2)
                                                         0.000      4.924 r
  datamem/par_mem_logic_inst/ctrl_units_0/module_nums[1] (ctrl_units_PORTS2_CTRLW1)
                                                         0.000      4.924 r
  datamem/par_mem_logic_inst/ctrl_units_0/ctrl_uniti_1/module_num[0] (ctrl_unit_PORTS2_CTRLW1_0)
                                                         0.000      4.924 r
  datamem/par_mem_logic_inst/ctrl_units_0/ctrl_uniti_1/U2/Z (C8T28SOI_LL_IVX3_P16)
                                                         0.149 *    5.072 f
  datamem/par_mem_logic_inst/ctrl_units_0/ctrl_uniti_1/U3/Z (C8T28SOI_LL_NOR3X3_P16)
                                                         0.988 *    6.060 r
  datamem/par_mem_logic_inst/ctrl_units_0/ctrl_uniti_1/addr_mux_ctrl[0] (ctrl_unit_PORTS2_CTRLW1_0)
                                                         0.000      6.060 r
  datamem/par_mem_logic_inst/ctrl_units_0/addr_mux_ctrls[1] (ctrl_units_PORTS2_CTRLW1)
                                                         0.000      6.060 r
  datamem/par_mem_logic_inst/addr_crsbar_0/ctrl[1] (addr_crsbar_PORTS2_LSU_ADDRW14_CTRLW1_PM_FUNC2)
                                                         0.000      6.060 r
  datamem/par_mem_logic_inst/addr_crsbar_0/U27/Z (C8T28SOI_LL_IVX5_P16)
                                                         0.970 *    7.031 f
  datamem/par_mem_logic_inst/addr_crsbar_0/U9/Z (C8T28SOI_LL_AOI22X2_P16)
                                                         0.479 *    7.510 r
  datamem/par_mem_logic_inst/addr_crsbar_0/mem_wr_xs[1] (addr_crsbar_PORTS2_LSU_ADDRW14_CTRLW1_PM_FUNC2)
                                                         0.000      7.510 r
  datamem/par_mem_logic_inst/ctrl_units_0/mem_wr_xs[1] (ctrl_units_PORTS2_CTRLW1)
                                                         0.000      7.510 r
  datamem/par_mem_logic_inst/ctrl_units_0/ctrl_uniti_1/mem_wr_x (ctrl_unit_PORTS2_CTRLW1_0)
                                                         0.000      7.510 r
  datamem/par_mem_logic_inst/ctrl_units_0/ctrl_uniti_1/U19/Z (C8T28SOI_LL_NOR2X4_P16)
                                                         0.224 *    7.735 f
  datamem/par_mem_logic_inst/ctrl_units_0/ctrl_uniti_1/wr_mux_ctrl[0] (ctrl_unit_PORTS2_CTRLW1_0)
                                                         0.000      7.735 f
  datamem/par_mem_logic_inst/ctrl_units_0/wr_mux_ctrls[1] (ctrl_units_PORTS2_CTRLW1)
                                                         0.000      7.735 f
  datamem/par_mem_logic_inst/wr_crsbar_0/ctrl[1] (wr_crsbar_PORTS2_DATAW32_CTRLW1)
                                                         0.000      7.735 f
  datamem/par_mem_logic_inst/wr_crsbar_0/U129/Z (C8T28SOI_LL_NOR2X4_P16)
                                                         0.797 *    8.531 r
  datamem/par_mem_logic_inst/wr_crsbar_0/U168/Z (C8T28SOI_LL_AOI22X2_P16)
                                                         0.561 *    9.092 f
  datamem/par_mem_logic_inst/wr_crsbar_0/U169/Z (C8T28SOI_LL_NAND2X4_P16)
                                                         0.502 *    9.594 r
  datamem/par_mem_logic_inst/wr_crsbar_0/st_data_to_mems[59] (wr_crsbar_PORTS2_DATAW32_CTRLW1)
                                                         0.000      9.594 r
  datamem/par_mem_logic_inst/st_data_to_mems[59] (par_mem_logic_PORTS2_LSU_ADDRW14_CTRLW1_DATAW32_PM_FUNC2)
                                                         0.000      9.594 r
  datamem/dmem_1/d[27] (synch_singleport_mem_wrapper_DATAW32_ADDRW13_1)
                                                         0.000      9.594 r
  datamem/dmem_1/cacti_mem_x_5/d[27] (cacti_mem_wrapper_DATAW32_ADDRW9_1)
                                                         0.000      9.594 r
  datamem/dmem_1/cacti_mem_x_5/mem_512x32/wr_data[27] (ram_512x32)
                                                         0.001 *    9.596 r
  data arrival time                                                 9.596

  clock clk (rise edge)                                 10.000     10.000
  clock network delay (ideal)                            0.010     10.010
  clock uncertainty                                     -0.010     10.000
  datamem/dmem_1/cacti_mem_x_5/mem_512x32/clk (ram_512x32)
                                                         0.000     10.000 r
  library setup time                                    -0.033      9.967
  data required time                                                9.967
  --------------------------------------------------------------------------
  data required time                                                9.967
  data arrival time                                                -9.596
  --------------------------------------------------------------------------
  slack (MET)                                                       0.371


  Startpoint: datamem/scheduler/addr_a_conv/clk_r_REG2136_S1
              (rising edge-triggered flip-flop clocked by clk)
  Endpoint: datamem/dmem_1/cacti_mem_x_4/mem_256x32
            (rising edge-triggered flip-flop clocked by clk)
  Path Group: clk
  Path Type: max

  Point                                                   Incr       Path
  --------------------------------------------------------------------------
  clock clk (rise edge)                                  0.000      0.000
  clock network delay (ideal)                            0.010      0.010
  datamem/scheduler/addr_a_conv/clk_r_REG2136_S1/CP (C8T28SOIDV_LL_DFPRQX10_P16)
                                                         0.000      0.010 r
  datamem/scheduler/addr_a_conv/clk_r_REG2136_S1/Q (C8T28SOIDV_LL_DFPRQX10_P16)
                                                         0.279      0.289 r
  datamem/scheduler/addr_a_conv/en_out[1]_BAR (ser_par_conv_portw14_port_cnt2_1)
                                                         0.000      0.289 r
  datamem/scheduler/U2/Z (C8T28SOI_LL_NAND2AX4_P16)      0.729 *    1.019 r
  datamem/scheduler/U26/Z (C8T28SOI_LL_BFX5_P16)         0.712 *    1.730 r
  datamem/scheduler/U27/Z (C8T28SOI_LL_IVX3_P16)         0.279 *    2.009 f
  datamem/scheduler/U199/Z (C8T28SOI_LL_AOI22X2_P16)     0.257 *    2.266 r
  datamem/scheduler/U200/Z (C8T28SOI_LL_IVX3_P16)        0.110 *    2.377 f
  datamem/scheduler/addr[17] (par_mem_scheduler_dataw32_addrw14_ports2_rd_delay1)
                                                         0.000      2.377 f
  datamem/par_mem_logic_inst/addrs_from_lsus[17] (par_mem_logic_PORTS2_LSU_ADDRW14_CTRLW1_DATAW32_PM_FUNC2)
                                                         0.000      2.377 f
  datamem/par_mem_logic_inst/addr_crsbar_0/addrs_from_lsus[17] (addr_crsbar_PORTS2_LSU_ADDRW14_CTRLW1_PM_FUNC2)
                                                         0.000      2.377 f
  datamem/par_mem_logic_inst/addr_crsbar_0/U74/Z (C8T28SOI_LL_AOI22X2_P16)
                                                         0.367 *    2.743 r
  datamem/par_mem_logic_inst/addr_crsbar_0/U76/Z (C8T28SOIDV_LLS_XNOR2X4_P16)
                                                         0.350 *    3.093 r
  datamem/par_mem_logic_inst/addr_crsbar_0/U77/Z (C8T28SOI_LL_NAND2X2_P16)
                                                         0.106 *    3.199 f
  datamem/par_mem_logic_inst/addr_crsbar_0/U78/Z (C8T28SOI_LL_OAI12X3_P16)
                                                         0.127 *    3.326 r
  datamem/par_mem_logic_inst/addr_crsbar_0/U79/Z (C8T28SOIDV_LLS_XOR2X4_P16)
                                                         0.202 *    3.528 r
  datamem/par_mem_logic_inst/addr_crsbar_0/U80/Z (C8T28SOIDV_LLS_XNOR2X4_P16)
                                                         0.178 *    3.706 r
  datamem/par_mem_logic_inst/addr_crsbar_0/U81/Z (C8T28SOI_LL_NAND2X2_P16)
                                                         0.102 *    3.809 f
  datamem/par_mem_logic_inst/addr_crsbar_0/U82/Z (C8T28SOI_LL_OAI12X3_P16)
                                                         0.133 *    3.941 r
  datamem/par_mem_logic_inst/addr_crsbar_0/U83/Z (C8T28SOIDV_LLS_XNOR2X4_P16)
                                                         0.194 *    4.135 r
  datamem/par_mem_logic_inst/addr_crsbar_0/U84/Z (C8T28SOI_LL_NAND2X2_P16)
                                                         0.153 *    4.289 f
  datamem/par_mem_logic_inst/addr_crsbar_0/U85/Z (C8T28SOI_LL_OAI12X3_P16)
                                                         0.159 *    4.448 r
  datamem/par_mem_logic_inst/addr_crsbar_0/U86/Z (C8T28SOIDV_LLS_XNOR2X4_P16)
                                                         0.196 *    4.644 r
  datamem/par_mem_logic_inst/addr_crsbar_0/U87/Z (C8T28SOI_LL_NAND2X2_P16)
                                                         0.123 *    4.766 f
  datamem/par_mem_logic_inst/addr_crsbar_0/U88/Z (C8T28SOI_LL_OAI12X3_P16)
                                                         0.157 *    4.924 r
  datamem/par_mem_logic_inst/addr_crsbar_0/module_nums[1] (addr_crsbar_PORTS2_LSU_ADDRW14_CTRLW1_PM_FUNC2)
                                                         0.000      4.924 r
  datamem/par_mem_logic_inst/ctrl_units_0/module_nums[1] (ctrl_units_PORTS2_CTRLW1)
                                                         0.000      4.924 r
  datamem/par_mem_logic_inst/ctrl_units_0/ctrl_uniti_1/module_num[0] (ctrl_unit_PORTS2_CTRLW1_0)
                                                         0.000      4.924 r
  datamem/par_mem_logic_inst/ctrl_units_0/ctrl_uniti_1/U2/Z (C8T28SOI_LL_IVX3_P16)
                                                         0.149 *    5.072 f
  datamem/par_mem_logic_inst/ctrl_units_0/ctrl_uniti_1/U3/Z (C8T28SOI_LL_NOR3X3_P16)
                                                         0.988 *    6.060 r
  datamem/par_mem_logic_inst/ctrl_units_0/ctrl_uniti_1/addr_mux_ctrl[0] (ctrl_unit_PORTS2_CTRLW1_0)
                                                         0.000      6.060 r
  datamem/par_mem_logic_inst/ctrl_units_0/addr_mux_ctrls[1] (ctrl_units_PORTS2_CTRLW1)
                                                         0.000      6.060 r
  datamem/par_mem_logic_inst/addr_crsbar_0/ctrl[1] (addr_crsbar_PORTS2_LSU_ADDRW14_CTRLW1_PM_FUNC2)
                                                         0.000      6.060 r
  datamem/par_mem_logic_inst/addr_crsbar_0/U27/Z (C8T28SOI_LL_IVX5_P16)
                                                         0.970 *    7.031 f
  datamem/par_mem_logic_inst/addr_crsbar_0/U9/Z (C8T28SOI_LL_AOI22X2_P16)
                                                         0.479 *    7.510 r
  datamem/par_mem_logic_inst/addr_crsbar_0/mem_wr_xs[1] (addr_crsbar_PORTS2_LSU_ADDRW14_CTRLW1_PM_FUNC2)
                                                         0.000      7.510 r
  datamem/par_mem_logic_inst/ctrl_units_0/mem_wr_xs[1] (ctrl_units_PORTS2_CTRLW1)
                                                         0.000      7.510 r
  datamem/par_mem_logic_inst/ctrl_units_0/ctrl_uniti_1/mem_wr_x (ctrl_unit_PORTS2_CTRLW1_0)
                                                         0.000      7.510 r
  datamem/par_mem_logic_inst/ctrl_units_0/ctrl_uniti_1/U19/Z (C8T28SOI_LL_NOR2X4_P16)
                                                         0.224 *    7.735 f
  datamem/par_mem_logic_inst/ctrl_units_0/ctrl_uniti_1/wr_mux_ctrl[0] (ctrl_unit_PORTS2_CTRLW1_0)
                                                         0.000      7.735 f
  datamem/par_mem_logic_inst/ctrl_units_0/wr_mux_ctrls[1] (ctrl_units_PORTS2_CTRLW1)
                                                         0.000      7.735 f
  datamem/par_mem_logic_inst/wr_crsbar_0/ctrl[1] (wr_crsbar_PORTS2_DATAW32_CTRLW1)
                                                         0.000      7.735 f
  datamem/par_mem_logic_inst/wr_crsbar_0/U129/Z (C8T28SOI_LL_NOR2X4_P16)
                                                         0.797 *    8.531 r
  datamem/par_mem_logic_inst/wr_crsbar_0/U168/Z (C8T28SOI_LL_AOI22X2_P16)
                                                         0.561 *    9.092 f
  datamem/par_mem_logic_inst/wr_crsbar_0/U169/Z (C8T28SOI_LL_NAND2X4_P16)
                                                         0.502 *    9.594 r
  datamem/par_mem_logic_inst/wr_crsbar_0/st_data_to_mems[59] (wr_crsbar_PORTS2_DATAW32_CTRLW1)
                                                         0.000      9.594 r
  datamem/par_mem_logic_inst/st_data_to_mems[59] (par_mem_logic_PORTS2_LSU_ADDRW14_CTRLW1_DATAW32_PM_FUNC2)
                                                         0.000      9.594 r
  datamem/dmem_1/d[27] (synch_singleport_mem_wrapper_DATAW32_ADDRW13_1)
                                                         0.000      9.594 r
  datamem/dmem_1/cacti_mem_x_4/d[27] (cacti_mem_wrapper_DATAW32_ADDRW8_1)
                                                         0.000      9.594 r
  datamem/dmem_1/cacti_mem_x_4/mem_256x32/wr_data[27] (ram_256x32)
                                                         0.001 *    9.596 r
  data arrival time                                                 9.596

  clock clk (rise edge)                                 10.000     10.000
  clock network delay (ideal)                            0.010     10.010
  clock uncertainty                                     -0.010     10.000
  datamem/dmem_1/cacti_mem_x_4/mem_256x32/clk (ram_256x32)
                                                         0.000     10.000 r
  library setup time                                    -0.033      9.967
  data required time                                                9.967
  --------------------------------------------------------------------------
  data required time                                                9.967
  data arrival time                                                -9.596
  --------------------------------------------------------------------------
  slack (MET)                                                       0.371


1
