Warning: There are 99 switching activity information conflicts. (PWR-19)
 
****************************************
Report : saif
Design : proc
Version: M-2016.12-SP5-1
Date   : Sat Jul 28 13:43:19 2018
****************************************

  

--------------------------------------------------------------------------------
              User              Default           Propagated
Object type   Annotated (%)     Activity (%)      Activity (%)       Total
--------------------------------------------------------------------------------
  
 Nets         237(60.77%)       0(0.00%)          153(39.23%)        390
 Ports        229(100.00%)      0(0.00%)          0(0.00%)           229
 Pins         208(34.84%)       0(0.00%)          389(65.16%)        597
--------------------------------------------------------------------------------
1
