Information: Updating design information... (UID-85)
 
****************************************
Report : timing
        -path full
        -delay max
        -max_paths 10
Design : proc
Version: M-2016.12-SP5-1
Date   : Sat Jul 28 13:43:07 2018
****************************************

 * Some/all delay information is back-annotated.

Operating Conditions: tt28_0.85V_0.00V_0.00V_0.00V_25C   Library: C28SOI_SC_8_CLK_LL
Wire Load Model Mode: Inactive.

  Startpoint: core/loopbuffer/clk_r_REG1642_S49
              (rising edge-triggered flip-flop clocked by clk)
  Endpoint: datamem/dmem_1/cacti_mem_x_8/mem_4096x32
            (rising edge-triggered flip-flop clocked by clk)
  Path Group: clk
  Path Type: max

  Point                                                   Incr       Path
  --------------------------------------------------------------------------
  clock clk (rise edge)                                  0.000      0.000
  clock network delay (ideal)                            0.010      0.010
  core/loopbuffer/clk_r_REG1642_S49/CP (C8T28SOIDV_LL_DFPRQX10_P0)
                                                         0.000      0.010 r
  core/loopbuffer/clk_r_REG1642_S49/Q (C8T28SOIDV_LL_DFPRQX10_P0)
                                                         0.060      0.070 r
  core/loopbuffer/U44/Z (C8T28SOI_LL_CNIVX9_P0)          0.009 *    0.079 f
  core/loopbuffer/U42/Z (C8T28SOIDV_LL_NAND2X9_P0)       0.013 *    0.093 r
  core/loopbuffer/U86/Z (C8T28SOIDV_LL_CNIVX18_P0)       0.010 *    0.103 f
  core/loopbuffer/U69/Z (C8T28SOIDV_LL_NAND2X18_P0)      0.009 *    0.112 r
  core/loopbuffer/U194/Z (C8T28SOI_LLBR0P6_NAND3X14_P0)
                                                         0.010 *    0.123 f
  core/loopbuffer/lock_req_out (tta0_loopbuf_1_32_51_1_0)
                                                         0.000      0.123 f
  core/decomp/lock_r (tta0_decompressor)                 0.000      0.123 f
  core/decomp/U1/Z (C8T28SOIDV_LL_CNIVX18_P0)            0.010 *    0.133 r
  core/decomp/fetch_en (tta0_decompressor)               0.000      0.133 r
  core/inst_fetch/fetch_en (tta0_ifetch)                 0.000      0.133 r
  core/inst_fetch/U197/Z (C8T28SOIDV_LL_NAND2X18_P0)     0.011 *    0.144 f
  core/inst_fetch/glock (tta0_ifetch)                    0.000      0.144 f
  core/loopbuffer/glock_in (tta0_loopbuf_1_32_51_1_0)    0.000      0.144 f
  core/loopbuffer/U87/Z (C8T28SOIDV_LL_NAND2X36_P0)      0.011 *    0.156 r
  core/loopbuffer/U154/Z (C8T28SOIDV_LL_NAND2X36_P0)     0.010 *    0.166 f
  core/loopbuffer/glock_out (tta0_loopbuf_1_32_51_1_0)
                                                         0.000      0.166 f
  core/inst_decoder/lock (tta0_decoder)                  0.000      0.166 f
  core/inst_decoder/U4/Z (C8T28SOIDV_LL_NOR2AX29_P0)     0.016 *    0.183 r
  core/inst_decoder/U39/Z (C8T28SOIDV_LL_CNIVX37_P0)     0.010 *    0.193 f
  core/inst_decoder/glock[7] (tta0_decoder)              0.000      0.193 f
  core/fu_lsu_r/glock (fu_ldw_stw_always_4_dataw32_addrw16_1)
                                                         0.000      0.193 f
  core/fu_lsu_r/U55/Z (C8T28SOIDV_LL_CNIVX37_P0)         0.008 *    0.201 r
  core/fu_lsu_r/U5/Z (C8T28SOIDV_LL_NAND2X36_P0)         0.016 *    0.217 f
  core/fu_lsu_r/mem_en_x[0] (fu_ldw_stw_always_4_dataw32_addrw16_1)
                                                         0.000      0.217 f
  U138/Z (C8T28SOIDV_LL_NAND2X36_P0)                     0.021 *    0.238 r
  U134/Z (C8T28SOI_LL_NAND2X8_P0)                        0.014 *    0.252 f
  U135/Z (C8T28SOI_LL_OA21X10_P0)                        0.019 *    0.271 f
  datamem/scheduler/lsu_addr_a[12] (par_mem_scheduler_dataw32_addrw14_ports2_rd_delay1)
                                                         0.000      0.271 f
  datamem/scheduler/U53/Z (C8T28SOI_LL_NAND2X8_P0)       0.011 *    0.283 r
  datamem/scheduler/U54/Z (C8T28SOIDV_LL_NAND2X18_P0)    0.011 *    0.293 f
  datamem/scheduler/addr[12] (par_mem_scheduler_dataw32_addrw14_ports2_rd_delay1)
                                                         0.000      0.293 f
  datamem/par_mem_logic_inst/addrs_from_lsus[12] (par_mem_logic_PORTS2_LSU_ADDRW14_CTRLW1_DATAW32_PM_FUNC2)
                                                         0.000      0.293 f
  datamem/par_mem_logic_inst/addr_crsbar_0/addrs_from_lsus[12] (addr_crsbar_PORTS2_LSU_ADDRW14_CTRLW1_PM_FUNC2)
                                                         0.000      0.293 f
  datamem/par_mem_logic_inst/addr_crsbar_0/U121/Z (C8T28SOI_LL_OAI12X10_P0)
                                                         0.016 *    0.310 r
  datamem/par_mem_logic_inst/addr_crsbar_0/U115/Z (C8T28SOIDV_LLS_XOR2X4_P0)
                                                         0.034 *    0.343 r
  datamem/par_mem_logic_inst/addr_crsbar_0/U87/Z (C8T28SOIDV_LLS_XNOR2X4_P0)
                                                         0.035 *    0.378 r
  datamem/par_mem_logic_inst/addr_crsbar_0/U6/Z (C8T28SOI_LL_XNOR2X19_P0)
                                                         0.046 *    0.424 f
  datamem/par_mem_logic_inst/addr_crsbar_0/U120/Z (C8T28SOIDV_LLS_XNOR2X11_P0)
                                                         0.025 *    0.449 r
  datamem/par_mem_logic_inst/addr_crsbar_0/module_nums[0] (addr_crsbar_PORTS2_LSU_ADDRW14_CTRLW1_PM_FUNC2)
                                                         0.000      0.449 r
  datamem/par_mem_logic_inst/ctrl_units_0/module_nums[0] (ctrl_units_PORTS2_CTRLW1)
                                                         0.000      0.449 r
  datamem/par_mem_logic_inst/ctrl_units_0/ctrl_uniti_0/module_num[0] (ctrl_unit_PORTS2_CTRLW1_1)
                                                         0.000      0.449 r
  datamem/par_mem_logic_inst/ctrl_units_0/ctrl_uniti_0/U21/Z (C8T28SOIDV_LL_NAND2X18_P0)
                                                         0.016 *    0.465 f
  datamem/par_mem_logic_inst/ctrl_units_0/ctrl_uniti_0/U16/Z (C8T28SOIDV_LL_CNIVX18_P0)
                                                         0.010 *    0.475 r
  datamem/par_mem_logic_inst/ctrl_units_0/ctrl_uniti_0/ctrl_matrix_row_out[1] (ctrl_unit_PORTS2_CTRLW1_1)
                                                         0.000      0.475 r
  datamem/par_mem_logic_inst/ctrl_units_0/ctrl_uniti_1/t_ctrl_matrix_row_in[0] (ctrl_unit_PORTS2_CTRLW1_0)
                                                         0.000      0.475 r
  datamem/par_mem_logic_inst/ctrl_units_0/ctrl_uniti_1/U18/Z (C8T28SOIDV_LL_NAND2X18_P0)
                                                         0.009 *    0.484 f
  datamem/par_mem_logic_inst/ctrl_units_0/ctrl_uniti_1/U19/Z (C8T28SOIDV_LL_CNIVX18_P0)
                                                         0.007 *    0.491 r
  datamem/par_mem_logic_inst/ctrl_units_0/ctrl_uniti_1/U10/Z (C8T28SOIDV_LL_NOR2X9_P0)
                                                         0.008 *    0.499 f
  datamem/par_mem_logic_inst/ctrl_units_0/ctrl_uniti_1/mem_en_x (ctrl_unit_PORTS2_CTRLW1_0)
                                                         0.000      0.499 f
  datamem/par_mem_logic_inst/ctrl_units_0/U7/Z (C8T28SOIDV_LL_CNIVX28_P0)
                                                         0.009 *    0.509 r
  datamem/par_mem_logic_inst/ctrl_units_0/U13/Z (C8T28SOIDV_LL_NAND2X36_P0)
                                                         0.010 *    0.519 f
  datamem/par_mem_logic_inst/ctrl_units_0/mem_en_xs[1] (ctrl_units_PORTS2_CTRLW1)
                                                         0.000      0.519 f
  datamem/par_mem_logic_inst/mem_en_xs[1] (par_mem_logic_PORTS2_LSU_ADDRW14_CTRLW1_DATAW32_PM_FUNC2)
                                                         0.000      0.519 f
  datamem/dmem_1/en_x (synch_singleport_mem_wrapper_DATAW32_ADDRW13_1)
                                                         0.000      0.519 f
  datamem/dmem_1/en_wr_arbiter/en (block_en_wr_arbiter_ADDRW13_NBLOCKS9_1)
                                                         0.000      0.519 f
  datamem/dmem_1/en_wr_arbiter/U23/Z (C8T28SOIDV_LL_CNIVX37_P0)
                                                         0.011 *    0.531 r
  datamem/dmem_1/en_wr_arbiter/U51/Z (C8T28SOIDV_LL_NAND2X9_P0)
                                                         0.011 *    0.542 f
  datamem/dmem_1/en_wr_arbiter/en_blocks[8] (block_en_wr_arbiter_ADDRW13_NBLOCKS9_1)
                                                         0.000      0.542 f
  datamem/dmem_1/cacti_mem_x_8/en_x (cacti_mem_wrapper_DATAW32_ADDRW12_1)
                                                         0.000      0.542 f
  datamem/dmem_1/cacti_mem_x_8/mem_4096x32/mem_en_x (ram_4096x32)
                                                         0.000 *    0.542 f
  data arrival time                                                 0.542

  clock clk (rise edge)                                  1.053      1.053
  clock network delay (ideal)                            0.010      1.063
  clock uncertainty                                     -0.010      1.053
  datamem/dmem_1/cacti_mem_x_8/mem_4096x32/clk (ram_4096x32)
                                                         0.000      1.053 r
  library setup time                                    -0.505      0.548
  data required time                                                0.548
  --------------------------------------------------------------------------
  data required time                                                0.548
  data arrival time                                                -0.542
  --------------------------------------------------------------------------
  slack (MET)                                                       0.007


  Startpoint: core/loopbuffer/clk_r_REG1642_S49
              (rising edge-triggered flip-flop clocked by clk)
  Endpoint: datamem/dmem_1/cacti_mem_x_3/mem_128x32
            (rising edge-triggered flip-flop clocked by clk)
  Path Group: clk
  Path Type: max

  Point                                                   Incr       Path
  --------------------------------------------------------------------------
  clock clk (rise edge)                                  0.000      0.000
  clock network delay (ideal)                            0.010      0.010
  core/loopbuffer/clk_r_REG1642_S49/CP (C8T28SOIDV_LL_DFPRQX10_P0)
                                                         0.000      0.010 r
  core/loopbuffer/clk_r_REG1642_S49/Q (C8T28SOIDV_LL_DFPRQX10_P0)
                                                         0.060      0.070 r
  core/loopbuffer/U44/Z (C8T28SOI_LL_CNIVX9_P0)          0.009 *    0.079 f
  core/loopbuffer/U42/Z (C8T28SOIDV_LL_NAND2X9_P0)       0.013 *    0.093 r
  core/loopbuffer/U86/Z (C8T28SOIDV_LL_CNIVX18_P0)       0.010 *    0.103 f
  core/loopbuffer/U69/Z (C8T28SOIDV_LL_NAND2X18_P0)      0.009 *    0.112 r
  core/loopbuffer/U194/Z (C8T28SOI_LLBR0P6_NAND3X14_P0)
                                                         0.010 *    0.123 f
  core/loopbuffer/lock_req_out (tta0_loopbuf_1_32_51_1_0)
                                                         0.000      0.123 f
  core/decomp/lock_r (tta0_decompressor)                 0.000      0.123 f
  core/decomp/U1/Z (C8T28SOIDV_LL_CNIVX18_P0)            0.010 *    0.133 r
  core/decomp/fetch_en (tta0_decompressor)               0.000      0.133 r
  core/inst_fetch/fetch_en (tta0_ifetch)                 0.000      0.133 r
  core/inst_fetch/U197/Z (C8T28SOIDV_LL_NAND2X18_P0)     0.011 *    0.144 f
  core/inst_fetch/glock (tta0_ifetch)                    0.000      0.144 f
  core/loopbuffer/glock_in (tta0_loopbuf_1_32_51_1_0)    0.000      0.144 f
  core/loopbuffer/U87/Z (C8T28SOIDV_LL_NAND2X36_P0)      0.011 *    0.156 r
  core/loopbuffer/U154/Z (C8T28SOIDV_LL_NAND2X36_P0)     0.010 *    0.166 f
  core/loopbuffer/glock_out (tta0_loopbuf_1_32_51_1_0)
                                                         0.000      0.166 f
  core/inst_decoder/lock (tta0_decoder)                  0.000      0.166 f
  core/inst_decoder/U4/Z (C8T28SOIDV_LL_NOR2AX29_P0)     0.016 *    0.183 r
  core/inst_decoder/U39/Z (C8T28SOIDV_LL_CNIVX37_P0)     0.010 *    0.193 f
  core/inst_decoder/glock[7] (tta0_decoder)              0.000      0.193 f
  core/fu_lsu_r/glock (fu_ldw_stw_always_4_dataw32_addrw16_1)
                                                         0.000      0.193 f
  core/fu_lsu_r/U55/Z (C8T28SOIDV_LL_CNIVX37_P0)         0.008 *    0.201 r
  core/fu_lsu_r/U5/Z (C8T28SOIDV_LL_NAND2X36_P0)         0.016 *    0.217 f
  core/fu_lsu_r/mem_en_x[0] (fu_ldw_stw_always_4_dataw32_addrw16_1)
                                                         0.000      0.217 f
  U138/Z (C8T28SOIDV_LL_NAND2X36_P0)                     0.021 *    0.238 r
  U134/Z (C8T28SOI_LL_NAND2X8_P0)                        0.014 *    0.252 f
  U135/Z (C8T28SOI_LL_OA21X10_P0)                        0.019 *    0.271 f
  datamem/scheduler/lsu_addr_a[12] (par_mem_scheduler_dataw32_addrw14_ports2_rd_delay1)
                                                         0.000      0.271 f
  datamem/scheduler/U53/Z (C8T28SOI_LL_NAND2X8_P0)       0.011 *    0.283 r
  datamem/scheduler/U54/Z (C8T28SOIDV_LL_NAND2X18_P0)    0.011 *    0.293 f
  datamem/scheduler/addr[12] (par_mem_scheduler_dataw32_addrw14_ports2_rd_delay1)
                                                         0.000      0.293 f
  datamem/par_mem_logic_inst/addrs_from_lsus[12] (par_mem_logic_PORTS2_LSU_ADDRW14_CTRLW1_DATAW32_PM_FUNC2)
                                                         0.000      0.293 f
  datamem/par_mem_logic_inst/addr_crsbar_0/addrs_from_lsus[12] (addr_crsbar_PORTS2_LSU_ADDRW14_CTRLW1_PM_FUNC2)
                                                         0.000      0.293 f
  datamem/par_mem_logic_inst/addr_crsbar_0/U121/Z (C8T28SOI_LL_OAI12X10_P0)
                                                         0.016 *    0.310 r
  datamem/par_mem_logic_inst/addr_crsbar_0/U115/Z (C8T28SOIDV_LLS_XOR2X4_P0)
                                                         0.034 *    0.343 r
  datamem/par_mem_logic_inst/addr_crsbar_0/U87/Z (C8T28SOIDV_LLS_XNOR2X4_P0)
                                                         0.035 *    0.378 r
  datamem/par_mem_logic_inst/addr_crsbar_0/U6/Z (C8T28SOI_LL_XNOR2X19_P0)
                                                         0.046 *    0.424 f
  datamem/par_mem_logic_inst/addr_crsbar_0/U120/Z (C8T28SOIDV_LLS_XNOR2X11_P0)
                                                         0.025 *    0.449 r
  datamem/par_mem_logic_inst/addr_crsbar_0/module_nums[0] (addr_crsbar_PORTS2_LSU_ADDRW14_CTRLW1_PM_FUNC2)
                                                         0.000      0.449 r
  datamem/par_mem_logic_inst/ctrl_units_0/module_nums[0] (ctrl_units_PORTS2_CTRLW1)
                                                         0.000      0.449 r
  datamem/par_mem_logic_inst/ctrl_units_0/ctrl_uniti_0/module_num[0] (ctrl_unit_PORTS2_CTRLW1_1)
                                                         0.000      0.449 r
  datamem/par_mem_logic_inst/ctrl_units_0/ctrl_uniti_0/U21/Z (C8T28SOIDV_LL_NAND2X18_P0)
                                                         0.016 *    0.465 f
  datamem/par_mem_logic_inst/ctrl_units_0/ctrl_uniti_0/U16/Z (C8T28SOIDV_LL_CNIVX18_P0)
                                                         0.010 *    0.475 r
  datamem/par_mem_logic_inst/ctrl_units_0/ctrl_uniti_0/ctrl_matrix_row_out[1] (ctrl_unit_PORTS2_CTRLW1_1)
                                                         0.000      0.475 r
  datamem/par_mem_logic_inst/ctrl_units_0/ctrl_uniti_1/t_ctrl_matrix_row_in[0] (ctrl_unit_PORTS2_CTRLW1_0)
                                                         0.000      0.475 r
  datamem/par_mem_logic_inst/ctrl_units_0/ctrl_uniti_1/U18/Z (C8T28SOIDV_LL_NAND2X18_P0)
                                                         0.009 *    0.484 f
  datamem/par_mem_logic_inst/ctrl_units_0/ctrl_uniti_1/U19/Z (C8T28SOIDV_LL_CNIVX18_P0)
                                                         0.007 *    0.491 r
  datamem/par_mem_logic_inst/ctrl_units_0/ctrl_uniti_1/U10/Z (C8T28SOIDV_LL_NOR2X9_P0)
                                                         0.008 *    0.499 f
  datamem/par_mem_logic_inst/ctrl_units_0/ctrl_uniti_1/mem_en_x (ctrl_unit_PORTS2_CTRLW1_0)
                                                         0.000      0.499 f
  datamem/par_mem_logic_inst/ctrl_units_0/U7/Z (C8T28SOIDV_LL_CNIVX28_P0)
                                                         0.009 *    0.509 r
  datamem/par_mem_logic_inst/ctrl_units_0/U13/Z (C8T28SOIDV_LL_NAND2X36_P0)
                                                         0.010 *    0.519 f
  datamem/par_mem_logic_inst/ctrl_units_0/mem_en_xs[1] (ctrl_units_PORTS2_CTRLW1)
                                                         0.000      0.519 f
  datamem/par_mem_logic_inst/mem_en_xs[1] (par_mem_logic_PORTS2_LSU_ADDRW14_CTRLW1_DATAW32_PM_FUNC2)
                                                         0.000      0.519 f
  datamem/dmem_1/en_x (synch_singleport_mem_wrapper_DATAW32_ADDRW13_1)
                                                         0.000      0.519 f
  datamem/dmem_1/en_wr_arbiter/en (block_en_wr_arbiter_ADDRW13_NBLOCKS9_1)
                                                         0.000      0.519 f
  datamem/dmem_1/en_wr_arbiter/U23/Z (C8T28SOIDV_LL_CNIVX37_P0)
                                                         0.011 *    0.531 r
  datamem/dmem_1/en_wr_arbiter/U50/Z (C8T28SOIDV_LL_NAND2X9_P0)
                                                         0.011 *    0.542 f
  datamem/dmem_1/en_wr_arbiter/en_blocks[3] (block_en_wr_arbiter_ADDRW13_NBLOCKS9_1)
                                                         0.000      0.542 f
  datamem/dmem_1/cacti_mem_x_3/en_x (cacti_mem_wrapper_DATAW32_ADDRW7_1)
                                                         0.000      0.542 f
  datamem/dmem_1/cacti_mem_x_3/mem_128x32/mem_en_x (ram_128x32)
                                                         0.000 *    0.542 f
  data arrival time                                                 0.542

  clock clk (rise edge)                                  1.053      1.053
  clock network delay (ideal)                            0.010      1.063
  clock uncertainty                                     -0.010      1.053
  datamem/dmem_1/cacti_mem_x_3/mem_128x32/clk (ram_128x32)
                                                         0.000      1.053 r
  library setup time                                    -0.504      0.549
  data required time                                                0.549
  --------------------------------------------------------------------------
  data required time                                                0.549
  data arrival time                                                -0.542
  --------------------------------------------------------------------------
  slack (MET)                                                       0.007


  Startpoint: core/loopbuffer/clk_r_REG1642_S49
              (rising edge-triggered flip-flop clocked by clk)
  Endpoint: datamem/dmem_1/cacti_mem_0/mem_32x32
            (rising edge-triggered flip-flop clocked by clk)
  Path Group: clk
  Path Type: max

  Point                                                   Incr       Path
  --------------------------------------------------------------------------
  clock clk (rise edge)                                  0.000      0.000
  clock network delay (ideal)                            0.010      0.010
  core/loopbuffer/clk_r_REG1642_S49/CP (C8T28SOIDV_LL_DFPRQX10_P0)
                                                         0.000      0.010 r
  core/loopbuffer/clk_r_REG1642_S49/Q (C8T28SOIDV_LL_DFPRQX10_P0)
                                                         0.060      0.070 r
  core/loopbuffer/U44/Z (C8T28SOI_LL_CNIVX9_P0)          0.009 *    0.079 f
  core/loopbuffer/U42/Z (C8T28SOIDV_LL_NAND2X9_P0)       0.013 *    0.093 r
  core/loopbuffer/U86/Z (C8T28SOIDV_LL_CNIVX18_P0)       0.010 *    0.103 f
  core/loopbuffer/U69/Z (C8T28SOIDV_LL_NAND2X18_P0)      0.009 *    0.112 r
  core/loopbuffer/U194/Z (C8T28SOI_LLBR0P6_NAND3X14_P0)
                                                         0.010 *    0.123 f
  core/loopbuffer/lock_req_out (tta0_loopbuf_1_32_51_1_0)
                                                         0.000      0.123 f
  core/decomp/lock_r (tta0_decompressor)                 0.000      0.123 f
  core/decomp/U1/Z (C8T28SOIDV_LL_CNIVX18_P0)            0.010 *    0.133 r
  core/decomp/fetch_en (tta0_decompressor)               0.000      0.133 r
  core/inst_fetch/fetch_en (tta0_ifetch)                 0.000      0.133 r
  core/inst_fetch/U197/Z (C8T28SOIDV_LL_NAND2X18_P0)     0.011 *    0.144 f
  core/inst_fetch/glock (tta0_ifetch)                    0.000      0.144 f
  core/loopbuffer/glock_in (tta0_loopbuf_1_32_51_1_0)    0.000      0.144 f
  core/loopbuffer/U87/Z (C8T28SOIDV_LL_NAND2X36_P0)      0.011 *    0.156 r
  core/loopbuffer/U154/Z (C8T28SOIDV_LL_NAND2X36_P0)     0.010 *    0.166 f
  core/loopbuffer/glock_out (tta0_loopbuf_1_32_51_1_0)
                                                         0.000      0.166 f
  core/inst_decoder/lock (tta0_decoder)                  0.000      0.166 f
  core/inst_decoder/U4/Z (C8T28SOIDV_LL_NOR2AX29_P0)     0.016 *    0.183 r
  core/inst_decoder/U39/Z (C8T28SOIDV_LL_CNIVX37_P0)     0.010 *    0.193 f
  core/inst_decoder/glock[7] (tta0_decoder)              0.000      0.193 f
  core/fu_lsu_r/glock (fu_ldw_stw_always_4_dataw32_addrw16_1)
                                                         0.000      0.193 f
  core/fu_lsu_r/U55/Z (C8T28SOIDV_LL_CNIVX37_P0)         0.008 *    0.201 r
  core/fu_lsu_r/U5/Z (C8T28SOIDV_LL_NAND2X36_P0)         0.016 *    0.217 f
  core/fu_lsu_r/mem_en_x[0] (fu_ldw_stw_always_4_dataw32_addrw16_1)
                                                         0.000      0.217 f
  U138/Z (C8T28SOIDV_LL_NAND2X36_P0)                     0.021 *    0.238 r
  U134/Z (C8T28SOI_LL_NAND2X8_P0)                        0.014 *    0.252 f
  U135/Z (C8T28SOI_LL_OA21X10_P0)                        0.019 *    0.271 f
  datamem/scheduler/lsu_addr_a[12] (par_mem_scheduler_dataw32_addrw14_ports2_rd_delay1)
                                                         0.000      0.271 f
  datamem/scheduler/U53/Z (C8T28SOI_LL_NAND2X8_P0)       0.011 *    0.283 r
  datamem/scheduler/U54/Z (C8T28SOIDV_LL_NAND2X18_P0)    0.011 *    0.293 f
  datamem/scheduler/addr[12] (par_mem_scheduler_dataw32_addrw14_ports2_rd_delay1)
                                                         0.000      0.293 f
  datamem/par_mem_logic_inst/addrs_from_lsus[12] (par_mem_logic_PORTS2_LSU_ADDRW14_CTRLW1_DATAW32_PM_FUNC2)
                                                         0.000      0.293 f
  datamem/par_mem_logic_inst/addr_crsbar_0/addrs_from_lsus[12] (addr_crsbar_PORTS2_LSU_ADDRW14_CTRLW1_PM_FUNC2)
                                                         0.000      0.293 f
  datamem/par_mem_logic_inst/addr_crsbar_0/U121/Z (C8T28SOI_LL_OAI12X10_P0)
                                                         0.016 *    0.310 r
  datamem/par_mem_logic_inst/addr_crsbar_0/U115/Z (C8T28SOIDV_LLS_XOR2X4_P0)
                                                         0.034 *    0.343 r
  datamem/par_mem_logic_inst/addr_crsbar_0/U87/Z (C8T28SOIDV_LLS_XNOR2X4_P0)
                                                         0.035 *    0.378 r
  datamem/par_mem_logic_inst/addr_crsbar_0/U6/Z (C8T28SOI_LL_XNOR2X19_P0)
                                                         0.046 *    0.424 f
  datamem/par_mem_logic_inst/addr_crsbar_0/U120/Z (C8T28SOIDV_LLS_XNOR2X11_P0)
                                                         0.025 *    0.449 r
  datamem/par_mem_logic_inst/addr_crsbar_0/module_nums[0] (addr_crsbar_PORTS2_LSU_ADDRW14_CTRLW1_PM_FUNC2)
                                                         0.000      0.449 r
  datamem/par_mem_logic_inst/ctrl_units_0/module_nums[0] (ctrl_units_PORTS2_CTRLW1)
                                                         0.000      0.449 r
  datamem/par_mem_logic_inst/ctrl_units_0/ctrl_uniti_0/module_num[0] (ctrl_unit_PORTS2_CTRLW1_1)
                                                         0.000      0.449 r
  datamem/par_mem_logic_inst/ctrl_units_0/ctrl_uniti_0/U21/Z (C8T28SOIDV_LL_NAND2X18_P0)
                                                         0.016 *    0.465 f
  datamem/par_mem_logic_inst/ctrl_units_0/ctrl_uniti_0/U16/Z (C8T28SOIDV_LL_CNIVX18_P0)
                                                         0.010 *    0.475 r
  datamem/par_mem_logic_inst/ctrl_units_0/ctrl_uniti_0/ctrl_matrix_row_out[1] (ctrl_unit_PORTS2_CTRLW1_1)
                                                         0.000      0.475 r
  datamem/par_mem_logic_inst/ctrl_units_0/ctrl_uniti_1/t_ctrl_matrix_row_in[0] (ctrl_unit_PORTS2_CTRLW1_0)
                                                         0.000      0.475 r
  datamem/par_mem_logic_inst/ctrl_units_0/ctrl_uniti_1/U18/Z (C8T28SOIDV_LL_NAND2X18_P0)
                                                         0.009 *    0.484 f
  datamem/par_mem_logic_inst/ctrl_units_0/ctrl_uniti_1/U19/Z (C8T28SOIDV_LL_CNIVX18_P0)
                                                         0.007 *    0.491 r
  datamem/par_mem_logic_inst/ctrl_units_0/ctrl_uniti_1/U10/Z (C8T28SOIDV_LL_NOR2X9_P0)
                                                         0.008 *    0.499 f
  datamem/par_mem_logic_inst/ctrl_units_0/ctrl_uniti_1/mem_en_x (ctrl_unit_PORTS2_CTRLW1_0)
                                                         0.000      0.499 f
  datamem/par_mem_logic_inst/ctrl_units_0/U7/Z (C8T28SOIDV_LL_CNIVX28_P0)
                                                         0.009 *    0.509 r
  datamem/par_mem_logic_inst/ctrl_units_0/U13/Z (C8T28SOIDV_LL_NAND2X36_P0)
                                                         0.010 *    0.519 f
  datamem/par_mem_logic_inst/ctrl_units_0/mem_en_xs[1] (ctrl_units_PORTS2_CTRLW1)
                                                         0.000      0.519 f
  datamem/par_mem_logic_inst/mem_en_xs[1] (par_mem_logic_PORTS2_LSU_ADDRW14_CTRLW1_DATAW32_PM_FUNC2)
                                                         0.000      0.519 f
  datamem/dmem_1/en_x (synch_singleport_mem_wrapper_DATAW32_ADDRW13_1)
                                                         0.000      0.519 f
  datamem/dmem_1/en_wr_arbiter/en (block_en_wr_arbiter_ADDRW13_NBLOCKS9_1)
                                                         0.000      0.519 f
  datamem/dmem_1/en_wr_arbiter/U10/Z (C8T28SOIDV_LL_CNIVX37_P0)
                                                         0.013 *    0.532 r
  datamem/dmem_1/en_wr_arbiter/U9/Z (C8T28SOIDV_LL_NAND2X18_P0)
                                                         0.011 *    0.543 f
  datamem/dmem_1/en_wr_arbiter/en_blocks[0] (block_en_wr_arbiter_ADDRW13_NBLOCKS9_1)
                                                         0.000      0.543 f
  datamem/dmem_1/cacti_mem_0/en_x (cacti_mem_wrapper_DATAW32_ADDRW5_3)
                                                         0.000      0.543 f
  datamem/dmem_1/cacti_mem_0/mem_32x32/mem_en_x (ram_32x32)
                                                         0.000 *    0.543 f
  data arrival time                                                 0.543

  clock clk (rise edge)                                  1.053      1.053
  clock network delay (ideal)                            0.010      1.063
  clock uncertainty                                     -0.010      1.053
  datamem/dmem_1/cacti_mem_0/mem_32x32/clk (ram_32x32)
                                                         0.000      1.053 r
  library setup time                                    -0.503      0.550
  data required time                                                0.550
  --------------------------------------------------------------------------
  data required time                                                0.550
  data arrival time                                                -0.543
  --------------------------------------------------------------------------
  slack (MET)                                                       0.007


  Startpoint: core/loopbuffer/clk_r_REG1642_S49
              (rising edge-triggered flip-flop clocked by clk)
  Endpoint: datamem/dmem_1/cacti_mem_x_5/mem_512x32
            (rising edge-triggered flip-flop clocked by clk)
  Path Group: clk
  Path Type: max

  Point                                                   Incr       Path
  --------------------------------------------------------------------------
  clock clk (rise edge)                                  0.000      0.000
  clock network delay (ideal)                            0.010      0.010
  core/loopbuffer/clk_r_REG1642_S49/CP (C8T28SOIDV_LL_DFPRQX10_P0)
                                                         0.000      0.010 r
  core/loopbuffer/clk_r_REG1642_S49/Q (C8T28SOIDV_LL_DFPRQX10_P0)
                                                         0.060      0.070 r
  core/loopbuffer/U44/Z (C8T28SOI_LL_CNIVX9_P0)          0.009 *    0.079 f
  core/loopbuffer/U42/Z (C8T28SOIDV_LL_NAND2X9_P0)       0.013 *    0.093 r
  core/loopbuffer/U86/Z (C8T28SOIDV_LL_CNIVX18_P0)       0.010 *    0.103 f
  core/loopbuffer/U69/Z (C8T28SOIDV_LL_NAND2X18_P0)      0.009 *    0.112 r
  core/loopbuffer/U194/Z (C8T28SOI_LLBR0P6_NAND3X14_P0)
                                                         0.010 *    0.123 f
  core/loopbuffer/lock_req_out (tta0_loopbuf_1_32_51_1_0)
                                                         0.000      0.123 f
  core/decomp/lock_r (tta0_decompressor)                 0.000      0.123 f
  core/decomp/U1/Z (C8T28SOIDV_LL_CNIVX18_P0)            0.010 *    0.133 r
  core/decomp/fetch_en (tta0_decompressor)               0.000      0.133 r
  core/inst_fetch/fetch_en (tta0_ifetch)                 0.000      0.133 r
  core/inst_fetch/U197/Z (C8T28SOIDV_LL_NAND2X18_P0)     0.011 *    0.144 f
  core/inst_fetch/glock (tta0_ifetch)                    0.000      0.144 f
  core/loopbuffer/glock_in (tta0_loopbuf_1_32_51_1_0)    0.000      0.144 f
  core/loopbuffer/U87/Z (C8T28SOIDV_LL_NAND2X36_P0)      0.011 *    0.156 r
  core/loopbuffer/U154/Z (C8T28SOIDV_LL_NAND2X36_P0)     0.010 *    0.166 f
  core/loopbuffer/glock_out (tta0_loopbuf_1_32_51_1_0)
                                                         0.000      0.166 f
  core/inst_decoder/lock (tta0_decoder)                  0.000      0.166 f
  core/inst_decoder/U4/Z (C8T28SOIDV_LL_NOR2AX29_P0)     0.016 *    0.183 r
  core/inst_decoder/U39/Z (C8T28SOIDV_LL_CNIVX37_P0)     0.010 *    0.193 f
  core/inst_decoder/glock[7] (tta0_decoder)              0.000      0.193 f
  core/fu_lsu_r/glock (fu_ldw_stw_always_4_dataw32_addrw16_1)
                                                         0.000      0.193 f
  core/fu_lsu_r/U55/Z (C8T28SOIDV_LL_CNIVX37_P0)         0.008 *    0.201 r
  core/fu_lsu_r/U5/Z (C8T28SOIDV_LL_NAND2X36_P0)         0.016 *    0.217 f
  core/fu_lsu_r/mem_en_x[0] (fu_ldw_stw_always_4_dataw32_addrw16_1)
                                                         0.000      0.217 f
  U138/Z (C8T28SOIDV_LL_NAND2X36_P0)                     0.021 *    0.238 r
  U134/Z (C8T28SOI_LL_NAND2X8_P0)                        0.014 *    0.252 f
  U135/Z (C8T28SOI_LL_OA21X10_P0)                        0.019 *    0.271 f
  datamem/scheduler/lsu_addr_a[12] (par_mem_scheduler_dataw32_addrw14_ports2_rd_delay1)
                                                         0.000      0.271 f
  datamem/scheduler/U53/Z (C8T28SOI_LL_NAND2X8_P0)       0.011 *    0.283 r
  datamem/scheduler/U54/Z (C8T28SOIDV_LL_NAND2X18_P0)    0.011 *    0.293 f
  datamem/scheduler/addr[12] (par_mem_scheduler_dataw32_addrw14_ports2_rd_delay1)
                                                         0.000      0.293 f
  datamem/par_mem_logic_inst/addrs_from_lsus[12] (par_mem_logic_PORTS2_LSU_ADDRW14_CTRLW1_DATAW32_PM_FUNC2)
                                                         0.000      0.293 f
  datamem/par_mem_logic_inst/addr_crsbar_0/addrs_from_lsus[12] (addr_crsbar_PORTS2_LSU_ADDRW14_CTRLW1_PM_FUNC2)
                                                         0.000      0.293 f
  datamem/par_mem_logic_inst/addr_crsbar_0/U121/Z (C8T28SOI_LL_OAI12X10_P0)
                                                         0.016 *    0.310 r
  datamem/par_mem_logic_inst/addr_crsbar_0/U115/Z (C8T28SOIDV_LLS_XOR2X4_P0)
                                                         0.034 *    0.343 r
  datamem/par_mem_logic_inst/addr_crsbar_0/U87/Z (C8T28SOIDV_LLS_XNOR2X4_P0)
                                                         0.035 *    0.378 r
  datamem/par_mem_logic_inst/addr_crsbar_0/U6/Z (C8T28SOI_LL_XNOR2X19_P0)
                                                         0.046 *    0.424 f
  datamem/par_mem_logic_inst/addr_crsbar_0/U120/Z (C8T28SOIDV_LLS_XNOR2X11_P0)
                                                         0.025 *    0.449 r
  datamem/par_mem_logic_inst/addr_crsbar_0/module_nums[0] (addr_crsbar_PORTS2_LSU_ADDRW14_CTRLW1_PM_FUNC2)
                                                         0.000      0.449 r
  datamem/par_mem_logic_inst/ctrl_units_0/module_nums[0] (ctrl_units_PORTS2_CTRLW1)
                                                         0.000      0.449 r
  datamem/par_mem_logic_inst/ctrl_units_0/ctrl_uniti_0/module_num[0] (ctrl_unit_PORTS2_CTRLW1_1)
                                                         0.000      0.449 r
  datamem/par_mem_logic_inst/ctrl_units_0/ctrl_uniti_0/U21/Z (C8T28SOIDV_LL_NAND2X18_P0)
                                                         0.016 *    0.465 f
  datamem/par_mem_logic_inst/ctrl_units_0/ctrl_uniti_0/U16/Z (C8T28SOIDV_LL_CNIVX18_P0)
                                                         0.010 *    0.475 r
  datamem/par_mem_logic_inst/ctrl_units_0/ctrl_uniti_0/ctrl_matrix_row_out[1] (ctrl_unit_PORTS2_CTRLW1_1)
                                                         0.000      0.475 r
  datamem/par_mem_logic_inst/ctrl_units_0/ctrl_uniti_1/t_ctrl_matrix_row_in[0] (ctrl_unit_PORTS2_CTRLW1_0)
                                                         0.000      0.475 r
  datamem/par_mem_logic_inst/ctrl_units_0/ctrl_uniti_1/U18/Z (C8T28SOIDV_LL_NAND2X18_P0)
                                                         0.009 *    0.484 f
  datamem/par_mem_logic_inst/ctrl_units_0/ctrl_uniti_1/U19/Z (C8T28SOIDV_LL_CNIVX18_P0)
                                                         0.007 *    0.491 r
  datamem/par_mem_logic_inst/ctrl_units_0/ctrl_uniti_1/U10/Z (C8T28SOIDV_LL_NOR2X9_P0)
                                                         0.008 *    0.499 f
  datamem/par_mem_logic_inst/ctrl_units_0/ctrl_uniti_1/mem_en_x (ctrl_unit_PORTS2_CTRLW1_0)
                                                         0.000      0.499 f
  datamem/par_mem_logic_inst/ctrl_units_0/U7/Z (C8T28SOIDV_LL_CNIVX28_P0)
                                                         0.009 *    0.509 r
  datamem/par_mem_logic_inst/ctrl_units_0/U13/Z (C8T28SOIDV_LL_NAND2X36_P0)
                                                         0.010 *    0.519 f
  datamem/par_mem_logic_inst/ctrl_units_0/mem_en_xs[1] (ctrl_units_PORTS2_CTRLW1)
                                                         0.000      0.519 f
  datamem/par_mem_logic_inst/mem_en_xs[1] (par_mem_logic_PORTS2_LSU_ADDRW14_CTRLW1_DATAW32_PM_FUNC2)
                                                         0.000      0.519 f
  datamem/dmem_1/en_x (synch_singleport_mem_wrapper_DATAW32_ADDRW13_1)
                                                         0.000      0.519 f
  datamem/dmem_1/en_wr_arbiter/en (block_en_wr_arbiter_ADDRW13_NBLOCKS9_1)
                                                         0.000      0.519 f
  datamem/dmem_1/en_wr_arbiter/U23/Z (C8T28SOIDV_LL_CNIVX37_P0)
                                                         0.011 *    0.531 r
  datamem/dmem_1/en_wr_arbiter/U40/Z (C8T28SOIDV_LL_NAND2AX9_P0)
                                                         0.011 *    0.541 f
  datamem/dmem_1/en_wr_arbiter/en_blocks[5] (block_en_wr_arbiter_ADDRW13_NBLOCKS9_1)
                                                         0.000      0.541 f
  datamem/dmem_1/cacti_mem_x_5/en_x (cacti_mem_wrapper_DATAW32_ADDRW9_1)
                                                         0.000      0.541 f
  datamem/dmem_1/cacti_mem_x_5/mem_512x32/mem_en_x (ram_512x32)
                                                         0.000 *    0.542 f
  data arrival time                                                 0.542

  clock clk (rise edge)                                  1.053      1.053
  clock network delay (ideal)                            0.010      1.063
  clock uncertainty                                     -0.010      1.053
  datamem/dmem_1/cacti_mem_x_5/mem_512x32/clk (ram_512x32)
                                                         0.000      1.053 r
  library setup time                                    -0.504      0.549
  data required time                                                0.549
  --------------------------------------------------------------------------
  data required time                                                0.549
  data arrival time                                                -0.542
  --------------------------------------------------------------------------
  slack (MET)                                                       0.007


  Startpoint: core/loopbuffer/clk_r_REG1642_S49
              (rising edge-triggered flip-flop clocked by clk)
  Endpoint: datamem/dmem_1/cacti_mem_x_1/mem_32x32
            (rising edge-triggered flip-flop clocked by clk)
  Path Group: clk
  Path Type: max

  Point                                                   Incr       Path
  --------------------------------------------------------------------------
  clock clk (rise edge)                                  0.000      0.000
  clock network delay (ideal)                            0.010      0.010
  core/loopbuffer/clk_r_REG1642_S49/CP (C8T28SOIDV_LL_DFPRQX10_P0)
                                                         0.000      0.010 r
  core/loopbuffer/clk_r_REG1642_S49/Q (C8T28SOIDV_LL_DFPRQX10_P0)
                                                         0.060      0.070 r
  core/loopbuffer/U44/Z (C8T28SOI_LL_CNIVX9_P0)          0.009 *    0.079 f
  core/loopbuffer/U42/Z (C8T28SOIDV_LL_NAND2X9_P0)       0.013 *    0.093 r
  core/loopbuffer/U86/Z (C8T28SOIDV_LL_CNIVX18_P0)       0.010 *    0.103 f
  core/loopbuffer/U69/Z (C8T28SOIDV_LL_NAND2X18_P0)      0.009 *    0.112 r
  core/loopbuffer/U194/Z (C8T28SOI_LLBR0P6_NAND3X14_P0)
                                                         0.010 *    0.123 f
  core/loopbuffer/lock_req_out (tta0_loopbuf_1_32_51_1_0)
                                                         0.000      0.123 f
  core/decomp/lock_r (tta0_decompressor)                 0.000      0.123 f
  core/decomp/U1/Z (C8T28SOIDV_LL_CNIVX18_P0)            0.010 *    0.133 r
  core/decomp/fetch_en (tta0_decompressor)               0.000      0.133 r
  core/inst_fetch/fetch_en (tta0_ifetch)                 0.000      0.133 r
  core/inst_fetch/U197/Z (C8T28SOIDV_LL_NAND2X18_P0)     0.011 *    0.144 f
  core/inst_fetch/glock (tta0_ifetch)                    0.000      0.144 f
  core/loopbuffer/glock_in (tta0_loopbuf_1_32_51_1_0)    0.000      0.144 f
  core/loopbuffer/U87/Z (C8T28SOIDV_LL_NAND2X36_P0)      0.011 *    0.156 r
  core/loopbuffer/U154/Z (C8T28SOIDV_LL_NAND2X36_P0)     0.010 *    0.166 f
  core/loopbuffer/glock_out (tta0_loopbuf_1_32_51_1_0)
                                                         0.000      0.166 f
  core/inst_decoder/lock (tta0_decoder)                  0.000      0.166 f
  core/inst_decoder/U4/Z (C8T28SOIDV_LL_NOR2AX29_P0)     0.016 *    0.183 r
  core/inst_decoder/U39/Z (C8T28SOIDV_LL_CNIVX37_P0)     0.010 *    0.193 f
  core/inst_decoder/glock[7] (tta0_decoder)              0.000      0.193 f
  core/fu_lsu_r/glock (fu_ldw_stw_always_4_dataw32_addrw16_1)
                                                         0.000      0.193 f
  core/fu_lsu_r/U55/Z (C8T28SOIDV_LL_CNIVX37_P0)         0.008 *    0.201 r
  core/fu_lsu_r/U5/Z (C8T28SOIDV_LL_NAND2X36_P0)         0.016 *    0.217 f
  core/fu_lsu_r/mem_en_x[0] (fu_ldw_stw_always_4_dataw32_addrw16_1)
                                                         0.000      0.217 f
  U138/Z (C8T28SOIDV_LL_NAND2X36_P0)                     0.021 *    0.238 r
  U134/Z (C8T28SOI_LL_NAND2X8_P0)                        0.014 *    0.252 f
  U135/Z (C8T28SOI_LL_OA21X10_P0)                        0.019 *    0.271 f
  datamem/scheduler/lsu_addr_a[12] (par_mem_scheduler_dataw32_addrw14_ports2_rd_delay1)
                                                         0.000      0.271 f
  datamem/scheduler/U53/Z (C8T28SOI_LL_NAND2X8_P0)       0.011 *    0.283 r
  datamem/scheduler/U54/Z (C8T28SOIDV_LL_NAND2X18_P0)    0.011 *    0.293 f
  datamem/scheduler/addr[12] (par_mem_scheduler_dataw32_addrw14_ports2_rd_delay1)
                                                         0.000      0.293 f
  datamem/par_mem_logic_inst/addrs_from_lsus[12] (par_mem_logic_PORTS2_LSU_ADDRW14_CTRLW1_DATAW32_PM_FUNC2)
                                                         0.000      0.293 f
  datamem/par_mem_logic_inst/addr_crsbar_0/addrs_from_lsus[12] (addr_crsbar_PORTS2_LSU_ADDRW14_CTRLW1_PM_FUNC2)
                                                         0.000      0.293 f
  datamem/par_mem_logic_inst/addr_crsbar_0/U121/Z (C8T28SOI_LL_OAI12X10_P0)
                                                         0.016 *    0.310 r
  datamem/par_mem_logic_inst/addr_crsbar_0/U115/Z (C8T28SOIDV_LLS_XOR2X4_P0)
                                                         0.034 *    0.343 r
  datamem/par_mem_logic_inst/addr_crsbar_0/U87/Z (C8T28SOIDV_LLS_XNOR2X4_P0)
                                                         0.035 *    0.378 r
  datamem/par_mem_logic_inst/addr_crsbar_0/U6/Z (C8T28SOI_LL_XNOR2X19_P0)
                                                         0.046 *    0.424 f
  datamem/par_mem_logic_inst/addr_crsbar_0/U120/Z (C8T28SOIDV_LLS_XNOR2X11_P0)
                                                         0.025 *    0.449 r
  datamem/par_mem_logic_inst/addr_crsbar_0/module_nums[0] (addr_crsbar_PORTS2_LSU_ADDRW14_CTRLW1_PM_FUNC2)
                                                         0.000      0.449 r
  datamem/par_mem_logic_inst/ctrl_units_0/module_nums[0] (ctrl_units_PORTS2_CTRLW1)
                                                         0.000      0.449 r
  datamem/par_mem_logic_inst/ctrl_units_0/ctrl_uniti_0/module_num[0] (ctrl_unit_PORTS2_CTRLW1_1)
                                                         0.000      0.449 r
  datamem/par_mem_logic_inst/ctrl_units_0/ctrl_uniti_0/U21/Z (C8T28SOIDV_LL_NAND2X18_P0)
                                                         0.016 *    0.465 f
  datamem/par_mem_logic_inst/ctrl_units_0/ctrl_uniti_0/U16/Z (C8T28SOIDV_LL_CNIVX18_P0)
                                                         0.010 *    0.475 r
  datamem/par_mem_logic_inst/ctrl_units_0/ctrl_uniti_0/ctrl_matrix_row_out[1] (ctrl_unit_PORTS2_CTRLW1_1)
                                                         0.000      0.475 r
  datamem/par_mem_logic_inst/ctrl_units_0/ctrl_uniti_1/t_ctrl_matrix_row_in[0] (ctrl_unit_PORTS2_CTRLW1_0)
                                                         0.000      0.475 r
  datamem/par_mem_logic_inst/ctrl_units_0/ctrl_uniti_1/U18/Z (C8T28SOIDV_LL_NAND2X18_P0)
                                                         0.009 *    0.484 f
  datamem/par_mem_logic_inst/ctrl_units_0/ctrl_uniti_1/U19/Z (C8T28SOIDV_LL_CNIVX18_P0)
                                                         0.007 *    0.491 r
  datamem/par_mem_logic_inst/ctrl_units_0/ctrl_uniti_1/U10/Z (C8T28SOIDV_LL_NOR2X9_P0)
                                                         0.008 *    0.499 f
  datamem/par_mem_logic_inst/ctrl_units_0/ctrl_uniti_1/mem_en_x (ctrl_unit_PORTS2_CTRLW1_0)
                                                         0.000      0.499 f
  datamem/par_mem_logic_inst/ctrl_units_0/U7/Z (C8T28SOIDV_LL_CNIVX28_P0)
                                                         0.009 *    0.509 r
  datamem/par_mem_logic_inst/ctrl_units_0/U13/Z (C8T28SOIDV_LL_NAND2X36_P0)
                                                         0.010 *    0.519 f
  datamem/par_mem_logic_inst/ctrl_units_0/mem_en_xs[1] (ctrl_units_PORTS2_CTRLW1)
                                                         0.000      0.519 f
  datamem/par_mem_logic_inst/mem_en_xs[1] (par_mem_logic_PORTS2_LSU_ADDRW14_CTRLW1_DATAW32_PM_FUNC2)
                                                         0.000      0.519 f
  datamem/dmem_1/en_x (synch_singleport_mem_wrapper_DATAW32_ADDRW13_1)
                                                         0.000      0.519 f
  datamem/dmem_1/en_wr_arbiter/en (block_en_wr_arbiter_ADDRW13_NBLOCKS9_1)
                                                         0.000      0.519 f
  datamem/dmem_1/en_wr_arbiter/U10/Z (C8T28SOIDV_LL_CNIVX37_P0)
                                                         0.013 *    0.532 r
  datamem/dmem_1/en_wr_arbiter/U31/Z (C8T28SOIDV_LL_NAND2X18_P0)
                                                         0.010 *    0.542 f
  datamem/dmem_1/en_wr_arbiter/en_blocks[1] (block_en_wr_arbiter_ADDRW13_NBLOCKS9_1)
                                                         0.000      0.542 f
  datamem/dmem_1/cacti_mem_x_1/en_x (cacti_mem_wrapper_DATAW32_ADDRW5_2)
                                                         0.000      0.542 f
  datamem/dmem_1/cacti_mem_x_1/mem_32x32/mem_en_x (ram_32x32)
                                                         0.000 *    0.542 f
  data arrival time                                                 0.542

  clock clk (rise edge)                                  1.053      1.053
  clock network delay (ideal)                            0.010      1.063
  clock uncertainty                                     -0.010      1.053
  datamem/dmem_1/cacti_mem_x_1/mem_32x32/clk (ram_32x32)
                                                         0.000      1.053 r
  library setup time                                    -0.503      0.550
  data required time                                                0.550
  --------------------------------------------------------------------------
  data required time                                                0.550
  data arrival time                                                -0.542
  --------------------------------------------------------------------------
  slack (MET)                                                       0.008


  Startpoint: core/loopbuffer/clk_r_REG1642_S49
              (rising edge-triggered flip-flop clocked by clk)
  Endpoint: datamem/dmem_1/cacti_mem_x_4/mem_256x32
            (rising edge-triggered flip-flop clocked by clk)
  Path Group: clk
  Path Type: max

  Point                                                   Incr       Path
  --------------------------------------------------------------------------
  clock clk (rise edge)                                  0.000      0.000
  clock network delay (ideal)                            0.010      0.010
  core/loopbuffer/clk_r_REG1642_S49/CP (C8T28SOIDV_LL_DFPRQX10_P0)
                                                         0.000      0.010 r
  core/loopbuffer/clk_r_REG1642_S49/Q (C8T28SOIDV_LL_DFPRQX10_P0)
                                                         0.060      0.070 r
  core/loopbuffer/U44/Z (C8T28SOI_LL_CNIVX9_P0)          0.009 *    0.079 f
  core/loopbuffer/U42/Z (C8T28SOIDV_LL_NAND2X9_P0)       0.013 *    0.093 r
  core/loopbuffer/U86/Z (C8T28SOIDV_LL_CNIVX18_P0)       0.010 *    0.103 f
  core/loopbuffer/U69/Z (C8T28SOIDV_LL_NAND2X18_P0)      0.009 *    0.112 r
  core/loopbuffer/U194/Z (C8T28SOI_LLBR0P6_NAND3X14_P0)
                                                         0.010 *    0.123 f
  core/loopbuffer/lock_req_out (tta0_loopbuf_1_32_51_1_0)
                                                         0.000      0.123 f
  core/decomp/lock_r (tta0_decompressor)                 0.000      0.123 f
  core/decomp/U1/Z (C8T28SOIDV_LL_CNIVX18_P0)            0.010 *    0.133 r
  core/decomp/fetch_en (tta0_decompressor)               0.000      0.133 r
  core/inst_fetch/fetch_en (tta0_ifetch)                 0.000      0.133 r
  core/inst_fetch/U197/Z (C8T28SOIDV_LL_NAND2X18_P0)     0.011 *    0.144 f
  core/inst_fetch/glock (tta0_ifetch)                    0.000      0.144 f
  core/loopbuffer/glock_in (tta0_loopbuf_1_32_51_1_0)    0.000      0.144 f
  core/loopbuffer/U87/Z (C8T28SOIDV_LL_NAND2X36_P0)      0.011 *    0.156 r
  core/loopbuffer/U154/Z (C8T28SOIDV_LL_NAND2X36_P0)     0.010 *    0.166 f
  core/loopbuffer/glock_out (tta0_loopbuf_1_32_51_1_0)
                                                         0.000      0.166 f
  core/inst_decoder/lock (tta0_decoder)                  0.000      0.166 f
  core/inst_decoder/U4/Z (C8T28SOIDV_LL_NOR2AX29_P0)     0.016 *    0.183 r
  core/inst_decoder/U39/Z (C8T28SOIDV_LL_CNIVX37_P0)     0.010 *    0.193 f
  core/inst_decoder/glock[7] (tta0_decoder)              0.000      0.193 f
  core/fu_lsu_r/glock (fu_ldw_stw_always_4_dataw32_addrw16_1)
                                                         0.000      0.193 f
  core/fu_lsu_r/U55/Z (C8T28SOIDV_LL_CNIVX37_P0)         0.008 *    0.201 r
  core/fu_lsu_r/U5/Z (C8T28SOIDV_LL_NAND2X36_P0)         0.016 *    0.217 f
  core/fu_lsu_r/mem_en_x[0] (fu_ldw_stw_always_4_dataw32_addrw16_1)
                                                         0.000      0.217 f
  U138/Z (C8T28SOIDV_LL_NAND2X36_P0)                     0.021 *    0.238 r
  U134/Z (C8T28SOI_LL_NAND2X8_P0)                        0.014 *    0.252 f
  U135/Z (C8T28SOI_LL_OA21X10_P0)                        0.019 *    0.271 f
  datamem/scheduler/lsu_addr_a[12] (par_mem_scheduler_dataw32_addrw14_ports2_rd_delay1)
                                                         0.000      0.271 f
  datamem/scheduler/U53/Z (C8T28SOI_LL_NAND2X8_P0)       0.011 *    0.283 r
  datamem/scheduler/U54/Z (C8T28SOIDV_LL_NAND2X18_P0)    0.011 *    0.293 f
  datamem/scheduler/addr[12] (par_mem_scheduler_dataw32_addrw14_ports2_rd_delay1)
                                                         0.000      0.293 f
  datamem/par_mem_logic_inst/addrs_from_lsus[12] (par_mem_logic_PORTS2_LSU_ADDRW14_CTRLW1_DATAW32_PM_FUNC2)
                                                         0.000      0.293 f
  datamem/par_mem_logic_inst/addr_crsbar_0/addrs_from_lsus[12] (addr_crsbar_PORTS2_LSU_ADDRW14_CTRLW1_PM_FUNC2)
                                                         0.000      0.293 f
  datamem/par_mem_logic_inst/addr_crsbar_0/U121/Z (C8T28SOI_LL_OAI12X10_P0)
                                                         0.016 *    0.310 r
  datamem/par_mem_logic_inst/addr_crsbar_0/U115/Z (C8T28SOIDV_LLS_XOR2X4_P0)
                                                         0.034 *    0.343 r
  datamem/par_mem_logic_inst/addr_crsbar_0/U87/Z (C8T28SOIDV_LLS_XNOR2X4_P0)
                                                         0.035 *    0.378 r
  datamem/par_mem_logic_inst/addr_crsbar_0/U6/Z (C8T28SOI_LL_XNOR2X19_P0)
                                                         0.046 *    0.424 f
  datamem/par_mem_logic_inst/addr_crsbar_0/U120/Z (C8T28SOIDV_LLS_XNOR2X11_P0)
                                                         0.025 *    0.449 r
  datamem/par_mem_logic_inst/addr_crsbar_0/module_nums[0] (addr_crsbar_PORTS2_LSU_ADDRW14_CTRLW1_PM_FUNC2)
                                                         0.000      0.449 r
  datamem/par_mem_logic_inst/ctrl_units_0/module_nums[0] (ctrl_units_PORTS2_CTRLW1)
                                                         0.000      0.449 r
  datamem/par_mem_logic_inst/ctrl_units_0/ctrl_uniti_0/module_num[0] (ctrl_unit_PORTS2_CTRLW1_1)
                                                         0.000      0.449 r
  datamem/par_mem_logic_inst/ctrl_units_0/ctrl_uniti_0/U21/Z (C8T28SOIDV_LL_NAND2X18_P0)
                                                         0.016 *    0.465 f
  datamem/par_mem_logic_inst/ctrl_units_0/ctrl_uniti_0/U16/Z (C8T28SOIDV_LL_CNIVX18_P0)
                                                         0.010 *    0.475 r
  datamem/par_mem_logic_inst/ctrl_units_0/ctrl_uniti_0/ctrl_matrix_row_out[1] (ctrl_unit_PORTS2_CTRLW1_1)
                                                         0.000      0.475 r
  datamem/par_mem_logic_inst/ctrl_units_0/ctrl_uniti_1/t_ctrl_matrix_row_in[0] (ctrl_unit_PORTS2_CTRLW1_0)
                                                         0.000      0.475 r
  datamem/par_mem_logic_inst/ctrl_units_0/ctrl_uniti_1/U18/Z (C8T28SOIDV_LL_NAND2X18_P0)
                                                         0.009 *    0.484 f
  datamem/par_mem_logic_inst/ctrl_units_0/ctrl_uniti_1/U19/Z (C8T28SOIDV_LL_CNIVX18_P0)
                                                         0.007 *    0.491 r
  datamem/par_mem_logic_inst/ctrl_units_0/ctrl_uniti_1/U10/Z (C8T28SOIDV_LL_NOR2X9_P0)
                                                         0.008 *    0.499 f
  datamem/par_mem_logic_inst/ctrl_units_0/ctrl_uniti_1/mem_en_x (ctrl_unit_PORTS2_CTRLW1_0)
                                                         0.000      0.499 f
  datamem/par_mem_logic_inst/ctrl_units_0/U7/Z (C8T28SOIDV_LL_CNIVX28_P0)
                                                         0.009 *    0.509 r
  datamem/par_mem_logic_inst/ctrl_units_0/U13/Z (C8T28SOIDV_LL_NAND2X36_P0)
                                                         0.010 *    0.519 f
  datamem/par_mem_logic_inst/ctrl_units_0/mem_en_xs[1] (ctrl_units_PORTS2_CTRLW1)
                                                         0.000      0.519 f
  datamem/par_mem_logic_inst/mem_en_xs[1] (par_mem_logic_PORTS2_LSU_ADDRW14_CTRLW1_DATAW32_PM_FUNC2)
                                                         0.000      0.519 f
  datamem/dmem_1/en_x (synch_singleport_mem_wrapper_DATAW32_ADDRW13_1)
                                                         0.000      0.519 f
  datamem/dmem_1/en_wr_arbiter/en (block_en_wr_arbiter_ADDRW13_NBLOCKS9_1)
                                                         0.000      0.519 f
  datamem/dmem_1/en_wr_arbiter/U23/Z (C8T28SOIDV_LL_CNIVX37_P0)
                                                         0.011 *    0.531 r
  datamem/dmem_1/en_wr_arbiter/U24/Z (C8T28SOIDV_LL_NAND2X9_P0)
                                                         0.011 *    0.541 f
  datamem/dmem_1/en_wr_arbiter/en_blocks[4] (block_en_wr_arbiter_ADDRW13_NBLOCKS9_1)
                                                         0.000      0.541 f
  datamem/dmem_1/cacti_mem_x_4/en_x (cacti_mem_wrapper_DATAW32_ADDRW8_1)
                                                         0.000      0.541 f
  datamem/dmem_1/cacti_mem_x_4/mem_256x32/mem_en_x (ram_256x32)
                                                         0.000 *    0.541 f
  data arrival time                                                 0.541

  clock clk (rise edge)                                  1.053      1.053
  clock network delay (ideal)                            0.010      1.063
  clock uncertainty                                     -0.010      1.053
  datamem/dmem_1/cacti_mem_x_4/mem_256x32/clk (ram_256x32)
                                                         0.000      1.053 r
  library setup time                                    -0.504      0.549
  data required time                                                0.549
  --------------------------------------------------------------------------
  data required time                                                0.549
  data arrival time                                                -0.541
  --------------------------------------------------------------------------
  slack (MET)                                                       0.008


  Startpoint: core/loopbuffer/clk_r_REG1642_S49
              (rising edge-triggered flip-flop clocked by clk)
  Endpoint: datamem/dmem_1/cacti_mem_x_7/mem_2048x32
            (rising edge-triggered flip-flop clocked by clk)
  Path Group: clk
  Path Type: max

  Point                                                   Incr       Path
  --------------------------------------------------------------------------
  clock clk (rise edge)                                  0.000      0.000
  clock network delay (ideal)                            0.010      0.010
  core/loopbuffer/clk_r_REG1642_S49/CP (C8T28SOIDV_LL_DFPRQX10_P0)
                                                         0.000      0.010 r
  core/loopbuffer/clk_r_REG1642_S49/Q (C8T28SOIDV_LL_DFPRQX10_P0)
                                                         0.060      0.070 r
  core/loopbuffer/U44/Z (C8T28SOI_LL_CNIVX9_P0)          0.009 *    0.079 f
  core/loopbuffer/U42/Z (C8T28SOIDV_LL_NAND2X9_P0)       0.013 *    0.093 r
  core/loopbuffer/U86/Z (C8T28SOIDV_LL_CNIVX18_P0)       0.010 *    0.103 f
  core/loopbuffer/U69/Z (C8T28SOIDV_LL_NAND2X18_P0)      0.009 *    0.112 r
  core/loopbuffer/U194/Z (C8T28SOI_LLBR0P6_NAND3X14_P0)
                                                         0.010 *    0.123 f
  core/loopbuffer/lock_req_out (tta0_loopbuf_1_32_51_1_0)
                                                         0.000      0.123 f
  core/decomp/lock_r (tta0_decompressor)                 0.000      0.123 f
  core/decomp/U1/Z (C8T28SOIDV_LL_CNIVX18_P0)            0.010 *    0.133 r
  core/decomp/fetch_en (tta0_decompressor)               0.000      0.133 r
  core/inst_fetch/fetch_en (tta0_ifetch)                 0.000      0.133 r
  core/inst_fetch/U197/Z (C8T28SOIDV_LL_NAND2X18_P0)     0.011 *    0.144 f
  core/inst_fetch/glock (tta0_ifetch)                    0.000      0.144 f
  core/loopbuffer/glock_in (tta0_loopbuf_1_32_51_1_0)    0.000      0.144 f
  core/loopbuffer/U87/Z (C8T28SOIDV_LL_NAND2X36_P0)      0.011 *    0.156 r
  core/loopbuffer/U154/Z (C8T28SOIDV_LL_NAND2X36_P0)     0.010 *    0.166 f
  core/loopbuffer/glock_out (tta0_loopbuf_1_32_51_1_0)
                                                         0.000      0.166 f
  core/inst_decoder/lock (tta0_decoder)                  0.000      0.166 f
  core/inst_decoder/U4/Z (C8T28SOIDV_LL_NOR2AX29_P0)     0.016 *    0.183 r
  core/inst_decoder/U39/Z (C8T28SOIDV_LL_CNIVX37_P0)     0.010 *    0.193 f
  core/inst_decoder/glock[7] (tta0_decoder)              0.000      0.193 f
  core/fu_lsu_r/glock (fu_ldw_stw_always_4_dataw32_addrw16_1)
                                                         0.000      0.193 f
  core/fu_lsu_r/U55/Z (C8T28SOIDV_LL_CNIVX37_P0)         0.008 *    0.201 r
  core/fu_lsu_r/U5/Z (C8T28SOIDV_LL_NAND2X36_P0)         0.016 *    0.217 f
  core/fu_lsu_r/mem_en_x[0] (fu_ldw_stw_always_4_dataw32_addrw16_1)
                                                         0.000      0.217 f
  U138/Z (C8T28SOIDV_LL_NAND2X36_P0)                     0.021 *    0.238 r
  U134/Z (C8T28SOI_LL_NAND2X8_P0)                        0.014 *    0.252 f
  U135/Z (C8T28SOI_LL_OA21X10_P0)                        0.019 *    0.271 f
  datamem/scheduler/lsu_addr_a[12] (par_mem_scheduler_dataw32_addrw14_ports2_rd_delay1)
                                                         0.000      0.271 f
  datamem/scheduler/U53/Z (C8T28SOI_LL_NAND2X8_P0)       0.011 *    0.283 r
  datamem/scheduler/U54/Z (C8T28SOIDV_LL_NAND2X18_P0)    0.011 *    0.293 f
  datamem/scheduler/addr[12] (par_mem_scheduler_dataw32_addrw14_ports2_rd_delay1)
                                                         0.000      0.293 f
  datamem/par_mem_logic_inst/addrs_from_lsus[12] (par_mem_logic_PORTS2_LSU_ADDRW14_CTRLW1_DATAW32_PM_FUNC2)
                                                         0.000      0.293 f
  datamem/par_mem_logic_inst/addr_crsbar_0/addrs_from_lsus[12] (addr_crsbar_PORTS2_LSU_ADDRW14_CTRLW1_PM_FUNC2)
                                                         0.000      0.293 f
  datamem/par_mem_logic_inst/addr_crsbar_0/U121/Z (C8T28SOI_LL_OAI12X10_P0)
                                                         0.016 *    0.310 r
  datamem/par_mem_logic_inst/addr_crsbar_0/U115/Z (C8T28SOIDV_LLS_XOR2X4_P0)
                                                         0.034 *    0.343 r
  datamem/par_mem_logic_inst/addr_crsbar_0/U87/Z (C8T28SOIDV_LLS_XNOR2X4_P0)
                                                         0.035 *    0.378 r
  datamem/par_mem_logic_inst/addr_crsbar_0/U6/Z (C8T28SOI_LL_XNOR2X19_P0)
                                                         0.046 *    0.424 f
  datamem/par_mem_logic_inst/addr_crsbar_0/U120/Z (C8T28SOIDV_LLS_XNOR2X11_P0)
                                                         0.025 *    0.449 r
  datamem/par_mem_logic_inst/addr_crsbar_0/module_nums[0] (addr_crsbar_PORTS2_LSU_ADDRW14_CTRLW1_PM_FUNC2)
                                                         0.000      0.449 r
  datamem/par_mem_logic_inst/ctrl_units_0/module_nums[0] (ctrl_units_PORTS2_CTRLW1)
                                                         0.000      0.449 r
  datamem/par_mem_logic_inst/ctrl_units_0/ctrl_uniti_0/module_num[0] (ctrl_unit_PORTS2_CTRLW1_1)
                                                         0.000      0.449 r
  datamem/par_mem_logic_inst/ctrl_units_0/ctrl_uniti_0/U21/Z (C8T28SOIDV_LL_NAND2X18_P0)
                                                         0.016 *    0.465 f
  datamem/par_mem_logic_inst/ctrl_units_0/ctrl_uniti_0/U16/Z (C8T28SOIDV_LL_CNIVX18_P0)
                                                         0.010 *    0.475 r
  datamem/par_mem_logic_inst/ctrl_units_0/ctrl_uniti_0/ctrl_matrix_row_out[1] (ctrl_unit_PORTS2_CTRLW1_1)
                                                         0.000      0.475 r
  datamem/par_mem_logic_inst/ctrl_units_0/ctrl_uniti_1/t_ctrl_matrix_row_in[0] (ctrl_unit_PORTS2_CTRLW1_0)
                                                         0.000      0.475 r
  datamem/par_mem_logic_inst/ctrl_units_0/ctrl_uniti_1/U18/Z (C8T28SOIDV_LL_NAND2X18_P0)
                                                         0.009 *    0.484 f
  datamem/par_mem_logic_inst/ctrl_units_0/ctrl_uniti_1/U19/Z (C8T28SOIDV_LL_CNIVX18_P0)
                                                         0.007 *    0.491 r
  datamem/par_mem_logic_inst/ctrl_units_0/ctrl_uniti_1/U10/Z (C8T28SOIDV_LL_NOR2X9_P0)
                                                         0.008 *    0.499 f
  datamem/par_mem_logic_inst/ctrl_units_0/ctrl_uniti_1/mem_en_x (ctrl_unit_PORTS2_CTRLW1_0)
                                                         0.000      0.499 f
  datamem/par_mem_logic_inst/ctrl_units_0/U7/Z (C8T28SOIDV_LL_CNIVX28_P0)
                                                         0.009 *    0.509 r
  datamem/par_mem_logic_inst/ctrl_units_0/U13/Z (C8T28SOIDV_LL_NAND2X36_P0)
                                                         0.010 *    0.519 f
  datamem/par_mem_logic_inst/ctrl_units_0/mem_en_xs[1] (ctrl_units_PORTS2_CTRLW1)
                                                         0.000      0.519 f
  datamem/par_mem_logic_inst/mem_en_xs[1] (par_mem_logic_PORTS2_LSU_ADDRW14_CTRLW1_DATAW32_PM_FUNC2)
                                                         0.000      0.519 f
  datamem/dmem_1/en_x (synch_singleport_mem_wrapper_DATAW32_ADDRW13_1)
                                                         0.000      0.519 f
  datamem/dmem_1/en_wr_arbiter/en (block_en_wr_arbiter_ADDRW13_NBLOCKS9_1)
                                                         0.000      0.519 f
  datamem/dmem_1/en_wr_arbiter/U23/Z (C8T28SOIDV_LL_CNIVX37_P0)
                                                         0.011 *    0.531 r
  datamem/dmem_1/en_wr_arbiter/U7/Z (C8T28SOI_LL_CNNAND2X8_P0)
                                                         0.010 *    0.541 f
  datamem/dmem_1/en_wr_arbiter/en_blocks[7] (block_en_wr_arbiter_ADDRW13_NBLOCKS9_1)
                                                         0.000      0.541 f
  datamem/dmem_1/cacti_mem_x_7/en_x (cacti_mem_wrapper_DATAW32_ADDRW11_1)
                                                         0.000      0.541 f
  datamem/dmem_1/cacti_mem_x_7/mem_2048x32/mem_en_x (ram_2048x32)
                                                         0.000 *    0.541 f
  data arrival time                                                 0.541

  clock clk (rise edge)                                  1.053      1.053
  clock network delay (ideal)                            0.010      1.063
  clock uncertainty                                     -0.010      1.053
  datamem/dmem_1/cacti_mem_x_7/mem_2048x32/clk (ram_2048x32)
                                                         0.000      1.053 r
  library setup time                                    -0.504      0.549
  data required time                                                0.549
  --------------------------------------------------------------------------
  data required time                                                0.549
  data arrival time                                                -0.541
  --------------------------------------------------------------------------
  slack (MET)                                                       0.008


  Startpoint: core/loopbuffer/clk_r_REG1642_S49
              (rising edge-triggered flip-flop clocked by clk)
  Endpoint: datamem/dmem_2/cacti_mem_0/mem_32x32
            (rising edge-triggered flip-flop clocked by clk)
  Path Group: clk
  Path Type: max

  Point                                                   Incr       Path
  --------------------------------------------------------------------------
  clock clk (rise edge)                                  0.000      0.000
  clock network delay (ideal)                            0.010      0.010
  core/loopbuffer/clk_r_REG1642_S49/CP (C8T28SOIDV_LL_DFPRQX10_P0)
                                                         0.000      0.010 r
  core/loopbuffer/clk_r_REG1642_S49/Q (C8T28SOIDV_LL_DFPRQX10_P0)
                                                         0.060      0.070 r
  core/loopbuffer/U44/Z (C8T28SOI_LL_CNIVX9_P0)          0.009 *    0.079 f
  core/loopbuffer/U42/Z (C8T28SOIDV_LL_NAND2X9_P0)       0.013 *    0.093 r
  core/loopbuffer/U86/Z (C8T28SOIDV_LL_CNIVX18_P0)       0.010 *    0.103 f
  core/loopbuffer/U69/Z (C8T28SOIDV_LL_NAND2X18_P0)      0.009 *    0.112 r
  core/loopbuffer/U194/Z (C8T28SOI_LLBR0P6_NAND3X14_P0)
                                                         0.010 *    0.123 f
  core/loopbuffer/lock_req_out (tta0_loopbuf_1_32_51_1_0)
                                                         0.000      0.123 f
  core/decomp/lock_r (tta0_decompressor)                 0.000      0.123 f
  core/decomp/U1/Z (C8T28SOIDV_LL_CNIVX18_P0)            0.010 *    0.133 r
  core/decomp/fetch_en (tta0_decompressor)               0.000      0.133 r
  core/inst_fetch/fetch_en (tta0_ifetch)                 0.000      0.133 r
  core/inst_fetch/U197/Z (C8T28SOIDV_LL_NAND2X18_P0)     0.011 *    0.144 f
  core/inst_fetch/glock (tta0_ifetch)                    0.000      0.144 f
  core/loopbuffer/glock_in (tta0_loopbuf_1_32_51_1_0)    0.000      0.144 f
  core/loopbuffer/U87/Z (C8T28SOIDV_LL_NAND2X36_P0)      0.011 *    0.156 r
  core/loopbuffer/U154/Z (C8T28SOIDV_LL_NAND2X36_P0)     0.010 *    0.166 f
  core/loopbuffer/glock_out (tta0_loopbuf_1_32_51_1_0)
                                                         0.000      0.166 f
  core/inst_decoder/lock (tta0_decoder)                  0.000      0.166 f
  core/inst_decoder/U4/Z (C8T28SOIDV_LL_NOR2AX29_P0)     0.016 *    0.183 r
  core/inst_decoder/U39/Z (C8T28SOIDV_LL_CNIVX37_P0)     0.010 *    0.193 f
  core/inst_decoder/glock[7] (tta0_decoder)              0.000      0.193 f
  core/fu_lsu_r/glock (fu_ldw_stw_always_4_dataw32_addrw16_1)
                                                         0.000      0.193 f
  core/fu_lsu_r/U55/Z (C8T28SOIDV_LL_CNIVX37_P0)         0.008 *    0.201 r
  core/fu_lsu_r/U5/Z (C8T28SOIDV_LL_NAND2X36_P0)         0.016 *    0.217 f
  core/fu_lsu_r/mem_en_x[0] (fu_ldw_stw_always_4_dataw32_addrw16_1)
                                                         0.000      0.217 f
  U138/Z (C8T28SOIDV_LL_NAND2X36_P0)                     0.021 *    0.238 r
  U134/Z (C8T28SOI_LL_NAND2X8_P0)                        0.014 *    0.252 f
  U135/Z (C8T28SOI_LL_OA21X10_P0)                        0.019 *    0.271 f
  datamem/scheduler/lsu_addr_a[12] (par_mem_scheduler_dataw32_addrw14_ports2_rd_delay1)
                                                         0.000      0.271 f
  datamem/scheduler/U53/Z (C8T28SOI_LL_NAND2X8_P0)       0.011 *    0.283 r
  datamem/scheduler/U54/Z (C8T28SOIDV_LL_NAND2X18_P0)    0.011 *    0.293 f
  datamem/scheduler/addr[12] (par_mem_scheduler_dataw32_addrw14_ports2_rd_delay1)
                                                         0.000      0.293 f
  datamem/par_mem_logic_inst/addrs_from_lsus[12] (par_mem_logic_PORTS2_LSU_ADDRW14_CTRLW1_DATAW32_PM_FUNC2)
                                                         0.000      0.293 f
  datamem/par_mem_logic_inst/addr_crsbar_0/addrs_from_lsus[12] (addr_crsbar_PORTS2_LSU_ADDRW14_CTRLW1_PM_FUNC2)
                                                         0.000      0.293 f
  datamem/par_mem_logic_inst/addr_crsbar_0/U121/Z (C8T28SOI_LL_OAI12X10_P0)
                                                         0.016 *    0.310 r
  datamem/par_mem_logic_inst/addr_crsbar_0/U115/Z (C8T28SOIDV_LLS_XOR2X4_P0)
                                                         0.034 *    0.343 r
  datamem/par_mem_logic_inst/addr_crsbar_0/U87/Z (C8T28SOIDV_LLS_XNOR2X4_P0)
                                                         0.035 *    0.378 r
  datamem/par_mem_logic_inst/addr_crsbar_0/U6/Z (C8T28SOI_LL_XNOR2X19_P0)
                                                         0.046 *    0.424 f
  datamem/par_mem_logic_inst/addr_crsbar_0/U120/Z (C8T28SOIDV_LLS_XNOR2X11_P0)
                                                         0.029 *    0.453 f
  datamem/par_mem_logic_inst/addr_crsbar_0/module_nums[0] (addr_crsbar_PORTS2_LSU_ADDRW14_CTRLW1_PM_FUNC2)
                                                         0.000      0.453 f
  datamem/par_mem_logic_inst/ctrl_units_0/module_nums[0] (ctrl_units_PORTS2_CTRLW1)
                                                         0.000      0.453 f
  datamem/par_mem_logic_inst/ctrl_units_0/ctrl_uniti_0/module_num[0] (ctrl_unit_PORTS2_CTRLW1_1)
                                                         0.000      0.453 f
  datamem/par_mem_logic_inst/ctrl_units_0/ctrl_uniti_0/U3/Z (C8T28SOI_LL_NOR2X8_P0)
                                                         0.019 *    0.471 r
  datamem/par_mem_logic_inst/ctrl_units_0/ctrl_uniti_0/U20/Z (C8T28SOIDV_LL_NOR2X9_P0)
                                                         0.012 *    0.483 f
  datamem/par_mem_logic_inst/ctrl_units_0/ctrl_uniti_0/mem_en_x (ctrl_unit_PORTS2_CTRLW1_1)
                                                         0.000      0.483 f
  datamem/par_mem_logic_inst/ctrl_units_0/U11/Z (C8T28SOIDV_LL_CNIVX18_P0)
                                                         0.012 *    0.495 r
  datamem/par_mem_logic_inst/ctrl_units_0/U12/Z (C8T28SOIDV_LL_NAND2X36_P0)
                                                         0.015 *    0.510 f
  datamem/par_mem_logic_inst/ctrl_units_0/mem_en_xs[0] (ctrl_units_PORTS2_CTRLW1)
                                                         0.000      0.510 f
  datamem/par_mem_logic_inst/mem_en_xs[0] (par_mem_logic_PORTS2_LSU_ADDRW14_CTRLW1_DATAW32_PM_FUNC2)
                                                         0.000      0.510 f
  datamem/dmem_2/en_x (synch_singleport_mem_wrapper_DATAW32_ADDRW13_0)
                                                         0.000      0.510 f
  datamem/dmem_2/en_wr_arbiter/en (block_en_wr_arbiter_ADDRW13_NBLOCKS9_0)
                                                         0.000      0.510 f
  datamem/dmem_2/en_wr_arbiter/U22/Z (C8T28SOI_LL_CNNOR2X8_P0)
                                                         0.017 *    0.527 r
  datamem/dmem_2/en_wr_arbiter/U25/Z (C8T28SOIDV_LL_NAND2X9_P0)
                                                         0.012 *    0.539 f
  datamem/dmem_2/en_wr_arbiter/en_blocks[0] (block_en_wr_arbiter_ADDRW13_NBLOCKS9_0)
                                                         0.000      0.539 f
  datamem/dmem_2/cacti_mem_0/en_x (cacti_mem_wrapper_DATAW32_ADDRW5_1)
                                                         0.000      0.539 f
  datamem/dmem_2/cacti_mem_0/mem_32x32/mem_en_x (ram_32x32)
                                                         0.000 *    0.539 f
  data arrival time                                                 0.539

  clock clk (rise edge)                                  1.053      1.053
  clock network delay (ideal)                            0.010      1.063
  clock uncertainty                                     -0.010      1.053
  datamem/dmem_2/cacti_mem_0/mem_32x32/clk (ram_32x32)
                                                         0.000      1.053 r
  library setup time                                    -0.505      0.548
  data required time                                                0.548
  --------------------------------------------------------------------------
  data required time                                                0.548
  data arrival time                                                -0.539
  --------------------------------------------------------------------------
  slack (MET)                                                       0.008


  Startpoint: core/loopbuffer/clk_r_REG1642_S49
              (rising edge-triggered flip-flop clocked by clk)
  Endpoint: datamem/dmem_1/cacti_mem_x_6/mem_1024x32
            (rising edge-triggered flip-flop clocked by clk)
  Path Group: clk
  Path Type: max

  Point                                                   Incr       Path
  --------------------------------------------------------------------------
  clock clk (rise edge)                                  0.000      0.000
  clock network delay (ideal)                            0.010      0.010
  core/loopbuffer/clk_r_REG1642_S49/CP (C8T28SOIDV_LL_DFPRQX10_P0)
                                                         0.000      0.010 r
  core/loopbuffer/clk_r_REG1642_S49/Q (C8T28SOIDV_LL_DFPRQX10_P0)
                                                         0.060      0.070 r
  core/loopbuffer/U44/Z (C8T28SOI_LL_CNIVX9_P0)          0.009 *    0.079 f
  core/loopbuffer/U42/Z (C8T28SOIDV_LL_NAND2X9_P0)       0.013 *    0.093 r
  core/loopbuffer/U86/Z (C8T28SOIDV_LL_CNIVX18_P0)       0.010 *    0.103 f
  core/loopbuffer/U69/Z (C8T28SOIDV_LL_NAND2X18_P0)      0.009 *    0.112 r
  core/loopbuffer/U194/Z (C8T28SOI_LLBR0P6_NAND3X14_P0)
                                                         0.010 *    0.123 f
  core/loopbuffer/lock_req_out (tta0_loopbuf_1_32_51_1_0)
                                                         0.000      0.123 f
  core/decomp/lock_r (tta0_decompressor)                 0.000      0.123 f
  core/decomp/U1/Z (C8T28SOIDV_LL_CNIVX18_P0)            0.010 *    0.133 r
  core/decomp/fetch_en (tta0_decompressor)               0.000      0.133 r
  core/inst_fetch/fetch_en (tta0_ifetch)                 0.000      0.133 r
  core/inst_fetch/U197/Z (C8T28SOIDV_LL_NAND2X18_P0)     0.011 *    0.144 f
  core/inst_fetch/glock (tta0_ifetch)                    0.000      0.144 f
  core/loopbuffer/glock_in (tta0_loopbuf_1_32_51_1_0)    0.000      0.144 f
  core/loopbuffer/U87/Z (C8T28SOIDV_LL_NAND2X36_P0)      0.011 *    0.156 r
  core/loopbuffer/U154/Z (C8T28SOIDV_LL_NAND2X36_P0)     0.010 *    0.166 f
  core/loopbuffer/glock_out (tta0_loopbuf_1_32_51_1_0)
                                                         0.000      0.166 f
  core/inst_decoder/lock (tta0_decoder)                  0.000      0.166 f
  core/inst_decoder/U4/Z (C8T28SOIDV_LL_NOR2AX29_P0)     0.016 *    0.183 r
  core/inst_decoder/U39/Z (C8T28SOIDV_LL_CNIVX37_P0)     0.010 *    0.193 f
  core/inst_decoder/glock[7] (tta0_decoder)              0.000      0.193 f
  core/fu_lsu_r/glock (fu_ldw_stw_always_4_dataw32_addrw16_1)
                                                         0.000      0.193 f
  core/fu_lsu_r/U55/Z (C8T28SOIDV_LL_CNIVX37_P0)         0.008 *    0.201 r
  core/fu_lsu_r/U5/Z (C8T28SOIDV_LL_NAND2X36_P0)         0.016 *    0.217 f
  core/fu_lsu_r/mem_en_x[0] (fu_ldw_stw_always_4_dataw32_addrw16_1)
                                                         0.000      0.217 f
  U138/Z (C8T28SOIDV_LL_NAND2X36_P0)                     0.021 *    0.238 r
  U134/Z (C8T28SOI_LL_NAND2X8_P0)                        0.014 *    0.252 f
  U135/Z (C8T28SOI_LL_OA21X10_P0)                        0.019 *    0.271 f
  datamem/scheduler/lsu_addr_a[12] (par_mem_scheduler_dataw32_addrw14_ports2_rd_delay1)
                                                         0.000      0.271 f
  datamem/scheduler/U53/Z (C8T28SOI_LL_NAND2X8_P0)       0.011 *    0.283 r
  datamem/scheduler/U54/Z (C8T28SOIDV_LL_NAND2X18_P0)    0.011 *    0.293 f
  datamem/scheduler/addr[12] (par_mem_scheduler_dataw32_addrw14_ports2_rd_delay1)
                                                         0.000      0.293 f
  datamem/par_mem_logic_inst/addrs_from_lsus[12] (par_mem_logic_PORTS2_LSU_ADDRW14_CTRLW1_DATAW32_PM_FUNC2)
                                                         0.000      0.293 f
  datamem/par_mem_logic_inst/addr_crsbar_0/addrs_from_lsus[12] (addr_crsbar_PORTS2_LSU_ADDRW14_CTRLW1_PM_FUNC2)
                                                         0.000      0.293 f
  datamem/par_mem_logic_inst/addr_crsbar_0/U121/Z (C8T28SOI_LL_OAI12X10_P0)
                                                         0.016 *    0.310 r
  datamem/par_mem_logic_inst/addr_crsbar_0/U115/Z (C8T28SOIDV_LLS_XOR2X4_P0)
                                                         0.034 *    0.343 r
  datamem/par_mem_logic_inst/addr_crsbar_0/U87/Z (C8T28SOIDV_LLS_XNOR2X4_P0)
                                                         0.035 *    0.378 r
  datamem/par_mem_logic_inst/addr_crsbar_0/U6/Z (C8T28SOI_LL_XNOR2X19_P0)
                                                         0.046 *    0.424 f
  datamem/par_mem_logic_inst/addr_crsbar_0/U120/Z (C8T28SOIDV_LLS_XNOR2X11_P0)
                                                         0.025 *    0.449 r
  datamem/par_mem_logic_inst/addr_crsbar_0/module_nums[0] (addr_crsbar_PORTS2_LSU_ADDRW14_CTRLW1_PM_FUNC2)
                                                         0.000      0.449 r
  datamem/par_mem_logic_inst/ctrl_units_0/module_nums[0] (ctrl_units_PORTS2_CTRLW1)
                                                         0.000      0.449 r
  datamem/par_mem_logic_inst/ctrl_units_0/ctrl_uniti_0/module_num[0] (ctrl_unit_PORTS2_CTRLW1_1)
                                                         0.000      0.449 r
  datamem/par_mem_logic_inst/ctrl_units_0/ctrl_uniti_0/U21/Z (C8T28SOIDV_LL_NAND2X18_P0)
                                                         0.016 *    0.465 f
  datamem/par_mem_logic_inst/ctrl_units_0/ctrl_uniti_0/U16/Z (C8T28SOIDV_LL_CNIVX18_P0)
                                                         0.010 *    0.475 r
  datamem/par_mem_logic_inst/ctrl_units_0/ctrl_uniti_0/ctrl_matrix_row_out[1] (ctrl_unit_PORTS2_CTRLW1_1)
                                                         0.000      0.475 r
  datamem/par_mem_logic_inst/ctrl_units_0/ctrl_uniti_1/t_ctrl_matrix_row_in[0] (ctrl_unit_PORTS2_CTRLW1_0)
                                                         0.000      0.475 r
  datamem/par_mem_logic_inst/ctrl_units_0/ctrl_uniti_1/U18/Z (C8T28SOIDV_LL_NAND2X18_P0)
                                                         0.009 *    0.484 f
  datamem/par_mem_logic_inst/ctrl_units_0/ctrl_uniti_1/U19/Z (C8T28SOIDV_LL_CNIVX18_P0)
                                                         0.007 *    0.491 r
  datamem/par_mem_logic_inst/ctrl_units_0/ctrl_uniti_1/U10/Z (C8T28SOIDV_LL_NOR2X9_P0)
                                                         0.008 *    0.499 f
  datamem/par_mem_logic_inst/ctrl_units_0/ctrl_uniti_1/mem_en_x (ctrl_unit_PORTS2_CTRLW1_0)
                                                         0.000      0.499 f
  datamem/par_mem_logic_inst/ctrl_units_0/U7/Z (C8T28SOIDV_LL_CNIVX28_P0)
                                                         0.009 *    0.509 r
  datamem/par_mem_logic_inst/ctrl_units_0/U13/Z (C8T28SOIDV_LL_NAND2X36_P0)
                                                         0.010 *    0.519 f
  datamem/par_mem_logic_inst/ctrl_units_0/mem_en_xs[1] (ctrl_units_PORTS2_CTRLW1)
                                                         0.000      0.519 f
  datamem/par_mem_logic_inst/mem_en_xs[1] (par_mem_logic_PORTS2_LSU_ADDRW14_CTRLW1_DATAW32_PM_FUNC2)
                                                         0.000      0.519 f
  datamem/dmem_1/en_x (synch_singleport_mem_wrapper_DATAW32_ADDRW13_1)
                                                         0.000      0.519 f
  datamem/dmem_1/en_wr_arbiter/en (block_en_wr_arbiter_ADDRW13_NBLOCKS9_1)
                                                         0.000      0.519 f
  datamem/dmem_1/en_wr_arbiter/U10/Z (C8T28SOIDV_LL_CNIVX37_P0)
                                                         0.013 *    0.532 r
  datamem/dmem_1/en_wr_arbiter/U44/Z (C8T28SOIDV_LL_NAND2X18_P0)
                                                         0.010 *    0.542 f
  datamem/dmem_1/en_wr_arbiter/en_blocks[6] (block_en_wr_arbiter_ADDRW13_NBLOCKS9_1)
                                                         0.000      0.542 f
  datamem/dmem_1/cacti_mem_x_6/en_x (cacti_mem_wrapper_DATAW32_ADDRW10_1)
                                                         0.000      0.542 f
  datamem/dmem_1/cacti_mem_x_6/mem_1024x32/mem_en_x (ram_1024x32)
                                                         0.000 *    0.542 f
  data arrival time                                                 0.542

  clock clk (rise edge)                                  1.053      1.053
  clock network delay (ideal)                            0.010      1.063
  clock uncertainty                                     -0.010      1.053
  datamem/dmem_1/cacti_mem_x_6/mem_1024x32/clk (ram_1024x32)
                                                         0.000      1.053 r
  library setup time                                    -0.503      0.550
  data required time                                                0.550
  --------------------------------------------------------------------------
  data required time                                                0.550
  data arrival time                                                -0.542
  --------------------------------------------------------------------------
  slack (MET)                                                       0.008


  Startpoint: core/loopbuffer/clk_r_REG1642_S49
              (rising edge-triggered flip-flop clocked by clk)
  Endpoint: datamem/dmem_1/cacti_mem_x_2/mem_64x32
            (rising edge-triggered flip-flop clocked by clk)
  Path Group: clk
  Path Type: max

  Point                                                   Incr       Path
  --------------------------------------------------------------------------
  clock clk (rise edge)                                  0.000      0.000
  clock network delay (ideal)                            0.010      0.010
  core/loopbuffer/clk_r_REG1642_S49/CP (C8T28SOIDV_LL_DFPRQX10_P0)
                                                         0.000      0.010 r
  core/loopbuffer/clk_r_REG1642_S49/Q (C8T28SOIDV_LL_DFPRQX10_P0)
                                                         0.060      0.070 r
  core/loopbuffer/U44/Z (C8T28SOI_LL_CNIVX9_P0)          0.009 *    0.079 f
  core/loopbuffer/U42/Z (C8T28SOIDV_LL_NAND2X9_P0)       0.013 *    0.093 r
  core/loopbuffer/U86/Z (C8T28SOIDV_LL_CNIVX18_P0)       0.010 *    0.103 f
  core/loopbuffer/U69/Z (C8T28SOIDV_LL_NAND2X18_P0)      0.009 *    0.112 r
  core/loopbuffer/U194/Z (C8T28SOI_LLBR0P6_NAND3X14_P0)
                                                         0.010 *    0.123 f
  core/loopbuffer/lock_req_out (tta0_loopbuf_1_32_51_1_0)
                                                         0.000      0.123 f
  core/decomp/lock_r (tta0_decompressor)                 0.000      0.123 f
  core/decomp/U1/Z (C8T28SOIDV_LL_CNIVX18_P0)            0.010 *    0.133 r
  core/decomp/fetch_en (tta0_decompressor)               0.000      0.133 r
  core/inst_fetch/fetch_en (tta0_ifetch)                 0.000      0.133 r
  core/inst_fetch/U197/Z (C8T28SOIDV_LL_NAND2X18_P0)     0.011 *    0.144 f
  core/inst_fetch/glock (tta0_ifetch)                    0.000      0.144 f
  core/loopbuffer/glock_in (tta0_loopbuf_1_32_51_1_0)    0.000      0.144 f
  core/loopbuffer/U87/Z (C8T28SOIDV_LL_NAND2X36_P0)      0.011 *    0.156 r
  core/loopbuffer/U154/Z (C8T28SOIDV_LL_NAND2X36_P0)     0.010 *    0.166 f
  core/loopbuffer/glock_out (tta0_loopbuf_1_32_51_1_0)
                                                         0.000      0.166 f
  core/inst_decoder/lock (tta0_decoder)                  0.000      0.166 f
  core/inst_decoder/U4/Z (C8T28SOIDV_LL_NOR2AX29_P0)     0.016 *    0.183 r
  core/inst_decoder/U39/Z (C8T28SOIDV_LL_CNIVX37_P0)     0.010 *    0.193 f
  core/inst_decoder/glock[7] (tta0_decoder)              0.000      0.193 f
  core/fu_lsu_r/glock (fu_ldw_stw_always_4_dataw32_addrw16_1)
                                                         0.000      0.193 f
  core/fu_lsu_r/U55/Z (C8T28SOIDV_LL_CNIVX37_P0)         0.008 *    0.201 r
  core/fu_lsu_r/U5/Z (C8T28SOIDV_LL_NAND2X36_P0)         0.016 *    0.217 f
  core/fu_lsu_r/mem_en_x[0] (fu_ldw_stw_always_4_dataw32_addrw16_1)
                                                         0.000      0.217 f
  U138/Z (C8T28SOIDV_LL_NAND2X36_P0)                     0.021 *    0.238 r
  U134/Z (C8T28SOI_LL_NAND2X8_P0)                        0.014 *    0.252 f
  U135/Z (C8T28SOI_LL_OA21X10_P0)                        0.019 *    0.271 f
  datamem/scheduler/lsu_addr_a[12] (par_mem_scheduler_dataw32_addrw14_ports2_rd_delay1)
                                                         0.000      0.271 f
  datamem/scheduler/U53/Z (C8T28SOI_LL_NAND2X8_P0)       0.011 *    0.283 r
  datamem/scheduler/U54/Z (C8T28SOIDV_LL_NAND2X18_P0)    0.011 *    0.293 f
  datamem/scheduler/addr[12] (par_mem_scheduler_dataw32_addrw14_ports2_rd_delay1)
                                                         0.000      0.293 f
  datamem/par_mem_logic_inst/addrs_from_lsus[12] (par_mem_logic_PORTS2_LSU_ADDRW14_CTRLW1_DATAW32_PM_FUNC2)
                                                         0.000      0.293 f
  datamem/par_mem_logic_inst/addr_crsbar_0/addrs_from_lsus[12] (addr_crsbar_PORTS2_LSU_ADDRW14_CTRLW1_PM_FUNC2)
                                                         0.000      0.293 f
  datamem/par_mem_logic_inst/addr_crsbar_0/U121/Z (C8T28SOI_LL_OAI12X10_P0)
                                                         0.016 *    0.310 r
  datamem/par_mem_logic_inst/addr_crsbar_0/U115/Z (C8T28SOIDV_LLS_XOR2X4_P0)
                                                         0.034 *    0.343 r
  datamem/par_mem_logic_inst/addr_crsbar_0/U87/Z (C8T28SOIDV_LLS_XNOR2X4_P0)
                                                         0.035 *    0.378 r
  datamem/par_mem_logic_inst/addr_crsbar_0/U6/Z (C8T28SOI_LL_XNOR2X19_P0)
                                                         0.046 *    0.424 f
  datamem/par_mem_logic_inst/addr_crsbar_0/U120/Z (C8T28SOIDV_LLS_XNOR2X11_P0)
                                                         0.025 *    0.449 r
  datamem/par_mem_logic_inst/addr_crsbar_0/module_nums[0] (addr_crsbar_PORTS2_LSU_ADDRW14_CTRLW1_PM_FUNC2)
                                                         0.000      0.449 r
  datamem/par_mem_logic_inst/ctrl_units_0/module_nums[0] (ctrl_units_PORTS2_CTRLW1)
                                                         0.000      0.449 r
  datamem/par_mem_logic_inst/ctrl_units_0/ctrl_uniti_0/module_num[0] (ctrl_unit_PORTS2_CTRLW1_1)
                                                         0.000      0.449 r
  datamem/par_mem_logic_inst/ctrl_units_0/ctrl_uniti_0/U21/Z (C8T28SOIDV_LL_NAND2X18_P0)
                                                         0.016 *    0.465 f
  datamem/par_mem_logic_inst/ctrl_units_0/ctrl_uniti_0/U16/Z (C8T28SOIDV_LL_CNIVX18_P0)
                                                         0.010 *    0.475 r
  datamem/par_mem_logic_inst/ctrl_units_0/ctrl_uniti_0/ctrl_matrix_row_out[1] (ctrl_unit_PORTS2_CTRLW1_1)
                                                         0.000      0.475 r
  datamem/par_mem_logic_inst/ctrl_units_0/ctrl_uniti_1/t_ctrl_matrix_row_in[0] (ctrl_unit_PORTS2_CTRLW1_0)
                                                         0.000      0.475 r
  datamem/par_mem_logic_inst/ctrl_units_0/ctrl_uniti_1/U18/Z (C8T28SOIDV_LL_NAND2X18_P0)
                                                         0.009 *    0.484 f
  datamem/par_mem_logic_inst/ctrl_units_0/ctrl_uniti_1/U19/Z (C8T28SOIDV_LL_CNIVX18_P0)
                                                         0.007 *    0.491 r
  datamem/par_mem_logic_inst/ctrl_units_0/ctrl_uniti_1/U10/Z (C8T28SOIDV_LL_NOR2X9_P0)
                                                         0.008 *    0.499 f
  datamem/par_mem_logic_inst/ctrl_units_0/ctrl_uniti_1/mem_en_x (ctrl_unit_PORTS2_CTRLW1_0)
                                                         0.000      0.499 f
  datamem/par_mem_logic_inst/ctrl_units_0/U7/Z (C8T28SOIDV_LL_CNIVX28_P0)
                                                         0.009 *    0.509 r
  datamem/par_mem_logic_inst/ctrl_units_0/U13/Z (C8T28SOIDV_LL_NAND2X36_P0)
                                                         0.010 *    0.519 f
  datamem/par_mem_logic_inst/ctrl_units_0/mem_en_xs[1] (ctrl_units_PORTS2_CTRLW1)
                                                         0.000      0.519 f
  datamem/par_mem_logic_inst/mem_en_xs[1] (par_mem_logic_PORTS2_LSU_ADDRW14_CTRLW1_DATAW32_PM_FUNC2)
                                                         0.000      0.519 f
  datamem/dmem_1/en_x (synch_singleport_mem_wrapper_DATAW32_ADDRW13_1)
                                                         0.000      0.519 f
  datamem/dmem_1/en_wr_arbiter/en (block_en_wr_arbiter_ADDRW13_NBLOCKS9_1)
                                                         0.000      0.519 f
  datamem/dmem_1/en_wr_arbiter/U10/Z (C8T28SOIDV_LL_CNIVX37_P0)
                                                         0.013 *    0.532 r
  datamem/dmem_1/en_wr_arbiter/U25/Z (C8T28SOIDV_LL_NAND2X18_P0)
                                                         0.009 *    0.541 f
  datamem/dmem_1/en_wr_arbiter/en_blocks[2] (block_en_wr_arbiter_ADDRW13_NBLOCKS9_1)
                                                         0.000      0.541 f
  datamem/dmem_1/cacti_mem_x_2/en_x (cacti_mem_wrapper_DATAW32_ADDRW6_1)
                                                         0.000      0.541 f
  datamem/dmem_1/cacti_mem_x_2/mem_64x32/mem_en_x (ram_64x32)
                                                         0.000 *    0.541 f
  data arrival time                                                 0.541

  clock clk (rise edge)                                  1.053      1.053
  clock network delay (ideal)                            0.010      1.063
  clock uncertainty                                     -0.010      1.053
  datamem/dmem_1/cacti_mem_x_2/mem_64x32/clk (ram_64x32)
                                                         0.000      1.053 r
  library setup time                                    -0.503      0.550
  data required time                                                0.550
  --------------------------------------------------------------------------
  data required time                                                0.550
  data arrival time                                                -0.541
  --------------------------------------------------------------------------
  slack (MET)                                                       0.009


1
