Information: Updating design information... (UID-85)
 
****************************************
Report : timing
        -path full
        -delay max
        -max_paths 10
Design : proc
Version: M-2016.12-SP5-1
Date   : Sat Jul 28 21:37:54 2018
****************************************

 * Some/all delay information is back-annotated.

Operating Conditions: tt28_0.95V_0.00V_0.00V_0.00V_25C   Library: C28SOI_SC_8_CLK_LL
Wire Load Model Mode: Inactive.

  Startpoint: core/loopbuffer/clk_r_REG624_S42
              (rising edge-triggered flip-flop clocked by clk)
  Endpoint: datamem/dmem_2/cacti_mem_x_8/mem_4096x32
            (rising edge-triggered flip-flop clocked by clk)
  Path Group: clk
  Path Type: max

  Point                                                   Incr       Path
  --------------------------------------------------------------------------
  clock clk (rise edge)                                  0.000      0.000
  clock network delay (ideal)                            0.010      0.010
  core/loopbuffer/clk_r_REG624_S42/CP (C8T28SOIDV_LL_DFPRQX10_P16)
                                                         0.000      0.010 r
  core/loopbuffer/clk_r_REG624_S42/Q (C8T28SOIDV_LL_DFPRQX10_P16)
                                                         0.066      0.076 f
  core/loopbuffer/U31/Z (C8T28SOI_LL_NOR2X4_P16)         0.032 *    0.108 r
  core/loopbuffer/U32/Z (C8T28SOI_LL_IVX3_P16)           0.033 *    0.141 f
  core/loopbuffer/U36/Z (C8T28SOI_LL_AOI22X2_P16)        0.203 *    0.345 r
  core/loopbuffer/U21/Z (C8T28SOI_LL_BFX5_P16)           0.151 *    0.496 r
  core/loopbuffer/U608/Z (C8T28SOI_LL_OA22X5_P16)        0.070 *    0.566 r
  core/loopbuffer/glock_out (tta0_loopbuf_1_32_51_1_0)
                                                         0.000      0.566 r
  core/inst_decoder/lock (tta0_decoder)                  0.000      0.566 r
  core/inst_decoder/U63/Z (C8T28SOI_LL_NOR2X4_P16)       0.024 *    0.591 f
  core/inst_decoder/U64/Z (C8T28SOI_LL_NAND2AX2_P16)     0.034 *    0.624 r
  core/inst_decoder/glock[7] (tta0_decoder)              0.000      0.624 r
  U293/Z (C8T28SOI_LL_BFX9_P16)                          0.141 *    0.766 r
  core/fu_lsu_r/glock (fu_ldw_stw_always_4_dataw32_addrw16_1)
                                                         0.000      0.766 r
  core/fu_lsu_r/U128/Z (C8T28SOI_LL_OR2X5_P16)           0.102 *    0.868 r
  core/fu_lsu_r/mem_en_x[0] (fu_ldw_stw_always_4_dataw32_addrw16_1)
                                                         0.000      0.868 r
  U160/Z (C8T28SOI_LL_NOR2AX4_P16)                       0.322 *    1.189 r
  U295/Z (C8T28SOI_LL_BFX5_P16)                          0.210 *    1.400 r
  U296/Z (C8T28SOI_LL_IVX3_P16)                          0.108 *    1.508 f
  U232/Z (C8T28SOI_LL_AOI22X2_P16)                       0.067 *    1.575 r
  U233/Z (C8T28SOI_LL_IVX3_P16)                          0.026 *    1.601 f
  datamem/scheduler/lsu_addr_a[2] (par_mem_scheduler_dataw32_addrw14_ports2_rd_delay1)
                                                         0.000      1.601 f
  datamem/scheduler/addr_a_conv/data_in[2] (ser_par_conv_portw14_port_cnt2_1)
                                                         0.000      1.601 f
  datamem/scheduler/addr_a_conv/U9/Z (C8T28SOI_LL_IVX3_P16)
                                                         0.023 *    1.624 r
  datamem/scheduler/addr_a_conv/U10/Z (C8T28SOI_LL_IVX3_P16)
                                                         0.017 *    1.641 f
  datamem/scheduler/addr_a_conv/data_out[2] (ser_par_conv_portw14_port_cnt2_1)
                                                         0.000      1.641 f
  datamem/scheduler/U156/Z (C8T28SOI_LL_AOI22X2_P16)     0.029 *    1.669 r
  datamem/scheduler/U157/Z (C8T28SOI_LL_IVX3_P16)        0.026 *    1.696 f
  datamem/scheduler/addr[2] (par_mem_scheduler_dataw32_addrw14_ports2_rd_delay1)
                                                         0.000      1.696 f
  datamem/par_mem_logic_inst/addrs_from_lsus[2] (par_mem_logic_PORTS2_LSU_ADDRW14_CTRLW1_DATAW32_PM_FUNC2)
                                                         0.000      1.696 f
  datamem/par_mem_logic_inst/addr_crsbar_0/addrs_from_lsus[2] (addr_crsbar_PORTS2_LSU_ADDRW14_CTRLW1_PM_FUNC2)
                                                         0.000      1.696 f
  datamem/par_mem_logic_inst/addr_crsbar_0/U32/Z (C8T28SOI_LL_AOI22X2_P16)
                                                         0.056 *    1.752 r
  datamem/par_mem_logic_inst/addr_crsbar_0/U33/Z (C8T28SOIDV_LLS_XNOR2X4_P16)
                                                         0.057 *    1.809 r
  datamem/par_mem_logic_inst/addr_crsbar_0/U34/Z (C8T28SOI_LL_NAND2X2_P16)
                                                         0.024 *    1.833 f
  datamem/par_mem_logic_inst/addr_crsbar_0/U35/Z (C8T28SOI_LL_OAI12X3_P16)
                                                         0.028 *    1.861 r
  datamem/par_mem_logic_inst/addr_crsbar_0/U36/Z (C8T28SOIDV_LLS_XOR2X4_P16)
                                                         0.043 *    1.904 r
  datamem/par_mem_logic_inst/addr_crsbar_0/U37/Z (C8T28SOIDV_LLS_XNOR2X4_P16)
                                                         0.041 *    1.945 r
  datamem/par_mem_logic_inst/addr_crsbar_0/U38/Z (C8T28SOI_LL_NAND2X2_P16)
                                                         0.022 *    1.967 f
  datamem/par_mem_logic_inst/addr_crsbar_0/U39/Z (C8T28SOI_LL_OAI12X3_P16)
                                                         0.029 *    1.995 r
  datamem/par_mem_logic_inst/addr_crsbar_0/U40/Z (C8T28SOIDV_LLS_XNOR2X4_P16)
                                                         0.040 *    2.036 r
  datamem/par_mem_logic_inst/addr_crsbar_0/U41/Z (C8T28SOI_LL_NAND2X2_P16)
                                                         0.022 *    2.057 f
  datamem/par_mem_logic_inst/addr_crsbar_0/U42/Z (C8T28SOI_LL_OAI12X3_P16)
                                                         0.028 *    2.085 r
  datamem/par_mem_logic_inst/addr_crsbar_0/U43/Z (C8T28SOIDV_LLS_XNOR2X4_P16)
                                                         0.021 *    2.106 f
  datamem/par_mem_logic_inst/addr_crsbar_0/U44/Z (C8T28SOI_LL_NAND2X2_P16)
                                                         0.025 *    2.132 r
  datamem/par_mem_logic_inst/addr_crsbar_0/U45/Z (C8T28SOI_LL_OAI12X3_P16)
                                                         0.035 *    2.167 f
  datamem/par_mem_logic_inst/addr_crsbar_0/module_nums[0] (addr_crsbar_PORTS2_LSU_ADDRW14_CTRLW1_PM_FUNC2)
                                                         0.000      2.167 f
  datamem/par_mem_logic_inst/ctrl_units_0/module_nums[0] (ctrl_units_PORTS2_CTRLW1)
                                                         0.000      2.167 f
  datamem/par_mem_logic_inst/ctrl_units_0/ctrl_uniti_0/module_num[0] (ctrl_unit_PORTS2_CTRLW1_1)
                                                         0.000      2.167 f
  datamem/par_mem_logic_inst/ctrl_units_0/ctrl_uniti_0/U15/Z (C8T28SOI_LL_NOR2AX4_P16)
                                                         0.042 *    2.209 r
  datamem/par_mem_logic_inst/ctrl_units_0/ctrl_uniti_0/U16/Z (C8T28SOI_LL_AOI22X2_P16)
                                                         0.026 *    2.235 f
  datamem/par_mem_logic_inst/ctrl_units_0/ctrl_uniti_0/U22/Z (C8T28SOI_LL_AND2X5_P16)
                                                         0.045 *    2.281 f
  datamem/par_mem_logic_inst/ctrl_units_0/ctrl_uniti_0/mem_en_x (ctrl_unit_PORTS2_CTRLW1_1)
                                                         0.000      2.281 f
  datamem/par_mem_logic_inst/ctrl_units_0/U18/Z (C8T28SOI_LL_NAND2AX2_P16)
                                                         0.078 *    2.358 f
  datamem/par_mem_logic_inst/ctrl_units_0/mem_en_xs[0] (ctrl_units_PORTS2_CTRLW1)
                                                         0.000      2.358 f
  datamem/par_mem_logic_inst/mem_en_xs[0] (par_mem_logic_PORTS2_LSU_ADDRW14_CTRLW1_DATAW32_PM_FUNC2)
                                                         0.000      2.358 f
  datamem/dmem_2/en_x (synch_singleport_mem_wrapper_DATAW32_ADDRW13_0)
                                                         0.000      2.358 f
  datamem/dmem_2/en_wr_arbiter/en (block_en_wr_arbiter_ADDRW13_NBLOCKS9_0)
                                                         0.000      2.358 f
  datamem/dmem_2/en_wr_arbiter/U6/Z (C8T28SOI_LL_IVX3_P16)
                                                         0.122 *    2.481 r
  datamem/dmem_2/en_wr_arbiter/U8/Z (C8T28SOI_LL_NAND2X2_P16)
                                                         0.115 *    2.596 f
  datamem/dmem_2/en_wr_arbiter/en_blocks[8] (block_en_wr_arbiter_ADDRW13_NBLOCKS9_0)
                                                         0.000      2.596 f
  datamem/dmem_2/cacti_mem_x_8/en_x (cacti_mem_wrapper_DATAW32_ADDRW12_0)
                                                         0.000      2.596 f
  datamem/dmem_2/cacti_mem_x_8/mem_4096x32/mem_en_x (ram_4096x32)
                                                         0.000 *    2.596 f
  data arrival time                                                 2.596

  clock clk (rise edge)                                 10.000     10.000
  clock network delay (ideal)                            0.010     10.010
  clock uncertainty                                     -0.010     10.000
  datamem/dmem_2/cacti_mem_x_8/mem_4096x32/clk (ram_4096x32)
                                                         0.000     10.000 r
  library setup time                                    -0.556      9.444
  data required time                                                9.444
  --------------------------------------------------------------------------
  data required time                                                9.444
  data arrival time                                                -2.596
  --------------------------------------------------------------------------
  slack (MET)                                                       6.848


  Startpoint: core/loopbuffer/clk_r_REG624_S42
              (rising edge-triggered flip-flop clocked by clk)
  Endpoint: datamem/dmem_2/cacti_mem_x_7/mem_2048x32
            (rising edge-triggered flip-flop clocked by clk)
  Path Group: clk
  Path Type: max

  Point                                                   Incr       Path
  --------------------------------------------------------------------------
  clock clk (rise edge)                                  0.000      0.000
  clock network delay (ideal)                            0.010      0.010
  core/loopbuffer/clk_r_REG624_S42/CP (C8T28SOIDV_LL_DFPRQX10_P16)
                                                         0.000      0.010 r
  core/loopbuffer/clk_r_REG624_S42/Q (C8T28SOIDV_LL_DFPRQX10_P16)
                                                         0.066      0.076 f
  core/loopbuffer/U31/Z (C8T28SOI_LL_NOR2X4_P16)         0.032 *    0.108 r
  core/loopbuffer/U32/Z (C8T28SOI_LL_IVX3_P16)           0.033 *    0.141 f
  core/loopbuffer/U36/Z (C8T28SOI_LL_AOI22X2_P16)        0.203 *    0.345 r
  core/loopbuffer/U21/Z (C8T28SOI_LL_BFX5_P16)           0.151 *    0.496 r
  core/loopbuffer/U608/Z (C8T28SOI_LL_OA22X5_P16)        0.070 *    0.566 r
  core/loopbuffer/glock_out (tta0_loopbuf_1_32_51_1_0)
                                                         0.000      0.566 r
  core/inst_decoder/lock (tta0_decoder)                  0.000      0.566 r
  core/inst_decoder/U63/Z (C8T28SOI_LL_NOR2X4_P16)       0.024 *    0.591 f
  core/inst_decoder/U64/Z (C8T28SOI_LL_NAND2AX2_P16)     0.034 *    0.624 r
  core/inst_decoder/glock[7] (tta0_decoder)              0.000      0.624 r
  U293/Z (C8T28SOI_LL_BFX9_P16)                          0.141 *    0.766 r
  core/fu_lsu_r/glock (fu_ldw_stw_always_4_dataw32_addrw16_1)
                                                         0.000      0.766 r
  core/fu_lsu_r/U128/Z (C8T28SOI_LL_OR2X5_P16)           0.102 *    0.868 r
  core/fu_lsu_r/mem_en_x[0] (fu_ldw_stw_always_4_dataw32_addrw16_1)
                                                         0.000      0.868 r
  U160/Z (C8T28SOI_LL_NOR2AX4_P16)                       0.322 *    1.189 r
  U295/Z (C8T28SOI_LL_BFX5_P16)                          0.210 *    1.400 r
  U296/Z (C8T28SOI_LL_IVX3_P16)                          0.108 *    1.508 f
  U232/Z (C8T28SOI_LL_AOI22X2_P16)                       0.067 *    1.575 r
  U233/Z (C8T28SOI_LL_IVX3_P16)                          0.026 *    1.601 f
  datamem/scheduler/lsu_addr_a[2] (par_mem_scheduler_dataw32_addrw14_ports2_rd_delay1)
                                                         0.000      1.601 f
  datamem/scheduler/addr_a_conv/data_in[2] (ser_par_conv_portw14_port_cnt2_1)
                                                         0.000      1.601 f
  datamem/scheduler/addr_a_conv/U9/Z (C8T28SOI_LL_IVX3_P16)
                                                         0.023 *    1.624 r
  datamem/scheduler/addr_a_conv/U10/Z (C8T28SOI_LL_IVX3_P16)
                                                         0.017 *    1.641 f
  datamem/scheduler/addr_a_conv/data_out[2] (ser_par_conv_portw14_port_cnt2_1)
                                                         0.000      1.641 f
  datamem/scheduler/U156/Z (C8T28SOI_LL_AOI22X2_P16)     0.029 *    1.669 r
  datamem/scheduler/U157/Z (C8T28SOI_LL_IVX3_P16)        0.026 *    1.696 f
  datamem/scheduler/addr[2] (par_mem_scheduler_dataw32_addrw14_ports2_rd_delay1)
                                                         0.000      1.696 f
  datamem/par_mem_logic_inst/addrs_from_lsus[2] (par_mem_logic_PORTS2_LSU_ADDRW14_CTRLW1_DATAW32_PM_FUNC2)
                                                         0.000      1.696 f
  datamem/par_mem_logic_inst/addr_crsbar_0/addrs_from_lsus[2] (addr_crsbar_PORTS2_LSU_ADDRW14_CTRLW1_PM_FUNC2)
                                                         0.000      1.696 f
  datamem/par_mem_logic_inst/addr_crsbar_0/U32/Z (C8T28SOI_LL_AOI22X2_P16)
                                                         0.056 *    1.752 r
  datamem/par_mem_logic_inst/addr_crsbar_0/U33/Z (C8T28SOIDV_LLS_XNOR2X4_P16)
                                                         0.057 *    1.809 r
  datamem/par_mem_logic_inst/addr_crsbar_0/U34/Z (C8T28SOI_LL_NAND2X2_P16)
                                                         0.024 *    1.833 f
  datamem/par_mem_logic_inst/addr_crsbar_0/U35/Z (C8T28SOI_LL_OAI12X3_P16)
                                                         0.028 *    1.861 r
  datamem/par_mem_logic_inst/addr_crsbar_0/U36/Z (C8T28SOIDV_LLS_XOR2X4_P16)
                                                         0.043 *    1.904 r
  datamem/par_mem_logic_inst/addr_crsbar_0/U37/Z (C8T28SOIDV_LLS_XNOR2X4_P16)
                                                         0.041 *    1.945 r
  datamem/par_mem_logic_inst/addr_crsbar_0/U38/Z (C8T28SOI_LL_NAND2X2_P16)
                                                         0.022 *    1.967 f
  datamem/par_mem_logic_inst/addr_crsbar_0/U39/Z (C8T28SOI_LL_OAI12X3_P16)
                                                         0.029 *    1.995 r
  datamem/par_mem_logic_inst/addr_crsbar_0/U40/Z (C8T28SOIDV_LLS_XNOR2X4_P16)
                                                         0.040 *    2.036 r
  datamem/par_mem_logic_inst/addr_crsbar_0/U41/Z (C8T28SOI_LL_NAND2X2_P16)
                                                         0.022 *    2.057 f
  datamem/par_mem_logic_inst/addr_crsbar_0/U42/Z (C8T28SOI_LL_OAI12X3_P16)
                                                         0.028 *    2.085 r
  datamem/par_mem_logic_inst/addr_crsbar_0/U43/Z (C8T28SOIDV_LLS_XNOR2X4_P16)
                                                         0.021 *    2.106 f
  datamem/par_mem_logic_inst/addr_crsbar_0/U44/Z (C8T28SOI_LL_NAND2X2_P16)
                                                         0.025 *    2.132 r
  datamem/par_mem_logic_inst/addr_crsbar_0/U45/Z (C8T28SOI_LL_OAI12X3_P16)
                                                         0.035 *    2.167 f
  datamem/par_mem_logic_inst/addr_crsbar_0/module_nums[0] (addr_crsbar_PORTS2_LSU_ADDRW14_CTRLW1_PM_FUNC2)
                                                         0.000      2.167 f
  datamem/par_mem_logic_inst/ctrl_units_0/module_nums[0] (ctrl_units_PORTS2_CTRLW1)
                                                         0.000      2.167 f
  datamem/par_mem_logic_inst/ctrl_units_0/ctrl_uniti_0/module_num[0] (ctrl_unit_PORTS2_CTRLW1_1)
                                                         0.000      2.167 f
  datamem/par_mem_logic_inst/ctrl_units_0/ctrl_uniti_0/U15/Z (C8T28SOI_LL_NOR2AX4_P16)
                                                         0.042 *    2.209 r
  datamem/par_mem_logic_inst/ctrl_units_0/ctrl_uniti_0/U16/Z (C8T28SOI_LL_AOI22X2_P16)
                                                         0.026 *    2.235 f
  datamem/par_mem_logic_inst/ctrl_units_0/ctrl_uniti_0/U22/Z (C8T28SOI_LL_AND2X5_P16)
                                                         0.045 *    2.281 f
  datamem/par_mem_logic_inst/ctrl_units_0/ctrl_uniti_0/mem_en_x (ctrl_unit_PORTS2_CTRLW1_1)
                                                         0.000      2.281 f
  datamem/par_mem_logic_inst/ctrl_units_0/U18/Z (C8T28SOI_LL_NAND2AX2_P16)
                                                         0.078 *    2.358 f
  datamem/par_mem_logic_inst/ctrl_units_0/mem_en_xs[0] (ctrl_units_PORTS2_CTRLW1)
                                                         0.000      2.358 f
  datamem/par_mem_logic_inst/mem_en_xs[0] (par_mem_logic_PORTS2_LSU_ADDRW14_CTRLW1_DATAW32_PM_FUNC2)
                                                         0.000      2.358 f
  datamem/dmem_2/en_x (synch_singleport_mem_wrapper_DATAW32_ADDRW13_0)
                                                         0.000      2.358 f
  datamem/dmem_2/en_wr_arbiter/en (block_en_wr_arbiter_ADDRW13_NBLOCKS9_0)
                                                         0.000      2.358 f
  datamem/dmem_2/en_wr_arbiter/U6/Z (C8T28SOI_LL_IVX3_P16)
                                                         0.122 *    2.481 r
  datamem/dmem_2/en_wr_arbiter/U29/Z (C8T28SOI_LL_NAND3X3_P16)
                                                         0.093 *    2.574 f
  datamem/dmem_2/en_wr_arbiter/en_blocks[7] (block_en_wr_arbiter_ADDRW13_NBLOCKS9_0)
                                                         0.000      2.574 f
  datamem/dmem_2/cacti_mem_x_7/en_x (cacti_mem_wrapper_DATAW32_ADDRW11_0)
                                                         0.000      2.574 f
  datamem/dmem_2/cacti_mem_x_7/mem_2048x32/mem_en_x (ram_2048x32)
                                                         0.000 *    2.574 f
  data arrival time                                                 2.574

  clock clk (rise edge)                                 10.000     10.000
  clock network delay (ideal)                            0.010     10.010
  clock uncertainty                                     -0.010     10.000
  datamem/dmem_2/cacti_mem_x_7/mem_2048x32/clk (ram_2048x32)
                                                         0.000     10.000 r
  library setup time                                    -0.540      9.460
  data required time                                                9.460
  --------------------------------------------------------------------------
  data required time                                                9.460
  data arrival time                                                -2.574
  --------------------------------------------------------------------------
  slack (MET)                                                       6.887


  Startpoint: core/loopbuffer/clk_r_REG624_S42
              (rising edge-triggered flip-flop clocked by clk)
  Endpoint: datamem/dmem_2/cacti_mem_x_1/mem_32x32
            (rising edge-triggered flip-flop clocked by clk)
  Path Group: clk
  Path Type: max

  Point                                                   Incr       Path
  --------------------------------------------------------------------------
  clock clk (rise edge)                                  0.000      0.000
  clock network delay (ideal)                            0.010      0.010
  core/loopbuffer/clk_r_REG624_S42/CP (C8T28SOIDV_LL_DFPRQX10_P16)
                                                         0.000      0.010 r
  core/loopbuffer/clk_r_REG624_S42/Q (C8T28SOIDV_LL_DFPRQX10_P16)
                                                         0.066      0.076 f
  core/loopbuffer/U31/Z (C8T28SOI_LL_NOR2X4_P16)         0.032 *    0.108 r
  core/loopbuffer/U32/Z (C8T28SOI_LL_IVX3_P16)           0.033 *    0.141 f
  core/loopbuffer/U36/Z (C8T28SOI_LL_AOI22X2_P16)        0.203 *    0.345 r
  core/loopbuffer/U21/Z (C8T28SOI_LL_BFX5_P16)           0.151 *    0.496 r
  core/loopbuffer/U608/Z (C8T28SOI_LL_OA22X5_P16)        0.070 *    0.566 r
  core/loopbuffer/glock_out (tta0_loopbuf_1_32_51_1_0)
                                                         0.000      0.566 r
  core/inst_decoder/lock (tta0_decoder)                  0.000      0.566 r
  core/inst_decoder/U63/Z (C8T28SOI_LL_NOR2X4_P16)       0.024 *    0.591 f
  core/inst_decoder/U64/Z (C8T28SOI_LL_NAND2AX2_P16)     0.034 *    0.624 r
  core/inst_decoder/glock[7] (tta0_decoder)              0.000      0.624 r
  U293/Z (C8T28SOI_LL_BFX9_P16)                          0.141 *    0.766 r
  core/fu_lsu_r/glock (fu_ldw_stw_always_4_dataw32_addrw16_1)
                                                         0.000      0.766 r
  core/fu_lsu_r/U128/Z (C8T28SOI_LL_OR2X5_P16)           0.102 *    0.868 r
  core/fu_lsu_r/mem_en_x[0] (fu_ldw_stw_always_4_dataw32_addrw16_1)
                                                         0.000      0.868 r
  U160/Z (C8T28SOI_LL_NOR2AX4_P16)                       0.322 *    1.189 r
  U295/Z (C8T28SOI_LL_BFX5_P16)                          0.210 *    1.400 r
  U296/Z (C8T28SOI_LL_IVX3_P16)                          0.108 *    1.508 f
  U232/Z (C8T28SOI_LL_AOI22X2_P16)                       0.067 *    1.575 r
  U233/Z (C8T28SOI_LL_IVX3_P16)                          0.026 *    1.601 f
  datamem/scheduler/lsu_addr_a[2] (par_mem_scheduler_dataw32_addrw14_ports2_rd_delay1)
                                                         0.000      1.601 f
  datamem/scheduler/addr_a_conv/data_in[2] (ser_par_conv_portw14_port_cnt2_1)
                                                         0.000      1.601 f
  datamem/scheduler/addr_a_conv/U9/Z (C8T28SOI_LL_IVX3_P16)
                                                         0.023 *    1.624 r
  datamem/scheduler/addr_a_conv/U10/Z (C8T28SOI_LL_IVX3_P16)
                                                         0.017 *    1.641 f
  datamem/scheduler/addr_a_conv/data_out[2] (ser_par_conv_portw14_port_cnt2_1)
                                                         0.000      1.641 f
  datamem/scheduler/U156/Z (C8T28SOI_LL_AOI22X2_P16)     0.029 *    1.669 r
  datamem/scheduler/U157/Z (C8T28SOI_LL_IVX3_P16)        0.026 *    1.696 f
  datamem/scheduler/addr[2] (par_mem_scheduler_dataw32_addrw14_ports2_rd_delay1)
                                                         0.000      1.696 f
  datamem/par_mem_logic_inst/addrs_from_lsus[2] (par_mem_logic_PORTS2_LSU_ADDRW14_CTRLW1_DATAW32_PM_FUNC2)
                                                         0.000      1.696 f
  datamem/par_mem_logic_inst/addr_crsbar_0/addrs_from_lsus[2] (addr_crsbar_PORTS2_LSU_ADDRW14_CTRLW1_PM_FUNC2)
                                                         0.000      1.696 f
  datamem/par_mem_logic_inst/addr_crsbar_0/U32/Z (C8T28SOI_LL_AOI22X2_P16)
                                                         0.056 *    1.752 r
  datamem/par_mem_logic_inst/addr_crsbar_0/U33/Z (C8T28SOIDV_LLS_XNOR2X4_P16)
                                                         0.057 *    1.809 r
  datamem/par_mem_logic_inst/addr_crsbar_0/U34/Z (C8T28SOI_LL_NAND2X2_P16)
                                                         0.024 *    1.833 f
  datamem/par_mem_logic_inst/addr_crsbar_0/U35/Z (C8T28SOI_LL_OAI12X3_P16)
                                                         0.028 *    1.861 r
  datamem/par_mem_logic_inst/addr_crsbar_0/U36/Z (C8T28SOIDV_LLS_XOR2X4_P16)
                                                         0.043 *    1.904 r
  datamem/par_mem_logic_inst/addr_crsbar_0/U37/Z (C8T28SOIDV_LLS_XNOR2X4_P16)
                                                         0.041 *    1.945 r
  datamem/par_mem_logic_inst/addr_crsbar_0/U38/Z (C8T28SOI_LL_NAND2X2_P16)
                                                         0.022 *    1.967 f
  datamem/par_mem_logic_inst/addr_crsbar_0/U39/Z (C8T28SOI_LL_OAI12X3_P16)
                                                         0.029 *    1.995 r
  datamem/par_mem_logic_inst/addr_crsbar_0/U40/Z (C8T28SOIDV_LLS_XNOR2X4_P16)
                                                         0.040 *    2.036 r
  datamem/par_mem_logic_inst/addr_crsbar_0/U41/Z (C8T28SOI_LL_NAND2X2_P16)
                                                         0.022 *    2.057 f
  datamem/par_mem_logic_inst/addr_crsbar_0/U42/Z (C8T28SOI_LL_OAI12X3_P16)
                                                         0.028 *    2.085 r
  datamem/par_mem_logic_inst/addr_crsbar_0/U43/Z (C8T28SOIDV_LLS_XNOR2X4_P16)
                                                         0.021 *    2.106 f
  datamem/par_mem_logic_inst/addr_crsbar_0/U44/Z (C8T28SOI_LL_NAND2X2_P16)
                                                         0.025 *    2.132 r
  datamem/par_mem_logic_inst/addr_crsbar_0/U45/Z (C8T28SOI_LL_OAI12X3_P16)
                                                         0.035 *    2.167 f
  datamem/par_mem_logic_inst/addr_crsbar_0/module_nums[0] (addr_crsbar_PORTS2_LSU_ADDRW14_CTRLW1_PM_FUNC2)
                                                         0.000      2.167 f
  datamem/par_mem_logic_inst/ctrl_units_0/module_nums[0] (ctrl_units_PORTS2_CTRLW1)
                                                         0.000      2.167 f
  datamem/par_mem_logic_inst/ctrl_units_0/ctrl_uniti_0/module_num[0] (ctrl_unit_PORTS2_CTRLW1_1)
                                                         0.000      2.167 f
  datamem/par_mem_logic_inst/ctrl_units_0/ctrl_uniti_0/U15/Z (C8T28SOI_LL_NOR2AX4_P16)
                                                         0.042 *    2.209 r
  datamem/par_mem_logic_inst/ctrl_units_0/ctrl_uniti_0/U16/Z (C8T28SOI_LL_AOI22X2_P16)
                                                         0.026 *    2.235 f
  datamem/par_mem_logic_inst/ctrl_units_0/ctrl_uniti_0/U22/Z (C8T28SOI_LL_AND2X5_P16)
                                                         0.045 *    2.281 f
  datamem/par_mem_logic_inst/ctrl_units_0/ctrl_uniti_0/mem_en_x (ctrl_unit_PORTS2_CTRLW1_1)
                                                         0.000      2.281 f
  datamem/par_mem_logic_inst/ctrl_units_0/U18/Z (C8T28SOI_LL_NAND2AX2_P16)
                                                         0.078 *    2.358 f
  datamem/par_mem_logic_inst/ctrl_units_0/mem_en_xs[0] (ctrl_units_PORTS2_CTRLW1)
                                                         0.000      2.358 f
  datamem/par_mem_logic_inst/mem_en_xs[0] (par_mem_logic_PORTS2_LSU_ADDRW14_CTRLW1_DATAW32_PM_FUNC2)
                                                         0.000      2.358 f
  datamem/dmem_2/en_x (synch_singleport_mem_wrapper_DATAW32_ADDRW13_0)
                                                         0.000      2.358 f
  datamem/dmem_2/en_wr_arbiter/en (block_en_wr_arbiter_ADDRW13_NBLOCKS9_0)
                                                         0.000      2.358 f
  datamem/dmem_2/en_wr_arbiter/U6/Z (C8T28SOI_LL_IVX3_P16)
                                                         0.122 *    2.481 r
  datamem/dmem_2/en_wr_arbiter/U24/Z (C8T28SOI_LL_NAND3X3_P16)
                                                         0.078 *    2.558 f
  datamem/dmem_2/en_wr_arbiter/en_blocks[1] (block_en_wr_arbiter_ADDRW13_NBLOCKS9_0)
                                                         0.000      2.558 f
  datamem/dmem_2/cacti_mem_x_1/en_x (cacti_mem_wrapper_DATAW32_ADDRW5_0)
                                                         0.000      2.558 f
  datamem/dmem_2/cacti_mem_x_1/mem_32x32/mem_en_x (ram_32x32)
                                                         0.000 *    2.558 f
  data arrival time                                                 2.558

  clock clk (rise edge)                                 10.000     10.000
  clock network delay (ideal)                            0.010     10.010
  clock uncertainty                                     -0.010     10.000
  datamem/dmem_2/cacti_mem_x_1/mem_32x32/clk (ram_32x32)
                                                         0.000     10.000 r
  library setup time                                    -0.537      9.463
  data required time                                                9.463
  --------------------------------------------------------------------------
  data required time                                                9.463
  data arrival time                                                -2.558
  --------------------------------------------------------------------------
  slack (MET)                                                       6.905


  Startpoint: core/loopbuffer/clk_r_REG624_S42
              (rising edge-triggered flip-flop clocked by clk)
  Endpoint: datamem/dmem_2/cacti_mem_x_6/mem_1024x32
            (rising edge-triggered flip-flop clocked by clk)
  Path Group: clk
  Path Type: max

  Point                                                   Incr       Path
  --------------------------------------------------------------------------
  clock clk (rise edge)                                  0.000      0.000
  clock network delay (ideal)                            0.010      0.010
  core/loopbuffer/clk_r_REG624_S42/CP (C8T28SOIDV_LL_DFPRQX10_P16)
                                                         0.000      0.010 r
  core/loopbuffer/clk_r_REG624_S42/Q (C8T28SOIDV_LL_DFPRQX10_P16)
                                                         0.066      0.076 f
  core/loopbuffer/U31/Z (C8T28SOI_LL_NOR2X4_P16)         0.032 *    0.108 r
  core/loopbuffer/U32/Z (C8T28SOI_LL_IVX3_P16)           0.033 *    0.141 f
  core/loopbuffer/U36/Z (C8T28SOI_LL_AOI22X2_P16)        0.203 *    0.345 r
  core/loopbuffer/U21/Z (C8T28SOI_LL_BFX5_P16)           0.151 *    0.496 r
  core/loopbuffer/U608/Z (C8T28SOI_LL_OA22X5_P16)        0.070 *    0.566 r
  core/loopbuffer/glock_out (tta0_loopbuf_1_32_51_1_0)
                                                         0.000      0.566 r
  core/inst_decoder/lock (tta0_decoder)                  0.000      0.566 r
  core/inst_decoder/U63/Z (C8T28SOI_LL_NOR2X4_P16)       0.024 *    0.591 f
  core/inst_decoder/U64/Z (C8T28SOI_LL_NAND2AX2_P16)     0.034 *    0.624 r
  core/inst_decoder/glock[7] (tta0_decoder)              0.000      0.624 r
  U293/Z (C8T28SOI_LL_BFX9_P16)                          0.141 *    0.766 r
  core/fu_lsu_r/glock (fu_ldw_stw_always_4_dataw32_addrw16_1)
                                                         0.000      0.766 r
  core/fu_lsu_r/U128/Z (C8T28SOI_LL_OR2X5_P16)           0.102 *    0.868 r
  core/fu_lsu_r/mem_en_x[0] (fu_ldw_stw_always_4_dataw32_addrw16_1)
                                                         0.000      0.868 r
  U160/Z (C8T28SOI_LL_NOR2AX4_P16)                       0.322 *    1.189 r
  U295/Z (C8T28SOI_LL_BFX5_P16)                          0.210 *    1.400 r
  U296/Z (C8T28SOI_LL_IVX3_P16)                          0.108 *    1.508 f
  U232/Z (C8T28SOI_LL_AOI22X2_P16)                       0.067 *    1.575 r
  U233/Z (C8T28SOI_LL_IVX3_P16)                          0.026 *    1.601 f
  datamem/scheduler/lsu_addr_a[2] (par_mem_scheduler_dataw32_addrw14_ports2_rd_delay1)
                                                         0.000      1.601 f
  datamem/scheduler/addr_a_conv/data_in[2] (ser_par_conv_portw14_port_cnt2_1)
                                                         0.000      1.601 f
  datamem/scheduler/addr_a_conv/U9/Z (C8T28SOI_LL_IVX3_P16)
                                                         0.023 *    1.624 r
  datamem/scheduler/addr_a_conv/U10/Z (C8T28SOI_LL_IVX3_P16)
                                                         0.017 *    1.641 f
  datamem/scheduler/addr_a_conv/data_out[2] (ser_par_conv_portw14_port_cnt2_1)
                                                         0.000      1.641 f
  datamem/scheduler/U156/Z (C8T28SOI_LL_AOI22X2_P16)     0.029 *    1.669 r
  datamem/scheduler/U157/Z (C8T28SOI_LL_IVX3_P16)        0.026 *    1.696 f
  datamem/scheduler/addr[2] (par_mem_scheduler_dataw32_addrw14_ports2_rd_delay1)
                                                         0.000      1.696 f
  datamem/par_mem_logic_inst/addrs_from_lsus[2] (par_mem_logic_PORTS2_LSU_ADDRW14_CTRLW1_DATAW32_PM_FUNC2)
                                                         0.000      1.696 f
  datamem/par_mem_logic_inst/addr_crsbar_0/addrs_from_lsus[2] (addr_crsbar_PORTS2_LSU_ADDRW14_CTRLW1_PM_FUNC2)
                                                         0.000      1.696 f
  datamem/par_mem_logic_inst/addr_crsbar_0/U32/Z (C8T28SOI_LL_AOI22X2_P16)
                                                         0.056 *    1.752 r
  datamem/par_mem_logic_inst/addr_crsbar_0/U33/Z (C8T28SOIDV_LLS_XNOR2X4_P16)
                                                         0.057 *    1.809 r
  datamem/par_mem_logic_inst/addr_crsbar_0/U34/Z (C8T28SOI_LL_NAND2X2_P16)
                                                         0.024 *    1.833 f
  datamem/par_mem_logic_inst/addr_crsbar_0/U35/Z (C8T28SOI_LL_OAI12X3_P16)
                                                         0.028 *    1.861 r
  datamem/par_mem_logic_inst/addr_crsbar_0/U36/Z (C8T28SOIDV_LLS_XOR2X4_P16)
                                                         0.043 *    1.904 r
  datamem/par_mem_logic_inst/addr_crsbar_0/U37/Z (C8T28SOIDV_LLS_XNOR2X4_P16)
                                                         0.041 *    1.945 r
  datamem/par_mem_logic_inst/addr_crsbar_0/U38/Z (C8T28SOI_LL_NAND2X2_P16)
                                                         0.022 *    1.967 f
  datamem/par_mem_logic_inst/addr_crsbar_0/U39/Z (C8T28SOI_LL_OAI12X3_P16)
                                                         0.029 *    1.995 r
  datamem/par_mem_logic_inst/addr_crsbar_0/U40/Z (C8T28SOIDV_LLS_XNOR2X4_P16)
                                                         0.040 *    2.036 r
  datamem/par_mem_logic_inst/addr_crsbar_0/U41/Z (C8T28SOI_LL_NAND2X2_P16)
                                                         0.022 *    2.057 f
  datamem/par_mem_logic_inst/addr_crsbar_0/U42/Z (C8T28SOI_LL_OAI12X3_P16)
                                                         0.028 *    2.085 r
  datamem/par_mem_logic_inst/addr_crsbar_0/U43/Z (C8T28SOIDV_LLS_XNOR2X4_P16)
                                                         0.021 *    2.106 f
  datamem/par_mem_logic_inst/addr_crsbar_0/U44/Z (C8T28SOI_LL_NAND2X2_P16)
                                                         0.025 *    2.132 r
  datamem/par_mem_logic_inst/addr_crsbar_0/U45/Z (C8T28SOI_LL_OAI12X3_P16)
                                                         0.035 *    2.167 f
  datamem/par_mem_logic_inst/addr_crsbar_0/module_nums[0] (addr_crsbar_PORTS2_LSU_ADDRW14_CTRLW1_PM_FUNC2)
                                                         0.000      2.167 f
  datamem/par_mem_logic_inst/ctrl_units_0/module_nums[0] (ctrl_units_PORTS2_CTRLW1)
                                                         0.000      2.167 f
  datamem/par_mem_logic_inst/ctrl_units_0/ctrl_uniti_0/module_num[0] (ctrl_unit_PORTS2_CTRLW1_1)
                                                         0.000      2.167 f
  datamem/par_mem_logic_inst/ctrl_units_0/ctrl_uniti_0/U15/Z (C8T28SOI_LL_NOR2AX4_P16)
                                                         0.042 *    2.209 r
  datamem/par_mem_logic_inst/ctrl_units_0/ctrl_uniti_0/U16/Z (C8T28SOI_LL_AOI22X2_P16)
                                                         0.026 *    2.235 f
  datamem/par_mem_logic_inst/ctrl_units_0/ctrl_uniti_0/U22/Z (C8T28SOI_LL_AND2X5_P16)
                                                         0.045 *    2.281 f
  datamem/par_mem_logic_inst/ctrl_units_0/ctrl_uniti_0/mem_en_x (ctrl_unit_PORTS2_CTRLW1_1)
                                                         0.000      2.281 f
  datamem/par_mem_logic_inst/ctrl_units_0/U18/Z (C8T28SOI_LL_NAND2AX2_P16)
                                                         0.078 *    2.358 f
  datamem/par_mem_logic_inst/ctrl_units_0/mem_en_xs[0] (ctrl_units_PORTS2_CTRLW1)
                                                         0.000      2.358 f
  datamem/par_mem_logic_inst/mem_en_xs[0] (par_mem_logic_PORTS2_LSU_ADDRW14_CTRLW1_DATAW32_PM_FUNC2)
                                                         0.000      2.358 f
  datamem/dmem_2/en_x (synch_singleport_mem_wrapper_DATAW32_ADDRW13_0)
                                                         0.000      2.358 f
  datamem/dmem_2/en_wr_arbiter/en (block_en_wr_arbiter_ADDRW13_NBLOCKS9_0)
                                                         0.000      2.358 f
  datamem/dmem_2/en_wr_arbiter/U6/Z (C8T28SOI_LL_IVX3_P16)
                                                         0.122 *    2.481 r
  datamem/dmem_2/en_wr_arbiter/U7/Z (C8T28SOI_LL_NAND2X2_P16)
                                                         0.084 *    2.565 f
  datamem/dmem_2/en_wr_arbiter/en_blocks[6] (block_en_wr_arbiter_ADDRW13_NBLOCKS9_0)
                                                         0.000      2.565 f
  datamem/dmem_2/cacti_mem_x_6/en_x (cacti_mem_wrapper_DATAW32_ADDRW10_0)
                                                         0.000      2.565 f
  datamem/dmem_2/cacti_mem_x_6/mem_1024x32/mem_en_x (ram_1024x32)
                                                         0.000 *    2.565 f
  data arrival time                                                 2.565

  clock clk (rise edge)                                 10.000     10.000
  clock network delay (ideal)                            0.010     10.010
  clock uncertainty                                     -0.010     10.000
  datamem/dmem_2/cacti_mem_x_6/mem_1024x32/clk (ram_1024x32)
                                                         0.000     10.000 r
  library setup time                                    -0.528      9.472
  data required time                                                9.472
  --------------------------------------------------------------------------
  data required time                                                9.472
  data arrival time                                                -2.565
  --------------------------------------------------------------------------
  slack (MET)                                                       6.907


  Startpoint: core/loopbuffer/clk_r_REG624_S42
              (rising edge-triggered flip-flop clocked by clk)
  Endpoint: datamem/dmem_2/cacti_mem_x_4/mem_256x32
            (rising edge-triggered flip-flop clocked by clk)
  Path Group: clk
  Path Type: max

  Point                                                   Incr       Path
  --------------------------------------------------------------------------
  clock clk (rise edge)                                  0.000      0.000
  clock network delay (ideal)                            0.010      0.010
  core/loopbuffer/clk_r_REG624_S42/CP (C8T28SOIDV_LL_DFPRQX10_P16)
                                                         0.000      0.010 r
  core/loopbuffer/clk_r_REG624_S42/Q (C8T28SOIDV_LL_DFPRQX10_P16)
                                                         0.066      0.076 f
  core/loopbuffer/U31/Z (C8T28SOI_LL_NOR2X4_P16)         0.032 *    0.108 r
  core/loopbuffer/U32/Z (C8T28SOI_LL_IVX3_P16)           0.033 *    0.141 f
  core/loopbuffer/U36/Z (C8T28SOI_LL_AOI22X2_P16)        0.203 *    0.345 r
  core/loopbuffer/U21/Z (C8T28SOI_LL_BFX5_P16)           0.151 *    0.496 r
  core/loopbuffer/U608/Z (C8T28SOI_LL_OA22X5_P16)        0.070 *    0.566 r
  core/loopbuffer/glock_out (tta0_loopbuf_1_32_51_1_0)
                                                         0.000      0.566 r
  core/inst_decoder/lock (tta0_decoder)                  0.000      0.566 r
  core/inst_decoder/U63/Z (C8T28SOI_LL_NOR2X4_P16)       0.024 *    0.591 f
  core/inst_decoder/U64/Z (C8T28SOI_LL_NAND2AX2_P16)     0.034 *    0.624 r
  core/inst_decoder/glock[7] (tta0_decoder)              0.000      0.624 r
  U293/Z (C8T28SOI_LL_BFX9_P16)                          0.141 *    0.766 r
  core/fu_lsu_r/glock (fu_ldw_stw_always_4_dataw32_addrw16_1)
                                                         0.000      0.766 r
  core/fu_lsu_r/U128/Z (C8T28SOI_LL_OR2X5_P16)           0.102 *    0.868 r
  core/fu_lsu_r/mem_en_x[0] (fu_ldw_stw_always_4_dataw32_addrw16_1)
                                                         0.000      0.868 r
  U160/Z (C8T28SOI_LL_NOR2AX4_P16)                       0.322 *    1.189 r
  U295/Z (C8T28SOI_LL_BFX5_P16)                          0.210 *    1.400 r
  U296/Z (C8T28SOI_LL_IVX3_P16)                          0.108 *    1.508 f
  U232/Z (C8T28SOI_LL_AOI22X2_P16)                       0.067 *    1.575 r
  U233/Z (C8T28SOI_LL_IVX3_P16)                          0.026 *    1.601 f
  datamem/scheduler/lsu_addr_a[2] (par_mem_scheduler_dataw32_addrw14_ports2_rd_delay1)
                                                         0.000      1.601 f
  datamem/scheduler/addr_a_conv/data_in[2] (ser_par_conv_portw14_port_cnt2_1)
                                                         0.000      1.601 f
  datamem/scheduler/addr_a_conv/U9/Z (C8T28SOI_LL_IVX3_P16)
                                                         0.023 *    1.624 r
  datamem/scheduler/addr_a_conv/U10/Z (C8T28SOI_LL_IVX3_P16)
                                                         0.017 *    1.641 f
  datamem/scheduler/addr_a_conv/data_out[2] (ser_par_conv_portw14_port_cnt2_1)
                                                         0.000      1.641 f
  datamem/scheduler/U156/Z (C8T28SOI_LL_AOI22X2_P16)     0.029 *    1.669 r
  datamem/scheduler/U157/Z (C8T28SOI_LL_IVX3_P16)        0.026 *    1.696 f
  datamem/scheduler/addr[2] (par_mem_scheduler_dataw32_addrw14_ports2_rd_delay1)
                                                         0.000      1.696 f
  datamem/par_mem_logic_inst/addrs_from_lsus[2] (par_mem_logic_PORTS2_LSU_ADDRW14_CTRLW1_DATAW32_PM_FUNC2)
                                                         0.000      1.696 f
  datamem/par_mem_logic_inst/addr_crsbar_0/addrs_from_lsus[2] (addr_crsbar_PORTS2_LSU_ADDRW14_CTRLW1_PM_FUNC2)
                                                         0.000      1.696 f
  datamem/par_mem_logic_inst/addr_crsbar_0/U32/Z (C8T28SOI_LL_AOI22X2_P16)
                                                         0.056 *    1.752 r
  datamem/par_mem_logic_inst/addr_crsbar_0/U33/Z (C8T28SOIDV_LLS_XNOR2X4_P16)
                                                         0.057 *    1.809 r
  datamem/par_mem_logic_inst/addr_crsbar_0/U34/Z (C8T28SOI_LL_NAND2X2_P16)
                                                         0.024 *    1.833 f
  datamem/par_mem_logic_inst/addr_crsbar_0/U35/Z (C8T28SOI_LL_OAI12X3_P16)
                                                         0.028 *    1.861 r
  datamem/par_mem_logic_inst/addr_crsbar_0/U36/Z (C8T28SOIDV_LLS_XOR2X4_P16)
                                                         0.043 *    1.904 r
  datamem/par_mem_logic_inst/addr_crsbar_0/U37/Z (C8T28SOIDV_LLS_XNOR2X4_P16)
                                                         0.041 *    1.945 r
  datamem/par_mem_logic_inst/addr_crsbar_0/U38/Z (C8T28SOI_LL_NAND2X2_P16)
                                                         0.022 *    1.967 f
  datamem/par_mem_logic_inst/addr_crsbar_0/U39/Z (C8T28SOI_LL_OAI12X3_P16)
                                                         0.029 *    1.995 r
  datamem/par_mem_logic_inst/addr_crsbar_0/U40/Z (C8T28SOIDV_LLS_XNOR2X4_P16)
                                                         0.040 *    2.036 r
  datamem/par_mem_logic_inst/addr_crsbar_0/U41/Z (C8T28SOI_LL_NAND2X2_P16)
                                                         0.022 *    2.057 f
  datamem/par_mem_logic_inst/addr_crsbar_0/U42/Z (C8T28SOI_LL_OAI12X3_P16)
                                                         0.028 *    2.085 r
  datamem/par_mem_logic_inst/addr_crsbar_0/U43/Z (C8T28SOIDV_LLS_XNOR2X4_P16)
                                                         0.021 *    2.106 f
  datamem/par_mem_logic_inst/addr_crsbar_0/U44/Z (C8T28SOI_LL_NAND2X2_P16)
                                                         0.025 *    2.132 r
  datamem/par_mem_logic_inst/addr_crsbar_0/U45/Z (C8T28SOI_LL_OAI12X3_P16)
                                                         0.035 *    2.167 f
  datamem/par_mem_logic_inst/addr_crsbar_0/module_nums[0] (addr_crsbar_PORTS2_LSU_ADDRW14_CTRLW1_PM_FUNC2)
                                                         0.000      2.167 f
  datamem/par_mem_logic_inst/ctrl_units_0/module_nums[0] (ctrl_units_PORTS2_CTRLW1)
                                                         0.000      2.167 f
  datamem/par_mem_logic_inst/ctrl_units_0/ctrl_uniti_0/module_num[0] (ctrl_unit_PORTS2_CTRLW1_1)
                                                         0.000      2.167 f
  datamem/par_mem_logic_inst/ctrl_units_0/ctrl_uniti_0/U15/Z (C8T28SOI_LL_NOR2AX4_P16)
                                                         0.042 *    2.209 r
  datamem/par_mem_logic_inst/ctrl_units_0/ctrl_uniti_0/U16/Z (C8T28SOI_LL_AOI22X2_P16)
                                                         0.026 *    2.235 f
  datamem/par_mem_logic_inst/ctrl_units_0/ctrl_uniti_0/U22/Z (C8T28SOI_LL_AND2X5_P16)
                                                         0.045 *    2.281 f
  datamem/par_mem_logic_inst/ctrl_units_0/ctrl_uniti_0/mem_en_x (ctrl_unit_PORTS2_CTRLW1_1)
                                                         0.000      2.281 f
  datamem/par_mem_logic_inst/ctrl_units_0/U18/Z (C8T28SOI_LL_NAND2AX2_P16)
                                                         0.078 *    2.358 f
  datamem/par_mem_logic_inst/ctrl_units_0/mem_en_xs[0] (ctrl_units_PORTS2_CTRLW1)
                                                         0.000      2.358 f
  datamem/par_mem_logic_inst/mem_en_xs[0] (par_mem_logic_PORTS2_LSU_ADDRW14_CTRLW1_DATAW32_PM_FUNC2)
                                                         0.000      2.358 f
  datamem/dmem_2/en_x (synch_singleport_mem_wrapper_DATAW32_ADDRW13_0)
                                                         0.000      2.358 f
  datamem/dmem_2/en_wr_arbiter/en (block_en_wr_arbiter_ADDRW13_NBLOCKS9_0)
                                                         0.000      2.358 f
  datamem/dmem_2/en_wr_arbiter/U6/Z (C8T28SOI_LL_IVX3_P16)
                                                         0.122 *    2.481 r
  datamem/dmem_2/en_wr_arbiter/U27/Z (C8T28SOI_LL_NAND3X3_P16)
                                                         0.077 *    2.558 f
  datamem/dmem_2/en_wr_arbiter/en_blocks[4] (block_en_wr_arbiter_ADDRW13_NBLOCKS9_0)
                                                         0.000      2.558 f
  datamem/dmem_2/cacti_mem_x_4/en_x (cacti_mem_wrapper_DATAW32_ADDRW8_0)
                                                         0.000      2.558 f
  datamem/dmem_2/cacti_mem_x_4/mem_256x32/mem_en_x (ram_256x32)
                                                         0.000 *    2.558 f
  data arrival time                                                 2.558

  clock clk (rise edge)                                 10.000     10.000
  clock network delay (ideal)                            0.010     10.010
  clock uncertainty                                     -0.010     10.000
  datamem/dmem_2/cacti_mem_x_4/mem_256x32/clk (ram_256x32)
                                                         0.000     10.000 r
  library setup time                                    -0.533      9.467
  data required time                                                9.467
  --------------------------------------------------------------------------
  data required time                                                9.467
  data arrival time                                                -2.558
  --------------------------------------------------------------------------
  slack (MET)                                                       6.910


  Startpoint: core/loopbuffer/clk_r_REG624_S42
              (rising edge-triggered flip-flop clocked by clk)
  Endpoint: datamem/dmem_2/cacti_mem_x_2/mem_64x32
            (rising edge-triggered flip-flop clocked by clk)
  Path Group: clk
  Path Type: max

  Point                                                   Incr       Path
  --------------------------------------------------------------------------
  clock clk (rise edge)                                  0.000      0.000
  clock network delay (ideal)                            0.010      0.010
  core/loopbuffer/clk_r_REG624_S42/CP (C8T28SOIDV_LL_DFPRQX10_P16)
                                                         0.000      0.010 r
  core/loopbuffer/clk_r_REG624_S42/Q (C8T28SOIDV_LL_DFPRQX10_P16)
                                                         0.066      0.076 f
  core/loopbuffer/U31/Z (C8T28SOI_LL_NOR2X4_P16)         0.032 *    0.108 r
  core/loopbuffer/U32/Z (C8T28SOI_LL_IVX3_P16)           0.033 *    0.141 f
  core/loopbuffer/U36/Z (C8T28SOI_LL_AOI22X2_P16)        0.203 *    0.345 r
  core/loopbuffer/U21/Z (C8T28SOI_LL_BFX5_P16)           0.151 *    0.496 r
  core/loopbuffer/U608/Z (C8T28SOI_LL_OA22X5_P16)        0.070 *    0.566 r
  core/loopbuffer/glock_out (tta0_loopbuf_1_32_51_1_0)
                                                         0.000      0.566 r
  core/inst_decoder/lock (tta0_decoder)                  0.000      0.566 r
  core/inst_decoder/U63/Z (C8T28SOI_LL_NOR2X4_P16)       0.024 *    0.591 f
  core/inst_decoder/U64/Z (C8T28SOI_LL_NAND2AX2_P16)     0.034 *    0.624 r
  core/inst_decoder/glock[7] (tta0_decoder)              0.000      0.624 r
  U293/Z (C8T28SOI_LL_BFX9_P16)                          0.141 *    0.766 r
  core/fu_lsu_r/glock (fu_ldw_stw_always_4_dataw32_addrw16_1)
                                                         0.000      0.766 r
  core/fu_lsu_r/U128/Z (C8T28SOI_LL_OR2X5_P16)           0.102 *    0.868 r
  core/fu_lsu_r/mem_en_x[0] (fu_ldw_stw_always_4_dataw32_addrw16_1)
                                                         0.000      0.868 r
  U160/Z (C8T28SOI_LL_NOR2AX4_P16)                       0.322 *    1.189 r
  U295/Z (C8T28SOI_LL_BFX5_P16)                          0.210 *    1.400 r
  U296/Z (C8T28SOI_LL_IVX3_P16)                          0.108 *    1.508 f
  U232/Z (C8T28SOI_LL_AOI22X2_P16)                       0.067 *    1.575 r
  U233/Z (C8T28SOI_LL_IVX3_P16)                          0.026 *    1.601 f
  datamem/scheduler/lsu_addr_a[2] (par_mem_scheduler_dataw32_addrw14_ports2_rd_delay1)
                                                         0.000      1.601 f
  datamem/scheduler/addr_a_conv/data_in[2] (ser_par_conv_portw14_port_cnt2_1)
                                                         0.000      1.601 f
  datamem/scheduler/addr_a_conv/U9/Z (C8T28SOI_LL_IVX3_P16)
                                                         0.023 *    1.624 r
  datamem/scheduler/addr_a_conv/U10/Z (C8T28SOI_LL_IVX3_P16)
                                                         0.017 *    1.641 f
  datamem/scheduler/addr_a_conv/data_out[2] (ser_par_conv_portw14_port_cnt2_1)
                                                         0.000      1.641 f
  datamem/scheduler/U156/Z (C8T28SOI_LL_AOI22X2_P16)     0.029 *    1.669 r
  datamem/scheduler/U157/Z (C8T28SOI_LL_IVX3_P16)        0.026 *    1.696 f
  datamem/scheduler/addr[2] (par_mem_scheduler_dataw32_addrw14_ports2_rd_delay1)
                                                         0.000      1.696 f
  datamem/par_mem_logic_inst/addrs_from_lsus[2] (par_mem_logic_PORTS2_LSU_ADDRW14_CTRLW1_DATAW32_PM_FUNC2)
                                                         0.000      1.696 f
  datamem/par_mem_logic_inst/addr_crsbar_0/addrs_from_lsus[2] (addr_crsbar_PORTS2_LSU_ADDRW14_CTRLW1_PM_FUNC2)
                                                         0.000      1.696 f
  datamem/par_mem_logic_inst/addr_crsbar_0/U32/Z (C8T28SOI_LL_AOI22X2_P16)
                                                         0.056 *    1.752 r
  datamem/par_mem_logic_inst/addr_crsbar_0/U33/Z (C8T28SOIDV_LLS_XNOR2X4_P16)
                                                         0.057 *    1.809 r
  datamem/par_mem_logic_inst/addr_crsbar_0/U34/Z (C8T28SOI_LL_NAND2X2_P16)
                                                         0.024 *    1.833 f
  datamem/par_mem_logic_inst/addr_crsbar_0/U35/Z (C8T28SOI_LL_OAI12X3_P16)
                                                         0.028 *    1.861 r
  datamem/par_mem_logic_inst/addr_crsbar_0/U36/Z (C8T28SOIDV_LLS_XOR2X4_P16)
                                                         0.043 *    1.904 r
  datamem/par_mem_logic_inst/addr_crsbar_0/U37/Z (C8T28SOIDV_LLS_XNOR2X4_P16)
                                                         0.041 *    1.945 r
  datamem/par_mem_logic_inst/addr_crsbar_0/U38/Z (C8T28SOI_LL_NAND2X2_P16)
                                                         0.022 *    1.967 f
  datamem/par_mem_logic_inst/addr_crsbar_0/U39/Z (C8T28SOI_LL_OAI12X3_P16)
                                                         0.029 *    1.995 r
  datamem/par_mem_logic_inst/addr_crsbar_0/U40/Z (C8T28SOIDV_LLS_XNOR2X4_P16)
                                                         0.040 *    2.036 r
  datamem/par_mem_logic_inst/addr_crsbar_0/U41/Z (C8T28SOI_LL_NAND2X2_P16)
                                                         0.022 *    2.057 f
  datamem/par_mem_logic_inst/addr_crsbar_0/U42/Z (C8T28SOI_LL_OAI12X3_P16)
                                                         0.028 *    2.085 r
  datamem/par_mem_logic_inst/addr_crsbar_0/U43/Z (C8T28SOIDV_LLS_XNOR2X4_P16)
                                                         0.021 *    2.106 f
  datamem/par_mem_logic_inst/addr_crsbar_0/U44/Z (C8T28SOI_LL_NAND2X2_P16)
                                                         0.025 *    2.132 r
  datamem/par_mem_logic_inst/addr_crsbar_0/U45/Z (C8T28SOI_LL_OAI12X3_P16)
                                                         0.035 *    2.167 f
  datamem/par_mem_logic_inst/addr_crsbar_0/module_nums[0] (addr_crsbar_PORTS2_LSU_ADDRW14_CTRLW1_PM_FUNC2)
                                                         0.000      2.167 f
  datamem/par_mem_logic_inst/ctrl_units_0/module_nums[0] (ctrl_units_PORTS2_CTRLW1)
                                                         0.000      2.167 f
  datamem/par_mem_logic_inst/ctrl_units_0/ctrl_uniti_0/module_num[0] (ctrl_unit_PORTS2_CTRLW1_1)
                                                         0.000      2.167 f
  datamem/par_mem_logic_inst/ctrl_units_0/ctrl_uniti_0/U15/Z (C8T28SOI_LL_NOR2AX4_P16)
                                                         0.042 *    2.209 r
  datamem/par_mem_logic_inst/ctrl_units_0/ctrl_uniti_0/U16/Z (C8T28SOI_LL_AOI22X2_P16)
                                                         0.026 *    2.235 f
  datamem/par_mem_logic_inst/ctrl_units_0/ctrl_uniti_0/U22/Z (C8T28SOI_LL_AND2X5_P16)
                                                         0.045 *    2.281 f
  datamem/par_mem_logic_inst/ctrl_units_0/ctrl_uniti_0/mem_en_x (ctrl_unit_PORTS2_CTRLW1_1)
                                                         0.000      2.281 f
  datamem/par_mem_logic_inst/ctrl_units_0/U18/Z (C8T28SOI_LL_NAND2AX2_P16)
                                                         0.078 *    2.358 f
  datamem/par_mem_logic_inst/ctrl_units_0/mem_en_xs[0] (ctrl_units_PORTS2_CTRLW1)
                                                         0.000      2.358 f
  datamem/par_mem_logic_inst/mem_en_xs[0] (par_mem_logic_PORTS2_LSU_ADDRW14_CTRLW1_DATAW32_PM_FUNC2)
                                                         0.000      2.358 f
  datamem/dmem_2/en_x (synch_singleport_mem_wrapper_DATAW32_ADDRW13_0)
                                                         0.000      2.358 f
  datamem/dmem_2/en_wr_arbiter/en (block_en_wr_arbiter_ADDRW13_NBLOCKS9_0)
                                                         0.000      2.358 f
  datamem/dmem_2/en_wr_arbiter/U6/Z (C8T28SOI_LL_IVX3_P16)
                                                         0.122 *    2.481 r
  datamem/dmem_2/en_wr_arbiter/U25/Z (C8T28SOI_LL_NAND3X3_P16)
                                                         0.070 *    2.551 f
  datamem/dmem_2/en_wr_arbiter/en_blocks[2] (block_en_wr_arbiter_ADDRW13_NBLOCKS9_0)
                                                         0.000      2.551 f
  datamem/dmem_2/cacti_mem_x_2/en_x (cacti_mem_wrapper_DATAW32_ADDRW6_0)
                                                         0.000      2.551 f
  datamem/dmem_2/cacti_mem_x_2/mem_64x32/mem_en_x (ram_64x32)
                                                         0.000 *    2.551 f
  data arrival time                                                 2.551

  clock clk (rise edge)                                 10.000     10.000
  clock network delay (ideal)                            0.010     10.010
  clock uncertainty                                     -0.010     10.000
  datamem/dmem_2/cacti_mem_x_2/mem_64x32/clk (ram_64x32)
                                                         0.000     10.000 r
  library setup time                                    -0.530      9.470
  data required time                                                9.470
  --------------------------------------------------------------------------
  data required time                                                9.470
  data arrival time                                                -2.551
  --------------------------------------------------------------------------
  slack (MET)                                                       6.919


  Startpoint: core/loopbuffer/clk_r_REG624_S42
              (rising edge-triggered flip-flop clocked by clk)
  Endpoint: datamem/dmem_2/cacti_mem_x_5/mem_512x32
            (rising edge-triggered flip-flop clocked by clk)
  Path Group: clk
  Path Type: max

  Point                                                   Incr       Path
  --------------------------------------------------------------------------
  clock clk (rise edge)                                  0.000      0.000
  clock network delay (ideal)                            0.010      0.010
  core/loopbuffer/clk_r_REG624_S42/CP (C8T28SOIDV_LL_DFPRQX10_P16)
                                                         0.000      0.010 r
  core/loopbuffer/clk_r_REG624_S42/Q (C8T28SOIDV_LL_DFPRQX10_P16)
                                                         0.066      0.076 f
  core/loopbuffer/U31/Z (C8T28SOI_LL_NOR2X4_P16)         0.032 *    0.108 r
  core/loopbuffer/U32/Z (C8T28SOI_LL_IVX3_P16)           0.033 *    0.141 f
  core/loopbuffer/U36/Z (C8T28SOI_LL_AOI22X2_P16)        0.203 *    0.345 r
  core/loopbuffer/U21/Z (C8T28SOI_LL_BFX5_P16)           0.151 *    0.496 r
  core/loopbuffer/U608/Z (C8T28SOI_LL_OA22X5_P16)        0.070 *    0.566 r
  core/loopbuffer/glock_out (tta0_loopbuf_1_32_51_1_0)
                                                         0.000      0.566 r
  core/inst_decoder/lock (tta0_decoder)                  0.000      0.566 r
  core/inst_decoder/U63/Z (C8T28SOI_LL_NOR2X4_P16)       0.024 *    0.591 f
  core/inst_decoder/U64/Z (C8T28SOI_LL_NAND2AX2_P16)     0.034 *    0.624 r
  core/inst_decoder/glock[7] (tta0_decoder)              0.000      0.624 r
  U293/Z (C8T28SOI_LL_BFX9_P16)                          0.141 *    0.766 r
  core/fu_lsu_r/glock (fu_ldw_stw_always_4_dataw32_addrw16_1)
                                                         0.000      0.766 r
  core/fu_lsu_r/U128/Z (C8T28SOI_LL_OR2X5_P16)           0.102 *    0.868 r
  core/fu_lsu_r/mem_en_x[0] (fu_ldw_stw_always_4_dataw32_addrw16_1)
                                                         0.000      0.868 r
  U160/Z (C8T28SOI_LL_NOR2AX4_P16)                       0.322 *    1.189 r
  U295/Z (C8T28SOI_LL_BFX5_P16)                          0.210 *    1.400 r
  U296/Z (C8T28SOI_LL_IVX3_P16)                          0.108 *    1.508 f
  U232/Z (C8T28SOI_LL_AOI22X2_P16)                       0.067 *    1.575 r
  U233/Z (C8T28SOI_LL_IVX3_P16)                          0.026 *    1.601 f
  datamem/scheduler/lsu_addr_a[2] (par_mem_scheduler_dataw32_addrw14_ports2_rd_delay1)
                                                         0.000      1.601 f
  datamem/scheduler/addr_a_conv/data_in[2] (ser_par_conv_portw14_port_cnt2_1)
                                                         0.000      1.601 f
  datamem/scheduler/addr_a_conv/U9/Z (C8T28SOI_LL_IVX3_P16)
                                                         0.023 *    1.624 r
  datamem/scheduler/addr_a_conv/U10/Z (C8T28SOI_LL_IVX3_P16)
                                                         0.017 *    1.641 f
  datamem/scheduler/addr_a_conv/data_out[2] (ser_par_conv_portw14_port_cnt2_1)
                                                         0.000      1.641 f
  datamem/scheduler/U156/Z (C8T28SOI_LL_AOI22X2_P16)     0.029 *    1.669 r
  datamem/scheduler/U157/Z (C8T28SOI_LL_IVX3_P16)        0.026 *    1.696 f
  datamem/scheduler/addr[2] (par_mem_scheduler_dataw32_addrw14_ports2_rd_delay1)
                                                         0.000      1.696 f
  datamem/par_mem_logic_inst/addrs_from_lsus[2] (par_mem_logic_PORTS2_LSU_ADDRW14_CTRLW1_DATAW32_PM_FUNC2)
                                                         0.000      1.696 f
  datamem/par_mem_logic_inst/addr_crsbar_0/addrs_from_lsus[2] (addr_crsbar_PORTS2_LSU_ADDRW14_CTRLW1_PM_FUNC2)
                                                         0.000      1.696 f
  datamem/par_mem_logic_inst/addr_crsbar_0/U32/Z (C8T28SOI_LL_AOI22X2_P16)
                                                         0.056 *    1.752 r
  datamem/par_mem_logic_inst/addr_crsbar_0/U33/Z (C8T28SOIDV_LLS_XNOR2X4_P16)
                                                         0.057 *    1.809 r
  datamem/par_mem_logic_inst/addr_crsbar_0/U34/Z (C8T28SOI_LL_NAND2X2_P16)
                                                         0.024 *    1.833 f
  datamem/par_mem_logic_inst/addr_crsbar_0/U35/Z (C8T28SOI_LL_OAI12X3_P16)
                                                         0.028 *    1.861 r
  datamem/par_mem_logic_inst/addr_crsbar_0/U36/Z (C8T28SOIDV_LLS_XOR2X4_P16)
                                                         0.043 *    1.904 r
  datamem/par_mem_logic_inst/addr_crsbar_0/U37/Z (C8T28SOIDV_LLS_XNOR2X4_P16)
                                                         0.041 *    1.945 r
  datamem/par_mem_logic_inst/addr_crsbar_0/U38/Z (C8T28SOI_LL_NAND2X2_P16)
                                                         0.022 *    1.967 f
  datamem/par_mem_logic_inst/addr_crsbar_0/U39/Z (C8T28SOI_LL_OAI12X3_P16)
                                                         0.029 *    1.995 r
  datamem/par_mem_logic_inst/addr_crsbar_0/U40/Z (C8T28SOIDV_LLS_XNOR2X4_P16)
                                                         0.040 *    2.036 r
  datamem/par_mem_logic_inst/addr_crsbar_0/U41/Z (C8T28SOI_LL_NAND2X2_P16)
                                                         0.022 *    2.057 f
  datamem/par_mem_logic_inst/addr_crsbar_0/U42/Z (C8T28SOI_LL_OAI12X3_P16)
                                                         0.028 *    2.085 r
  datamem/par_mem_logic_inst/addr_crsbar_0/U43/Z (C8T28SOIDV_LLS_XNOR2X4_P16)
                                                         0.021 *    2.106 f
  datamem/par_mem_logic_inst/addr_crsbar_0/U44/Z (C8T28SOI_LL_NAND2X2_P16)
                                                         0.025 *    2.132 r
  datamem/par_mem_logic_inst/addr_crsbar_0/U45/Z (C8T28SOI_LL_OAI12X3_P16)
                                                         0.035 *    2.167 f
  datamem/par_mem_logic_inst/addr_crsbar_0/module_nums[0] (addr_crsbar_PORTS2_LSU_ADDRW14_CTRLW1_PM_FUNC2)
                                                         0.000      2.167 f
  datamem/par_mem_logic_inst/ctrl_units_0/module_nums[0] (ctrl_units_PORTS2_CTRLW1)
                                                         0.000      2.167 f
  datamem/par_mem_logic_inst/ctrl_units_0/ctrl_uniti_0/module_num[0] (ctrl_unit_PORTS2_CTRLW1_1)
                                                         0.000      2.167 f
  datamem/par_mem_logic_inst/ctrl_units_0/ctrl_uniti_0/U15/Z (C8T28SOI_LL_NOR2AX4_P16)
                                                         0.042 *    2.209 r
  datamem/par_mem_logic_inst/ctrl_units_0/ctrl_uniti_0/U16/Z (C8T28SOI_LL_AOI22X2_P16)
                                                         0.026 *    2.235 f
  datamem/par_mem_logic_inst/ctrl_units_0/ctrl_uniti_0/U22/Z (C8T28SOI_LL_AND2X5_P16)
                                                         0.045 *    2.281 f
  datamem/par_mem_logic_inst/ctrl_units_0/ctrl_uniti_0/mem_en_x (ctrl_unit_PORTS2_CTRLW1_1)
                                                         0.000      2.281 f
  datamem/par_mem_logic_inst/ctrl_units_0/U18/Z (C8T28SOI_LL_NAND2AX2_P16)
                                                         0.078 *    2.358 f
  datamem/par_mem_logic_inst/ctrl_units_0/mem_en_xs[0] (ctrl_units_PORTS2_CTRLW1)
                                                         0.000      2.358 f
  datamem/par_mem_logic_inst/mem_en_xs[0] (par_mem_logic_PORTS2_LSU_ADDRW14_CTRLW1_DATAW32_PM_FUNC2)
                                                         0.000      2.358 f
  datamem/dmem_2/en_x (synch_singleport_mem_wrapper_DATAW32_ADDRW13_0)
                                                         0.000      2.358 f
  datamem/dmem_2/en_wr_arbiter/en (block_en_wr_arbiter_ADDRW13_NBLOCKS9_0)
                                                         0.000      2.358 f
  datamem/dmem_2/en_wr_arbiter/U6/Z (C8T28SOI_LL_IVX3_P16)
                                                         0.122 *    2.481 r
  datamem/dmem_2/en_wr_arbiter/U28/Z (C8T28SOI_LL_NAND3X3_P16)
                                                         0.072 *    2.552 f
  datamem/dmem_2/en_wr_arbiter/en_blocks[5] (block_en_wr_arbiter_ADDRW13_NBLOCKS9_0)
                                                         0.000      2.552 f
  datamem/dmem_2/cacti_mem_x_5/en_x (cacti_mem_wrapper_DATAW32_ADDRW9_0)
                                                         0.000      2.552 f
  datamem/dmem_2/cacti_mem_x_5/mem_512x32/mem_en_x (ram_512x32)
                                                         0.000 *    2.552 f
  data arrival time                                                 2.552

  clock clk (rise edge)                                 10.000     10.000
  clock network delay (ideal)                            0.010     10.010
  clock uncertainty                                     -0.010     10.000
  datamem/dmem_2/cacti_mem_x_5/mem_512x32/clk (ram_512x32)
                                                         0.000     10.000 r
  library setup time                                    -0.528      9.472
  data required time                                                9.472
  --------------------------------------------------------------------------
  data required time                                                9.472
  data arrival time                                                -2.552
  --------------------------------------------------------------------------
  slack (MET)                                                       6.920


  Startpoint: core/loopbuffer/clk_r_REG624_S42
              (rising edge-triggered flip-flop clocked by clk)
  Endpoint: datamem/dmem_2/cacti_mem_0/mem_32x32
            (rising edge-triggered flip-flop clocked by clk)
  Path Group: clk
  Path Type: max

  Point                                                   Incr       Path
  --------------------------------------------------------------------------
  clock clk (rise edge)                                  0.000      0.000
  clock network delay (ideal)                            0.010      0.010
  core/loopbuffer/clk_r_REG624_S42/CP (C8T28SOIDV_LL_DFPRQX10_P16)
                                                         0.000      0.010 r
  core/loopbuffer/clk_r_REG624_S42/Q (C8T28SOIDV_LL_DFPRQX10_P16)
                                                         0.066      0.076 f
  core/loopbuffer/U31/Z (C8T28SOI_LL_NOR2X4_P16)         0.032 *    0.108 r
  core/loopbuffer/U32/Z (C8T28SOI_LL_IVX3_P16)           0.033 *    0.141 f
  core/loopbuffer/U36/Z (C8T28SOI_LL_AOI22X2_P16)        0.203 *    0.345 r
  core/loopbuffer/U21/Z (C8T28SOI_LL_BFX5_P16)           0.151 *    0.496 r
  core/loopbuffer/U608/Z (C8T28SOI_LL_OA22X5_P16)        0.070 *    0.566 r
  core/loopbuffer/glock_out (tta0_loopbuf_1_32_51_1_0)
                                                         0.000      0.566 r
  core/inst_decoder/lock (tta0_decoder)                  0.000      0.566 r
  core/inst_decoder/U63/Z (C8T28SOI_LL_NOR2X4_P16)       0.024 *    0.591 f
  core/inst_decoder/U64/Z (C8T28SOI_LL_NAND2AX2_P16)     0.034 *    0.624 r
  core/inst_decoder/glock[7] (tta0_decoder)              0.000      0.624 r
  U293/Z (C8T28SOI_LL_BFX9_P16)                          0.141 *    0.766 r
  core/fu_lsu_r/glock (fu_ldw_stw_always_4_dataw32_addrw16_1)
                                                         0.000      0.766 r
  core/fu_lsu_r/U128/Z (C8T28SOI_LL_OR2X5_P16)           0.102 *    0.868 r
  core/fu_lsu_r/mem_en_x[0] (fu_ldw_stw_always_4_dataw32_addrw16_1)
                                                         0.000      0.868 r
  U160/Z (C8T28SOI_LL_NOR2AX4_P16)                       0.322 *    1.189 r
  U295/Z (C8T28SOI_LL_BFX5_P16)                          0.210 *    1.400 r
  U296/Z (C8T28SOI_LL_IVX3_P16)                          0.108 *    1.508 f
  U232/Z (C8T28SOI_LL_AOI22X2_P16)                       0.067 *    1.575 r
  U233/Z (C8T28SOI_LL_IVX3_P16)                          0.026 *    1.601 f
  datamem/scheduler/lsu_addr_a[2] (par_mem_scheduler_dataw32_addrw14_ports2_rd_delay1)
                                                         0.000      1.601 f
  datamem/scheduler/addr_a_conv/data_in[2] (ser_par_conv_portw14_port_cnt2_1)
                                                         0.000      1.601 f
  datamem/scheduler/addr_a_conv/U9/Z (C8T28SOI_LL_IVX3_P16)
                                                         0.023 *    1.624 r
  datamem/scheduler/addr_a_conv/U10/Z (C8T28SOI_LL_IVX3_P16)
                                                         0.017 *    1.641 f
  datamem/scheduler/addr_a_conv/data_out[2] (ser_par_conv_portw14_port_cnt2_1)
                                                         0.000      1.641 f
  datamem/scheduler/U156/Z (C8T28SOI_LL_AOI22X2_P16)     0.029 *    1.669 r
  datamem/scheduler/U157/Z (C8T28SOI_LL_IVX3_P16)        0.026 *    1.696 f
  datamem/scheduler/addr[2] (par_mem_scheduler_dataw32_addrw14_ports2_rd_delay1)
                                                         0.000      1.696 f
  datamem/par_mem_logic_inst/addrs_from_lsus[2] (par_mem_logic_PORTS2_LSU_ADDRW14_CTRLW1_DATAW32_PM_FUNC2)
                                                         0.000      1.696 f
  datamem/par_mem_logic_inst/addr_crsbar_0/addrs_from_lsus[2] (addr_crsbar_PORTS2_LSU_ADDRW14_CTRLW1_PM_FUNC2)
                                                         0.000      1.696 f
  datamem/par_mem_logic_inst/addr_crsbar_0/U32/Z (C8T28SOI_LL_AOI22X2_P16)
                                                         0.056 *    1.752 r
  datamem/par_mem_logic_inst/addr_crsbar_0/U33/Z (C8T28SOIDV_LLS_XNOR2X4_P16)
                                                         0.057 *    1.809 r
  datamem/par_mem_logic_inst/addr_crsbar_0/U34/Z (C8T28SOI_LL_NAND2X2_P16)
                                                         0.024 *    1.833 f
  datamem/par_mem_logic_inst/addr_crsbar_0/U35/Z (C8T28SOI_LL_OAI12X3_P16)
                                                         0.028 *    1.861 r
  datamem/par_mem_logic_inst/addr_crsbar_0/U36/Z (C8T28SOIDV_LLS_XOR2X4_P16)
                                                         0.043 *    1.904 r
  datamem/par_mem_logic_inst/addr_crsbar_0/U37/Z (C8T28SOIDV_LLS_XNOR2X4_P16)
                                                         0.041 *    1.945 r
  datamem/par_mem_logic_inst/addr_crsbar_0/U38/Z (C8T28SOI_LL_NAND2X2_P16)
                                                         0.022 *    1.967 f
  datamem/par_mem_logic_inst/addr_crsbar_0/U39/Z (C8T28SOI_LL_OAI12X3_P16)
                                                         0.029 *    1.995 r
  datamem/par_mem_logic_inst/addr_crsbar_0/U40/Z (C8T28SOIDV_LLS_XNOR2X4_P16)
                                                         0.040 *    2.036 r
  datamem/par_mem_logic_inst/addr_crsbar_0/U41/Z (C8T28SOI_LL_NAND2X2_P16)
                                                         0.022 *    2.057 f
  datamem/par_mem_logic_inst/addr_crsbar_0/U42/Z (C8T28SOI_LL_OAI12X3_P16)
                                                         0.028 *    2.085 r
  datamem/par_mem_logic_inst/addr_crsbar_0/U43/Z (C8T28SOIDV_LLS_XNOR2X4_P16)
                                                         0.021 *    2.106 f
  datamem/par_mem_logic_inst/addr_crsbar_0/U44/Z (C8T28SOI_LL_NAND2X2_P16)
                                                         0.025 *    2.132 r
  datamem/par_mem_logic_inst/addr_crsbar_0/U45/Z (C8T28SOI_LL_OAI12X3_P16)
                                                         0.035 *    2.167 f
  datamem/par_mem_logic_inst/addr_crsbar_0/module_nums[0] (addr_crsbar_PORTS2_LSU_ADDRW14_CTRLW1_PM_FUNC2)
                                                         0.000      2.167 f
  datamem/par_mem_logic_inst/ctrl_units_0/module_nums[0] (ctrl_units_PORTS2_CTRLW1)
                                                         0.000      2.167 f
  datamem/par_mem_logic_inst/ctrl_units_0/ctrl_uniti_0/module_num[0] (ctrl_unit_PORTS2_CTRLW1_1)
                                                         0.000      2.167 f
  datamem/par_mem_logic_inst/ctrl_units_0/ctrl_uniti_0/U15/Z (C8T28SOI_LL_NOR2AX4_P16)
                                                         0.042 *    2.209 r
  datamem/par_mem_logic_inst/ctrl_units_0/ctrl_uniti_0/U16/Z (C8T28SOI_LL_AOI22X2_P16)
                                                         0.026 *    2.235 f
  datamem/par_mem_logic_inst/ctrl_units_0/ctrl_uniti_0/U22/Z (C8T28SOI_LL_AND2X5_P16)
                                                         0.045 *    2.281 f
  datamem/par_mem_logic_inst/ctrl_units_0/ctrl_uniti_0/mem_en_x (ctrl_unit_PORTS2_CTRLW1_1)
                                                         0.000      2.281 f
  datamem/par_mem_logic_inst/ctrl_units_0/U18/Z (C8T28SOI_LL_NAND2AX2_P16)
                                                         0.078 *    2.358 f
  datamem/par_mem_logic_inst/ctrl_units_0/mem_en_xs[0] (ctrl_units_PORTS2_CTRLW1)
                                                         0.000      2.358 f
  datamem/par_mem_logic_inst/mem_en_xs[0] (par_mem_logic_PORTS2_LSU_ADDRW14_CTRLW1_DATAW32_PM_FUNC2)
                                                         0.000      2.358 f
  datamem/dmem_2/en_x (synch_singleport_mem_wrapper_DATAW32_ADDRW13_0)
                                                         0.000      2.358 f
  datamem/dmem_2/en_wr_arbiter/en (block_en_wr_arbiter_ADDRW13_NBLOCKS9_0)
                                                         0.000      2.358 f
  datamem/dmem_2/en_wr_arbiter/U6/Z (C8T28SOI_LL_IVX3_P16)
                                                         0.122 *    2.481 r
  datamem/dmem_2/en_wr_arbiter/U23/Z (C8T28SOI_LL_NAND3X3_P16)
                                                         0.073 *    2.554 f
  datamem/dmem_2/en_wr_arbiter/en_blocks[0] (block_en_wr_arbiter_ADDRW13_NBLOCKS9_0)
                                                         0.000      2.554 f
  datamem/dmem_2/cacti_mem_0/en_x (cacti_mem_wrapper_DATAW32_ADDRW5_1)
                                                         0.000      2.554 f
  datamem/dmem_2/cacti_mem_0/mem_32x32/mem_en_x (ram_32x32)
                                                         0.000 *    2.554 f
  data arrival time                                                 2.554

  clock clk (rise edge)                                 10.000     10.000
  clock network delay (ideal)                            0.010     10.010
  clock uncertainty                                     -0.010     10.000
  datamem/dmem_2/cacti_mem_0/mem_32x32/clk (ram_32x32)
                                                         0.000     10.000 r
  library setup time                                    -0.522      9.478
  data required time                                                9.478
  --------------------------------------------------------------------------
  data required time                                                9.478
  data arrival time                                                -2.554
  --------------------------------------------------------------------------
  slack (MET)                                                       6.924


  Startpoint: core/inst_decoder/clk_r_REG1856_S42
              (rising edge-triggered flip-flop clocked by clk)
  Endpoint: core/fu_CMUL/fu_arch/clk_r_REG504_S42
            (rising edge-triggered flip-flop clocked by clk)
  Path Group: clk
  Path Type: max

  Point                                                   Incr       Path
  --------------------------------------------------------------------------
  clock clk (rise edge)                                  0.000      0.000
  clock network delay (ideal)                            0.010      0.010
  core/inst_decoder/clk_r_REG1856_S42/CP (C8T28SOIDV_LL_DFPRQX10_P16)
                                                         0.000      0.010 r
  core/inst_decoder/clk_r_REG1856_S42/Q (C8T28SOIDV_LL_DFPRQX10_P16)
                                                         0.124      0.134 r
  core/inst_decoder/socket_TFG_o1_bus_cntrl[0] (tta0_decoder)
                                                         0.000      0.134 r
  core/ic/socket_TFG_o1_bus_cntrl[0] (tta0_interconn)    0.000      0.134 r
  core/ic/TFG_o1/databus_cntrl[0] (tta0_output_socket_cons_1_1_BUSW_032_DATAW_032_2)
                                                         0.000      0.134 r
  core/ic/TFG_o1/U6/Z (C8T28SOI_LL_AND2X5_P16)           0.063 *    0.197 r
  core/ic/TFG_o1/databus0_alt[1] (tta0_output_socket_cons_1_1_BUSW_032_DATAW_032_2)
                                                         0.000      0.197 r
  core/ic/CMUL_i1/databus0[1] (tta0_input_socket_cons_1_BUSW_032_DATAW32_10)
                                                         0.000      0.197 r
  core/ic/CMUL_i1/U27/Z (C8T28SOI_LL_BFX5_P16)           0.023 *    0.221 r
  core/ic/CMUL_i1/data[1] (tta0_input_socket_cons_1_BUSW_032_DATAW32_10)
                                                         0.000      0.221 r
  core/ic/socket_CMUL_i1_data[1] (tta0_interconn)        0.000      0.221 r
  U287/Z (C8T28SOI_LL_BFX5_P16)                          0.127 *    0.348 r
  core/fu_CMUL/t1data[1] (fu_cmul_always_3_dataw32_busw32)
                                                         0.000      0.348 r
  core/fu_CMUL/fu_arch/A[1] (cmul_pipe_1_dataw32_halfw16)
                                                         0.000      0.348 r
  core/fu_CMUL/fu_arch/U178/Z (C8T28SOI_LL_IVX5_P16)     0.136 *    0.483 f
  core/fu_CMUL/fu_arch/U152/Z (C8T28SOI_LL_OAI22X3_P16)
                                                         0.236 *    0.719 r
  core/fu_CMUL/fu_arch/U213/Z (C8T28SOI_LL_IVX3_P16)     0.148 *    0.867 f
  core/fu_CMUL/fu_arch/U300/Z (C8T28SOI_LL_NAND2X2_P16)
                                                         0.083 *    0.950 r
  core/fu_CMUL/fu_arch/U313/Z (C8T28SOI_LL_IVX5_P16)     0.078 *    1.028 f
  core/fu_CMUL/fu_arch/U1142/Z (C8T28SOI_LL_AOI22X2_P16)
                                                         0.085 *    1.113 r
  core/fu_CMUL/fu_arch/intadd_62/U4/S0 (C8T28SOIDV_LL_FA1X5_P16)
                                                         0.104 *    1.216 f
  core/fu_CMUL/fu_arch/intadd_63/U3/S0 (C8T28SOIDV_LL_FA1X5_P16)
                                                         0.084 *    1.300 r
  core/fu_CMUL/fu_arch/U630/Z (C8T28SOI_LL_IVX3_P16)     0.019 *    1.319 f
  core/fu_CMUL/fu_arch/intadd_69/U2/S0 (C8T28SOIDV_LL_FA1X5_P16)
                                                         0.082 *    1.401 r
  core/fu_CMUL/fu_arch/U900/Z (C8T28SOI_LL_IVX3_P16)     0.019 *    1.420 f
  core/fu_CMUL/fu_arch/U901/CO (C8T28SOIDV_LL_FA1X5_P16)
                                                         0.065 *    1.485 f
  core/fu_CMUL/fu_arch/U902/CO (C8T28SOIDV_LL_FA1X5_P16)
                                                         0.062 *    1.547 f
  core/fu_CMUL/fu_arch/U903/CO (C8T28SOIDV_LL_FA1X5_P16)
                                                         0.062 *    1.609 f
  core/fu_CMUL/fu_arch/U904/CO (C8T28SOIDV_LL_FA1X5_P16)
                                                         0.061 *    1.671 f
  core/fu_CMUL/fu_arch/U905/CO (C8T28SOIDV_LL_FA1X5_P16)
                                                         0.060 *    1.731 f
  core/fu_CMUL/fu_arch/U906/CO (C8T28SOIDV_LL_FA1X5_P16)
                                                         0.060 *    1.791 f
  core/fu_CMUL/fu_arch/U907/CO (C8T28SOIDV_LL_FA1X5_P16)
                                                         0.061 *    1.852 f
  core/fu_CMUL/fu_arch/U908/CO (C8T28SOIDV_LL_FA1X5_P16)
                                                         0.061 *    1.912 f
  core/fu_CMUL/fu_arch/U909/CO (C8T28SOIDV_LL_FA1X5_P16)
                                                         0.060 *    1.973 f
  core/fu_CMUL/fu_arch/U910/CO (C8T28SOIDV_LL_FA1X5_P16)
                                                         0.060 *    2.033 f
  core/fu_CMUL/fu_arch/intadd_3/U17/CO (C8T28SOIDV_LL_FA1X5_P16)
                                                         0.060 *    2.093 f
  core/fu_CMUL/fu_arch/intadd_3/U16/CO (C8T28SOIDV_LL_FA1X5_P16)
                                                         0.060 *    2.152 f
  core/fu_CMUL/fu_arch/intadd_3/U15/CO (C8T28SOIDV_LL_FA1X5_P16)
                                                         0.059 *    2.212 f
  core/fu_CMUL/fu_arch/intadd_3/U14/CO (C8T28SOIDV_LL_FA1X5_P16)
                                                         0.060 *    2.272 f
  core/fu_CMUL/fu_arch/intadd_3/U13/CO (C8T28SOIDV_LL_FA1X5_P16)
                                                         0.060 *    2.331 f
  core/fu_CMUL/fu_arch/intadd_3/U12/CO (C8T28SOIDV_LL_FA1X5_P16)
                                                         0.060 *    2.391 f
  core/fu_CMUL/fu_arch/intadd_3/U11/CO (C8T28SOIDV_LL_FA1X5_P16)
                                                         0.060 *    2.451 f
  core/fu_CMUL/fu_arch/intadd_3/U10/CO (C8T28SOIDV_LL_FA1X5_P16)
                                                         0.059 *    2.510 f
  core/fu_CMUL/fu_arch/intadd_3/U9/CO (C8T28SOIDV_LL_FA1X5_P16)
                                                         0.060 *    2.570 f
  core/fu_CMUL/fu_arch/intadd_3/U8/CO (C8T28SOIDV_LL_FA1X5_P16)
                                                         0.060 *    2.630 f
  core/fu_CMUL/fu_arch/intadd_3/U7/CO (C8T28SOIDV_LL_FA1X5_P16)
                                                         0.059 *    2.689 f
  core/fu_CMUL/fu_arch/intadd_3/U6/CO (C8T28SOIDV_LL_FA1X5_P16)
                                                         0.059 *    2.748 f
  core/fu_CMUL/fu_arch/intadd_3/U5/CO (C8T28SOIDV_LL_FA1X5_P16)
                                                         0.059 *    2.807 f
  core/fu_CMUL/fu_arch/intadd_3/U4/CO (C8T28SOIDV_LL_FA1X5_P16)
                                                         0.059 *    2.866 f
  core/fu_CMUL/fu_arch/intadd_3/U3/CO (C8T28SOIDV_LL_FA1X5_P16)
                                                         0.059 *    2.925 f
  core/fu_CMUL/fu_arch/intadd_3/U2/CO (C8T28SOIDV_LL_FA1X5_P16)
                                                         0.055 *    2.980 f
  core/fu_CMUL/fu_arch/U608/Z (C8T28SOI_LL_NAND2X2_P16)
                                                         0.023 *    3.003 r
  core/fu_CMUL/fu_arch/U611/Z (C8T28SOI_LL_OA112X4_P16)
                                                         0.051 *    3.055 r
  core/fu_CMUL/fu_arch/clk_r_REG504_S42/D (C8T28SOIDV_LL_DFPRQX10_P16)
                                                         0.000 *    3.055 r
  data arrival time                                                 3.055

  clock clk (rise edge)                                 10.000     10.000
  clock network delay (ideal)                            0.010     10.010
  clock uncertainty                                     -0.010     10.000
  core/fu_CMUL/fu_arch/clk_r_REG504_S42/CP (C8T28SOIDV_LL_DFPRQX10_P16)
                                                         0.000     10.000 r
  library setup time                                    -0.021      9.979
  data required time                                                9.979
  --------------------------------------------------------------------------
  data required time                                                9.979
  data arrival time                                                -3.055
  --------------------------------------------------------------------------
  slack (MET)                                                       6.925


  Startpoint: core/loopbuffer/clk_r_REG624_S42
              (rising edge-triggered flip-flop clocked by clk)
  Endpoint: datamem/dmem_2/cacti_mem_x_3/mem_128x32
            (rising edge-triggered flip-flop clocked by clk)
  Path Group: clk
  Path Type: max

  Point                                                   Incr       Path
  --------------------------------------------------------------------------
  clock clk (rise edge)                                  0.000      0.000
  clock network delay (ideal)                            0.010      0.010
  core/loopbuffer/clk_r_REG624_S42/CP (C8T28SOIDV_LL_DFPRQX10_P16)
                                                         0.000      0.010 r
  core/loopbuffer/clk_r_REG624_S42/Q (C8T28SOIDV_LL_DFPRQX10_P16)
                                                         0.066      0.076 f
  core/loopbuffer/U31/Z (C8T28SOI_LL_NOR2X4_P16)         0.032 *    0.108 r
  core/loopbuffer/U32/Z (C8T28SOI_LL_IVX3_P16)           0.033 *    0.141 f
  core/loopbuffer/U36/Z (C8T28SOI_LL_AOI22X2_P16)        0.203 *    0.345 r
  core/loopbuffer/U21/Z (C8T28SOI_LL_BFX5_P16)           0.151 *    0.496 r
  core/loopbuffer/U608/Z (C8T28SOI_LL_OA22X5_P16)        0.070 *    0.566 r
  core/loopbuffer/glock_out (tta0_loopbuf_1_32_51_1_0)
                                                         0.000      0.566 r
  core/inst_decoder/lock (tta0_decoder)                  0.000      0.566 r
  core/inst_decoder/U63/Z (C8T28SOI_LL_NOR2X4_P16)       0.024 *    0.591 f
  core/inst_decoder/U64/Z (C8T28SOI_LL_NAND2AX2_P16)     0.034 *    0.624 r
  core/inst_decoder/glock[7] (tta0_decoder)              0.000      0.624 r
  U293/Z (C8T28SOI_LL_BFX9_P16)                          0.141 *    0.766 r
  core/fu_lsu_r/glock (fu_ldw_stw_always_4_dataw32_addrw16_1)
                                                         0.000      0.766 r
  core/fu_lsu_r/U128/Z (C8T28SOI_LL_OR2X5_P16)           0.102 *    0.868 r
  core/fu_lsu_r/mem_en_x[0] (fu_ldw_stw_always_4_dataw32_addrw16_1)
                                                         0.000      0.868 r
  U160/Z (C8T28SOI_LL_NOR2AX4_P16)                       0.322 *    1.189 r
  U295/Z (C8T28SOI_LL_BFX5_P16)                          0.210 *    1.400 r
  U296/Z (C8T28SOI_LL_IVX3_P16)                          0.108 *    1.508 f
  U232/Z (C8T28SOI_LL_AOI22X2_P16)                       0.067 *    1.575 r
  U233/Z (C8T28SOI_LL_IVX3_P16)                          0.026 *    1.601 f
  datamem/scheduler/lsu_addr_a[2] (par_mem_scheduler_dataw32_addrw14_ports2_rd_delay1)
                                                         0.000      1.601 f
  datamem/scheduler/addr_a_conv/data_in[2] (ser_par_conv_portw14_port_cnt2_1)
                                                         0.000      1.601 f
  datamem/scheduler/addr_a_conv/U9/Z (C8T28SOI_LL_IVX3_P16)
                                                         0.023 *    1.624 r
  datamem/scheduler/addr_a_conv/U10/Z (C8T28SOI_LL_IVX3_P16)
                                                         0.017 *    1.641 f
  datamem/scheduler/addr_a_conv/data_out[2] (ser_par_conv_portw14_port_cnt2_1)
                                                         0.000      1.641 f
  datamem/scheduler/U156/Z (C8T28SOI_LL_AOI22X2_P16)     0.029 *    1.669 r
  datamem/scheduler/U157/Z (C8T28SOI_LL_IVX3_P16)        0.026 *    1.696 f
  datamem/scheduler/addr[2] (par_mem_scheduler_dataw32_addrw14_ports2_rd_delay1)
                                                         0.000      1.696 f
  datamem/par_mem_logic_inst/addrs_from_lsus[2] (par_mem_logic_PORTS2_LSU_ADDRW14_CTRLW1_DATAW32_PM_FUNC2)
                                                         0.000      1.696 f
  datamem/par_mem_logic_inst/addr_crsbar_0/addrs_from_lsus[2] (addr_crsbar_PORTS2_LSU_ADDRW14_CTRLW1_PM_FUNC2)
                                                         0.000      1.696 f
  datamem/par_mem_logic_inst/addr_crsbar_0/U32/Z (C8T28SOI_LL_AOI22X2_P16)
                                                         0.056 *    1.752 r
  datamem/par_mem_logic_inst/addr_crsbar_0/U33/Z (C8T28SOIDV_LLS_XNOR2X4_P16)
                                                         0.057 *    1.809 r
  datamem/par_mem_logic_inst/addr_crsbar_0/U34/Z (C8T28SOI_LL_NAND2X2_P16)
                                                         0.024 *    1.833 f
  datamem/par_mem_logic_inst/addr_crsbar_0/U35/Z (C8T28SOI_LL_OAI12X3_P16)
                                                         0.028 *    1.861 r
  datamem/par_mem_logic_inst/addr_crsbar_0/U36/Z (C8T28SOIDV_LLS_XOR2X4_P16)
                                                         0.043 *    1.904 r
  datamem/par_mem_logic_inst/addr_crsbar_0/U37/Z (C8T28SOIDV_LLS_XNOR2X4_P16)
                                                         0.041 *    1.945 r
  datamem/par_mem_logic_inst/addr_crsbar_0/U38/Z (C8T28SOI_LL_NAND2X2_P16)
                                                         0.022 *    1.967 f
  datamem/par_mem_logic_inst/addr_crsbar_0/U39/Z (C8T28SOI_LL_OAI12X3_P16)
                                                         0.029 *    1.995 r
  datamem/par_mem_logic_inst/addr_crsbar_0/U40/Z (C8T28SOIDV_LLS_XNOR2X4_P16)
                                                         0.040 *    2.036 r
  datamem/par_mem_logic_inst/addr_crsbar_0/U41/Z (C8T28SOI_LL_NAND2X2_P16)
                                                         0.022 *    2.057 f
  datamem/par_mem_logic_inst/addr_crsbar_0/U42/Z (C8T28SOI_LL_OAI12X3_P16)
                                                         0.028 *    2.085 r
  datamem/par_mem_logic_inst/addr_crsbar_0/U43/Z (C8T28SOIDV_LLS_XNOR2X4_P16)
                                                         0.021 *    2.106 f
  datamem/par_mem_logic_inst/addr_crsbar_0/U44/Z (C8T28SOI_LL_NAND2X2_P16)
                                                         0.025 *    2.132 r
  datamem/par_mem_logic_inst/addr_crsbar_0/U45/Z (C8T28SOI_LL_OAI12X3_P16)
                                                         0.035 *    2.167 f
  datamem/par_mem_logic_inst/addr_crsbar_0/module_nums[0] (addr_crsbar_PORTS2_LSU_ADDRW14_CTRLW1_PM_FUNC2)
                                                         0.000      2.167 f
  datamem/par_mem_logic_inst/ctrl_units_0/module_nums[0] (ctrl_units_PORTS2_CTRLW1)
                                                         0.000      2.167 f
  datamem/par_mem_logic_inst/ctrl_units_0/ctrl_uniti_0/module_num[0] (ctrl_unit_PORTS2_CTRLW1_1)
                                                         0.000      2.167 f
  datamem/par_mem_logic_inst/ctrl_units_0/ctrl_uniti_0/U15/Z (C8T28SOI_LL_NOR2AX4_P16)
                                                         0.042 *    2.209 r
  datamem/par_mem_logic_inst/ctrl_units_0/ctrl_uniti_0/U16/Z (C8T28SOI_LL_AOI22X2_P16)
                                                         0.026 *    2.235 f
  datamem/par_mem_logic_inst/ctrl_units_0/ctrl_uniti_0/U22/Z (C8T28SOI_LL_AND2X5_P16)
                                                         0.045 *    2.281 f
  datamem/par_mem_logic_inst/ctrl_units_0/ctrl_uniti_0/mem_en_x (ctrl_unit_PORTS2_CTRLW1_1)
                                                         0.000      2.281 f
  datamem/par_mem_logic_inst/ctrl_units_0/U18/Z (C8T28SOI_LL_NAND2AX2_P16)
                                                         0.078 *    2.358 f
  datamem/par_mem_logic_inst/ctrl_units_0/mem_en_xs[0] (ctrl_units_PORTS2_CTRLW1)
                                                         0.000      2.358 f
  datamem/par_mem_logic_inst/mem_en_xs[0] (par_mem_logic_PORTS2_LSU_ADDRW14_CTRLW1_DATAW32_PM_FUNC2)
                                                         0.000      2.358 f
  datamem/dmem_2/en_x (synch_singleport_mem_wrapper_DATAW32_ADDRW13_0)
                                                         0.000      2.358 f
  datamem/dmem_2/en_wr_arbiter/en (block_en_wr_arbiter_ADDRW13_NBLOCKS9_0)
                                                         0.000      2.358 f
  datamem/dmem_2/en_wr_arbiter/U6/Z (C8T28SOI_LL_IVX3_P16)
                                                         0.122 *    2.481 r
  datamem/dmem_2/en_wr_arbiter/U26/Z (C8T28SOI_LL_NAND3X3_P16)
                                                         0.067 *    2.547 f
  datamem/dmem_2/en_wr_arbiter/en_blocks[3] (block_en_wr_arbiter_ADDRW13_NBLOCKS9_0)
                                                         0.000      2.547 f
  datamem/dmem_2/cacti_mem_x_3/en_x (cacti_mem_wrapper_DATAW32_ADDRW7_0)
                                                         0.000      2.547 f
  datamem/dmem_2/cacti_mem_x_3/mem_128x32/mem_en_x (ram_128x32)
                                                         0.000 *    2.547 f
  data arrival time                                                 2.547

  clock clk (rise edge)                                 10.000     10.000
  clock network delay (ideal)                            0.010     10.010
  clock uncertainty                                     -0.010     10.000
  datamem/dmem_2/cacti_mem_x_3/mem_128x32/clk (ram_128x32)
                                                         0.000     10.000 r
  library setup time                                    -0.527      9.473
  data required time                                                9.473
  --------------------------------------------------------------------------
  data required time                                                9.473
  data arrival time                                                -2.547
  --------------------------------------------------------------------------
  slack (MET)                                                       6.925


1
