Warning: There are 86 switching activity information conflicts. (PWR-19)
 
****************************************
Report : saif
Design : proc
Version: M-2016.12-SP5-1
Date   : Sun Jul 29 07:04:19 2018
****************************************

  

--------------------------------------------------------------------------------
              User              Default           Propagated
Object type   Annotated (%)     Activity (%)      Activity (%)       Total
--------------------------------------------------------------------------------
  
 Nets         286(65.00%)       0(0.00%)          154(35.00%)        440
 Ports        229(100.00%)      0(0.00%)          0(0.00%)           229
 Pins         239(34.29%)       0(0.00%)          458(65.71%)        697
--------------------------------------------------------------------------------
1
