Information: Updating design information... (UID-85)
 
****************************************
Report : timing
        -path full
        -delay max
        -max_paths 10
Design : proc
Version: M-2016.12-SP5-1
Date   : Sun Jul 29 07:03:37 2018
****************************************

 * Some/all delay information is back-annotated.

Operating Conditions: tt28_1.10V_0.00V_0.00V_0.00V_25C   Library: C28SOI_SC_8_CLK_LL
Wire Load Model Mode: Inactive.

  Startpoint: core/inst_decoder/clk_r_REG1848_S29
              (rising edge-triggered flip-flop clocked by clk)
  Endpoint: core/fu_CMUL/fu_arch/DP_OP_26J13_123_449/clk_r_REG1063_S14
            (rising edge-triggered flip-flop clocked by clk)
  Path Group: clk
  Path Type: max

  Point                                                   Incr       Path
  --------------------------------------------------------------------------
  clock clk (rise edge)                                  0.000      0.000
  clock network delay (ideal)                            0.010      0.010
  core/inst_decoder/clk_r_REG1848_S29/CP (C8T28SOIDV_LL_DFPRQX19_P16)
                                                         0.000      0.010 r
  core/inst_decoder/clk_r_REG1848_S29/Q (C8T28SOIDV_LL_DFPRQX19_P16)
                                                         0.081      0.091 r
  core/inst_decoder/socket_TFG_o1_bus_cntrl[0] (tta0_decoder)
                                                         0.000      0.091 r
  core/ic/socket_TFG_o1_bus_cntrl[0] (tta0_interconn)    0.000      0.091 r
  core/ic/TFG_o1/databus_cntrl[0] (tta0_output_socket_cons_1_1_BUSW_032_DATAW_032_2)
                                                         0.000      0.091 r
  core/ic/TFG_o1/U4/Z (C8T28SOI_LL_AND2X5_P16)           0.035 *    0.126 r
  core/ic/TFG_o1/databus0_alt[17] (tta0_output_socket_cons_1_1_BUSW_032_DATAW_032_2)
                                                         0.000      0.126 r
  core/ic/CMUL_i1/databus0[17] (tta0_input_socket_cons_1_BUSW_032_DATAW32_10)
                                                         0.000      0.126 r
  core/ic/CMUL_i1/U9/Z (C8T28SOI_LL_BFX5_P16)            0.017 *    0.143 r
  core/ic/CMUL_i1/data[17] (tta0_input_socket_cons_1_BUSW_032_DATAW32_10)
                                                         0.000      0.143 r
  core/ic/socket_CMUL_i1_data[17] (tta0_interconn)       0.000      0.143 r
  U288/Z (C8T28SOI_LL_BFX5_P16)                          0.025 *    0.168 r
  core/fu_CMUL/t1data[17] (fu_cmul_always_3_dataw32_busw32)
                                                         0.000      0.168 r
  core/fu_CMUL/fu_arch/A[17] (cmul_pipe_1_dataw32_halfw16)
                                                         0.000      0.168 r
  core/fu_CMUL/fu_arch/U119/Z (C8T28SOI_LL_BFX13_P16)    0.040 *    0.208 r
  core/fu_CMUL/fu_arch/U131/Z (C8T28SOI_LL_IVX5_P16)     0.047 *    0.254 f
  core/fu_CMUL/fu_arch/U1358/Z (C8T28SOI_LL_AOI22X6_P16)
                                                         0.077 *    0.332 r
  core/fu_CMUL/fu_arch/U1362/Z (C8T28SOI_LL_OAI211X3_P16)
                                                         0.111 *    0.443 f
  core/fu_CMUL/fu_arch/U1923/Z (C8T28SOI_LL_OAI22X3_P16)
                                                         0.072 *    0.514 r
  core/fu_CMUL/fu_arch/U1939/S0 (C8T28SOIDV_LL_FA1X5_P16)
                                                         0.075 *    0.589 f
  core/fu_CMUL/fu_arch/U1941/CO (C8T28SOIDV_LLS1_FA1X4_P16)
                                                         0.035 *    0.624 f
  core/fu_CMUL/fu_arch/U1955/S0 (C8T28SOIDV_LLS1_FA1X4_P16)
                                                         0.037 *    0.661 f
  core/fu_CMUL/fu_arch/U1954/Z (C8T28SOI_LL_PAO2X5_P16)
                                                         0.040 *    0.700 f
  core/fu_CMUL/fu_arch/U1957/Z (C8T28SOIDV_LL_PAO2X10_P16)
                                                         0.034 *    0.734 f
  core/fu_CMUL/fu_arch/U1958/Z (C8T28SOIDV_LL_PAO2X10_P16)
                                                         0.032 *    0.766 f
  core/fu_CMUL/fu_arch/U1959/Z (C8T28SOIDV_LL_PAO2X10_P16)
                                                         0.032 *    0.798 f
  core/fu_CMUL/fu_arch/U1960/Z (C8T28SOIDV_LL_PAO2X10_P16)
                                                         0.032 *    0.831 f
  core/fu_CMUL/fu_arch/U1961/Z (C8T28SOIDV_LL_PAO2X10_P16)
                                                         0.032 *    0.863 f
  core/fu_CMUL/fu_arch/U1962/Z (C8T28SOI_LL_PAO2X5_P16)
                                                         0.035 *    0.898 f
  core/fu_CMUL/fu_arch/U1963/Z (C8T28SOI_LL_PAO2X5_P16)
                                                         0.036 *    0.933 f
  core/fu_CMUL/fu_arch/U1964/Z (C8T28SOI_LL_PAO2X5_P16)
                                                         0.036 *    0.970 f
  core/fu_CMUL/fu_arch/U1965/Z (C8T28SOIDV_LL_PAO2X10_P16)
                                                         0.036 *    1.005 f
  core/fu_CMUL/fu_arch/U1966/Z (C8T28SOIDV_LL_PAO2X14_P16)
                                                         0.031 *    1.036 f
  core/fu_CMUL/fu_arch/U2037/CO (C8T28SOIDV_LLS1_FA1X4_P16)
                                                         0.030 *    1.066 f
  core/fu_CMUL/fu_arch/U1970/CO (C8T28SOIDV_LLS1_FA1X4_P16)
                                                         0.035 *    1.101 f
  core/fu_CMUL/fu_arch/U2025/CO (C8T28SOIDV_LLS1_FA1X4_P16)
                                                         0.035 *    1.136 f
  core/fu_CMUL/fu_arch/U1969/CO (C8T28SOIDV_LLS1_FA1X4_P16)
                                                         0.034 *    1.171 f
  core/fu_CMUL/fu_arch/U2024/CO (C8T28SOIDV_LLS1_FA1X4_P16)
                                                         0.034 *    1.205 f
  core/fu_CMUL/fu_arch/U1968/CO (C8T28SOIDV_LLS1_FA1X4_P16)
                                                         0.034 *    1.239 f
  core/fu_CMUL/fu_arch/U2023/CO (C8T28SOIDV_LLS1_FA1X4_P16)
                                                         0.034 *    1.274 f
  core/fu_CMUL/fu_arch/U1967/CO (C8T28SOIDV_LLS1_FA1X4_P16)
                                                         0.035 *    1.309 f
  core/fu_CMUL/fu_arch/U2036/CO (C8T28SOIDV_LLS1_FA1X4_P16)
                                                         0.035 *    1.344 f
  core/fu_CMUL/fu_arch/U1996/CO (C8T28SOIDV_LLS1_FA1X4_P16)
                                                         0.035 *    1.379 f
  core/fu_CMUL/fu_arch/U2022/CO (C8T28SOIDV_LLS1_FA1X4_P16)
                                                         0.035 *    1.414 f
  core/fu_CMUL/fu_arch/U1995/CO (C8T28SOIDV_LLS1_FA1X4_P16)
                                                         0.035 *    1.449 f
  core/fu_CMUL/fu_arch/U2035/CO (C8T28SOIDV_LLS1_FA1X4_P16)
                                                         0.035 *    1.484 f
  core/fu_CMUL/fu_arch/U2034/CO (C8T28SOIDV_LLS1_FA1X4_P16)
                                                         0.035 *    1.519 f
  core/fu_CMUL/fu_arch/U2042/CO (C8T28SOIDV_LLS1_FA1X4_P16)
                                                         0.035 *    1.553 f
  core/fu_CMUL/fu_arch/U2045/CO (C8T28SOIDV_LLS1_FA1X4_P16)
                                                         0.035 *    1.588 f
  core/fu_CMUL/fu_arch/U2046/S0 (C8T28SOIDV_LLS1_FA1X4_P16)
                                                         0.035 *    1.623 f
  core/fu_CMUL/fu_arch/DP_OP_26J13_123_449/clk_r_REG1063_S14/D (C8T28SOIDV_LL_DFPRQX10_P16)
                                                         0.000 *    1.623 f
  data arrival time                                                 1.623

  clock clk (rise edge)                                  1.667      1.667
  clock network delay (ideal)                            0.010      1.677
  clock uncertainty                                     -0.010      1.667
  core/fu_CMUL/fu_arch/DP_OP_26J13_123_449/clk_r_REG1063_S14/CP (C8T28SOIDV_LL_DFPRQX10_P16)
                                                         0.000      1.667 r
  library setup time                                    -0.025      1.642
  data required time                                                1.642
  --------------------------------------------------------------------------
  data required time                                                1.642
  data arrival time                                                -1.623
  --------------------------------------------------------------------------
  slack (MET)                                                       0.019


  Startpoint: core/inst_decoder/clk_r_REG1848_S29
              (rising edge-triggered flip-flop clocked by clk)
  Endpoint: core/fu_CMUL/fu_arch/DP_OP_26J13_123_449/clk_r_REG1062_S14
            (rising edge-triggered flip-flop clocked by clk)
  Path Group: clk
  Path Type: max

  Point                                                   Incr       Path
  --------------------------------------------------------------------------
  clock clk (rise edge)                                  0.000      0.000
  clock network delay (ideal)                            0.010      0.010
  core/inst_decoder/clk_r_REG1848_S29/CP (C8T28SOIDV_LL_DFPRQX19_P16)
                                                         0.000      0.010 r
  core/inst_decoder/clk_r_REG1848_S29/Q (C8T28SOIDV_LL_DFPRQX19_P16)
                                                         0.081      0.091 r
  core/inst_decoder/socket_TFG_o1_bus_cntrl[0] (tta0_decoder)
                                                         0.000      0.091 r
  core/ic/socket_TFG_o1_bus_cntrl[0] (tta0_interconn)    0.000      0.091 r
  core/ic/TFG_o1/databus_cntrl[0] (tta0_output_socket_cons_1_1_BUSW_032_DATAW_032_2)
                                                         0.000      0.091 r
  core/ic/TFG_o1/U4/Z (C8T28SOI_LL_AND2X5_P16)           0.035 *    0.126 r
  core/ic/TFG_o1/databus0_alt[17] (tta0_output_socket_cons_1_1_BUSW_032_DATAW_032_2)
                                                         0.000      0.126 r
  core/ic/CMUL_i1/databus0[17] (tta0_input_socket_cons_1_BUSW_032_DATAW32_10)
                                                         0.000      0.126 r
  core/ic/CMUL_i1/U9/Z (C8T28SOI_LL_BFX5_P16)            0.017 *    0.143 r
  core/ic/CMUL_i1/data[17] (tta0_input_socket_cons_1_BUSW_032_DATAW32_10)
                                                         0.000      0.143 r
  core/ic/socket_CMUL_i1_data[17] (tta0_interconn)       0.000      0.143 r
  U288/Z (C8T28SOI_LL_BFX5_P16)                          0.025 *    0.168 r
  core/fu_CMUL/t1data[17] (fu_cmul_always_3_dataw32_busw32)
                                                         0.000      0.168 r
  core/fu_CMUL/fu_arch/A[17] (cmul_pipe_1_dataw32_halfw16)
                                                         0.000      0.168 r
  core/fu_CMUL/fu_arch/U119/Z (C8T28SOI_LL_BFX13_P16)    0.040 *    0.208 r
  core/fu_CMUL/fu_arch/U131/Z (C8T28SOI_LL_IVX5_P16)     0.047 *    0.254 f
  core/fu_CMUL/fu_arch/U1358/Z (C8T28SOI_LL_AOI22X6_P16)
                                                         0.077 *    0.332 r
  core/fu_CMUL/fu_arch/U1362/Z (C8T28SOI_LL_OAI211X3_P16)
                                                         0.111 *    0.443 f
  core/fu_CMUL/fu_arch/U1923/Z (C8T28SOI_LL_OAI22X3_P16)
                                                         0.072 *    0.514 r
  core/fu_CMUL/fu_arch/U1939/S0 (C8T28SOIDV_LL_FA1X5_P16)
                                                         0.075 *    0.589 f
  core/fu_CMUL/fu_arch/U1941/CO (C8T28SOIDV_LLS1_FA1X4_P16)
                                                         0.035 *    0.624 f
  core/fu_CMUL/fu_arch/U1955/S0 (C8T28SOIDV_LLS1_FA1X4_P16)
                                                         0.037 *    0.661 f
  core/fu_CMUL/fu_arch/U1954/Z (C8T28SOI_LL_PAO2X5_P16)
                                                         0.040 *    0.700 f
  core/fu_CMUL/fu_arch/U1957/Z (C8T28SOIDV_LL_PAO2X10_P16)
                                                         0.034 *    0.734 f
  core/fu_CMUL/fu_arch/U1958/Z (C8T28SOIDV_LL_PAO2X10_P16)
                                                         0.032 *    0.766 f
  core/fu_CMUL/fu_arch/U1959/Z (C8T28SOIDV_LL_PAO2X10_P16)
                                                         0.032 *    0.798 f
  core/fu_CMUL/fu_arch/U1960/Z (C8T28SOIDV_LL_PAO2X10_P16)
                                                         0.032 *    0.831 f
  core/fu_CMUL/fu_arch/U1961/Z (C8T28SOIDV_LL_PAO2X10_P16)
                                                         0.032 *    0.863 f
  core/fu_CMUL/fu_arch/U1962/Z (C8T28SOI_LL_PAO2X5_P16)
                                                         0.035 *    0.898 f
  core/fu_CMUL/fu_arch/U1963/Z (C8T28SOI_LL_PAO2X5_P16)
                                                         0.036 *    0.933 f
  core/fu_CMUL/fu_arch/U1964/Z (C8T28SOI_LL_PAO2X5_P16)
                                                         0.036 *    0.970 f
  core/fu_CMUL/fu_arch/U1965/Z (C8T28SOIDV_LL_PAO2X10_P16)
                                                         0.036 *    1.005 f
  core/fu_CMUL/fu_arch/U1966/Z (C8T28SOIDV_LL_PAO2X14_P16)
                                                         0.031 *    1.036 f
  core/fu_CMUL/fu_arch/U2037/CO (C8T28SOIDV_LLS1_FA1X4_P16)
                                                         0.030 *    1.066 f
  core/fu_CMUL/fu_arch/U1970/CO (C8T28SOIDV_LLS1_FA1X4_P16)
                                                         0.035 *    1.101 f
  core/fu_CMUL/fu_arch/U2025/CO (C8T28SOIDV_LLS1_FA1X4_P16)
                                                         0.035 *    1.136 f
  core/fu_CMUL/fu_arch/U1969/CO (C8T28SOIDV_LLS1_FA1X4_P16)
                                                         0.034 *    1.171 f
  core/fu_CMUL/fu_arch/U2024/CO (C8T28SOIDV_LLS1_FA1X4_P16)
                                                         0.034 *    1.205 f
  core/fu_CMUL/fu_arch/U1968/CO (C8T28SOIDV_LLS1_FA1X4_P16)
                                                         0.034 *    1.239 f
  core/fu_CMUL/fu_arch/U2023/CO (C8T28SOIDV_LLS1_FA1X4_P16)
                                                         0.034 *    1.274 f
  core/fu_CMUL/fu_arch/U1967/CO (C8T28SOIDV_LLS1_FA1X4_P16)
                                                         0.035 *    1.309 f
  core/fu_CMUL/fu_arch/U2036/CO (C8T28SOIDV_LLS1_FA1X4_P16)
                                                         0.035 *    1.344 f
  core/fu_CMUL/fu_arch/U1996/CO (C8T28SOIDV_LLS1_FA1X4_P16)
                                                         0.035 *    1.379 f
  core/fu_CMUL/fu_arch/U2022/CO (C8T28SOIDV_LLS1_FA1X4_P16)
                                                         0.035 *    1.414 f
  core/fu_CMUL/fu_arch/U1995/CO (C8T28SOIDV_LLS1_FA1X4_P16)
                                                         0.035 *    1.449 f
  core/fu_CMUL/fu_arch/U2035/CO (C8T28SOIDV_LLS1_FA1X4_P16)
                                                         0.035 *    1.484 f
  core/fu_CMUL/fu_arch/U2034/CO (C8T28SOIDV_LLS1_FA1X4_P16)
                                                         0.035 *    1.519 f
  core/fu_CMUL/fu_arch/U2042/CO (C8T28SOIDV_LLS1_FA1X4_P16)
                                                         0.035 *    1.553 f
  core/fu_CMUL/fu_arch/U2045/CO (C8T28SOIDV_LLS1_FA1X4_P16)
                                                         0.035 *    1.588 f
  core/fu_CMUL/fu_arch/U2046/CO (C8T28SOIDV_LLS1_FA1X4_P16)
                                                         0.030 *    1.618 f
  core/fu_CMUL/fu_arch/DP_OP_26J13_123_449/clk_r_REG1062_S14/D (C8T28SOIDV_LL_DFPSQX10_P16)
                                                         0.000 *    1.618 f
  data arrival time                                                 1.618

  clock clk (rise edge)                                  1.667      1.667
  clock network delay (ideal)                            0.010      1.677
  clock uncertainty                                     -0.010      1.667
  core/fu_CMUL/fu_arch/DP_OP_26J13_123_449/clk_r_REG1062_S14/CP (C8T28SOIDV_LL_DFPSQX10_P16)
                                                         0.000      1.667 r
  library setup time                                    -0.029      1.638
  data required time                                                1.638
  --------------------------------------------------------------------------
  data required time                                                1.638
  data arrival time                                                -1.618
  --------------------------------------------------------------------------
  slack (MET)                                                       0.020


  Startpoint: core/rf_rf_def/clk_r_REG1760_S29
              (rising edge-triggered flip-flop clocked by clk)
  Endpoint: core/ic/add_o1/clk_r_REG492_S24
            (rising edge-triggered flip-flop clocked by clk)
  Path Group: clk
  Path Type: max

  Point                                                   Incr       Path
  --------------------------------------------------------------------------
  clock clk (rise edge)                                  0.000      0.000
  clock network delay (ideal)                            0.010      0.010
  core/rf_rf_def/clk_r_REG1760_S29/CP (C8T28SOIDV_LL_DFPRQX10_P16)
                                                         0.000      0.010 r
  core/rf_rf_def/clk_r_REG1760_S29/Q (C8T28SOIDV_LL_DFPRQX10_P16)
                                                         0.079      0.089 f
  core/rf_rf_def/U5/Z (C8T28SOI_LL_AO222X5_P16)          0.072 *    0.161 f
  core/rf_rf_def/r1data[0] (rf_1wr_1rd_always_1_guarded_0_dataw32_rf_size3)
                                                         0.000      0.161 f
  core/ic/socket_rf_def_o1_data0[0] (tta0_interconn)     0.000      0.161 f
  core/ic/rf_def_o1/data0[0] (tta0_output_socket_cons_2_1_BUSW_032_BUSW_132_DATAW_032_0)
                                                         0.000      0.161 f
  core/ic/rf_def_o1/U34/Z (C8T28SOI_LL_AND2X5_P16)       0.027 *    0.188 f
  core/ic/rf_def_o1/databus0_alt[0] (tta0_output_socket_cons_2_1_BUSW_032_BUSW_132_DATAW_032_0)
                                                         0.000      0.188 f
  core/ic/U145/Z (C8T28SOI_LL_OR3X10_P16)                0.039 *    0.227 f
  core/ic/add_i2/databus0[0] (tta0_input_socket_cons_1_BUSW_032_DATAW32_5)
                                                         0.000      0.227 f
  core/ic/add_i2/U32/Z (C8T28SOI_LL_CNBFX8_P4)           0.019 *    0.245 f
  core/ic/add_i2/data[0] (tta0_input_socket_cons_1_BUSW_032_DATAW32_5)
                                                         0.000      0.245 f
  core/ic/socket_add_i2_data[0] (tta0_interconn)         0.000      0.245 f
  core/fu_add/o1data[0] (fu_add_sub_always_1_dataw32_busw32)
                                                         0.000      0.245 f
  core/fu_add/U8/Z (C8T28SOI_LL_AOI22X2_P16)             0.024 *    0.269 r
  core/fu_add/U9/Z (C8T28SOI_LL_IVX5_P16)                0.017 *    0.287 f
  core/fu_add/fu_arch/B[0] (add_sub_arith_dataw32)       0.000      0.287 f
  core/fu_add/fu_arch/U17/Z (C8T28SOIDV_LLS_XOR2X4_P16)
                                                         0.028 *    0.314 f
  core/fu_add/fu_arch/U43/CO (C8T28SOIDV_LL_FA1X5_P16)
                                                         0.056 *    0.370 f
  core/fu_add/fu_arch/U44/CO (C8T28SOIDV_LL_FA1X5_P16)
                                                         0.047 *    0.418 f
  core/fu_add/fu_arch/U62/CO (C8T28SOIDV_LL_FA1X5_P16)
                                                         0.046 *    0.464 f
  core/fu_add/fu_arch/U55/CO (C8T28SOIDV_LL_FA1X5_P16)
                                                         0.046 *    0.509 f
  core/fu_add/fu_arch/U35/CO (C8T28SOIDV_LL_FA1X5_P16)
                                                         0.046 *    0.556 f
  core/fu_add/fu_arch/U54/CO (C8T28SOIDV_LL_FA1X5_P16)
                                                         0.046 *    0.602 f
  core/fu_add/fu_arch/U22/CO (C8T28SOIDV_LL_FA1X5_P16)
                                                         0.046 *    0.647 f
  core/fu_add/fu_arch/U53/CO (C8T28SOIDV_LL_FA1X5_P16)
                                                         0.046 *    0.693 f
  core/fu_add/fu_arch/U21/CO (C8T28SOIDV_LL_FA1X5_P16)
                                                         0.046 *    0.739 f
  core/fu_add/fu_arch/U52/CO (C8T28SOIDV_LL_FA1X5_P16)
                                                         0.046 *    0.785 f
  core/fu_add/fu_arch/U20/CO (C8T28SOIDV_LL_FA1X5_P16)
                                                         0.046 *    0.831 f
  core/fu_add/fu_arch/U51/CO (C8T28SOIDV_LL_FA1X5_P16)
                                                         0.046 *    0.878 f
  core/fu_add/fu_arch/U19/CO (C8T28SOIDV_LL_FA1X5_P16)
                                                         0.046 *    0.924 f
  core/fu_add/fu_arch/U50/CO (C8T28SOIDV_LLS1_FA1X4_P16)
                                                         0.033 *    0.957 f
  core/fu_add/fu_arch/U31/CO (C8T28SOIDV_LLS1_FA1X4_P16)
                                                         0.036 *    0.992 f
  core/fu_add/fu_arch/U49/CO (C8T28SOIDV_LLS1_FA1X4_P16)
                                                         0.035 *    1.028 f
  core/fu_add/fu_arch/U34/CO (C8T28SOIDV_LLS1_FA1X4_P16)
                                                         0.035 *    1.063 f
  core/fu_add/fu_arch/U48/CO (C8T28SOIDV_LLS1_FA1X4_P16)
                                                         0.035 *    1.098 f
  core/fu_add/fu_arch/U33/CO (C8T28SOIDV_LLS1_FA1X4_P16)
                                                         0.035 *    1.133 f
  core/fu_add/fu_arch/U47/CO (C8T28SOIDV_LLS1_FA1X4_P16)
                                                         0.035 *    1.168 f
  core/fu_add/fu_arch/U32/CO (C8T28SOIDV_LLS1_FA1X4_P16)
                                                         0.035 *    1.203 f
  core/fu_add/fu_arch/U46/CO (C8T28SOIDV_LLS1_FA1X4_P16)
                                                         0.035 *    1.238 f
  core/fu_add/fu_arch/U38/CO (C8T28SOIDV_LLS1_FA1X4_P16)
                                                         0.034 *    1.272 f
  core/fu_add/fu_arch/U45/CO (C8T28SOIDV_LLS1_FA1X4_P16)
                                                         0.034 *    1.306 f
  core/fu_add/fu_arch/U42/CO (C8T28SOIDV_LLS1_FA1X4_P16)
                                                         0.034 *    1.341 f
  core/fu_add/fu_arch/U61/CO (C8T28SOIDV_LL_FA1X5_P16)
                                                         0.048 *    1.389 f
  core/fu_add/fu_arch/U58/CO (C8T28SOIDV_LLS1_FA1X4_P16)
                                                         0.033 *    1.422 f
  core/fu_add/fu_arch/U57/CO (C8T28SOIDV_LLS1_FA1X4_P16)
                                                         0.035 *    1.457 f
  core/fu_add/fu_arch/U60/CO (C8T28SOIDV_LLS1_FA1X4_P16)
                                                         0.035 *    1.492 f
  core/fu_add/fu_arch/U64/CO (C8T28SOIDV_LLS1_FA1X4_P16)
                                                         0.035 *    1.527 f
  core/fu_add/fu_arch/U66/CO (C8T28SOIDV_LLS1_FA1X4_P16)
                                                         0.031 *    1.558 f
  core/fu_add/fu_arch/U67/Z (C8T28SOIDV_LLS_XNOR2X4_P16)
                                                         0.024 *    1.582 f
  core/fu_add/fu_arch/U68/Z (C8T28SOIDV_LLS_XNOR2X4_P16)
                                                         0.026 *    1.608 f
  core/fu_add/fu_arch/S[31] (add_sub_arith_dataw32)      0.000      1.608 f
  core/fu_add/r1data[31] (fu_add_sub_always_1_dataw32_busw32)
                                                         0.000      1.608 f
  core/ic/socket_add_o1_data0[31] (tta0_interconn)       0.000      1.608 f
  core/ic/add_o1/data0[31] (tta0_output_socket_cons_3_1_BUSW_032_BUSW_132_BUSW_232_DATAW_032_1)
                                                         0.000      1.608 f
  core/ic/add_o1/clk_r_REG492_S24/D (C8T28SOIDV_LL_DFPRQX10_P16)
                                                         0.000 *    1.608 f
  data arrival time                                                 1.608

  clock clk (rise edge)                                  1.667      1.667
  clock network delay (ideal)                            0.010      1.677
  clock uncertainty                                     -0.010      1.667
  core/ic/add_o1/clk_r_REG492_S24/CP (C8T28SOIDV_LL_DFPRQX10_P16)
                                                         0.000      1.667 r
  library setup time                                    -0.025      1.642
  data required time                                                1.642
  --------------------------------------------------------------------------
  data required time                                                1.642
  data arrival time                                                -1.608
  --------------------------------------------------------------------------
  slack (MET)                                                       0.033


  Startpoint: core/inst_decoder/clk_r_REG1848_S29
              (rising edge-triggered flip-flop clocked by clk)
  Endpoint: core/fu_CMUL/fu_arch/DP_OP_25J13_122_449/clk_r_REG466_S14
            (rising edge-triggered flip-flop clocked by clk)
  Path Group: clk
  Path Type: max

  Point                                                   Incr       Path
  --------------------------------------------------------------------------
  clock clk (rise edge)                                  0.000      0.000
  clock network delay (ideal)                            0.010      0.010
  core/inst_decoder/clk_r_REG1848_S29/CP (C8T28SOIDV_LL_DFPRQX19_P16)
                                                         0.000      0.010 r
  core/inst_decoder/clk_r_REG1848_S29/Q (C8T28SOIDV_LL_DFPRQX19_P16)
                                                         0.081      0.091 r
  core/inst_decoder/socket_TFG_o1_bus_cntrl[0] (tta0_decoder)
                                                         0.000      0.091 r
  core/ic/socket_TFG_o1_bus_cntrl[0] (tta0_interconn)    0.000      0.091 r
  core/ic/TFG_o1/databus_cntrl[0] (tta0_output_socket_cons_1_1_BUSW_032_DATAW_032_2)
                                                         0.000      0.091 r
  core/ic/TFG_o1/U24/Z (C8T28SOI_LL_AND2X5_P16)          0.036 *    0.127 r
  core/ic/TFG_o1/databus0_alt[27] (tta0_output_socket_cons_1_1_BUSW_032_DATAW_032_2)
                                                         0.000      0.127 r
  core/ic/CMUL_i1/databus0[27] (tta0_input_socket_cons_1_BUSW_032_DATAW32_10)
                                                         0.000      0.127 r
  core/ic/CMUL_i1/U22/Z (C8T28SOI_LL_BFX5_P16)           0.022 *    0.149 r
  core/ic/CMUL_i1/data[27] (tta0_input_socket_cons_1_BUSW_032_DATAW32_10)
                                                         0.000      0.149 r
  core/ic/socket_CMUL_i1_data[27] (tta0_interconn)       0.000      0.149 r
  U278/Z (C8T28SOI_LL_BFX5_P16)                          0.027 *    0.176 r
  core/fu_CMUL/t1data[27] (fu_cmul_always_3_dataw32_busw32)
                                                         0.000      0.176 r
  core/fu_CMUL/fu_arch/A[27] (cmul_pipe_1_dataw32_halfw16)
                                                         0.000      0.176 r
  core/fu_CMUL/fu_arch/U52/Z (C8T28SOI_LL_BFX13_P16)     0.037 *    0.213 r
  core/fu_CMUL/fu_arch/U53/Z (C8T28SOI_LL_IVX5_P16)      0.042 *    0.254 f
  core/fu_CMUL/fu_arch/U159/Z (C8T28SOI_LL_AOI22X2_P16)
                                                         0.160 *    0.414 r
  core/fu_CMUL/fu_arch/U164/Z (C8T28SOI_LL_OAI211X3_P16)
                                                         0.157 *    0.572 f
  core/fu_CMUL/fu_arch/U530/Z (C8T28SOI_LL_OAI22X3_P16)
                                                         0.077 *    0.649 r
  core/fu_CMUL/fu_arch/U602/S0 (C8T28SOIDV_LL_FA1X5_P16)
                                                         0.075 *    0.723 f
  core/fu_CMUL/fu_arch/U653/S0 (C8T28SOIDV_LL_FA1X5_P16)
                                                         0.068 *    0.792 r
  core/fu_CMUL/fu_arch/U697/S0 (C8T28SOIDV_LL_FA1X5_P16)
                                                         0.059 *    0.850 f
  core/fu_CMUL/fu_arch/U762/S0 (C8T28SOIDV_LL_FA1X5_P16)
                                                         0.067 *    0.917 r
  core/fu_CMUL/fu_arch/U773/S0 (C8T28SOIDV_LL_FA1X5_P16)
                                                         0.057 *    0.975 f
  core/fu_CMUL/fu_arch/U2012/CO (C8T28SOIDV_LLS1_FA1X4_P16)
                                                         0.040 *    1.015 f
  core/fu_CMUL/fu_arch/U982/CO (C8T28SOIDV_LLS1_FA1X4_P16)
                                                         0.038 *    1.052 f
  core/fu_CMUL/fu_arch/U2000/CO (C8T28SOIDV_LLS1_FA1X4_P16)
                                                         0.037 *    1.089 f
  core/fu_CMUL/fu_arch/U981/CO (C8T28SOIDV_LLS1_FA1X4_P16)
                                                         0.036 *    1.125 f
  core/fu_CMUL/fu_arch/U1999/CO (C8T28SOIDV_LLS1_FA1X4_P16)
                                                         0.035 *    1.161 f
  core/fu_CMUL/fu_arch/U980/CO (C8T28SOIDV_LLS1_FA1X4_P16)
                                                         0.035 *    1.195 f
  core/fu_CMUL/fu_arch/U1998/CO (C8T28SOIDV_LLS1_FA1X4_P16)
                                                         0.035 *    1.230 f
  core/fu_CMUL/fu_arch/U979/CO (C8T28SOIDV_LLS1_FA1X4_P16)
                                                         0.035 *    1.265 f
  core/fu_CMUL/fu_arch/U2011/CO (C8T28SOIDV_LLS1_FA1X4_P16)
                                                         0.046 *    1.311 f
  core/fu_CMUL/fu_arch/U1008/CO (C8T28SOIDV_LLS1_FA1X4_P16)
                                                         0.045 *    1.356 f
  core/fu_CMUL/fu_arch/U1997/CO (C8T28SOIDV_LLS1_FA1X4_P16)
                                                         0.038 *    1.394 f
  core/fu_CMUL/fu_arch/U1007/CO (C8T28SOIDV_LLS1_FA1X4_P16)
                                                         0.036 *    1.430 f
  core/fu_CMUL/fu_arch/U2010/CO (C8T28SOIDV_LLS1_FA1X4_P16)
                                                         0.035 *    1.465 f
  core/fu_CMUL/fu_arch/U2009/CO (C8T28SOIDV_LLS1_FA1X4_P16)
                                                         0.035 *    1.500 f
  core/fu_CMUL/fu_arch/U2017/CO (C8T28SOIDV_LLS1_FA1X4_P16)
                                                         0.034 *    1.534 f
  core/fu_CMUL/fu_arch/U2020/CO (C8T28SOIDV_LLS1_FA1X4_P16)
                                                         0.035 *    1.569 f
  core/fu_CMUL/fu_arch/U2021/S0 (C8T28SOIDV_LLS1_FA1X4_P16)
                                                         0.035 *    1.603 f
  core/fu_CMUL/fu_arch/DP_OP_25J13_122_449/clk_r_REG466_S14/D (C8T28SOIDV_LL_DFPRQX10_P16)
                                                         0.000 *    1.603 f
  data arrival time                                                 1.603

  clock clk (rise edge)                                  1.667      1.667
  clock network delay (ideal)                            0.010      1.677
  clock uncertainty                                     -0.010      1.667
  core/fu_CMUL/fu_arch/DP_OP_25J13_122_449/clk_r_REG466_S14/CP (C8T28SOIDV_LL_DFPRQX10_P16)
                                                         0.000      1.667 r
  library setup time                                    -0.025      1.642
  data required time                                                1.642
  --------------------------------------------------------------------------
  data required time                                                1.642
  data arrival time                                                -1.603
  --------------------------------------------------------------------------
  slack (MET)                                                       0.039


  Startpoint: core/inst_decoder/clk_r_REG1848_S29
              (rising edge-triggered flip-flop clocked by clk)
  Endpoint: core/fu_CMUL/fu_arch/DP_OP_25J13_122_449/clk_r_REG465_S14
            (rising edge-triggered flip-flop clocked by clk)
  Path Group: clk
  Path Type: max

  Point                                                   Incr       Path
  --------------------------------------------------------------------------
  clock clk (rise edge)                                  0.000      0.000
  clock network delay (ideal)                            0.010      0.010
  core/inst_decoder/clk_r_REG1848_S29/CP (C8T28SOIDV_LL_DFPRQX19_P16)
                                                         0.000      0.010 r
  core/inst_decoder/clk_r_REG1848_S29/Q (C8T28SOIDV_LL_DFPRQX19_P16)
                                                         0.081      0.091 r
  core/inst_decoder/socket_TFG_o1_bus_cntrl[0] (tta0_decoder)
                                                         0.000      0.091 r
  core/ic/socket_TFG_o1_bus_cntrl[0] (tta0_interconn)    0.000      0.091 r
  core/ic/TFG_o1/databus_cntrl[0] (tta0_output_socket_cons_1_1_BUSW_032_DATAW_032_2)
                                                         0.000      0.091 r
  core/ic/TFG_o1/U24/Z (C8T28SOI_LL_AND2X5_P16)          0.036 *    0.127 r
  core/ic/TFG_o1/databus0_alt[27] (tta0_output_socket_cons_1_1_BUSW_032_DATAW_032_2)
                                                         0.000      0.127 r
  core/ic/CMUL_i1/databus0[27] (tta0_input_socket_cons_1_BUSW_032_DATAW32_10)
                                                         0.000      0.127 r
  core/ic/CMUL_i1/U22/Z (C8T28SOI_LL_BFX5_P16)           0.022 *    0.149 r
  core/ic/CMUL_i1/data[27] (tta0_input_socket_cons_1_BUSW_032_DATAW32_10)
                                                         0.000      0.149 r
  core/ic/socket_CMUL_i1_data[27] (tta0_interconn)       0.000      0.149 r
  U278/Z (C8T28SOI_LL_BFX5_P16)                          0.027 *    0.176 r
  core/fu_CMUL/t1data[27] (fu_cmul_always_3_dataw32_busw32)
                                                         0.000      0.176 r
  core/fu_CMUL/fu_arch/A[27] (cmul_pipe_1_dataw32_halfw16)
                                                         0.000      0.176 r
  core/fu_CMUL/fu_arch/U52/Z (C8T28SOI_LL_BFX13_P16)     0.037 *    0.213 r
  core/fu_CMUL/fu_arch/U53/Z (C8T28SOI_LL_IVX5_P16)      0.042 *    0.254 f
  core/fu_CMUL/fu_arch/U159/Z (C8T28SOI_LL_AOI22X2_P16)
                                                         0.160 *    0.414 r
  core/fu_CMUL/fu_arch/U164/Z (C8T28SOI_LL_OAI211X3_P16)
                                                         0.157 *    0.572 f
  core/fu_CMUL/fu_arch/U530/Z (C8T28SOI_LL_OAI22X3_P16)
                                                         0.077 *    0.649 r
  core/fu_CMUL/fu_arch/U602/S0 (C8T28SOIDV_LL_FA1X5_P16)
                                                         0.075 *    0.723 f
  core/fu_CMUL/fu_arch/U653/S0 (C8T28SOIDV_LL_FA1X5_P16)
                                                         0.068 *    0.792 r
  core/fu_CMUL/fu_arch/U697/S0 (C8T28SOIDV_LL_FA1X5_P16)
                                                         0.059 *    0.850 f
  core/fu_CMUL/fu_arch/U762/S0 (C8T28SOIDV_LL_FA1X5_P16)
                                                         0.067 *    0.917 r
  core/fu_CMUL/fu_arch/U773/S0 (C8T28SOIDV_LL_FA1X5_P16)
                                                         0.057 *    0.975 f
  core/fu_CMUL/fu_arch/U2012/CO (C8T28SOIDV_LLS1_FA1X4_P16)
                                                         0.040 *    1.015 f
  core/fu_CMUL/fu_arch/U982/CO (C8T28SOIDV_LLS1_FA1X4_P16)
                                                         0.038 *    1.052 f
  core/fu_CMUL/fu_arch/U2000/CO (C8T28SOIDV_LLS1_FA1X4_P16)
                                                         0.037 *    1.089 f
  core/fu_CMUL/fu_arch/U981/CO (C8T28SOIDV_LLS1_FA1X4_P16)
                                                         0.036 *    1.125 f
  core/fu_CMUL/fu_arch/U1999/CO (C8T28SOIDV_LLS1_FA1X4_P16)
                                                         0.035 *    1.161 f
  core/fu_CMUL/fu_arch/U980/CO (C8T28SOIDV_LLS1_FA1X4_P16)
                                                         0.035 *    1.195 f
  core/fu_CMUL/fu_arch/U1998/CO (C8T28SOIDV_LLS1_FA1X4_P16)
                                                         0.035 *    1.230 f
  core/fu_CMUL/fu_arch/U979/CO (C8T28SOIDV_LLS1_FA1X4_P16)
                                                         0.035 *    1.265 f
  core/fu_CMUL/fu_arch/U2011/CO (C8T28SOIDV_LLS1_FA1X4_P16)
                                                         0.046 *    1.311 f
  core/fu_CMUL/fu_arch/U1008/CO (C8T28SOIDV_LLS1_FA1X4_P16)
                                                         0.045 *    1.356 f
  core/fu_CMUL/fu_arch/U1997/CO (C8T28SOIDV_LLS1_FA1X4_P16)
                                                         0.038 *    1.394 f
  core/fu_CMUL/fu_arch/U1007/CO (C8T28SOIDV_LLS1_FA1X4_P16)
                                                         0.036 *    1.430 f
  core/fu_CMUL/fu_arch/U2010/CO (C8T28SOIDV_LLS1_FA1X4_P16)
                                                         0.035 *    1.465 f
  core/fu_CMUL/fu_arch/U2009/CO (C8T28SOIDV_LLS1_FA1X4_P16)
                                                         0.035 *    1.500 f
  core/fu_CMUL/fu_arch/U2017/CO (C8T28SOIDV_LLS1_FA1X4_P16)
                                                         0.034 *    1.534 f
  core/fu_CMUL/fu_arch/U2020/CO (C8T28SOIDV_LLS1_FA1X4_P16)
                                                         0.035 *    1.569 f
  core/fu_CMUL/fu_arch/U2021/CO (C8T28SOIDV_LLS1_FA1X4_P16)
                                                         0.029 *    1.598 f
  core/fu_CMUL/fu_arch/DP_OP_25J13_122_449/clk_r_REG465_S14/D (C8T28SOIDV_LL_DFPSQX10_P16)
                                                         0.000 *    1.598 f
  data arrival time                                                 1.598

  clock clk (rise edge)                                  1.667      1.667
  clock network delay (ideal)                            0.010      1.677
  clock uncertainty                                     -0.010      1.667
  core/fu_CMUL/fu_arch/DP_OP_25J13_122_449/clk_r_REG465_S14/CP (C8T28SOIDV_LL_DFPSQX10_P16)
                                                         0.000      1.667 r
  library setup time                                    -0.028      1.639
  data required time                                                1.639
  --------------------------------------------------------------------------
  data required time                                                1.639
  data arrival time                                                -1.598
  --------------------------------------------------------------------------
  slack (MET)                                                       0.041


  Startpoint: core/fu_AG/fu_arch/clk_r_REG83_S14
              (rising edge-triggered flip-flop clocked by clk)
  Endpoint: core/ic/AG_o1/clk_r_REG853_S26
            (rising edge-triggered flip-flop clocked by clk)
  Path Group: clk
  Path Type: max

  Point                                                   Incr       Path
  --------------------------------------------------------------------------
  clock clk (rise edge)                                  0.000      0.000
  clock network delay (ideal)                            0.010      0.010
  core/fu_AG/fu_arch/clk_r_REG83_S14/CP (C8T28SOIDV_LL_DFPRQX10_P16)
                                                         0.000      0.010 r
  core/fu_AG/fu_arch/clk_r_REG83_S14/Q (C8T28SOIDV_LL_DFPRQX10_P16)
                                                         0.056      0.066 r
  core/fu_AG/fu_arch/u0/nexp_i[3] (idx_stage_split_dataw32_nexpw4_stagew3_idxw16_0)
                                                         0.000      0.066 r
  core/fu_AG/fu_arch/u0/U3/Z (C8T28SOI_LL_IVX5_P16)      0.023 *    0.089 f
  core/fu_AG/fu_arch/u0/U4/Z (C8T28SOI_LL_NAND2X4_P16)
                                                         0.029 *    0.118 r
  core/fu_AG/fu_arch/u0/U5/Z (C8T28SOI_LL_IVX2_P16)      0.029 *    0.147 f
  core/fu_AG/fu_arch/u0/U52/Z (C8T28SOI_LL_AOI222X2_P16)
                                                         0.039 *    0.186 r
  core/fu_AG/fu_arch/u0/U53/Z (C8T28SOI_LL_OAI22X3_P16)
                                                         0.023 *    0.209 f
  core/fu_AG/fu_arch/u0/U54/Z (C8T28SOI_LL_CBI4I6X3_P16)
                                                         0.026 *    0.235 r
  core/fu_AG/fu_arch/u0/U60/Z (C8T28SOI_LL_OA112X4_P16)
                                                         0.045 *    0.281 r
  core/fu_AG/fu_arch/u0/stage_o[0] (idx_stage_split_dataw32_nexpw4_stagew3_idxw16_0)
                                                         0.000      0.281 r
  core/fu_AG/fu_arch/U4/Z (C8T28SOI_LL_NAND2X2_P16)      0.018 *    0.299 f
  core/fu_AG/fu_arch/U5/Z (C8T28SOI_LL_OAI12X3_P16)      0.026 *    0.325 r
  core/fu_AG/fu_arch/U38/Z (C8T28SOI_LL_NAND2X4_P16)     0.057 *    0.382 f
  core/fu_AG/fu_arch/U12/Z (C8T28SOI_LL_IVX2_P16)        0.084 *    0.466 r
  core/fu_AG/fu_arch/U42/Z (C8T28SOI_LL_AOI22X2_P16)     0.027 *    0.493 f
  core/fu_AG/fu_arch/U43/Z (C8T28SOI_LL_NAND2X2_P16)     0.030 *    0.522 r
  core/fu_AG/fu_arch/U47/Z (C8T28SOI_LL_AOI22X2_P16)     0.022 *    0.545 f
  core/fu_AG/fu_arch/U48/Z (C8T28SOI_LL_IVX2_P16)        0.021 *    0.566 r
  core/fu_AG/fu_arch/U68/Z (C8T28SOI_LL_AOI222X2_P16)    0.027 *    0.593 f
  core/fu_AG/fu_arch/U103/Z (C8T28SOI_LL_OA222X4_P16)    0.070 *    0.662 f
  core/fu_AG/fu_arch/U188/Z (C8T28SOI_LL_NOR2X2_P16)     0.032 *    0.695 r
  core/fu_AG/fu_arch/U189/Z (C8T28SOI_LL_IVX2_P16)       0.033 *    0.728 f
  core/fu_AG/fu_arch/U261/CO (C8T28SOIDV_LL_FA1X5_P16)
                                                         0.054 *    0.781 f
  core/fu_AG/fu_arch/U258/CO (C8T28SOIDV_LLS1_FA1X4_P16)
                                                         0.033 *    0.815 f
  core/fu_AG/fu_arch/U255/CO (C8T28SOIDV_LLS1_FA1X4_P16)
                                                         0.035 *    0.850 f
  core/fu_AG/fu_arch/U251/CO (C8T28SOIDV_LL_FA1X5_P16)
                                                         0.047 *    0.897 f
  core/fu_AG/fu_arch/U244/CO (C8T28SOIDV_LL_FA1X5_P16)
                                                         0.046 *    0.943 f
  core/fu_AG/fu_arch/U241/CO (C8T28SOIDV_LLS1_FA1X4_P16)
                                                         0.033 *    0.975 f
  core/fu_AG/fu_arch/U237/CO (C8T28SOIDV_LL_FA1X5_P16)
                                                         0.047 *    1.022 f
  core/fu_AG/fu_arch/U233/CO (C8T28SOIDV_LL_FA1X5_P16)
                                                         0.046 *    1.068 f
  core/fu_AG/fu_arch/U226/CO (C8T28SOIDV_LLS1_FA1X4_P16)
                                                         0.033 *    1.101 f
  core/fu_AG/fu_arch/U222/CO (C8T28SOIDV_LL_FA1X5_P16)
                                                         0.047 *    1.148 f
  core/fu_AG/fu_arch/U217/CO (C8T28SOIDV_LL_FA1X5_P16)
                                                         0.046 *    1.194 f
  core/fu_AG/fu_arch/U211/CO (C8T28SOIDV_LLS1_FA1X4_P16)
                                                         0.033 *    1.227 f
  core/fu_AG/fu_arch/U264/S0 (C8T28SOIDV_LL_FA1X5_P16)
                                                         0.063 *    1.290 r
  core/fu_AG/fu_arch/U203/Z (C8T28SOI_LL_NOR3X3_P16)     0.009 *    1.300 f
  core/fu_AG/fu_arch/U206/Z (C8T28SOI_LL_AOI22X2_P16)    0.040 *    1.340 r
  core/fu_AG/fu_arch/U269/CO (C8T28SOIDV_LLS1_FA1X4_P16)
                                                         0.041 *    1.381 r
  core/fu_AG/fu_arch/U279/CO (C8T28SOIDV_LLS1_FA1X4_P16)
                                                         0.046 *    1.427 r
  core/fu_AG/fu_arch/U291/CO (C8T28SOI_LL_HA1X5_P16)     0.047 *    1.474 r
  core/fu_AG/fu_arch/U270/CO (C8T28SOI_LL_HA1X9_P16)     0.027 *    1.501 r
  core/fu_AG/fu_arch/U271/CO (C8T28SOI_LL_HA1X9_P16)     0.025 *    1.527 r
  core/fu_AG/fu_arch/U272/CO (C8T28SOI_LL_HA1X9_P16)     0.026 *    1.552 r
  core/fu_AG/fu_arch/U273/S0 (C8T28SOI_LL_HA1X9_P16)     0.040 *    1.592 f
  core/fu_AG/fu_arch/addr_o[20] (ag_arith_dataw32_nexpw4_idxw16_stagew3_mau_shift2)
                                                         0.000      1.592 f
  core/fu_AG/r1data[20] (fu_ag_always_2_dataw32_busw32_nexpw4)
                                                         0.000      1.592 f
  core/ic/socket_AG_o1_data0[20] (tta0_interconn)        0.000      1.592 f
  core/ic/AG_o1/data0[20] (tta0_output_socket_cons_2_1_BUSW_032_BUSW_132_DATAW_032_1)
                                                         0.000      1.592 f
  core/ic/AG_o1/clk_r_REG853_S26/D (C8T28SOIDV_LL_DFPRQX10_P16)
                                                         0.000 *    1.592 f
  data arrival time                                                 1.592

  clock clk (rise edge)                                  1.667      1.667
  clock network delay (ideal)                            0.010      1.677
  clock uncertainty                                     -0.010      1.667
  core/ic/AG_o1/clk_r_REG853_S26/CP (C8T28SOIDV_LL_DFPRQX10_P16)
                                                         0.000      1.667 r
  library setup time                                    -0.024      1.643
  data required time                                                1.643
  --------------------------------------------------------------------------
  data required time                                                1.643
  data arrival time                                                -1.592
  --------------------------------------------------------------------------
  slack (MET)                                                       0.051


  Startpoint: core/inst_decoder/clk_r_REG1848_S29
              (rising edge-triggered flip-flop clocked by clk)
  Endpoint: core/fu_CMUL/fu_arch/DP_OP_26J13_123_449/clk_r_REG1061_S14
            (rising edge-triggered flip-flop clocked by clk)
  Path Group: clk
  Path Type: max

  Point                                                   Incr       Path
  --------------------------------------------------------------------------
  clock clk (rise edge)                                  0.000      0.000
  clock network delay (ideal)                            0.010      0.010
  core/inst_decoder/clk_r_REG1848_S29/CP (C8T28SOIDV_LL_DFPRQX19_P16)
                                                         0.000      0.010 r
  core/inst_decoder/clk_r_REG1848_S29/Q (C8T28SOIDV_LL_DFPRQX19_P16)
                                                         0.081      0.091 r
  core/inst_decoder/socket_TFG_o1_bus_cntrl[0] (tta0_decoder)
                                                         0.000      0.091 r
  core/ic/socket_TFG_o1_bus_cntrl[0] (tta0_interconn)    0.000      0.091 r
  core/ic/TFG_o1/databus_cntrl[0] (tta0_output_socket_cons_1_1_BUSW_032_DATAW_032_2)
                                                         0.000      0.091 r
  core/ic/TFG_o1/U4/Z (C8T28SOI_LL_AND2X5_P16)           0.035 *    0.126 r
  core/ic/TFG_o1/databus0_alt[17] (tta0_output_socket_cons_1_1_BUSW_032_DATAW_032_2)
                                                         0.000      0.126 r
  core/ic/CMUL_i1/databus0[17] (tta0_input_socket_cons_1_BUSW_032_DATAW32_10)
                                                         0.000      0.126 r
  core/ic/CMUL_i1/U9/Z (C8T28SOI_LL_BFX5_P16)            0.017 *    0.143 r
  core/ic/CMUL_i1/data[17] (tta0_input_socket_cons_1_BUSW_032_DATAW32_10)
                                                         0.000      0.143 r
  core/ic/socket_CMUL_i1_data[17] (tta0_interconn)       0.000      0.143 r
  U288/Z (C8T28SOI_LL_BFX5_P16)                          0.025 *    0.168 r
  core/fu_CMUL/t1data[17] (fu_cmul_always_3_dataw32_busw32)
                                                         0.000      0.168 r
  core/fu_CMUL/fu_arch/A[17] (cmul_pipe_1_dataw32_halfw16)
                                                         0.000      0.168 r
  core/fu_CMUL/fu_arch/U119/Z (C8T28SOI_LL_BFX13_P16)    0.040 *    0.208 r
  core/fu_CMUL/fu_arch/U131/Z (C8T28SOI_LL_IVX5_P16)     0.047 *    0.254 f
  core/fu_CMUL/fu_arch/U1358/Z (C8T28SOI_LL_AOI22X6_P16)
                                                         0.077 *    0.332 r
  core/fu_CMUL/fu_arch/U1362/Z (C8T28SOI_LL_OAI211X3_P16)
                                                         0.111 *    0.443 f
  core/fu_CMUL/fu_arch/U1923/Z (C8T28SOI_LL_OAI22X3_P16)
                                                         0.072 *    0.514 r
  core/fu_CMUL/fu_arch/U1939/S0 (C8T28SOIDV_LL_FA1X5_P16)
                                                         0.075 *    0.589 f
  core/fu_CMUL/fu_arch/U1941/CO (C8T28SOIDV_LLS1_FA1X4_P16)
                                                         0.035 *    0.624 f
  core/fu_CMUL/fu_arch/U1955/S0 (C8T28SOIDV_LLS1_FA1X4_P16)
                                                         0.037 *    0.661 f
  core/fu_CMUL/fu_arch/U1954/Z (C8T28SOI_LL_PAO2X5_P16)
                                                         0.040 *    0.700 f
  core/fu_CMUL/fu_arch/U1957/Z (C8T28SOIDV_LL_PAO2X10_P16)
                                                         0.034 *    0.734 f
  core/fu_CMUL/fu_arch/U1958/Z (C8T28SOIDV_LL_PAO2X10_P16)
                                                         0.032 *    0.766 f
  core/fu_CMUL/fu_arch/U1959/Z (C8T28SOIDV_LL_PAO2X10_P16)
                                                         0.032 *    0.798 f
  core/fu_CMUL/fu_arch/U1960/Z (C8T28SOIDV_LL_PAO2X10_P16)
                                                         0.032 *    0.831 f
  core/fu_CMUL/fu_arch/U1961/Z (C8T28SOIDV_LL_PAO2X10_P16)
                                                         0.032 *    0.863 f
  core/fu_CMUL/fu_arch/U1962/Z (C8T28SOI_LL_PAO2X5_P16)
                                                         0.035 *    0.898 f
  core/fu_CMUL/fu_arch/U1963/Z (C8T28SOI_LL_PAO2X5_P16)
                                                         0.036 *    0.933 f
  core/fu_CMUL/fu_arch/U1964/Z (C8T28SOI_LL_PAO2X5_P16)
                                                         0.036 *    0.970 f
  core/fu_CMUL/fu_arch/U1965/Z (C8T28SOIDV_LL_PAO2X10_P16)
                                                         0.036 *    1.005 f
  core/fu_CMUL/fu_arch/U1966/Z (C8T28SOIDV_LL_PAO2X14_P16)
                                                         0.031 *    1.036 f
  core/fu_CMUL/fu_arch/U2037/CO (C8T28SOIDV_LLS1_FA1X4_P16)
                                                         0.030 *    1.066 f
  core/fu_CMUL/fu_arch/U1970/CO (C8T28SOIDV_LLS1_FA1X4_P16)
                                                         0.035 *    1.101 f
  core/fu_CMUL/fu_arch/U2025/CO (C8T28SOIDV_LLS1_FA1X4_P16)
                                                         0.035 *    1.136 f
  core/fu_CMUL/fu_arch/U1969/CO (C8T28SOIDV_LLS1_FA1X4_P16)
                                                         0.034 *    1.171 f
  core/fu_CMUL/fu_arch/U2024/CO (C8T28SOIDV_LLS1_FA1X4_P16)
                                                         0.034 *    1.205 f
  core/fu_CMUL/fu_arch/U1968/CO (C8T28SOIDV_LLS1_FA1X4_P16)
                                                         0.034 *    1.239 f
  core/fu_CMUL/fu_arch/U2023/CO (C8T28SOIDV_LLS1_FA1X4_P16)
                                                         0.034 *    1.274 f
  core/fu_CMUL/fu_arch/U1967/CO (C8T28SOIDV_LLS1_FA1X4_P16)
                                                         0.035 *    1.309 f
  core/fu_CMUL/fu_arch/U2036/CO (C8T28SOIDV_LLS1_FA1X4_P16)
                                                         0.035 *    1.344 f
  core/fu_CMUL/fu_arch/U1996/CO (C8T28SOIDV_LLS1_FA1X4_P16)
                                                         0.035 *    1.379 f
  core/fu_CMUL/fu_arch/U2022/CO (C8T28SOIDV_LLS1_FA1X4_P16)
                                                         0.035 *    1.414 f
  core/fu_CMUL/fu_arch/U1995/CO (C8T28SOIDV_LLS1_FA1X4_P16)
                                                         0.035 *    1.449 f
  core/fu_CMUL/fu_arch/U2035/CO (C8T28SOIDV_LLS1_FA1X4_P16)
                                                         0.035 *    1.484 f
  core/fu_CMUL/fu_arch/U2034/CO (C8T28SOIDV_LLS1_FA1X4_P16)
                                                         0.035 *    1.519 f
  core/fu_CMUL/fu_arch/U2042/CO (C8T28SOIDV_LLS1_FA1X4_P16)
                                                         0.035 *    1.553 f
  core/fu_CMUL/fu_arch/U2045/S0 (C8T28SOIDV_LLS1_FA1X4_P16)
                                                         0.035 *    1.588 f
  core/fu_CMUL/fu_arch/DP_OP_26J13_123_449/clk_r_REG1061_S14/D (C8T28SOIDV_LL_DFPRQX10_P16)
                                                         0.000 *    1.588 f
  data arrival time                                                 1.588

  clock clk (rise edge)                                  1.667      1.667
  clock network delay (ideal)                            0.010      1.677
  clock uncertainty                                     -0.010      1.667
  core/fu_CMUL/fu_arch/DP_OP_26J13_123_449/clk_r_REG1061_S14/CP (C8T28SOIDV_LL_DFPRQX10_P16)
                                                         0.000      1.667 r
  library setup time                                    -0.025      1.642
  data required time                                                1.642
  --------------------------------------------------------------------------
  data required time                                                1.642
  data arrival time                                                -1.588
  --------------------------------------------------------------------------
  slack (MET)                                                       0.055


  Startpoint: core/fu_AG/fu_arch/clk_r_REG83_S14
              (rising edge-triggered flip-flop clocked by clk)
  Endpoint: core/fu_AG/fu_arch/add_x_5/clk_r_REG852_S26
            (rising edge-triggered flip-flop clocked by clk)
  Path Group: clk
  Path Type: max

  Point                                                   Incr       Path
  --------------------------------------------------------------------------
  clock clk (rise edge)                                  0.000      0.000
  clock network delay (ideal)                            0.010      0.010
  core/fu_AG/fu_arch/clk_r_REG83_S14/CP (C8T28SOIDV_LL_DFPRQX10_P16)
                                                         0.000      0.010 r
  core/fu_AG/fu_arch/clk_r_REG83_S14/Q (C8T28SOIDV_LL_DFPRQX10_P16)
                                                         0.056      0.066 r
  core/fu_AG/fu_arch/u0/nexp_i[3] (idx_stage_split_dataw32_nexpw4_stagew3_idxw16_0)
                                                         0.000      0.066 r
  core/fu_AG/fu_arch/u0/U3/Z (C8T28SOI_LL_IVX5_P16)      0.023 *    0.089 f
  core/fu_AG/fu_arch/u0/U4/Z (C8T28SOI_LL_NAND2X4_P16)
                                                         0.029 *    0.118 r
  core/fu_AG/fu_arch/u0/U5/Z (C8T28SOI_LL_IVX2_P16)      0.029 *    0.147 f
  core/fu_AG/fu_arch/u0/U52/Z (C8T28SOI_LL_AOI222X2_P16)
                                                         0.039 *    0.186 r
  core/fu_AG/fu_arch/u0/U53/Z (C8T28SOI_LL_OAI22X3_P16)
                                                         0.023 *    0.209 f
  core/fu_AG/fu_arch/u0/U54/Z (C8T28SOI_LL_CBI4I6X3_P16)
                                                         0.026 *    0.235 r
  core/fu_AG/fu_arch/u0/U60/Z (C8T28SOI_LL_OA112X4_P16)
                                                         0.045 *    0.281 r
  core/fu_AG/fu_arch/u0/stage_o[0] (idx_stage_split_dataw32_nexpw4_stagew3_idxw16_0)
                                                         0.000      0.281 r
  core/fu_AG/fu_arch/U4/Z (C8T28SOI_LL_NAND2X2_P16)      0.018 *    0.299 f
  core/fu_AG/fu_arch/U5/Z (C8T28SOI_LL_OAI12X3_P16)      0.026 *    0.325 r
  core/fu_AG/fu_arch/U38/Z (C8T28SOI_LL_NAND2X4_P16)     0.057 *    0.382 f
  core/fu_AG/fu_arch/U12/Z (C8T28SOI_LL_IVX2_P16)        0.084 *    0.466 r
  core/fu_AG/fu_arch/U42/Z (C8T28SOI_LL_AOI22X2_P16)     0.027 *    0.493 f
  core/fu_AG/fu_arch/U43/Z (C8T28SOI_LL_NAND2X2_P16)     0.030 *    0.522 r
  core/fu_AG/fu_arch/U47/Z (C8T28SOI_LL_AOI22X2_P16)     0.022 *    0.545 f
  core/fu_AG/fu_arch/U48/Z (C8T28SOI_LL_IVX2_P16)        0.021 *    0.566 r
  core/fu_AG/fu_arch/U68/Z (C8T28SOI_LL_AOI222X2_P16)    0.027 *    0.593 f
  core/fu_AG/fu_arch/U103/Z (C8T28SOI_LL_OA222X4_P16)    0.070 *    0.662 f
  core/fu_AG/fu_arch/U188/Z (C8T28SOI_LL_NOR2X2_P16)     0.032 *    0.695 r
  core/fu_AG/fu_arch/U189/Z (C8T28SOI_LL_IVX2_P16)       0.033 *    0.728 f
  core/fu_AG/fu_arch/U261/CO (C8T28SOIDV_LL_FA1X5_P16)
                                                         0.054 *    0.781 f
  core/fu_AG/fu_arch/U258/CO (C8T28SOIDV_LLS1_FA1X4_P16)
                                                         0.033 *    0.815 f
  core/fu_AG/fu_arch/U255/CO (C8T28SOIDV_LLS1_FA1X4_P16)
                                                         0.035 *    0.850 f
  core/fu_AG/fu_arch/U251/CO (C8T28SOIDV_LL_FA1X5_P16)
                                                         0.047 *    0.897 f
  core/fu_AG/fu_arch/U244/CO (C8T28SOIDV_LL_FA1X5_P16)
                                                         0.046 *    0.943 f
  core/fu_AG/fu_arch/U241/CO (C8T28SOIDV_LLS1_FA1X4_P16)
                                                         0.033 *    0.975 f
  core/fu_AG/fu_arch/U237/CO (C8T28SOIDV_LL_FA1X5_P16)
                                                         0.047 *    1.022 f
  core/fu_AG/fu_arch/U233/CO (C8T28SOIDV_LL_FA1X5_P16)
                                                         0.046 *    1.068 f
  core/fu_AG/fu_arch/U226/CO (C8T28SOIDV_LLS1_FA1X4_P16)
                                                         0.033 *    1.101 f
  core/fu_AG/fu_arch/U222/CO (C8T28SOIDV_LL_FA1X5_P16)
                                                         0.047 *    1.148 f
  core/fu_AG/fu_arch/U217/CO (C8T28SOIDV_LL_FA1X5_P16)
                                                         0.046 *    1.194 f
  core/fu_AG/fu_arch/U211/S0 (C8T28SOIDV_LLS1_FA1X4_P16)
                                                         0.033 *    1.227 f
  core/fu_AG/fu_arch/U212/Z (C8T28SOI_LL_AOI112X3_P16)
                                                         0.030 *    1.257 r
  core/fu_AG/fu_arch/U213/Z (C8T28SOI_LL_AOI22X2_P16)    0.030 *    1.286 f
  core/fu_AG/fu_arch/U292/CO (C8T28SOIDV_LL_FA1X5_P16)
                                                         0.062 *    1.348 f
  core/fu_AG/fu_arch/U269/CO (C8T28SOIDV_LLS1_FA1X4_P16)
                                                         0.033 *    1.381 f
  core/fu_AG/fu_arch/U279/CO (C8T28SOIDV_LLS1_FA1X4_P16)
                                                         0.058 *    1.440 f
  core/fu_AG/fu_arch/U291/CO (C8T28SOI_LL_HA1X5_P16)     0.055 *    1.494 f
  core/fu_AG/fu_arch/U270/CO (C8T28SOI_LL_HA1X9_P16)     0.024 *    1.519 f
  core/fu_AG/fu_arch/U271/CO (C8T28SOI_LL_HA1X9_P16)     0.021 *    1.540 f
  core/fu_AG/fu_arch/U272/CO (C8T28SOI_LL_HA1X9_P16)     0.022 *    1.562 f
  core/fu_AG/fu_arch/U273/CO (C8T28SOI_LL_HA1X9_P16)     0.021 *    1.582 f
  core/fu_AG/fu_arch/add_x_5/clk_r_REG852_S26/D (C8T28SOIDV_LL_DFPRQX10_P16)
                                                         0.000 *    1.582 f
  data arrival time                                                 1.582

  clock clk (rise edge)                                  1.667      1.667
  clock network delay (ideal)                            0.010      1.677
  clock uncertainty                                     -0.010      1.667
  core/fu_AG/fu_arch/add_x_5/clk_r_REG852_S26/CP (C8T28SOIDV_LL_DFPRQX10_P16)
                                                         0.000      1.667 r
  library setup time                                    -0.023      1.644
  data required time                                                1.644
  --------------------------------------------------------------------------
  data required time                                                1.644
  data arrival time                                                -1.582
  --------------------------------------------------------------------------
  slack (MET)                                                       0.061


  Startpoint: datamem/scheduler/addr_b_conv/clk_r_REG2138_S1
              (rising edge-triggered flip-flop clocked by clk)
  Endpoint: datamem/dmem_2/cacti_mem_x_1/mem_32x32
            (rising edge-triggered flip-flop clocked by clk)
  Path Group: clk
  Path Type: max

  Point                                                   Incr       Path
  --------------------------------------------------------------------------
  clock clk (rise edge)                                  0.000      0.000
  clock network delay (ideal)                            0.010      0.010
  datamem/scheduler/addr_b_conv/clk_r_REG2138_S1/CP (C8T28SOIDV_LL_DFPRQX10_P16)
                                                         0.000      0.010 r
  datamem/scheduler/addr_b_conv/clk_r_REG2138_S1/Q (C8T28SOIDV_LL_DFPRQX10_P16)
                                                         0.053      0.063 r
  datamem/scheduler/addr_b_conv/en_out[1]_BAR (ser_par_conv_portw14_port_cnt2_0)
                                                         0.000      0.063 r
  datamem/scheduler/U2/Z (C8T28SOI_LL_NOR2AX4_P16)       0.073 *    0.137 r
  datamem/scheduler/U18/Z (C8T28SOI_LL_BFX5_P16)         0.078 *    0.215 r
  datamem/scheduler/U19/Z (C8T28SOI_LL_IVX5_P16)         0.053 *    0.268 f
  datamem/scheduler/U211/Z (C8T28SOI_LL_AOI22X2_P16)     0.036 *    0.303 r
  datamem/scheduler/U212/Z (C8T28SOI_LL_IVX2_P16)        0.022 *    0.325 f
  datamem/scheduler/addr[26] (par_mem_scheduler_dataw32_addrw14_ports2_rd_delay1)
                                                         0.000      0.325 f
  datamem/par_mem_logic_inst/addrs_from_lsus[26] (par_mem_logic_PORTS2_LSU_ADDRW14_CTRLW1_DATAW32_PM_FUNC2)
                                                         0.000      0.325 f
  datamem/par_mem_logic_inst/addr_crsbar_0/addrs_from_lsus[26] (addr_crsbar_PORTS2_LSU_ADDRW14_CTRLW1_PM_FUNC2)
                                                         0.000      0.325 f
  datamem/par_mem_logic_inst/addr_crsbar_0/U37/Z (C8T28SOI_LL_AOI22X2_P16)
                                                         0.045 *    0.369 r
  datamem/par_mem_logic_inst/addr_crsbar_0/U38/Z (C8T28SOIDV_LLS_XNOR2X4_P16)
                                                         0.043 *    0.412 r
  datamem/par_mem_logic_inst/addr_crsbar_0/U39/Z (C8T28SOIDV_LLS_XNOR3X1_P16)
                                                         0.049 *    0.461 r
  datamem/par_mem_logic_inst/addr_crsbar_0/U46/Z (C8T28SOI_LL_NAND2X2_P16)
                                                         0.027 *    0.488 f
  datamem/par_mem_logic_inst/addr_crsbar_0/U47/Z (C8T28SOI_LL_OAI12X3_P16)
                                                         0.019 *    0.507 r
  datamem/par_mem_logic_inst/addr_crsbar_0/U48/Z (C8T28SOIDV_LLS_XNOR2X4_P16)
                                                         0.030 *    0.537 r
  datamem/par_mem_logic_inst/addr_crsbar_0/U56/Z (C8T28SOIDV_LLS_XNOR2X4_P16)
                                                         0.030 *    0.567 r
  datamem/par_mem_logic_inst/addr_crsbar_0/module_nums[1] (addr_crsbar_PORTS2_LSU_ADDRW14_CTRLW1_PM_FUNC2)
                                                         0.000      0.567 r
  datamem/par_mem_logic_inst/ctrl_units_0/module_nums[1] (ctrl_units_PORTS2_CTRLW1)
                                                         0.000      0.567 r
  datamem/par_mem_logic_inst/ctrl_units_0/ctrl_uniti_1/module_num[0] (ctrl_unit_PORTS2_CTRLW1_0)
                                                         0.000      0.567 r
  datamem/par_mem_logic_inst/ctrl_units_0/ctrl_uniti_1/U4/Z (C8T28SOI_LL_IVX5_P16)
                                                         0.017 *    0.585 f
  datamem/par_mem_logic_inst/ctrl_units_0/ctrl_uniti_1/U26/Z (C8T28SOI_LL_AND2X5_P16)
                                                         0.025 *    0.610 f
  datamem/par_mem_logic_inst/ctrl_units_0/ctrl_uniti_1/ctrl_matrix_row_out[0] (ctrl_unit_PORTS2_CTRLW1_0)
                                                         0.000      0.610 f
  datamem/par_mem_logic_inst/ctrl_units_0/ctrl_uniti_0/t_ctrl_matrix_row_in[1] (ctrl_unit_PORTS2_CTRLW1_1)
                                                         0.000      0.610 f
  datamem/par_mem_logic_inst/ctrl_units_0/ctrl_uniti_0/U5/Z (C8T28SOI_LL_NAND2X2_P16)
                                                         0.021 *    0.631 r
  datamem/par_mem_logic_inst/ctrl_units_0/ctrl_uniti_0/addr_mux_ctrl[0] (ctrl_unit_PORTS2_CTRLW1_1)
                                                         0.000      0.631 r
  datamem/par_mem_logic_inst/ctrl_units_0/addr_mux_ctrls[0] (ctrl_units_PORTS2_CTRLW1)
                                                         0.000      0.631 r
  datamem/par_mem_logic_inst/U5/Z (C8T28SOI_LL_IVX5_P16)
                                                         0.044 *    0.675 f
  datamem/par_mem_logic_inst/addr_crsbar_0/ctrl[0] (addr_crsbar_PORTS2_LSU_ADDRW14_CTRLW1_PM_FUNC2)
                                                         0.000      0.675 f
  datamem/par_mem_logic_inst/addr_crsbar_0/U9/Z (C8T28SOI_LL_IVX5_P16)
                                                         0.055 *    0.730 r
  datamem/par_mem_logic_inst/addr_crsbar_0/U97/Z (C8T28SOI_LL_AOI22X2_P16)
                                                         0.051 *    0.781 f
  datamem/par_mem_logic_inst/addr_crsbar_0/mem_addrs_out[10] (addr_crsbar_PORTS2_LSU_ADDRW14_CTRLW1_PM_FUNC2)
                                                         0.000      0.781 f
  datamem/par_mem_logic_inst/addrs_to_mems[10] (par_mem_logic_PORTS2_LSU_ADDRW14_CTRLW1_DATAW32_PM_FUNC2)
                                                         0.000      0.781 f
  datamem/dmem_2/addr[10] (synch_singleport_mem_wrapper_DATAW32_ADDRW13_0)
                                                         0.000      0.781 f
  datamem/dmem_2/en_wr_arbiter/addr[10] (block_en_wr_arbiter_ADDRW13_NBLOCKS9_0)
                                                         0.000      0.781 f
  datamem/dmem_2/en_wr_arbiter/U11/Z (C8T28SOI_LL_NOR3X3_P16)
                                                         0.058 *    0.839 r
  datamem/dmem_2/en_wr_arbiter/U12/Z (C8T28SOI_LL_NOR2AX4_P16)
                                                         0.056 *    0.895 r
  datamem/dmem_2/en_wr_arbiter/U13/Z (C8T28SOI_LL_NOR2AX4_P16)
                                                         0.051 *    0.946 r
  datamem/dmem_2/en_wr_arbiter/U14/Z (C8T28SOI_LL_NOR2AX4_P16)
                                                         0.048 *    0.994 r
  datamem/dmem_2/en_wr_arbiter/U15/Z (C8T28SOI_LL_NOR2AX4_P16)
                                                         0.053 *    1.047 r
  datamem/dmem_2/en_wr_arbiter/U25/Z (C8T28SOI_LL_NAND3X3_P16)
                                                         0.038 *    1.085 f
  datamem/dmem_2/en_wr_arbiter/en_blocks[1] (block_en_wr_arbiter_ADDRW13_NBLOCKS9_0)
                                                         0.000      1.085 f
  datamem/dmem_2/cacti_mem_x_1/en_x (cacti_mem_wrapper_DATAW32_ADDRW5_0)
                                                         0.000      1.085 f
  datamem/dmem_2/cacti_mem_x_1/mem_32x32/mem_en_x (ram_32x32)
                                                         0.000 *    1.085 f
  data arrival time                                                 1.085

  clock clk (rise edge)                                  1.667      1.667
  clock network delay (ideal)                            0.010      1.677
  clock uncertainty                                     -0.010      1.667
  datamem/dmem_2/cacti_mem_x_1/mem_32x32/clk (ram_32x32)
                                                         0.000      1.667 r
  library setup time                                    -0.519      1.148
  data required time                                                1.148
  --------------------------------------------------------------------------
  data required time                                                1.148
  data arrival time                                                -1.085
  --------------------------------------------------------------------------
  slack (MET)                                                       0.063


  Startpoint: core/rf_rf_def/clk_r_REG1760_S29
              (rising edge-triggered flip-flop clocked by clk)
  Endpoint: core/ic/add_o1/clk_r_REG489_S24
            (rising edge-triggered flip-flop clocked by clk)
  Path Group: clk
  Path Type: max

  Point                                                   Incr       Path
  --------------------------------------------------------------------------
  clock clk (rise edge)                                  0.000      0.000
  clock network delay (ideal)                            0.010      0.010
  core/rf_rf_def/clk_r_REG1760_S29/CP (C8T28SOIDV_LL_DFPRQX10_P16)
                                                         0.000      0.010 r
  core/rf_rf_def/clk_r_REG1760_S29/Q (C8T28SOIDV_LL_DFPRQX10_P16)
                                                         0.079      0.089 f
  core/rf_rf_def/U5/Z (C8T28SOI_LL_AO222X5_P16)          0.072 *    0.161 f
  core/rf_rf_def/r1data[0] (rf_1wr_1rd_always_1_guarded_0_dataw32_rf_size3)
                                                         0.000      0.161 f
  core/ic/socket_rf_def_o1_data0[0] (tta0_interconn)     0.000      0.161 f
  core/ic/rf_def_o1/data0[0] (tta0_output_socket_cons_2_1_BUSW_032_BUSW_132_DATAW_032_0)
                                                         0.000      0.161 f
  core/ic/rf_def_o1/U34/Z (C8T28SOI_LL_AND2X5_P16)       0.027 *    0.188 f
  core/ic/rf_def_o1/databus0_alt[0] (tta0_output_socket_cons_2_1_BUSW_032_BUSW_132_DATAW_032_0)
                                                         0.000      0.188 f
  core/ic/U145/Z (C8T28SOI_LL_OR3X10_P16)                0.039 *    0.227 f
  core/ic/add_i2/databus0[0] (tta0_input_socket_cons_1_BUSW_032_DATAW32_5)
                                                         0.000      0.227 f
  core/ic/add_i2/U32/Z (C8T28SOI_LL_CNBFX8_P4)           0.019 *    0.245 f
  core/ic/add_i2/data[0] (tta0_input_socket_cons_1_BUSW_032_DATAW32_5)
                                                         0.000      0.245 f
  core/ic/socket_add_i2_data[0] (tta0_interconn)         0.000      0.245 f
  core/fu_add/o1data[0] (fu_add_sub_always_1_dataw32_busw32)
                                                         0.000      0.245 f
  core/fu_add/U8/Z (C8T28SOI_LL_AOI22X2_P16)             0.024 *    0.269 r
  core/fu_add/U9/Z (C8T28SOI_LL_IVX5_P16)                0.017 *    0.287 f
  core/fu_add/fu_arch/B[0] (add_sub_arith_dataw32)       0.000      0.287 f
  core/fu_add/fu_arch/U17/Z (C8T28SOIDV_LLS_XOR2X4_P16)
                                                         0.028 *    0.314 f
  core/fu_add/fu_arch/U43/CO (C8T28SOIDV_LL_FA1X5_P16)
                                                         0.056 *    0.370 f
  core/fu_add/fu_arch/U44/CO (C8T28SOIDV_LL_FA1X5_P16)
                                                         0.047 *    0.418 f
  core/fu_add/fu_arch/U62/CO (C8T28SOIDV_LL_FA1X5_P16)
                                                         0.046 *    0.464 f
  core/fu_add/fu_arch/U55/CO (C8T28SOIDV_LL_FA1X5_P16)
                                                         0.046 *    0.509 f
  core/fu_add/fu_arch/U35/CO (C8T28SOIDV_LL_FA1X5_P16)
                                                         0.046 *    0.556 f
  core/fu_add/fu_arch/U54/CO (C8T28SOIDV_LL_FA1X5_P16)
                                                         0.046 *    0.602 f
  core/fu_add/fu_arch/U22/CO (C8T28SOIDV_LL_FA1X5_P16)
                                                         0.046 *    0.647 f
  core/fu_add/fu_arch/U53/CO (C8T28SOIDV_LL_FA1X5_P16)
                                                         0.046 *    0.693 f
  core/fu_add/fu_arch/U21/CO (C8T28SOIDV_LL_FA1X5_P16)
                                                         0.046 *    0.739 f
  core/fu_add/fu_arch/U52/CO (C8T28SOIDV_LL_FA1X5_P16)
                                                         0.046 *    0.785 f
  core/fu_add/fu_arch/U20/CO (C8T28SOIDV_LL_FA1X5_P16)
                                                         0.046 *    0.831 f
  core/fu_add/fu_arch/U51/CO (C8T28SOIDV_LL_FA1X5_P16)
                                                         0.046 *    0.878 f
  core/fu_add/fu_arch/U19/CO (C8T28SOIDV_LL_FA1X5_P16)
                                                         0.046 *    0.924 f
  core/fu_add/fu_arch/U50/CO (C8T28SOIDV_LLS1_FA1X4_P16)
                                                         0.033 *    0.957 f
  core/fu_add/fu_arch/U31/CO (C8T28SOIDV_LLS1_FA1X4_P16)
                                                         0.036 *    0.992 f
  core/fu_add/fu_arch/U49/CO (C8T28SOIDV_LLS1_FA1X4_P16)
                                                         0.035 *    1.028 f
  core/fu_add/fu_arch/U34/CO (C8T28SOIDV_LLS1_FA1X4_P16)
                                                         0.035 *    1.063 f
  core/fu_add/fu_arch/U48/CO (C8T28SOIDV_LLS1_FA1X4_P16)
                                                         0.035 *    1.098 f
  core/fu_add/fu_arch/U33/CO (C8T28SOIDV_LLS1_FA1X4_P16)
                                                         0.035 *    1.133 f
  core/fu_add/fu_arch/U47/CO (C8T28SOIDV_LLS1_FA1X4_P16)
                                                         0.035 *    1.168 f
  core/fu_add/fu_arch/U32/CO (C8T28SOIDV_LLS1_FA1X4_P16)
                                                         0.035 *    1.203 f
  core/fu_add/fu_arch/U46/CO (C8T28SOIDV_LLS1_FA1X4_P16)
                                                         0.035 *    1.238 f
  core/fu_add/fu_arch/U38/CO (C8T28SOIDV_LLS1_FA1X4_P16)
                                                         0.034 *    1.272 f
  core/fu_add/fu_arch/U45/CO (C8T28SOIDV_LLS1_FA1X4_P16)
                                                         0.034 *    1.306 f
  core/fu_add/fu_arch/U42/CO (C8T28SOIDV_LLS1_FA1X4_P16)
                                                         0.034 *    1.341 f
  core/fu_add/fu_arch/U61/CO (C8T28SOIDV_LL_FA1X5_P16)
                                                         0.048 *    1.389 f
  core/fu_add/fu_arch/U58/CO (C8T28SOIDV_LLS1_FA1X4_P16)
                                                         0.033 *    1.422 f
  core/fu_add/fu_arch/U57/CO (C8T28SOIDV_LLS1_FA1X4_P16)
                                                         0.035 *    1.457 f
  core/fu_add/fu_arch/U60/CO (C8T28SOIDV_LLS1_FA1X4_P16)
                                                         0.035 *    1.492 f
  core/fu_add/fu_arch/U64/CO (C8T28SOIDV_LLS1_FA1X4_P16)
                                                         0.035 *    1.527 f
  core/fu_add/fu_arch/U66/S0 (C8T28SOIDV_LLS1_FA1X4_P16)
                                                         0.038 *    1.565 r
  core/fu_add/fu_arch/S[30] (add_sub_arith_dataw32)      0.000      1.565 r
  core/fu_add/r1data[30] (fu_add_sub_always_1_dataw32_busw32)
                                                         0.000      1.565 r
  core/ic/socket_add_o1_data0[30] (tta0_interconn)       0.000      1.565 r
  core/ic/add_o1/data0[30] (tta0_output_socket_cons_3_1_BUSW_032_BUSW_132_BUSW_232_DATAW_032_1)
                                                         0.000      1.565 r
  core/ic/add_o1/U108/Z (C8T28SOI_LL_IVX2_P16)           0.011 *    1.576 f
  core/ic/add_o1/clk_r_REG489_S24/D (C8T28SOIDV_LL_DFPSQX10_P16)
                                                         0.000 *    1.576 f
  data arrival time                                                 1.576

  clock clk (rise edge)                                  1.667      1.667
  clock network delay (ideal)                            0.010      1.677
  clock uncertainty                                     -0.010      1.667
  core/ic/add_o1/clk_r_REG489_S24/CP (C8T28SOIDV_LL_DFPSQX10_P16)
                                                         0.000      1.667 r
  library setup time                                    -0.028      1.639
  data required time                                                1.639
  --------------------------------------------------------------------------
  data required time                                                1.639
  data arrival time                                                -1.576
  --------------------------------------------------------------------------
  slack (MET)                                                       0.064


1
