Warning: There are 100 switching activity information conflicts. (PWR-19)
 
****************************************
Report : saif
Design : proc
Version: M-2016.12-SP5-1
Date   : Sun Jul 29 08:34:11 2018
****************************************

  

--------------------------------------------------------------------------------
              User              Default           Propagated
Object type   Annotated (%)     Activity (%)      Activity (%)       Total
--------------------------------------------------------------------------------
  
 Nets         283(66.43%)       0(0.00%)          143(33.57%)        426
 Ports        229(100.00%)      0(0.00%)          0(0.00%)           229
 Pins         263(40.90%)       0(0.00%)          380(59.10%)        643
--------------------------------------------------------------------------------
1
