Information: Propagating switching activity (high effort zero delay simulation). (PWR-6)
Warning: Invalid switching activity annotation on constant net(s) is being ignored. (PWR-421)
Warning: Design has unannotated sequential cell outputs. (PWR-415)
Warning: Design has unannotated black box outputs. (PWR-428)
 
****************************************
Report : power
        -analysis_effort high
Design : proc
Version: M-2016.12-SP5-1
Date   : Fri Jul 27 21:48:46 2018
****************************************


Library(s) Used:

    C28SOI_SC_8_COREPBP16_LL (File: /home/software/cmos28fdsoi_25f/C28SOI_SC_8_COREPBP16_LL/3.3-00/libs/C28SOI_SC_8_COREPBP16_LL_tt28_0.60V_0.00V_0.00V_0.00V_25C.db)
    C28SOI_SC_8_CLK_LL (File: /home/software/cmos28fdsoi_25f/C28SOI_SC_8_CLK_LL/3.2-00/libs/C28SOI_SC_8_CLK_LL_tt28_0.60V_0.00V_0.00V_0.00V_25C.db)
    ram_64x51 (File: /home/zadnik/designs/fft_full_lbuf/vhdl/mem/cacti_mem/ram_300k_028nm_0_60v_64x51/ram_64x51.db)
    ram_4096x32 (File: /home/zadnik/designs/fft_full_lbuf/vhdl/mem/cacti_mem/ram_300k_028nm_0_60v_4096x32/ram_4096x32.db)
    ram_2048x32 (File: /home/zadnik/designs/fft_full_lbuf/vhdl/mem/cacti_mem/ram_300k_028nm_0_60v_2048x32/ram_2048x32.db)
    ram_1024x32 (File: /home/zadnik/designs/fft_full_lbuf/vhdl/mem/cacti_mem/ram_300k_028nm_0_60v_1024x32/ram_1024x32.db)
    ram_512x32 (File: /home/zadnik/designs/fft_full_lbuf/vhdl/mem/cacti_mem/ram_300k_028nm_0_60v_512x32/ram_512x32.db)
    ram_256x32 (File: /home/zadnik/designs/fft_full_lbuf/vhdl/mem/cacti_mem/ram_300k_028nm_0_60v_256x32/ram_256x32.db)
    ram_128x32 (File: /home/zadnik/designs/fft_full_lbuf/vhdl/mem/cacti_mem/ram_300k_028nm_0_60v_128x32/ram_128x32.db)
    ram_64x32 (File: /home/zadnik/designs/fft_full_lbuf/vhdl/mem/cacti_mem/ram_300k_028nm_0_60v_64x32/ram_64x32.db)
    ram_32x32 (File: /home/zadnik/designs/fft_full_lbuf/vhdl/mem/cacti_mem/ram_300k_028nm_0_60v_32x32/ram_32x32.db)


Operating Conditions: tt28_0.60V_0.00V_0.00V_0.00V_25C   Library: C28SOI_SC_8_CLK_LL
Wire Load Model Mode: Inactive.


Global Operating Voltage = 0.6  
Power-specific unit information :
    Voltage Units = 1V
    Capacitance Units = 1.000000pf
    Time Units = 1ns
    Dynamic Power Units = 1mW    (derived from V,C,T units)
    Leakage Power Units = 1mW

Warning: Cannot report correlated power unless power prediction mode is set. (PWR-727)
Power Breakdown
---------------

                             Cell        Driven Net  Tot Dynamic      Cell
                             Internal    Switching   Power (mW)       Leakage
Cell                         Power (mW)  Power (mW)  (% Cell/Tot)     Power (mW)
--------------------------------------------------------------------------------
Netlist Power                   0.1991      0.1000      0.2990 (67%)     1.3487
Estimated Clock Tree Power   N/A         N/A          (N/A)           N/A
--------------------------------------------------------------------------------

                 Internal         Switching           Leakage            Total
Power Group      Power            Power               Power              Power   (   %    )  Attrs
--------------------------------------------------------------------------------------------------
io_pad             0.0000            0.0000            0.0000            0.0000  (   0.00%)
memory         6.6729e-02        6.3148e-04            1.3482            1.4155  (  85.91%)
black_box          0.0000            0.0000            0.0000            0.0000  (   0.00%)
clock_network  3.7314e-03        1.7443e-02        7.4378e-05        2.1249e-02  (   1.29%)
register       8.4527e-02        3.0683e-03        2.1913e-04        8.7814e-02  (   5.33%)
sequential         0.0000            0.0000            0.0000            0.0000  (   0.00%)
combinational  4.4077e-02        7.8832e-02        2.6424e-04            0.1232  (   7.48%)
--------------------------------------------------------------------------------------------------
Total              0.1991 mW     9.9976e-02 mW         1.3487 mW         1.6478 mW
1
