Warning: There are 92 switching activity information conflicts. (PWR-19)
 
****************************************
Report : saif
Design : proc
Version: M-2016.12-SP5-1
Date   : Fri Jul 27 22:24:13 2018
****************************************

  

--------------------------------------------------------------------------------
              User              Default           Propagated
Object type   Annotated (%)     Activity (%)      Activity (%)       Total
--------------------------------------------------------------------------------
  
 Nets         283(65.66%)       0(0.00%)          148(34.34%)        431
 Ports        229(100.00%)      0(0.00%)          0(0.00%)           229
 Pins         262(37.92%)       0(0.00%)          429(62.08%)        691
--------------------------------------------------------------------------------
1
