********************************************************************************
                        Threshold Voltage Group Report                         

Vth Group                All                Blackbox           Non-blackbox
Name                    cells                cells                cells
********************************************************************************
undefined           17526 (100.00%)        119 (100.00%)      17407 (100.00%)   
********************************************************************************

Vth Group                All                Blackbox           Non-blackbox
Name                  cell area            cell area            cell area
********************************************************************************
undefined       124542.63 (100.00%)  110625.70 (100.00%)   13916.93 (100.00%)   
********************************************************************************
1
