Warning: There are 82 switching activity information conflicts. (PWR-19)
 
****************************************
Report : saif
Design : proc
Version: M-2016.12-SP5-1
Date   : Sat Jul 28 16:27:45 2018
****************************************

  

--------------------------------------------------------------------------------
              User              Default           Propagated
Object type   Annotated (%)     Activity (%)      Activity (%)       Total
--------------------------------------------------------------------------------
  
 Nets         285(65.37%)       0(0.00%)          151(34.63%)        436
 Ports        229(100.00%)      0(0.00%)          0(0.00%)           229
 Pins         273(39.39%)       0(0.00%)          420(60.61%)        693
--------------------------------------------------------------------------------
1
