********************************************************************************
                        Threshold Voltage Group Report                         

Vth Group                All                Blackbox           Non-blackbox
Name                    cells                cells                cells
********************************************************************************
undefined           16509 (100.00%)        119 (100.00%)      16390 (100.00%)   
********************************************************************************

Vth Group                All                Blackbox           Non-blackbox
Name                  cell area            cell area            cell area
********************************************************************************
undefined       109805.92 (100.00%)   96341.59 (100.00%)   13464.33 (100.00%)   
********************************************************************************
1
