Information: Updating design information... (UID-85)
 
****************************************
Report : timing
        -path full
        -delay max
        -max_paths 10
Design : proc
Version: M-2016.12-SP5-1
Date   : Sat Jul 28 16:27:27 2018
****************************************

 * Some/all delay information is back-annotated.

Operating Conditions: tt28_0.90V_0.00V_0.00V_0.00V_25C   Library: C28SOI_SC_8_CLK_LL
Wire Load Model Mode: Inactive.

  Startpoint: core/inst_decoder/clk_r_REG1954_S29
              (rising edge-triggered flip-flop clocked by clk)
  Endpoint: core/fu_CMUL/fu_arch/DP_OP_25J13_122_449/clk_r_REG596_S14
            (rising edge-triggered flip-flop clocked by clk)
  Path Group: clk
  Path Type: max

  Point                                                   Incr       Path
  --------------------------------------------------------------------------
  clock clk (rise edge)                                  0.000      0.000
  clock network delay (ideal)                            0.010      0.010
  core/inst_decoder/clk_r_REG1954_S29/CP (C8T28SOIDV_LL_DFPRQX10_P16)
                                                         0.000      0.010 r
  core/inst_decoder/clk_r_REG1954_S29/Q (C8T28SOIDV_LL_DFPRQX10_P16)
                                                         0.131      0.141 r
  core/inst_decoder/socket_TFG_o1_bus_cntrl[0] (tta0_decoder)
                                                         0.000      0.141 r
  core/ic/socket_TFG_o1_bus_cntrl[0] (tta0_interconn)    0.000      0.141 r
  core/ic/TFG_o1/databus_cntrl[0] (tta0_output_socket_cons_1_1_BUSW_032_DATAW_032_2)
                                                         0.000      0.141 r
  core/ic/TFG_o1/U10/Z (C8T28SOI_LL_AND2X5_P16)          0.069 *    0.211 r
  core/ic/TFG_o1/databus0_alt[3] (tta0_output_socket_cons_1_1_BUSW_032_DATAW_032_2)
                                                         0.000      0.211 r
  core/ic/CMUL_i1/databus0[3] (tta0_input_socket_cons_1_BUSW_032_DATAW32_10)
                                                         0.000      0.211 r
  core/ic/CMUL_i1/U23/Z (C8T28SOI_LL_BFX5_P16)           0.025 *    0.236 r
  core/ic/CMUL_i1/data[3] (tta0_input_socket_cons_1_BUSW_032_DATAW32_10)
                                                         0.000      0.236 r
  core/ic/socket_CMUL_i1_data[3] (tta0_interconn)        0.000      0.236 r
  U284/Z (C8T28SOI_LL_BFX5_P16)                          0.091 *    0.327 r
  core/fu_CMUL/t1data[3] (fu_cmul_always_3_dataw32_busw32)
                                                         0.000      0.327 r
  core/fu_CMUL/fu_arch/A[3] (cmul_pipe_1_dataw32_halfw16)
                                                         0.000      0.327 r
  core/fu_CMUL/fu_arch/U110/Z (C8T28SOI_LL_BFX13_P16)    0.095 *    0.421 r
  core/fu_CMUL/fu_arch/U111/Z (C8T28SOI_LL_IVX3_P16)     0.077 *    0.498 f
  core/fu_CMUL/fu_arch/U274/Z (C8T28SOI_LL_AOI22X6_P16)
                                                         0.126 *    0.624 r
  core/fu_CMUL/fu_arch/U278/Z (C8T28SOI_LL_OAI211X3_P16)
                                                         0.166 *    0.790 f
  core/fu_CMUL/fu_arch/U952/Z (C8T28SOI_LL_OAI22X3_P16)
                                                         0.115 *    0.904 r
  core/fu_CMUL/fu_arch/U967/S0 (C8T28SOIDV_LL_FA1X5_P16)
                                                         0.108 *    1.013 f
  core/fu_CMUL/fu_arch/U981/S0 (C8T28SOIDV_LL_FA1X5_P16)
                                                         0.095 *    1.108 r
  core/fu_CMUL/fu_arch/U982/S0 (C8T28SOIDV_LL_FA1X5_P16)
                                                         0.077 *    1.185 f
  core/fu_CMUL/fu_arch/U1011/Z (C8T28SOI_LL_PAO2X5_P16)
                                                         0.059 *    1.244 f
  core/fu_CMUL/fu_arch/U1012/Z (C8T28SOI_LL_PAO2X5_P16)
                                                         0.056 *    1.300 f
  core/fu_CMUL/fu_arch/U1013/Z (C8T28SOI_LL_PAO2X5_P16)
                                                         0.056 *    1.356 f
  core/fu_CMUL/fu_arch/U1014/Z (C8T28SOI_LL_PAO2X5_P16)
                                                         0.059 *    1.415 f
  core/fu_CMUL/fu_arch/U1015/Z (C8T28SOI_LL_PAO2X5_P16)
                                                         0.053 *    1.468 f
  core/fu_CMUL/fu_arch/U1016/Z (C8T28SOI_LL_PAO2X5_P16)
                                                         0.052 *    1.521 f
  core/fu_CMUL/fu_arch/U1017/Z (C8T28SOI_LL_PAO2X5_P16)
                                                         0.054 *    1.575 f
  core/fu_CMUL/fu_arch/U1018/Z (C8T28SOI_LL_PAO2X5_P16)
                                                         0.054 *    1.629 f
  core/fu_CMUL/fu_arch/U1019/Z (C8T28SOI_LL_PAO2X5_P16)
                                                         0.056 *    1.685 f
  core/fu_CMUL/fu_arch/U1020/Z (C8T28SOIDV_LL_PAO2X10_P16)
                                                         0.055 *    1.740 f
  core/fu_CMUL/fu_arch/U1037/CO (C8T28SOIDV_LL_FA1X5_P16)
                                                         0.065 *    1.805 f
  core/fu_CMUL/fu_arch/U1036/CO (C8T28SOIDV_LL_FA1X9_P16)
                                                         0.068 *    1.873 f
  core/fu_CMUL/fu_arch/U1035/CO (C8T28SOIDV_LL_FA1X5_P16)
                                                         0.067 *    1.940 f
  core/fu_CMUL/fu_arch/U1034/CO (C8T28SOIDV_LLS1_FA1X4_P16)
                                                         0.048 *    1.989 f
  core/fu_CMUL/fu_arch/U1033/CO (C8T28SOIDV_LL_FA1X5_P16)
                                                         0.071 *    2.059 f
  core/fu_CMUL/fu_arch/U1032/CO (C8T28SOIDV_LLS1_FA1X4_P16)
                                                         0.048 *    2.108 f
  core/fu_CMUL/fu_arch/U1031/CO (C8T28SOIDV_LL_FA1X5_P16)
                                                         0.070 *    2.178 f
  core/fu_CMUL/fu_arch/U1030/CO (C8T28SOIDV_LLS1_FA1X4_P16)
                                                         0.048 *    2.226 f
  core/fu_CMUL/fu_arch/U1029/CO (C8T28SOIDV_LL_FA1X5_P16)
                                                         0.070 *    2.297 f
  core/fu_CMUL/fu_arch/U1028/CO (C8T28SOIDV_LLS1_FA1X4_P16)
                                                         0.047 *    2.344 f
  core/fu_CMUL/fu_arch/U1027/CO (C8T28SOIDV_LL_FA1X5_P16)
                                                         0.070 *    2.413 f
  core/fu_CMUL/fu_arch/U1026/CO (C8T28SOIDV_LLS1_FA1X4_P16)
                                                         0.047 *    2.460 f
  core/fu_CMUL/fu_arch/U1025/CO (C8T28SOIDV_LL_FA1X5_P16)
                                                         0.069 *    2.530 f
  core/fu_CMUL/fu_arch/U1024/CO (C8T28SOIDV_LL_FA1X5_P16)
                                                         0.068 *    2.598 f
  core/fu_CMUL/fu_arch/U1023/CO (C8T28SOIDV_LL_FA1X5_P16)
                                                         0.068 *    2.666 f
  core/fu_CMUL/fu_arch/U1022/CO (C8T28SOIDV_LL_FA1X5_P16)
                                                         0.069 *    2.735 f
  core/fu_CMUL/fu_arch/U1021/S0 (C8T28SOIDV_LL_FA1X5_P16)
                                                         0.091 *    2.826 r
  core/fu_CMUL/fu_arch/DP_OP_25J13_122_449/clk_r_REG596_S14/D (C8T28SOIDV_LL_DFPRQX10_P16)
                                                         0.000 *    2.826 r
  data arrival time                                                 2.826

  clock clk (rise edge)                                  2.857      2.857
  clock network delay (ideal)                            0.010      2.867
  clock uncertainty                                     -0.010      2.857
  core/fu_CMUL/fu_arch/DP_OP_25J13_122_449/clk_r_REG596_S14/CP (C8T28SOIDV_LL_DFPRQX10_P16)
                                                         0.000      2.857 r
  library setup time                                    -0.024      2.833
  data required time                                                2.833
  --------------------------------------------------------------------------
  data required time                                                2.833
  data arrival time                                                -2.826
  --------------------------------------------------------------------------
  slack (MET)                                                       0.007


  Startpoint: core/inst_decoder/clk_r_REG1954_S29
              (rising edge-triggered flip-flop clocked by clk)
  Endpoint: core/fu_CMUL/fu_arch/DP_OP_25J13_122_449/clk_r_REG595_S14
            (rising edge-triggered flip-flop clocked by clk)
  Path Group: clk
  Path Type: max

  Point                                                   Incr       Path
  --------------------------------------------------------------------------
  clock clk (rise edge)                                  0.000      0.000
  clock network delay (ideal)                            0.010      0.010
  core/inst_decoder/clk_r_REG1954_S29/CP (C8T28SOIDV_LL_DFPRQX10_P16)
                                                         0.000      0.010 r
  core/inst_decoder/clk_r_REG1954_S29/Q (C8T28SOIDV_LL_DFPRQX10_P16)
                                                         0.131      0.141 r
  core/inst_decoder/socket_TFG_o1_bus_cntrl[0] (tta0_decoder)
                                                         0.000      0.141 r
  core/ic/socket_TFG_o1_bus_cntrl[0] (tta0_interconn)    0.000      0.141 r
  core/ic/TFG_o1/databus_cntrl[0] (tta0_output_socket_cons_1_1_BUSW_032_DATAW_032_2)
                                                         0.000      0.141 r
  core/ic/TFG_o1/U10/Z (C8T28SOI_LL_AND2X5_P16)          0.069 *    0.211 r
  core/ic/TFG_o1/databus0_alt[3] (tta0_output_socket_cons_1_1_BUSW_032_DATAW_032_2)
                                                         0.000      0.211 r
  core/ic/CMUL_i1/databus0[3] (tta0_input_socket_cons_1_BUSW_032_DATAW32_10)
                                                         0.000      0.211 r
  core/ic/CMUL_i1/U23/Z (C8T28SOI_LL_BFX5_P16)           0.025 *    0.236 r
  core/ic/CMUL_i1/data[3] (tta0_input_socket_cons_1_BUSW_032_DATAW32_10)
                                                         0.000      0.236 r
  core/ic/socket_CMUL_i1_data[3] (tta0_interconn)        0.000      0.236 r
  U284/Z (C8T28SOI_LL_BFX5_P16)                          0.091 *    0.327 r
  core/fu_CMUL/t1data[3] (fu_cmul_always_3_dataw32_busw32)
                                                         0.000      0.327 r
  core/fu_CMUL/fu_arch/A[3] (cmul_pipe_1_dataw32_halfw16)
                                                         0.000      0.327 r
  core/fu_CMUL/fu_arch/U110/Z (C8T28SOI_LL_BFX13_P16)    0.095 *    0.421 r
  core/fu_CMUL/fu_arch/U111/Z (C8T28SOI_LL_IVX3_P16)     0.077 *    0.498 f
  core/fu_CMUL/fu_arch/U274/Z (C8T28SOI_LL_AOI22X6_P16)
                                                         0.126 *    0.624 r
  core/fu_CMUL/fu_arch/U278/Z (C8T28SOI_LL_OAI211X3_P16)
                                                         0.166 *    0.790 f
  core/fu_CMUL/fu_arch/U952/Z (C8T28SOI_LL_OAI22X3_P16)
                                                         0.115 *    0.904 r
  core/fu_CMUL/fu_arch/U967/S0 (C8T28SOIDV_LL_FA1X5_P16)
                                                         0.108 *    1.013 f
  core/fu_CMUL/fu_arch/U981/S0 (C8T28SOIDV_LL_FA1X5_P16)
                                                         0.095 *    1.108 r
  core/fu_CMUL/fu_arch/U982/S0 (C8T28SOIDV_LL_FA1X5_P16)
                                                         0.077 *    1.185 f
  core/fu_CMUL/fu_arch/U1011/Z (C8T28SOI_LL_PAO2X5_P16)
                                                         0.059 *    1.244 f
  core/fu_CMUL/fu_arch/U1012/Z (C8T28SOI_LL_PAO2X5_P16)
                                                         0.056 *    1.300 f
  core/fu_CMUL/fu_arch/U1013/Z (C8T28SOI_LL_PAO2X5_P16)
                                                         0.056 *    1.356 f
  core/fu_CMUL/fu_arch/U1014/Z (C8T28SOI_LL_PAO2X5_P16)
                                                         0.059 *    1.415 f
  core/fu_CMUL/fu_arch/U1015/Z (C8T28SOI_LL_PAO2X5_P16)
                                                         0.053 *    1.468 f
  core/fu_CMUL/fu_arch/U1016/Z (C8T28SOI_LL_PAO2X5_P16)
                                                         0.052 *    1.521 f
  core/fu_CMUL/fu_arch/U1017/Z (C8T28SOI_LL_PAO2X5_P16)
                                                         0.054 *    1.575 f
  core/fu_CMUL/fu_arch/U1018/Z (C8T28SOI_LL_PAO2X5_P16)
                                                         0.054 *    1.629 f
  core/fu_CMUL/fu_arch/U1019/Z (C8T28SOI_LL_PAO2X5_P16)
                                                         0.056 *    1.685 f
  core/fu_CMUL/fu_arch/U1020/Z (C8T28SOIDV_LL_PAO2X10_P16)
                                                         0.055 *    1.740 f
  core/fu_CMUL/fu_arch/U1037/CO (C8T28SOIDV_LL_FA1X5_P16)
                                                         0.065 *    1.805 f
  core/fu_CMUL/fu_arch/U1036/CO (C8T28SOIDV_LL_FA1X9_P16)
                                                         0.068 *    1.873 f
  core/fu_CMUL/fu_arch/U1035/CO (C8T28SOIDV_LL_FA1X5_P16)
                                                         0.067 *    1.940 f
  core/fu_CMUL/fu_arch/U1034/CO (C8T28SOIDV_LLS1_FA1X4_P16)
                                                         0.048 *    1.989 f
  core/fu_CMUL/fu_arch/U1033/CO (C8T28SOIDV_LL_FA1X5_P16)
                                                         0.071 *    2.059 f
  core/fu_CMUL/fu_arch/U1032/CO (C8T28SOIDV_LLS1_FA1X4_P16)
                                                         0.048 *    2.108 f
  core/fu_CMUL/fu_arch/U1031/CO (C8T28SOIDV_LL_FA1X5_P16)
                                                         0.070 *    2.178 f
  core/fu_CMUL/fu_arch/U1030/CO (C8T28SOIDV_LLS1_FA1X4_P16)
                                                         0.048 *    2.226 f
  core/fu_CMUL/fu_arch/U1029/CO (C8T28SOIDV_LL_FA1X5_P16)
                                                         0.070 *    2.297 f
  core/fu_CMUL/fu_arch/U1028/CO (C8T28SOIDV_LLS1_FA1X4_P16)
                                                         0.047 *    2.344 f
  core/fu_CMUL/fu_arch/U1027/CO (C8T28SOIDV_LL_FA1X5_P16)
                                                         0.070 *    2.413 f
  core/fu_CMUL/fu_arch/U1026/CO (C8T28SOIDV_LLS1_FA1X4_P16)
                                                         0.047 *    2.460 f
  core/fu_CMUL/fu_arch/U1025/CO (C8T28SOIDV_LL_FA1X5_P16)
                                                         0.069 *    2.530 f
  core/fu_CMUL/fu_arch/U1024/CO (C8T28SOIDV_LL_FA1X5_P16)
                                                         0.068 *    2.598 f
  core/fu_CMUL/fu_arch/U1023/CO (C8T28SOIDV_LL_FA1X5_P16)
                                                         0.068 *    2.666 f
  core/fu_CMUL/fu_arch/U1022/CO (C8T28SOIDV_LL_FA1X5_P16)
                                                         0.069 *    2.735 f
  core/fu_CMUL/fu_arch/U1021/CO (C8T28SOIDV_LL_FA1X5_P16)
                                                         0.061 *    2.796 f
  core/fu_CMUL/fu_arch/DP_OP_25J13_122_449/clk_r_REG595_S14/D (C8T28SOIDV_LL_DFPSQX10_P16)
                                                         0.000 *    2.796 f
  data arrival time                                                 2.796

  clock clk (rise edge)                                  2.857      2.857
  clock network delay (ideal)                            0.010      2.867
  clock uncertainty                                     -0.010      2.857
  core/fu_CMUL/fu_arch/DP_OP_25J13_122_449/clk_r_REG595_S14/CP (C8T28SOIDV_LL_DFPSQX10_P16)
                                                         0.000      2.857 r
  library setup time                                    -0.043      2.814
  data required time                                                2.814
  --------------------------------------------------------------------------
  data required time                                                2.814
  data arrival time                                                -2.796
  --------------------------------------------------------------------------
  slack (MET)                                                       0.018


  Startpoint: datamem/scheduler/addr_b_conv/clk_r_REG2151_S1
              (rising edge-triggered flip-flop clocked by clk)
  Endpoint: datamem/dmem_2/cacti_mem_x_1/mem_32x32
            (rising edge-triggered flip-flop clocked by clk)
  Path Group: clk
  Path Type: max

  Point                                                   Incr       Path
  --------------------------------------------------------------------------
  clock clk (rise edge)                                  0.000      0.000
  clock network delay (ideal)                            0.010      0.010
  datamem/scheduler/addr_b_conv/clk_r_REG2151_S1/CP (C8T28SOIDV_LL_DFPRQX10_P16)
                                                         0.000      0.010 r
  datamem/scheduler/addr_b_conv/clk_r_REG2151_S1/Q (C8T28SOIDV_LL_DFPRQX10_P16)
                                                         0.078      0.088 r
  datamem/scheduler/addr_b_conv/en_out[1]_BAR (ser_par_conv_portw14_port_cnt2_0)
                                                         0.000      0.088 r
  datamem/scheduler/U3/Z (C8T28SOI_LL_NOR2AX4_P16)       0.333 *    0.420 r
  datamem/scheduler/U54/Z (C8T28SOI_LL_BFX5_P16)         0.208 *    0.629 r
  datamem/scheduler/U57/Z (C8T28SOI_LL_IVX3_P16)         0.078 *    0.707 f
  datamem/scheduler/U192/Z (C8T28SOI_LL_AOI22X2_P16)     0.067 *    0.774 r
  datamem/scheduler/U193/Z (C8T28SOI_LL_IVX3_P16)        0.037 *    0.811 f
  datamem/scheduler/addr[17] (par_mem_scheduler_dataw32_addrw14_ports2_rd_delay1)
                                                         0.000      0.811 f
  datamem/par_mem_logic_inst/addrs_from_lsus[17] (par_mem_logic_PORTS2_LSU_ADDRW14_CTRLW1_DATAW32_PM_FUNC2)
                                                         0.000      0.811 f
  datamem/par_mem_logic_inst/addr_crsbar_0/addrs_from_lsus[17] (addr_crsbar_PORTS2_LSU_ADDRW14_CTRLW1_PM_FUNC2)
                                                         0.000      0.811 f
  datamem/par_mem_logic_inst/addr_crsbar_0/U21/Z (C8T28SOI_LL_AOI22X2_P16)
                                                         0.087 *    0.898 r
  datamem/par_mem_logic_inst/addr_crsbar_0/U23/Z (C8T28SOIDV_LLS_XNOR2X4_P16)
                                                         0.072 *    0.969 r
  datamem/par_mem_logic_inst/addr_crsbar_0/U24/Z (C8T28SOI_LL_NAND2X2_P16)
                                                         0.027 *    0.996 f
  datamem/par_mem_logic_inst/addr_crsbar_0/U25/Z (C8T28SOI_LL_OAI12X3_P16)
                                                         0.034 *    1.031 r
  datamem/par_mem_logic_inst/addr_crsbar_0/U30/Z (C8T28SOIDV_LLS_XNOR2X4_P16)
                                                         0.045 *    1.076 r
  datamem/par_mem_logic_inst/addr_crsbar_0/U31/Z (C8T28SOI_LL_NAND2X2_P16)
                                                         0.025 *    1.101 f
  datamem/par_mem_logic_inst/addr_crsbar_0/U32/Z (C8T28SOI_LL_OAI12X3_P16)
                                                         0.033 *    1.134 r
  datamem/par_mem_logic_inst/addr_crsbar_0/U33/Z (C8T28SOIDV_LLS_XNOR2X4_P16)
                                                         0.046 *    1.180 r
  datamem/par_mem_logic_inst/addr_crsbar_0/U34/Z (C8T28SOI_LL_NAND2X2_P16)
                                                         0.026 *    1.206 f
  datamem/par_mem_logic_inst/addr_crsbar_0/U35/Z (C8T28SOI_LL_OAI12X3_P16)
                                                         0.036 *    1.243 r
  datamem/par_mem_logic_inst/addr_crsbar_0/U36/Z (C8T28SOIDV_LLS_XNOR2X4_P16)
                                                         0.049 *    1.292 r
  datamem/par_mem_logic_inst/addr_crsbar_0/U37/Z (C8T28SOI_LL_NAND2X2_P16)
                                                         0.031 *    1.323 f
  datamem/par_mem_logic_inst/addr_crsbar_0/U38/Z (C8T28SOI_LL_OAI12X3_P16)
                                                         0.041 *    1.364 r
  datamem/par_mem_logic_inst/addr_crsbar_0/module_nums[1] (addr_crsbar_PORTS2_LSU_ADDRW14_CTRLW1_PM_FUNC2)
                                                         0.000      1.364 r
  datamem/par_mem_logic_inst/ctrl_units_0/module_nums[1] (ctrl_units_PORTS2_CTRLW1)
                                                         0.000      1.364 r
  datamem/par_mem_logic_inst/ctrl_units_0/ctrl_uniti_1/module_num[0] (ctrl_unit_PORTS2_CTRLW1_0)
                                                         0.000      1.364 r
  datamem/par_mem_logic_inst/ctrl_units_0/ctrl_uniti_1/U2/Z (C8T28SOI_LL_IVX3_P16)
                                                         0.033 *    1.397 f
  datamem/par_mem_logic_inst/ctrl_units_0/ctrl_uniti_1/U23/Z (C8T28SOI_LL_AND2X5_P16)
                                                         0.042 *    1.439 f
  datamem/par_mem_logic_inst/ctrl_units_0/ctrl_uniti_1/ctrl_matrix_row_out[0] (ctrl_unit_PORTS2_CTRLW1_0)
                                                         0.000      1.439 f
  datamem/par_mem_logic_inst/ctrl_units_0/ctrl_uniti_0/t_ctrl_matrix_row_in[1] (ctrl_unit_PORTS2_CTRLW1_1)
                                                         0.000      1.439 f
  datamem/par_mem_logic_inst/ctrl_units_0/ctrl_uniti_0/U3/Z (C8T28SOI_LL_NAND2X4_P16)
                                                         0.026 *    1.464 r
  datamem/par_mem_logic_inst/ctrl_units_0/ctrl_uniti_0/addr_mux_ctrl[0] (ctrl_unit_PORTS2_CTRLW1_1)
                                                         0.000      1.464 r
  datamem/par_mem_logic_inst/ctrl_units_0/addr_mux_ctrls[0] (ctrl_units_PORTS2_CTRLW1)
                                                         0.000      1.464 r
  datamem/par_mem_logic_inst/U5/Z (C8T28SOI_LL_IVX3_P16)
                                                         0.071 *    1.535 f
  datamem/par_mem_logic_inst/addr_crsbar_0/ctrl[0] (addr_crsbar_PORTS2_LSU_ADDRW14_CTRLW1_PM_FUNC2)
                                                         0.000      1.535 f
  datamem/par_mem_logic_inst/addr_crsbar_0/U42/Z (C8T28SOI_LL_IVX3_P16)
                                                         0.118 *    1.653 r
  datamem/par_mem_logic_inst/addr_crsbar_0/U110/Z (C8T28SOI_LL_AOI22X2_P16)
                                                         0.127 *    1.780 f
  datamem/par_mem_logic_inst/addr_crsbar_0/mem_addrs_out[10] (addr_crsbar_PORTS2_LSU_ADDRW14_CTRLW1_PM_FUNC2)
                                                         0.000      1.780 f
  datamem/par_mem_logic_inst/addrs_to_mems[10] (par_mem_logic_PORTS2_LSU_ADDRW14_CTRLW1_DATAW32_PM_FUNC2)
                                                         0.000      1.780 f
  datamem/dmem_2/addr[10] (synch_singleport_mem_wrapper_DATAW32_ADDRW13_0)
                                                         0.000      1.780 f
  datamem/dmem_2/en_wr_arbiter/addr[10] (block_en_wr_arbiter_ADDRW13_NBLOCKS9_0)
                                                         0.000      1.780 f
  datamem/dmem_2/en_wr_arbiter/U9/Z (C8T28SOI_LL_NOR3X3_P16)
                                                         0.120 *    1.900 r
  datamem/dmem_2/en_wr_arbiter/U10/Z (C8T28SOI_LL_NOR2AX4_P16)
                                                         0.088 *    1.988 r
  datamem/dmem_2/en_wr_arbiter/U11/Z (C8T28SOI_LL_NOR2AX4_P16)
                                                         0.079 *    2.066 r
  datamem/dmem_2/en_wr_arbiter/U12/Z (C8T28SOI_LL_NOR2AX4_P16)
                                                         0.080 *    2.146 r
  datamem/dmem_2/en_wr_arbiter/U13/Z (C8T28SOI_LL_NOR2AX4_P16)
                                                         0.094 *    2.239 r
  datamem/dmem_2/en_wr_arbiter/U17/Z (C8T28SOI_LL_NAND3X3_P16)
                                                         0.062 *    2.301 f
  datamem/dmem_2/en_wr_arbiter/wr_blocks[1] (block_en_wr_arbiter_ADDRW13_NBLOCKS9_0)
                                                         0.000      2.301 f
  datamem/dmem_2/cacti_mem_x_1/wr_x (cacti_mem_wrapper_DATAW32_ADDRW5_0)
                                                         0.000      2.301 f
  datamem/dmem_2/cacti_mem_x_1/mem_32x32/wr_en_x (ram_32x32)
                                                         0.000 *    2.302 f
  data arrival time                                                 2.302

  clock clk (rise edge)                                  2.857      2.857
  clock network delay (ideal)                            0.010      2.867
  clock uncertainty                                     -0.010      2.857
  datamem/dmem_2/cacti_mem_x_1/mem_32x32/clk (ram_32x32)
                                                         0.000      2.857 r
  library setup time                                    -0.533      2.324
  data required time                                                2.324
  --------------------------------------------------------------------------
  data required time                                                2.324
  data arrival time                                                -2.302
  --------------------------------------------------------------------------
  slack (MET)                                                       0.023


  Startpoint: datamem/scheduler/addr_b_conv/clk_r_REG2151_S1
              (rising edge-triggered flip-flop clocked by clk)
  Endpoint: datamem/dmem_2/cacti_mem_0/mem_32x32
            (rising edge-triggered flip-flop clocked by clk)
  Path Group: clk
  Path Type: max

  Point                                                   Incr       Path
  --------------------------------------------------------------------------
  clock clk (rise edge)                                  0.000      0.000
  clock network delay (ideal)                            0.010      0.010
  datamem/scheduler/addr_b_conv/clk_r_REG2151_S1/CP (C8T28SOIDV_LL_DFPRQX10_P16)
                                                         0.000      0.010 r
  datamem/scheduler/addr_b_conv/clk_r_REG2151_S1/Q (C8T28SOIDV_LL_DFPRQX10_P16)
                                                         0.078      0.088 r
  datamem/scheduler/addr_b_conv/en_out[1]_BAR (ser_par_conv_portw14_port_cnt2_0)
                                                         0.000      0.088 r
  datamem/scheduler/U3/Z (C8T28SOI_LL_NOR2AX4_P16)       0.333 *    0.420 r
  datamem/scheduler/U54/Z (C8T28SOI_LL_BFX5_P16)         0.208 *    0.629 r
  datamem/scheduler/U57/Z (C8T28SOI_LL_IVX3_P16)         0.078 *    0.707 f
  datamem/scheduler/U192/Z (C8T28SOI_LL_AOI22X2_P16)     0.067 *    0.774 r
  datamem/scheduler/U193/Z (C8T28SOI_LL_IVX3_P16)        0.037 *    0.811 f
  datamem/scheduler/addr[17] (par_mem_scheduler_dataw32_addrw14_ports2_rd_delay1)
                                                         0.000      0.811 f
  datamem/par_mem_logic_inst/addrs_from_lsus[17] (par_mem_logic_PORTS2_LSU_ADDRW14_CTRLW1_DATAW32_PM_FUNC2)
                                                         0.000      0.811 f
  datamem/par_mem_logic_inst/addr_crsbar_0/addrs_from_lsus[17] (addr_crsbar_PORTS2_LSU_ADDRW14_CTRLW1_PM_FUNC2)
                                                         0.000      0.811 f
  datamem/par_mem_logic_inst/addr_crsbar_0/U21/Z (C8T28SOI_LL_AOI22X2_P16)
                                                         0.087 *    0.898 r
  datamem/par_mem_logic_inst/addr_crsbar_0/U23/Z (C8T28SOIDV_LLS_XNOR2X4_P16)
                                                         0.072 *    0.969 r
  datamem/par_mem_logic_inst/addr_crsbar_0/U24/Z (C8T28SOI_LL_NAND2X2_P16)
                                                         0.027 *    0.996 f
  datamem/par_mem_logic_inst/addr_crsbar_0/U25/Z (C8T28SOI_LL_OAI12X3_P16)
                                                         0.034 *    1.031 r
  datamem/par_mem_logic_inst/addr_crsbar_0/U30/Z (C8T28SOIDV_LLS_XNOR2X4_P16)
                                                         0.045 *    1.076 r
  datamem/par_mem_logic_inst/addr_crsbar_0/U31/Z (C8T28SOI_LL_NAND2X2_P16)
                                                         0.025 *    1.101 f
  datamem/par_mem_logic_inst/addr_crsbar_0/U32/Z (C8T28SOI_LL_OAI12X3_P16)
                                                         0.033 *    1.134 r
  datamem/par_mem_logic_inst/addr_crsbar_0/U33/Z (C8T28SOIDV_LLS_XNOR2X4_P16)
                                                         0.046 *    1.180 r
  datamem/par_mem_logic_inst/addr_crsbar_0/U34/Z (C8T28SOI_LL_NAND2X2_P16)
                                                         0.026 *    1.206 f
  datamem/par_mem_logic_inst/addr_crsbar_0/U35/Z (C8T28SOI_LL_OAI12X3_P16)
                                                         0.036 *    1.243 r
  datamem/par_mem_logic_inst/addr_crsbar_0/U36/Z (C8T28SOIDV_LLS_XNOR2X4_P16)
                                                         0.049 *    1.292 r
  datamem/par_mem_logic_inst/addr_crsbar_0/U37/Z (C8T28SOI_LL_NAND2X2_P16)
                                                         0.031 *    1.323 f
  datamem/par_mem_logic_inst/addr_crsbar_0/U38/Z (C8T28SOI_LL_OAI12X3_P16)
                                                         0.041 *    1.364 r
  datamem/par_mem_logic_inst/addr_crsbar_0/module_nums[1] (addr_crsbar_PORTS2_LSU_ADDRW14_CTRLW1_PM_FUNC2)
                                                         0.000      1.364 r
  datamem/par_mem_logic_inst/ctrl_units_0/module_nums[1] (ctrl_units_PORTS2_CTRLW1)
                                                         0.000      1.364 r
  datamem/par_mem_logic_inst/ctrl_units_0/ctrl_uniti_1/module_num[0] (ctrl_unit_PORTS2_CTRLW1_0)
                                                         0.000      1.364 r
  datamem/par_mem_logic_inst/ctrl_units_0/ctrl_uniti_1/U2/Z (C8T28SOI_LL_IVX3_P16)
                                                         0.033 *    1.397 f
  datamem/par_mem_logic_inst/ctrl_units_0/ctrl_uniti_1/U23/Z (C8T28SOI_LL_AND2X5_P16)
                                                         0.042 *    1.439 f
  datamem/par_mem_logic_inst/ctrl_units_0/ctrl_uniti_1/ctrl_matrix_row_out[0] (ctrl_unit_PORTS2_CTRLW1_0)
                                                         0.000      1.439 f
  datamem/par_mem_logic_inst/ctrl_units_0/ctrl_uniti_0/t_ctrl_matrix_row_in[1] (ctrl_unit_PORTS2_CTRLW1_1)
                                                         0.000      1.439 f
  datamem/par_mem_logic_inst/ctrl_units_0/ctrl_uniti_0/U3/Z (C8T28SOI_LL_NAND2X4_P16)
                                                         0.026 *    1.464 r
  datamem/par_mem_logic_inst/ctrl_units_0/ctrl_uniti_0/addr_mux_ctrl[0] (ctrl_unit_PORTS2_CTRLW1_1)
                                                         0.000      1.464 r
  datamem/par_mem_logic_inst/ctrl_units_0/addr_mux_ctrls[0] (ctrl_units_PORTS2_CTRLW1)
                                                         0.000      1.464 r
  datamem/par_mem_logic_inst/U5/Z (C8T28SOI_LL_IVX3_P16)
                                                         0.071 *    1.535 f
  datamem/par_mem_logic_inst/addr_crsbar_0/ctrl[0] (addr_crsbar_PORTS2_LSU_ADDRW14_CTRLW1_PM_FUNC2)
                                                         0.000      1.535 f
  datamem/par_mem_logic_inst/addr_crsbar_0/U42/Z (C8T28SOI_LL_IVX3_P16)
                                                         0.118 *    1.653 r
  datamem/par_mem_logic_inst/addr_crsbar_0/U110/Z (C8T28SOI_LL_AOI22X2_P16)
                                                         0.127 *    1.780 f
  datamem/par_mem_logic_inst/addr_crsbar_0/mem_addrs_out[10] (addr_crsbar_PORTS2_LSU_ADDRW14_CTRLW1_PM_FUNC2)
                                                         0.000      1.780 f
  datamem/par_mem_logic_inst/addrs_to_mems[10] (par_mem_logic_PORTS2_LSU_ADDRW14_CTRLW1_DATAW32_PM_FUNC2)
                                                         0.000      1.780 f
  datamem/dmem_2/addr[10] (synch_singleport_mem_wrapper_DATAW32_ADDRW13_0)
                                                         0.000      1.780 f
  datamem/dmem_2/en_wr_arbiter/addr[10] (block_en_wr_arbiter_ADDRW13_NBLOCKS9_0)
                                                         0.000      1.780 f
  datamem/dmem_2/en_wr_arbiter/U9/Z (C8T28SOI_LL_NOR3X3_P16)
                                                         0.120 *    1.900 r
  datamem/dmem_2/en_wr_arbiter/U10/Z (C8T28SOI_LL_NOR2AX4_P16)
                                                         0.088 *    1.988 r
  datamem/dmem_2/en_wr_arbiter/U11/Z (C8T28SOI_LL_NOR2AX4_P16)
                                                         0.079 *    2.066 r
  datamem/dmem_2/en_wr_arbiter/U12/Z (C8T28SOI_LL_NOR2AX4_P16)
                                                         0.080 *    2.146 r
  datamem/dmem_2/en_wr_arbiter/U13/Z (C8T28SOI_LL_NOR2AX4_P16)
                                                         0.094 *    2.239 r
  datamem/dmem_2/en_wr_arbiter/U24/Z (C8T28SOI_LL_NAND3X3_P16)
                                                         0.072 *    2.312 f
  datamem/dmem_2/en_wr_arbiter/en_blocks[0] (block_en_wr_arbiter_ADDRW13_NBLOCKS9_0)
                                                         0.000      2.312 f
  datamem/dmem_2/cacti_mem_0/en_x (cacti_mem_wrapper_DATAW32_ADDRW5_1)
                                                         0.000      2.312 f
  datamem/dmem_2/cacti_mem_0/mem_32x32/mem_en_x (ram_32x32)
                                                         0.000 *    2.312 f
  data arrival time                                                 2.312

  clock clk (rise edge)                                  2.857      2.857
  clock network delay (ideal)                            0.010      2.867
  clock uncertainty                                     -0.010      2.857
  datamem/dmem_2/cacti_mem_0/mem_32x32/clk (ram_32x32)
                                                         0.000      2.857 r
  library setup time                                    -0.522      2.335
  data required time                                                2.335
  --------------------------------------------------------------------------
  data required time                                                2.335
  data arrival time                                                -2.312
  --------------------------------------------------------------------------
  slack (MET)                                                       0.023


  Startpoint: datamem/scheduler/addr_b_conv/clk_r_REG2151_S1
              (rising edge-triggered flip-flop clocked by clk)
  Endpoint: datamem/dmem_2/cacti_mem_x_1/mem_32x32
            (rising edge-triggered flip-flop clocked by clk)
  Path Group: clk
  Path Type: max

  Point                                                   Incr       Path
  --------------------------------------------------------------------------
  clock clk (rise edge)                                  0.000      0.000
  clock network delay (ideal)                            0.010      0.010
  datamem/scheduler/addr_b_conv/clk_r_REG2151_S1/CP (C8T28SOIDV_LL_DFPRQX10_P16)
                                                         0.000      0.010 r
  datamem/scheduler/addr_b_conv/clk_r_REG2151_S1/Q (C8T28SOIDV_LL_DFPRQX10_P16)
                                                         0.078      0.088 r
  datamem/scheduler/addr_b_conv/en_out[1]_BAR (ser_par_conv_portw14_port_cnt2_0)
                                                         0.000      0.088 r
  datamem/scheduler/U3/Z (C8T28SOI_LL_NOR2AX4_P16)       0.333 *    0.420 r
  datamem/scheduler/U54/Z (C8T28SOI_LL_BFX5_P16)         0.208 *    0.629 r
  datamem/scheduler/U57/Z (C8T28SOI_LL_IVX3_P16)         0.078 *    0.707 f
  datamem/scheduler/U192/Z (C8T28SOI_LL_AOI22X2_P16)     0.067 *    0.774 r
  datamem/scheduler/U193/Z (C8T28SOI_LL_IVX3_P16)        0.037 *    0.811 f
  datamem/scheduler/addr[17] (par_mem_scheduler_dataw32_addrw14_ports2_rd_delay1)
                                                         0.000      0.811 f
  datamem/par_mem_logic_inst/addrs_from_lsus[17] (par_mem_logic_PORTS2_LSU_ADDRW14_CTRLW1_DATAW32_PM_FUNC2)
                                                         0.000      0.811 f
  datamem/par_mem_logic_inst/addr_crsbar_0/addrs_from_lsus[17] (addr_crsbar_PORTS2_LSU_ADDRW14_CTRLW1_PM_FUNC2)
                                                         0.000      0.811 f
  datamem/par_mem_logic_inst/addr_crsbar_0/U21/Z (C8T28SOI_LL_AOI22X2_P16)
                                                         0.087 *    0.898 r
  datamem/par_mem_logic_inst/addr_crsbar_0/U23/Z (C8T28SOIDV_LLS_XNOR2X4_P16)
                                                         0.072 *    0.969 r
  datamem/par_mem_logic_inst/addr_crsbar_0/U24/Z (C8T28SOI_LL_NAND2X2_P16)
                                                         0.027 *    0.996 f
  datamem/par_mem_logic_inst/addr_crsbar_0/U25/Z (C8T28SOI_LL_OAI12X3_P16)
                                                         0.034 *    1.031 r
  datamem/par_mem_logic_inst/addr_crsbar_0/U30/Z (C8T28SOIDV_LLS_XNOR2X4_P16)
                                                         0.045 *    1.076 r
  datamem/par_mem_logic_inst/addr_crsbar_0/U31/Z (C8T28SOI_LL_NAND2X2_P16)
                                                         0.025 *    1.101 f
  datamem/par_mem_logic_inst/addr_crsbar_0/U32/Z (C8T28SOI_LL_OAI12X3_P16)
                                                         0.033 *    1.134 r
  datamem/par_mem_logic_inst/addr_crsbar_0/U33/Z (C8T28SOIDV_LLS_XNOR2X4_P16)
                                                         0.046 *    1.180 r
  datamem/par_mem_logic_inst/addr_crsbar_0/U34/Z (C8T28SOI_LL_NAND2X2_P16)
                                                         0.026 *    1.206 f
  datamem/par_mem_logic_inst/addr_crsbar_0/U35/Z (C8T28SOI_LL_OAI12X3_P16)
                                                         0.036 *    1.243 r
  datamem/par_mem_logic_inst/addr_crsbar_0/U36/Z (C8T28SOIDV_LLS_XNOR2X4_P16)
                                                         0.049 *    1.292 r
  datamem/par_mem_logic_inst/addr_crsbar_0/U37/Z (C8T28SOI_LL_NAND2X2_P16)
                                                         0.031 *    1.323 f
  datamem/par_mem_logic_inst/addr_crsbar_0/U38/Z (C8T28SOI_LL_OAI12X3_P16)
                                                         0.041 *    1.364 r
  datamem/par_mem_logic_inst/addr_crsbar_0/module_nums[1] (addr_crsbar_PORTS2_LSU_ADDRW14_CTRLW1_PM_FUNC2)
                                                         0.000      1.364 r
  datamem/par_mem_logic_inst/ctrl_units_0/module_nums[1] (ctrl_units_PORTS2_CTRLW1)
                                                         0.000      1.364 r
  datamem/par_mem_logic_inst/ctrl_units_0/ctrl_uniti_1/module_num[0] (ctrl_unit_PORTS2_CTRLW1_0)
                                                         0.000      1.364 r
  datamem/par_mem_logic_inst/ctrl_units_0/ctrl_uniti_1/U2/Z (C8T28SOI_LL_IVX3_P16)
                                                         0.033 *    1.397 f
  datamem/par_mem_logic_inst/ctrl_units_0/ctrl_uniti_1/U23/Z (C8T28SOI_LL_AND2X5_P16)
                                                         0.042 *    1.439 f
  datamem/par_mem_logic_inst/ctrl_units_0/ctrl_uniti_1/ctrl_matrix_row_out[0] (ctrl_unit_PORTS2_CTRLW1_0)
                                                         0.000      1.439 f
  datamem/par_mem_logic_inst/ctrl_units_0/ctrl_uniti_0/t_ctrl_matrix_row_in[1] (ctrl_unit_PORTS2_CTRLW1_1)
                                                         0.000      1.439 f
  datamem/par_mem_logic_inst/ctrl_units_0/ctrl_uniti_0/U3/Z (C8T28SOI_LL_NAND2X4_P16)
                                                         0.026 *    1.464 r
  datamem/par_mem_logic_inst/ctrl_units_0/ctrl_uniti_0/addr_mux_ctrl[0] (ctrl_unit_PORTS2_CTRLW1_1)
                                                         0.000      1.464 r
  datamem/par_mem_logic_inst/ctrl_units_0/addr_mux_ctrls[0] (ctrl_units_PORTS2_CTRLW1)
                                                         0.000      1.464 r
  datamem/par_mem_logic_inst/U5/Z (C8T28SOI_LL_IVX3_P16)
                                                         0.071 *    1.535 f
  datamem/par_mem_logic_inst/addr_crsbar_0/ctrl[0] (addr_crsbar_PORTS2_LSU_ADDRW14_CTRLW1_PM_FUNC2)
                                                         0.000      1.535 f
  datamem/par_mem_logic_inst/addr_crsbar_0/U42/Z (C8T28SOI_LL_IVX3_P16)
                                                         0.118 *    1.653 r
  datamem/par_mem_logic_inst/addr_crsbar_0/U110/Z (C8T28SOI_LL_AOI22X2_P16)
                                                         0.127 *    1.780 f
  datamem/par_mem_logic_inst/addr_crsbar_0/mem_addrs_out[10] (addr_crsbar_PORTS2_LSU_ADDRW14_CTRLW1_PM_FUNC2)
                                                         0.000      1.780 f
  datamem/par_mem_logic_inst/addrs_to_mems[10] (par_mem_logic_PORTS2_LSU_ADDRW14_CTRLW1_DATAW32_PM_FUNC2)
                                                         0.000      1.780 f
  datamem/dmem_2/addr[10] (synch_singleport_mem_wrapper_DATAW32_ADDRW13_0)
                                                         0.000      1.780 f
  datamem/dmem_2/en_wr_arbiter/addr[10] (block_en_wr_arbiter_ADDRW13_NBLOCKS9_0)
                                                         0.000      1.780 f
  datamem/dmem_2/en_wr_arbiter/U9/Z (C8T28SOI_LL_NOR3X3_P16)
                                                         0.120 *    1.900 r
  datamem/dmem_2/en_wr_arbiter/U10/Z (C8T28SOI_LL_NOR2AX4_P16)
                                                         0.088 *    1.988 r
  datamem/dmem_2/en_wr_arbiter/U11/Z (C8T28SOI_LL_NOR2AX4_P16)
                                                         0.079 *    2.066 r
  datamem/dmem_2/en_wr_arbiter/U12/Z (C8T28SOI_LL_NOR2AX4_P16)
                                                         0.080 *    2.146 r
  datamem/dmem_2/en_wr_arbiter/U13/Z (C8T28SOI_LL_NOR2AX4_P16)
                                                         0.094 *    2.239 r
  datamem/dmem_2/en_wr_arbiter/U14/Z (C8T28SOI_LL_NAND3X7_P16)
                                                         0.062 *    2.301 f
  datamem/dmem_2/en_wr_arbiter/en_blocks[1] (block_en_wr_arbiter_ADDRW13_NBLOCKS9_0)
                                                         0.000      2.301 f
  datamem/dmem_2/cacti_mem_x_1/en_x (cacti_mem_wrapper_DATAW32_ADDRW5_0)
                                                         0.000      2.301 f
  datamem/dmem_2/cacti_mem_x_1/mem_32x32/mem_en_x (ram_32x32)
                                                         0.000 *    2.301 f
  data arrival time                                                 2.301

  clock clk (rise edge)                                  2.857      2.857
  clock network delay (ideal)                            0.010      2.867
  clock uncertainty                                     -0.010      2.857
  datamem/dmem_2/cacti_mem_x_1/mem_32x32/clk (ram_32x32)
                                                         0.000      2.857 r
  library setup time                                    -0.530      2.327
  data required time                                                2.327
  --------------------------------------------------------------------------
  data required time                                                2.327
  data arrival time                                                -2.301
  --------------------------------------------------------------------------
  slack (MET)                                                       0.025


  Startpoint: datamem/scheduler/addr_b_conv/clk_r_REG2151_S1
              (rising edge-triggered flip-flop clocked by clk)
  Endpoint: datamem/dmem_2/cacti_mem_0/mem_32x32
            (rising edge-triggered flip-flop clocked by clk)
  Path Group: clk
  Path Type: max

  Point                                                   Incr       Path
  --------------------------------------------------------------------------
  clock clk (rise edge)                                  0.000      0.000
  clock network delay (ideal)                            0.010      0.010
  datamem/scheduler/addr_b_conv/clk_r_REG2151_S1/CP (C8T28SOIDV_LL_DFPRQX10_P16)
                                                         0.000      0.010 r
  datamem/scheduler/addr_b_conv/clk_r_REG2151_S1/Q (C8T28SOIDV_LL_DFPRQX10_P16)
                                                         0.078      0.088 r
  datamem/scheduler/addr_b_conv/en_out[1]_BAR (ser_par_conv_portw14_port_cnt2_0)
                                                         0.000      0.088 r
  datamem/scheduler/U3/Z (C8T28SOI_LL_NOR2AX4_P16)       0.333 *    0.420 r
  datamem/scheduler/U54/Z (C8T28SOI_LL_BFX5_P16)         0.208 *    0.629 r
  datamem/scheduler/U57/Z (C8T28SOI_LL_IVX3_P16)         0.078 *    0.707 f
  datamem/scheduler/U192/Z (C8T28SOI_LL_AOI22X2_P16)     0.067 *    0.774 r
  datamem/scheduler/U193/Z (C8T28SOI_LL_IVX3_P16)        0.037 *    0.811 f
  datamem/scheduler/addr[17] (par_mem_scheduler_dataw32_addrw14_ports2_rd_delay1)
                                                         0.000      0.811 f
  datamem/par_mem_logic_inst/addrs_from_lsus[17] (par_mem_logic_PORTS2_LSU_ADDRW14_CTRLW1_DATAW32_PM_FUNC2)
                                                         0.000      0.811 f
  datamem/par_mem_logic_inst/addr_crsbar_0/addrs_from_lsus[17] (addr_crsbar_PORTS2_LSU_ADDRW14_CTRLW1_PM_FUNC2)
                                                         0.000      0.811 f
  datamem/par_mem_logic_inst/addr_crsbar_0/U21/Z (C8T28SOI_LL_AOI22X2_P16)
                                                         0.087 *    0.898 r
  datamem/par_mem_logic_inst/addr_crsbar_0/U23/Z (C8T28SOIDV_LLS_XNOR2X4_P16)
                                                         0.072 *    0.969 r
  datamem/par_mem_logic_inst/addr_crsbar_0/U24/Z (C8T28SOI_LL_NAND2X2_P16)
                                                         0.027 *    0.996 f
  datamem/par_mem_logic_inst/addr_crsbar_0/U25/Z (C8T28SOI_LL_OAI12X3_P16)
                                                         0.034 *    1.031 r
  datamem/par_mem_logic_inst/addr_crsbar_0/U30/Z (C8T28SOIDV_LLS_XNOR2X4_P16)
                                                         0.045 *    1.076 r
  datamem/par_mem_logic_inst/addr_crsbar_0/U31/Z (C8T28SOI_LL_NAND2X2_P16)
                                                         0.025 *    1.101 f
  datamem/par_mem_logic_inst/addr_crsbar_0/U32/Z (C8T28SOI_LL_OAI12X3_P16)
                                                         0.033 *    1.134 r
  datamem/par_mem_logic_inst/addr_crsbar_0/U33/Z (C8T28SOIDV_LLS_XNOR2X4_P16)
                                                         0.046 *    1.180 r
  datamem/par_mem_logic_inst/addr_crsbar_0/U34/Z (C8T28SOI_LL_NAND2X2_P16)
                                                         0.026 *    1.206 f
  datamem/par_mem_logic_inst/addr_crsbar_0/U35/Z (C8T28SOI_LL_OAI12X3_P16)
                                                         0.036 *    1.243 r
  datamem/par_mem_logic_inst/addr_crsbar_0/U36/Z (C8T28SOIDV_LLS_XNOR2X4_P16)
                                                         0.049 *    1.292 r
  datamem/par_mem_logic_inst/addr_crsbar_0/U37/Z (C8T28SOI_LL_NAND2X2_P16)
                                                         0.031 *    1.323 f
  datamem/par_mem_logic_inst/addr_crsbar_0/U38/Z (C8T28SOI_LL_OAI12X3_P16)
                                                         0.041 *    1.364 r
  datamem/par_mem_logic_inst/addr_crsbar_0/module_nums[1] (addr_crsbar_PORTS2_LSU_ADDRW14_CTRLW1_PM_FUNC2)
                                                         0.000      1.364 r
  datamem/par_mem_logic_inst/ctrl_units_0/module_nums[1] (ctrl_units_PORTS2_CTRLW1)
                                                         0.000      1.364 r
  datamem/par_mem_logic_inst/ctrl_units_0/ctrl_uniti_1/module_num[0] (ctrl_unit_PORTS2_CTRLW1_0)
                                                         0.000      1.364 r
  datamem/par_mem_logic_inst/ctrl_units_0/ctrl_uniti_1/U2/Z (C8T28SOI_LL_IVX3_P16)
                                                         0.033 *    1.397 f
  datamem/par_mem_logic_inst/ctrl_units_0/ctrl_uniti_1/U23/Z (C8T28SOI_LL_AND2X5_P16)
                                                         0.042 *    1.439 f
  datamem/par_mem_logic_inst/ctrl_units_0/ctrl_uniti_1/ctrl_matrix_row_out[0] (ctrl_unit_PORTS2_CTRLW1_0)
                                                         0.000      1.439 f
  datamem/par_mem_logic_inst/ctrl_units_0/ctrl_uniti_0/t_ctrl_matrix_row_in[1] (ctrl_unit_PORTS2_CTRLW1_1)
                                                         0.000      1.439 f
  datamem/par_mem_logic_inst/ctrl_units_0/ctrl_uniti_0/U3/Z (C8T28SOI_LL_NAND2X4_P16)
                                                         0.026 *    1.464 r
  datamem/par_mem_logic_inst/ctrl_units_0/ctrl_uniti_0/addr_mux_ctrl[0] (ctrl_unit_PORTS2_CTRLW1_1)
                                                         0.000      1.464 r
  datamem/par_mem_logic_inst/ctrl_units_0/addr_mux_ctrls[0] (ctrl_units_PORTS2_CTRLW1)
                                                         0.000      1.464 r
  datamem/par_mem_logic_inst/U5/Z (C8T28SOI_LL_IVX3_P16)
                                                         0.071 *    1.535 f
  datamem/par_mem_logic_inst/addr_crsbar_0/ctrl[0] (addr_crsbar_PORTS2_LSU_ADDRW14_CTRLW1_PM_FUNC2)
                                                         0.000      1.535 f
  datamem/par_mem_logic_inst/addr_crsbar_0/U42/Z (C8T28SOI_LL_IVX3_P16)
                                                         0.118 *    1.653 r
  datamem/par_mem_logic_inst/addr_crsbar_0/U110/Z (C8T28SOI_LL_AOI22X2_P16)
                                                         0.127 *    1.780 f
  datamem/par_mem_logic_inst/addr_crsbar_0/mem_addrs_out[10] (addr_crsbar_PORTS2_LSU_ADDRW14_CTRLW1_PM_FUNC2)
                                                         0.000      1.780 f
  datamem/par_mem_logic_inst/addrs_to_mems[10] (par_mem_logic_PORTS2_LSU_ADDRW14_CTRLW1_DATAW32_PM_FUNC2)
                                                         0.000      1.780 f
  datamem/dmem_2/addr[10] (synch_singleport_mem_wrapper_DATAW32_ADDRW13_0)
                                                         0.000      1.780 f
  datamem/dmem_2/en_wr_arbiter/addr[10] (block_en_wr_arbiter_ADDRW13_NBLOCKS9_0)
                                                         0.000      1.780 f
  datamem/dmem_2/en_wr_arbiter/U9/Z (C8T28SOI_LL_NOR3X3_P16)
                                                         0.120 *    1.900 r
  datamem/dmem_2/en_wr_arbiter/U10/Z (C8T28SOI_LL_NOR2AX4_P16)
                                                         0.088 *    1.988 r
  datamem/dmem_2/en_wr_arbiter/U11/Z (C8T28SOI_LL_NOR2AX4_P16)
                                                         0.079 *    2.066 r
  datamem/dmem_2/en_wr_arbiter/U12/Z (C8T28SOI_LL_NOR2AX4_P16)
                                                         0.080 *    2.146 r
  datamem/dmem_2/en_wr_arbiter/U13/Z (C8T28SOI_LL_NOR2AX4_P16)
                                                         0.094 *    2.239 r
  datamem/dmem_2/en_wr_arbiter/U16/Z (C8T28SOI_LL_NAND3X3_P16)
                                                         0.067 *    2.306 f
  datamem/dmem_2/en_wr_arbiter/wr_blocks[0] (block_en_wr_arbiter_ADDRW13_NBLOCKS9_0)
                                                         0.000      2.306 f
  datamem/dmem_2/cacti_mem_0/wr_x (cacti_mem_wrapper_DATAW32_ADDRW5_1)
                                                         0.000      2.306 f
  datamem/dmem_2/cacti_mem_0/mem_32x32/wr_en_x (ram_32x32)
                                                         0.000 *    2.306 f
  data arrival time                                                 2.306

  clock clk (rise edge)                                  2.857      2.857
  clock network delay (ideal)                            0.010      2.867
  clock uncertainty                                     -0.010      2.857
  datamem/dmem_2/cacti_mem_0/mem_32x32/clk (ram_32x32)
                                                         0.000      2.857 r
  library setup time                                    -0.520      2.337
  data required time                                                2.337
  --------------------------------------------------------------------------
  data required time                                                2.337
  data arrival time                                                -2.306
  --------------------------------------------------------------------------
  slack (MET)                                                       0.031


  Startpoint: core/inst_decoder/clk_r_REG1954_S29
              (rising edge-triggered flip-flop clocked by clk)
  Endpoint: core/fu_CMUL/fu_arch/clk_r_REG968_S14
            (rising edge-triggered flip-flop clocked by clk)
  Path Group: clk
  Path Type: max

  Point                                                   Incr       Path
  --------------------------------------------------------------------------
  clock clk (rise edge)                                  0.000      0.000
  clock network delay (ideal)                            0.010      0.010
  core/inst_decoder/clk_r_REG1954_S29/CP (C8T28SOIDV_LL_DFPRQX10_P16)
                                                         0.000      0.010 r
  core/inst_decoder/clk_r_REG1954_S29/Q (C8T28SOIDV_LL_DFPRQX10_P16)
                                                         0.131      0.141 r
  core/inst_decoder/socket_TFG_o1_bus_cntrl[0] (tta0_decoder)
                                                         0.000      0.141 r
  core/ic/socket_TFG_o1_bus_cntrl[0] (tta0_interconn)    0.000      0.141 r
  core/ic/TFG_o1/databus_cntrl[0] (tta0_output_socket_cons_1_1_BUSW_032_DATAW_032_2)
                                                         0.000      0.141 r
  core/ic/TFG_o1/U22/Z (C8T28SOI_LL_AND2X5_P16)          0.069 *    0.211 r
  core/ic/TFG_o1/databus0_alt[9] (tta0_output_socket_cons_1_1_BUSW_032_DATAW_032_2)
                                                         0.000      0.211 r
  core/ic/CMUL_i1/databus0[9] (tta0_input_socket_cons_1_BUSW_032_DATAW32_10)
                                                         0.000      0.211 r
  core/ic/CMUL_i1/U13/Z (C8T28SOI_LL_BFX5_P16)           0.025 *    0.236 r
  core/ic/CMUL_i1/data[9] (tta0_input_socket_cons_1_BUSW_032_DATAW32_10)
                                                         0.000      0.236 r
  core/ic/socket_CMUL_i1_data[9] (tta0_interconn)        0.000      0.236 r
  U279/Z (C8T28SOI_LL_BFX5_P16)                          0.104 *    0.341 r
  core/fu_CMUL/t1data[9] (fu_cmul_always_3_dataw32_busw32)
                                                         0.000      0.341 r
  core/fu_CMUL/fu_arch/A[9] (cmul_pipe_1_dataw32_halfw16)
                                                         0.000      0.341 r
  core/fu_CMUL/fu_arch/U47/Z (C8T28SOI_LL_BFX13_P16)     0.103 *    0.444 r
  core/fu_CMUL/fu_arch/U50/Z (C8T28SOI_LL_IVX5_P16)      0.067 *    0.511 f
  core/fu_CMUL/fu_arch/U1108/Z (C8T28SOI_LL_AOI22X2_P16)
                                                         0.246 *    0.757 r
  core/fu_CMUL/fu_arch/U1112/Z (C8T28SOI_LL_OAI211X3_P16)
                                                         0.252 *    1.009 f
  core/fu_CMUL/fu_arch/U1787/Z (C8T28SOI_LL_CBI4I6X3_P16)
                                                         0.121 *    1.130 r
  core/fu_CMUL/fu_arch/U1829/S0 (C8T28SOIDV_LL_FA1X5_P16)
                                                         0.120 *    1.250 f
  core/fu_CMUL/fu_arch/U1867/S0 (C8T28SOIDV_LL_FA1X5_P16)
                                                         0.078 *    1.329 f
  core/fu_CMUL/fu_arch/U1913/S0 (C8T28SOIDV_LL_FA1X5_P16)
                                                         0.099 *    1.427 r
  core/fu_CMUL/fu_arch/U1914/S0 (C8T28SOIDV_LL_FA1X5_P16)
                                                         0.078 *    1.505 f
  core/fu_CMUL/fu_arch/U2030/Z (C8T28SOI_LL_PAO2X5_P16)
                                                         0.060 *    1.565 f
  core/fu_CMUL/fu_arch/U2031/Z (C8T28SOIDV_LL_PAO2X10_P16)
                                                         0.050 *    1.615 f
  core/fu_CMUL/fu_arch/U2032/Z (C8T28SOI_LL_PAO2X5_P16)
                                                         0.052 *    1.668 f
  core/fu_CMUL/fu_arch/U2033/Z (C8T28SOIDV_LL_PAO2X10_P16)
                                                         0.054 *    1.721 f
  core/fu_CMUL/fu_arch/U2059/CO (C8T28SOIDV_LL_FA1X5_P16)
                                                         0.065 *    1.786 f
  core/fu_CMUL/fu_arch/U2046/CO (C8T28SOIDV_LLS1_FA1X4_P16)
                                                         0.048 *    1.834 f
  core/fu_CMUL/fu_arch/U2045/CO (C8T28SOIDV_LL_FA1X5_P16)
                                                         0.071 *    1.904 f
  core/fu_CMUL/fu_arch/U2044/CO (C8T28SOIDV_LL_FA1X5_P16)
                                                         0.070 *    1.974 f
  core/fu_CMUL/fu_arch/U2043/CO (C8T28SOIDV_LL_FA1X5_P16)
                                                         0.074 *    2.049 f
  core/fu_CMUL/fu_arch/U2042/CO (C8T28SOIDV_LL_FA1X5_P16)
                                                         0.071 *    2.120 f
  core/fu_CMUL/fu_arch/U2041/CO (C8T28SOIDV_LLS1_FA1X4_P16)
                                                         0.047 *    2.167 f
  core/fu_CMUL/fu_arch/U2040/CO (C8T28SOIDV_LL_FA1X5_P16)
                                                         0.072 *    2.238 f
  core/fu_CMUL/fu_arch/U2039/CO (C8T28SOIDV_LLS1_FA1X4_P16)
                                                         0.048 *    2.287 f
  core/fu_CMUL/fu_arch/U2038/CO (C8T28SOIDV_LL_FA1X5_P16)
                                                         0.070 *    2.357 f
  core/fu_CMUL/fu_arch/U2037/CO (C8T28SOIDV_LLS1_FA1X4_P16)
                                                         0.047 *    2.404 f
  core/fu_CMUL/fu_arch/U2036/CO (C8T28SOIDV_LL_FA1X5_P16)
                                                         0.071 *    2.475 f
  core/fu_CMUL/fu_arch/U2035/S0 (C8T28SOIDV_LL_FA1X5_P16)
                                                         0.096 *    2.571 r
  core/fu_CMUL/fu_arch/U2048/CO (C8T28SOI_LL_HA1X5_P16)
                                                         0.050 *    2.620 r
  core/fu_CMUL/fu_arch/U2047/CO (C8T28SOI_LL_HA1X5_P16)
                                                         0.046 *    2.666 r
  core/fu_CMUL/fu_arch/U2065/CO (C8T28SOI_LL_HA1X5_P16)
                                                         0.046 *    2.712 r
  core/fu_CMUL/fu_arch/U2069/S0 (C8T28SOI_LL_HA1X5_P16)
                                                         0.072 *    2.784 f
  core/fu_CMUL/fu_arch/clk_r_REG968_S14/D (C8T28SOIDV_LL_DFPRQX10_P16)
                                                         0.000 *    2.784 f
  data arrival time                                                 2.784

  clock clk (rise edge)                                  2.857      2.857
  clock network delay (ideal)                            0.010      2.867
  clock uncertainty                                     -0.010      2.857
  core/fu_CMUL/fu_arch/clk_r_REG968_S14/CP (C8T28SOIDV_LL_DFPRQX10_P16)
                                                         0.000      2.857 r
  library setup time                                    -0.039      2.818
  data required time                                                2.818
  --------------------------------------------------------------------------
  data required time                                                2.818
  data arrival time                                                -2.784
  --------------------------------------------------------------------------
  slack (MET)                                                       0.035


  Startpoint: core/inst_decoder/clk_r_REG1954_S29
              (rising edge-triggered flip-flop clocked by clk)
  Endpoint: core/fu_CMUL/fu_arch/clk_r_REG978_S14
            (rising edge-triggered flip-flop clocked by clk)
  Path Group: clk
  Path Type: max

  Point                                                   Incr       Path
  --------------------------------------------------------------------------
  clock clk (rise edge)                                  0.000      0.000
  clock network delay (ideal)                            0.010      0.010
  core/inst_decoder/clk_r_REG1954_S29/CP (C8T28SOIDV_LL_DFPRQX10_P16)
                                                         0.000      0.010 r
  core/inst_decoder/clk_r_REG1954_S29/Q (C8T28SOIDV_LL_DFPRQX10_P16)
                                                         0.131      0.141 r
  core/inst_decoder/socket_TFG_o1_bus_cntrl[0] (tta0_decoder)
                                                         0.000      0.141 r
  core/ic/socket_TFG_o1_bus_cntrl[0] (tta0_interconn)    0.000      0.141 r
  core/ic/TFG_o1/databus_cntrl[0] (tta0_output_socket_cons_1_1_BUSW_032_DATAW_032_2)
                                                         0.000      0.141 r
  core/ic/TFG_o1/U22/Z (C8T28SOI_LL_AND2X5_P16)          0.069 *    0.211 r
  core/ic/TFG_o1/databus0_alt[9] (tta0_output_socket_cons_1_1_BUSW_032_DATAW_032_2)
                                                         0.000      0.211 r
  core/ic/CMUL_i1/databus0[9] (tta0_input_socket_cons_1_BUSW_032_DATAW32_10)
                                                         0.000      0.211 r
  core/ic/CMUL_i1/U13/Z (C8T28SOI_LL_BFX5_P16)           0.025 *    0.236 r
  core/ic/CMUL_i1/data[9] (tta0_input_socket_cons_1_BUSW_032_DATAW32_10)
                                                         0.000      0.236 r
  core/ic/socket_CMUL_i1_data[9] (tta0_interconn)        0.000      0.236 r
  U279/Z (C8T28SOI_LL_BFX5_P16)                          0.104 *    0.341 r
  core/fu_CMUL/t1data[9] (fu_cmul_always_3_dataw32_busw32)
                                                         0.000      0.341 r
  core/fu_CMUL/fu_arch/A[9] (cmul_pipe_1_dataw32_halfw16)
                                                         0.000      0.341 r
  core/fu_CMUL/fu_arch/U47/Z (C8T28SOI_LL_BFX13_P16)     0.103 *    0.444 r
  core/fu_CMUL/fu_arch/U50/Z (C8T28SOI_LL_IVX5_P16)      0.067 *    0.511 f
  core/fu_CMUL/fu_arch/U1108/Z (C8T28SOI_LL_AOI22X2_P16)
                                                         0.246 *    0.757 r
  core/fu_CMUL/fu_arch/U1112/Z (C8T28SOI_LL_OAI211X3_P16)
                                                         0.252 *    1.009 f
  core/fu_CMUL/fu_arch/U1787/Z (C8T28SOI_LL_CBI4I6X3_P16)
                                                         0.121 *    1.130 r
  core/fu_CMUL/fu_arch/U1829/S0 (C8T28SOIDV_LL_FA1X5_P16)
                                                         0.120 *    1.250 f
  core/fu_CMUL/fu_arch/U1867/S0 (C8T28SOIDV_LL_FA1X5_P16)
                                                         0.078 *    1.329 f
  core/fu_CMUL/fu_arch/U1913/S0 (C8T28SOIDV_LL_FA1X5_P16)
                                                         0.099 *    1.427 r
  core/fu_CMUL/fu_arch/U1914/S0 (C8T28SOIDV_LL_FA1X5_P16)
                                                         0.078 *    1.505 f
  core/fu_CMUL/fu_arch/U2030/Z (C8T28SOI_LL_PAO2X5_P16)
                                                         0.060 *    1.565 f
  core/fu_CMUL/fu_arch/U2031/Z (C8T28SOIDV_LL_PAO2X10_P16)
                                                         0.050 *    1.615 f
  core/fu_CMUL/fu_arch/U2032/Z (C8T28SOI_LL_PAO2X5_P16)
                                                         0.052 *    1.668 f
  core/fu_CMUL/fu_arch/U2033/Z (C8T28SOIDV_LL_PAO2X10_P16)
                                                         0.054 *    1.721 f
  core/fu_CMUL/fu_arch/U2059/CO (C8T28SOIDV_LL_FA1X5_P16)
                                                         0.065 *    1.786 f
  core/fu_CMUL/fu_arch/U2046/CO (C8T28SOIDV_LLS1_FA1X4_P16)
                                                         0.048 *    1.834 f
  core/fu_CMUL/fu_arch/U2045/CO (C8T28SOIDV_LL_FA1X5_P16)
                                                         0.071 *    1.904 f
  core/fu_CMUL/fu_arch/U2044/CO (C8T28SOIDV_LL_FA1X5_P16)
                                                         0.070 *    1.974 f
  core/fu_CMUL/fu_arch/U2043/CO (C8T28SOIDV_LL_FA1X5_P16)
                                                         0.074 *    2.049 f
  core/fu_CMUL/fu_arch/U2042/CO (C8T28SOIDV_LL_FA1X5_P16)
                                                         0.071 *    2.120 f
  core/fu_CMUL/fu_arch/U2041/CO (C8T28SOIDV_LLS1_FA1X4_P16)
                                                         0.047 *    2.167 f
  core/fu_CMUL/fu_arch/U2040/CO (C8T28SOIDV_LL_FA1X5_P16)
                                                         0.072 *    2.238 f
  core/fu_CMUL/fu_arch/U2039/CO (C8T28SOIDV_LLS1_FA1X4_P16)
                                                         0.048 *    2.287 f
  core/fu_CMUL/fu_arch/U2038/CO (C8T28SOIDV_LL_FA1X5_P16)
                                                         0.070 *    2.357 f
  core/fu_CMUL/fu_arch/U2037/CO (C8T28SOIDV_LLS1_FA1X4_P16)
                                                         0.047 *    2.404 f
  core/fu_CMUL/fu_arch/U2036/CO (C8T28SOIDV_LL_FA1X5_P16)
                                                         0.071 *    2.475 f
  core/fu_CMUL/fu_arch/U2035/S0 (C8T28SOIDV_LL_FA1X5_P16)
                                                         0.096 *    2.571 r
  core/fu_CMUL/fu_arch/U2048/CO (C8T28SOI_LL_HA1X5_P16)
                                                         0.050 *    2.620 r
  core/fu_CMUL/fu_arch/U2047/CO (C8T28SOI_LL_HA1X5_P16)
                                                         0.046 *    2.666 r
  core/fu_CMUL/fu_arch/U2065/CO (C8T28SOI_LL_HA1X5_P16)
                                                         0.046 *    2.712 r
  core/fu_CMUL/fu_arch/U2069/CO (C8T28SOI_LL_HA1X5_P16)
                                                         0.046 *    2.758 r
  core/fu_CMUL/fu_arch/U2071/Z (C8T28SOI_LL_AOI12X3_P16)
                                                         0.016 *    2.774 f
  core/fu_CMUL/fu_arch/clk_r_REG978_S14/D (C8T28SOIDV_LL_DFPRQX10_P16)
                                                         0.000 *    2.774 f
  data arrival time                                                 2.774

  clock clk (rise edge)                                  2.857      2.857
  clock network delay (ideal)                            0.010      2.867
  clock uncertainty                                     -0.010      2.857
  core/fu_CMUL/fu_arch/clk_r_REG978_S14/CP (C8T28SOIDV_LL_DFPRQX10_P16)
                                                         0.000      2.857 r
  library setup time                                    -0.039      2.818
  data required time                                                2.818
  --------------------------------------------------------------------------
  data required time                                                2.818
  data arrival time                                                -2.774
  --------------------------------------------------------------------------
  slack (MET)                                                       0.044


  Startpoint: core/inst_decoder/clk_r_REG1954_S29
              (rising edge-triggered flip-flop clocked by clk)
  Endpoint: core/fu_CMUL/fu_arch/clk_r_REG980_S36
            (rising edge-triggered flip-flop clocked by clk)
  Path Group: clk
  Path Type: max

  Point                                                   Incr       Path
  --------------------------------------------------------------------------
  clock clk (rise edge)                                  0.000      0.000
  clock network delay (ideal)                            0.010      0.010
  core/inst_decoder/clk_r_REG1954_S29/CP (C8T28SOIDV_LL_DFPRQX10_P16)
                                                         0.000      0.010 r
  core/inst_decoder/clk_r_REG1954_S29/Q (C8T28SOIDV_LL_DFPRQX10_P16)
                                                         0.131      0.141 r
  core/inst_decoder/socket_TFG_o1_bus_cntrl[0] (tta0_decoder)
                                                         0.000      0.141 r
  core/ic/socket_TFG_o1_bus_cntrl[0] (tta0_interconn)    0.000      0.141 r
  core/ic/TFG_o1/databus_cntrl[0] (tta0_output_socket_cons_1_1_BUSW_032_DATAW_032_2)
                                                         0.000      0.141 r
  core/ic/TFG_o1/U22/Z (C8T28SOI_LL_AND2X5_P16)          0.069 *    0.211 r
  core/ic/TFG_o1/databus0_alt[9] (tta0_output_socket_cons_1_1_BUSW_032_DATAW_032_2)
                                                         0.000      0.211 r
  core/ic/CMUL_i1/databus0[9] (tta0_input_socket_cons_1_BUSW_032_DATAW32_10)
                                                         0.000      0.211 r
  core/ic/CMUL_i1/U13/Z (C8T28SOI_LL_BFX5_P16)           0.025 *    0.236 r
  core/ic/CMUL_i1/data[9] (tta0_input_socket_cons_1_BUSW_032_DATAW32_10)
                                                         0.000      0.236 r
  core/ic/socket_CMUL_i1_data[9] (tta0_interconn)        0.000      0.236 r
  U279/Z (C8T28SOI_LL_BFX5_P16)                          0.104 *    0.341 r
  core/fu_CMUL/t1data[9] (fu_cmul_always_3_dataw32_busw32)
                                                         0.000      0.341 r
  core/fu_CMUL/fu_arch/A[9] (cmul_pipe_1_dataw32_halfw16)
                                                         0.000      0.341 r
  core/fu_CMUL/fu_arch/U47/Z (C8T28SOI_LL_BFX13_P16)     0.103 *    0.444 r
  core/fu_CMUL/fu_arch/U50/Z (C8T28SOI_LL_IVX5_P16)      0.067 *    0.511 f
  core/fu_CMUL/fu_arch/U1108/Z (C8T28SOI_LL_AOI22X2_P16)
                                                         0.246 *    0.757 r
  core/fu_CMUL/fu_arch/U1112/Z (C8T28SOI_LL_OAI211X3_P16)
                                                         0.252 *    1.009 f
  core/fu_CMUL/fu_arch/U1787/Z (C8T28SOI_LL_CBI4I6X3_P16)
                                                         0.121 *    1.130 r
  core/fu_CMUL/fu_arch/U1829/S0 (C8T28SOIDV_LL_FA1X5_P16)
                                                         0.120 *    1.250 f
  core/fu_CMUL/fu_arch/U1867/S0 (C8T28SOIDV_LL_FA1X5_P16)
                                                         0.078 *    1.329 f
  core/fu_CMUL/fu_arch/U1913/S0 (C8T28SOIDV_LL_FA1X5_P16)
                                                         0.099 *    1.427 r
  core/fu_CMUL/fu_arch/U1914/S0 (C8T28SOIDV_LL_FA1X5_P16)
                                                         0.078 *    1.505 f
  core/fu_CMUL/fu_arch/U2030/Z (C8T28SOI_LL_PAO2X5_P16)
                                                         0.060 *    1.565 f
  core/fu_CMUL/fu_arch/U2031/Z (C8T28SOIDV_LL_PAO2X10_P16)
                                                         0.050 *    1.615 f
  core/fu_CMUL/fu_arch/U2032/Z (C8T28SOI_LL_PAO2X5_P16)
                                                         0.052 *    1.668 f
  core/fu_CMUL/fu_arch/U2033/Z (C8T28SOIDV_LL_PAO2X10_P16)
                                                         0.054 *    1.721 f
  core/fu_CMUL/fu_arch/U2059/CO (C8T28SOIDV_LL_FA1X5_P16)
                                                         0.065 *    1.786 f
  core/fu_CMUL/fu_arch/U2046/CO (C8T28SOIDV_LLS1_FA1X4_P16)
                                                         0.048 *    1.834 f
  core/fu_CMUL/fu_arch/U2045/CO (C8T28SOIDV_LL_FA1X5_P16)
                                                         0.071 *    1.904 f
  core/fu_CMUL/fu_arch/U2044/CO (C8T28SOIDV_LL_FA1X5_P16)
                                                         0.070 *    1.974 f
  core/fu_CMUL/fu_arch/U2043/CO (C8T28SOIDV_LL_FA1X5_P16)
                                                         0.074 *    2.049 f
  core/fu_CMUL/fu_arch/U2042/CO (C8T28SOIDV_LL_FA1X5_P16)
                                                         0.071 *    2.120 f
  core/fu_CMUL/fu_arch/U2041/CO (C8T28SOIDV_LLS1_FA1X4_P16)
                                                         0.047 *    2.167 f
  core/fu_CMUL/fu_arch/U2040/CO (C8T28SOIDV_LL_FA1X5_P16)
                                                         0.072 *    2.238 f
  core/fu_CMUL/fu_arch/U2039/CO (C8T28SOIDV_LLS1_FA1X4_P16)
                                                         0.048 *    2.287 f
  core/fu_CMUL/fu_arch/U2038/CO (C8T28SOIDV_LL_FA1X5_P16)
                                                         0.070 *    2.357 f
  core/fu_CMUL/fu_arch/U2037/CO (C8T28SOIDV_LLS1_FA1X4_P16)
                                                         0.047 *    2.404 f
  core/fu_CMUL/fu_arch/U2036/CO (C8T28SOIDV_LL_FA1X5_P16)
                                                         0.071 *    2.475 f
  core/fu_CMUL/fu_arch/U2035/CO (C8T28SOIDV_LL_FA1X5_P16)
                                                         0.068 *    2.543 f
  core/fu_CMUL/fu_arch/U2034/CO (C8T28SOIDV_LLS1_FA1X4_P16)
                                                         0.047 *    2.591 f
  core/fu_CMUL/fu_arch/U2064/CO (C8T28SOIDV_LLS1_FA1X4_P16)
                                                         0.050 *    2.641 f
  core/fu_CMUL/fu_arch/U2068/CO (C8T28SOIDV_LLS1_FA1X4_P16)
                                                         0.050 *    2.691 f
  core/fu_CMUL/fu_arch/U2070/CO (C8T28SOIDV_LLS1_FA1X4_P16)
                                                         0.047 *    2.738 f
  core/fu_CMUL/fu_arch/U2072/Z (C8T28SOI_LL_IVX3_P16)    0.024 *    2.761 r
  core/fu_CMUL/fu_arch/clk_r_REG980_S36/D (C8T28SOIDV_LL_DFPRQX10_P16)
                                                         0.000 *    2.761 r
  data arrival time                                                 2.761

  clock clk (rise edge)                                  2.857      2.857
  clock network delay (ideal)                            0.010      2.867
  clock uncertainty                                     -0.010      2.857
  core/fu_CMUL/fu_arch/clk_r_REG980_S36/CP (C8T28SOIDV_LL_DFPRQX10_P16)
                                                         0.000      2.857 r
  library setup time                                    -0.025      2.832
  data required time                                                2.832
  --------------------------------------------------------------------------
  data required time                                                2.832
  data arrival time                                                -2.761
  --------------------------------------------------------------------------
  slack (MET)                                                       0.071


  Startpoint: core/inst_decoder/clk_r_REG1954_S29
              (rising edge-triggered flip-flop clocked by clk)
  Endpoint: core/fu_CMUL/fu_arch/DP_OP_25J13_122_449/clk_r_REG594_S14
            (rising edge-triggered flip-flop clocked by clk)
  Path Group: clk
  Path Type: max

  Point                                                   Incr       Path
  --------------------------------------------------------------------------
  clock clk (rise edge)                                  0.000      0.000
  clock network delay (ideal)                            0.010      0.010
  core/inst_decoder/clk_r_REG1954_S29/CP (C8T28SOIDV_LL_DFPRQX10_P16)
                                                         0.000      0.010 r
  core/inst_decoder/clk_r_REG1954_S29/Q (C8T28SOIDV_LL_DFPRQX10_P16)
                                                         0.131      0.141 r
  core/inst_decoder/socket_TFG_o1_bus_cntrl[0] (tta0_decoder)
                                                         0.000      0.141 r
  core/ic/socket_TFG_o1_bus_cntrl[0] (tta0_interconn)    0.000      0.141 r
  core/ic/TFG_o1/databus_cntrl[0] (tta0_output_socket_cons_1_1_BUSW_032_DATAW_032_2)
                                                         0.000      0.141 r
  core/ic/TFG_o1/U10/Z (C8T28SOI_LL_AND2X5_P16)          0.069 *    0.211 r
  core/ic/TFG_o1/databus0_alt[3] (tta0_output_socket_cons_1_1_BUSW_032_DATAW_032_2)
                                                         0.000      0.211 r
  core/ic/CMUL_i1/databus0[3] (tta0_input_socket_cons_1_BUSW_032_DATAW32_10)
                                                         0.000      0.211 r
  core/ic/CMUL_i1/U23/Z (C8T28SOI_LL_BFX5_P16)           0.025 *    0.236 r
  core/ic/CMUL_i1/data[3] (tta0_input_socket_cons_1_BUSW_032_DATAW32_10)
                                                         0.000      0.236 r
  core/ic/socket_CMUL_i1_data[3] (tta0_interconn)        0.000      0.236 r
  U284/Z (C8T28SOI_LL_BFX5_P16)                          0.091 *    0.327 r
  core/fu_CMUL/t1data[3] (fu_cmul_always_3_dataw32_busw32)
                                                         0.000      0.327 r
  core/fu_CMUL/fu_arch/A[3] (cmul_pipe_1_dataw32_halfw16)
                                                         0.000      0.327 r
  core/fu_CMUL/fu_arch/U110/Z (C8T28SOI_LL_BFX13_P16)    0.095 *    0.421 r
  core/fu_CMUL/fu_arch/U111/Z (C8T28SOI_LL_IVX3_P16)     0.077 *    0.498 f
  core/fu_CMUL/fu_arch/U274/Z (C8T28SOI_LL_AOI22X6_P16)
                                                         0.126 *    0.624 r
  core/fu_CMUL/fu_arch/U278/Z (C8T28SOI_LL_OAI211X3_P16)
                                                         0.166 *    0.790 f
  core/fu_CMUL/fu_arch/U952/Z (C8T28SOI_LL_OAI22X3_P16)
                                                         0.115 *    0.904 r
  core/fu_CMUL/fu_arch/U967/S0 (C8T28SOIDV_LL_FA1X5_P16)
                                                         0.108 *    1.013 f
  core/fu_CMUL/fu_arch/U981/S0 (C8T28SOIDV_LL_FA1X5_P16)
                                                         0.095 *    1.108 r
  core/fu_CMUL/fu_arch/U982/S0 (C8T28SOIDV_LL_FA1X5_P16)
                                                         0.077 *    1.185 f
  core/fu_CMUL/fu_arch/U1011/Z (C8T28SOI_LL_PAO2X5_P16)
                                                         0.059 *    1.244 f
  core/fu_CMUL/fu_arch/U1012/Z (C8T28SOI_LL_PAO2X5_P16)
                                                         0.056 *    1.300 f
  core/fu_CMUL/fu_arch/U1013/Z (C8T28SOI_LL_PAO2X5_P16)
                                                         0.056 *    1.356 f
  core/fu_CMUL/fu_arch/U1014/Z (C8T28SOI_LL_PAO2X5_P16)
                                                         0.059 *    1.415 f
  core/fu_CMUL/fu_arch/U1015/Z (C8T28SOI_LL_PAO2X5_P16)
                                                         0.053 *    1.468 f
  core/fu_CMUL/fu_arch/U1016/Z (C8T28SOI_LL_PAO2X5_P16)
                                                         0.052 *    1.521 f
  core/fu_CMUL/fu_arch/U1017/Z (C8T28SOI_LL_PAO2X5_P16)
                                                         0.054 *    1.575 f
  core/fu_CMUL/fu_arch/U1018/Z (C8T28SOI_LL_PAO2X5_P16)
                                                         0.054 *    1.629 f
  core/fu_CMUL/fu_arch/U1019/Z (C8T28SOI_LL_PAO2X5_P16)
                                                         0.056 *    1.685 f
  core/fu_CMUL/fu_arch/U1020/Z (C8T28SOIDV_LL_PAO2X10_P16)
                                                         0.055 *    1.740 f
  core/fu_CMUL/fu_arch/U1037/CO (C8T28SOIDV_LL_FA1X5_P16)
                                                         0.065 *    1.805 f
  core/fu_CMUL/fu_arch/U1036/CO (C8T28SOIDV_LL_FA1X9_P16)
                                                         0.068 *    1.873 f
  core/fu_CMUL/fu_arch/U1035/CO (C8T28SOIDV_LL_FA1X5_P16)
                                                         0.067 *    1.940 f
  core/fu_CMUL/fu_arch/U1034/CO (C8T28SOIDV_LLS1_FA1X4_P16)
                                                         0.048 *    1.989 f
  core/fu_CMUL/fu_arch/U1033/CO (C8T28SOIDV_LL_FA1X5_P16)
                                                         0.071 *    2.059 f
  core/fu_CMUL/fu_arch/U1032/CO (C8T28SOIDV_LLS1_FA1X4_P16)
                                                         0.048 *    2.108 f
  core/fu_CMUL/fu_arch/U1031/CO (C8T28SOIDV_LL_FA1X5_P16)
                                                         0.070 *    2.178 f
  core/fu_CMUL/fu_arch/U1030/CO (C8T28SOIDV_LLS1_FA1X4_P16)
                                                         0.048 *    2.226 f
  core/fu_CMUL/fu_arch/U1029/CO (C8T28SOIDV_LL_FA1X5_P16)
                                                         0.070 *    2.297 f
  core/fu_CMUL/fu_arch/U1028/CO (C8T28SOIDV_LLS1_FA1X4_P16)
                                                         0.047 *    2.344 f
  core/fu_CMUL/fu_arch/U1027/CO (C8T28SOIDV_LL_FA1X5_P16)
                                                         0.070 *    2.413 f
  core/fu_CMUL/fu_arch/U1026/CO (C8T28SOIDV_LLS1_FA1X4_P16)
                                                         0.047 *    2.460 f
  core/fu_CMUL/fu_arch/U1025/CO (C8T28SOIDV_LL_FA1X5_P16)
                                                         0.069 *    2.530 f
  core/fu_CMUL/fu_arch/U1024/CO (C8T28SOIDV_LL_FA1X5_P16)
                                                         0.068 *    2.598 f
  core/fu_CMUL/fu_arch/U1023/CO (C8T28SOIDV_LL_FA1X5_P16)
                                                         0.068 *    2.666 f
  core/fu_CMUL/fu_arch/U1022/S0 (C8T28SOIDV_LL_FA1X5_P16)
                                                         0.091 *    2.757 r
  core/fu_CMUL/fu_arch/DP_OP_25J13_122_449/clk_r_REG594_S14/D (C8T28SOIDV_LL_DFPRQX10_P16)
                                                         0.000 *    2.757 r
  data arrival time                                                 2.757

  clock clk (rise edge)                                  2.857      2.857
  clock network delay (ideal)                            0.010      2.867
  clock uncertainty                                     -0.010      2.857
  core/fu_CMUL/fu_arch/DP_OP_25J13_122_449/clk_r_REG594_S14/CP (C8T28SOIDV_LL_DFPRQX10_P16)
                                                         0.000      2.857 r
  library setup time                                    -0.024      2.833
  data required time                                                2.833
  --------------------------------------------------------------------------
  data required time                                                2.833
  data arrival time                                                -2.757
  --------------------------------------------------------------------------
  slack (MET)                                                       0.076


1
