Warning: There are 105 switching activity information conflicts. (PWR-19)
 
****************************************
Report : saif
Design : proc
Version: M-2016.12-SP5-1
Date   : Fri Jul 27 19:17:26 2018
****************************************

  

--------------------------------------------------------------------------------
              User              Default           Propagated
Object type   Annotated (%)     Activity (%)      Activity (%)       Total
--------------------------------------------------------------------------------
  
 Nets         269(76.86%)       0(0.00%)          81(23.14%)         350
 Ports        229(100.00%)      0(0.00%)          0(0.00%)           229
 Pins         202(40.56%)       0(0.00%)          296(59.44%)        498
--------------------------------------------------------------------------------
1
