Warning: There are 93 switching activity information conflicts. (PWR-19)
 
****************************************
Report : saif
Design : proc
Version: M-2016.12-SP5-1
Date   : Sat Jul 28 03:54:06 2018
****************************************

  

--------------------------------------------------------------------------------
              User              Default           Propagated
Object type   Annotated (%)     Activity (%)      Activity (%)       Total
--------------------------------------------------------------------------------
  
 Nets         279(65.65%)       0(0.00%)          146(34.35%)        425
 Ports        229(100.00%)      0(0.00%)          0(0.00%)           229
 Pins         217(31.77%)       0(0.00%)          466(68.23%)        683
--------------------------------------------------------------------------------
1
