Warning: There are 90 switching activity information conflicts. (PWR-19)
 
****************************************
Report : saif
Design : proc
Version: M-2016.12-SP5-1
Date   : Sun Jul 29 09:30:47 2018
****************************************

  

--------------------------------------------------------------------------------
              User              Default           Propagated
Object type   Annotated (%)     Activity (%)      Activity (%)       Total
--------------------------------------------------------------------------------
  
 Nets         284(63.82%)       0(0.00%)          161(36.18%)        445
 Ports        229(100.00%)      0(0.00%)          0(0.00%)           229
 Pins         257(38.24%)       0(0.00%)          415(61.76%)        672
--------------------------------------------------------------------------------
1
