Warning: There are 100 switching activity information conflicts. (PWR-19)
 
****************************************
Report : saif
Design : proc
Version: M-2016.12-SP5-1
Date   : Fri Jul 27 18:24:29 2018
****************************************

  

--------------------------------------------------------------------------------
              User              Default           Propagated
Object type   Annotated (%)     Activity (%)      Activity (%)       Total
--------------------------------------------------------------------------------
  
 Nets         287(75.53%)       0(0.00%)          93(24.47%)         380
 Ports        229(100.00%)      0(0.00%)          0(0.00%)           229
 Pins         218(41.52%)       0(0.00%)          307(58.48%)        525
--------------------------------------------------------------------------------
1
