Warning: There are 98 switching activity information conflicts. (PWR-19)
 
****************************************
Report : saif
Design : proc
Version: M-2016.12-SP5-1
Date   : Fri Jul 27 20:49:23 2018
****************************************

  

--------------------------------------------------------------------------------
              User              Default           Propagated
Object type   Annotated (%)     Activity (%)      Activity (%)       Total
--------------------------------------------------------------------------------
  
 Nets         269(74.31%)       0(0.00%)          93(25.69%)         362
 Ports        229(100.00%)      0(0.00%)          0(0.00%)           229
 Pins         208(39.47%)       0(0.00%)          319(60.53%)        527
--------------------------------------------------------------------------------
1
