Warning: There are 91 switching activity information conflicts. (PWR-19)
 
****************************************
Report : saif
Design : proc
Version: M-2016.12-SP5-1
Date   : Sun Jul 29 03:51:55 2018
****************************************

  

--------------------------------------------------------------------------------
              User              Default           Propagated
Object type   Annotated (%)     Activity (%)      Activity (%)       Total
--------------------------------------------------------------------------------
  
 Nets         287(65.23%)       0(0.00%)          153(34.77%)        440
 Ports        229(100.00%)      0(0.00%)          0(0.00%)           229
 Pins         239(34.29%)       0(0.00%)          458(65.71%)        697
--------------------------------------------------------------------------------
1
