Information: Updating design information... (UID-85)
 
****************************************
Report : timing
        -path full
        -delay max
        -max_paths 10
Design : proc
Version: M-2016.12-SP5-1
Date   : Sun Jul 29 03:51:32 2018
****************************************

 * Some/all delay information is back-annotated.

Operating Conditions: tt28_1.10V_0.00V_0.00V_0.00V_25C   Library: C28SOI_SC_8_CLK_LL
Wire Load Model Mode: Inactive.

  Startpoint: core/loopbuffer/clk_r_REG624_S42
              (rising edge-triggered flip-flop clocked by clk)
  Endpoint: datamem/dmem_2/cacti_mem_x_8/mem_4096x32
            (rising edge-triggered flip-flop clocked by clk)
  Path Group: clk
  Path Type: max

  Point                                                   Incr       Path
  --------------------------------------------------------------------------
  clock clk (rise edge)                                  0.000      0.000
  clock network delay (ideal)                            0.010      0.010
  core/loopbuffer/clk_r_REG624_S42/CP (C8T28SOIDV_LL_DFPRQX10_P16)
                                                         0.000      0.010 r
  core/loopbuffer/clk_r_REG624_S42/Q (C8T28SOIDV_LL_DFPRQX10_P16)
                                                         0.056      0.066 r
  core/loopbuffer/U31/Z (C8T28SOI_LL_NOR2X4_P16)         0.013 *    0.079 f
  core/loopbuffer/U32/Z (C8T28SOI_LL_IVX2_P16)           0.029 *    0.108 r
  core/loopbuffer/U36/Z (C8T28SOI_LL_AOI22X2_P16)        0.112 *    0.219 f
  core/loopbuffer/U19/Z (C8T28SOI_LL_BFX5_P16)           0.112 *    0.331 f
  core/loopbuffer/U20/Z (C8T28SOI_LL_IVX2_P16)           0.129 *    0.460 r
  core/loopbuffer/U605/Z (C8T28SOI_LL_OA22X5_P16)        0.089 *    0.549 r
  core/loopbuffer/glock_out (tta0_loopbuf_1_32_51_1_0)
                                                         0.000      0.549 r
  core/inst_decoder/lock (tta0_decoder)                  0.000      0.549 r
  core/inst_decoder/U63/Z (C8T28SOI_LL_NOR2X4_P16)       0.022 *    0.570 f
  core/inst_decoder/U64/Z (C8T28SOI_LL_NAND2AX2_P16)     0.026 *    0.596 r
  core/inst_decoder/glock[7] (tta0_decoder)              0.000      0.596 r
  U292/Z (C8T28SOI_LL_BFX9_P16)                          0.115 *    0.712 r
  core/fu_lsu_r/glock (fu_ldw_stw_always_4_dataw32_addrw16_1)
                                                         0.000      0.712 r
  core/fu_lsu_r/U131/Z (C8T28SOI_LL_OR2X5_P16)           0.082 *    0.794 r
  core/fu_lsu_r/mem_en_x[0] (fu_ldw_stw_always_4_dataw32_addrw16_1)
                                                         0.000      0.794 r
  U159/Z (C8T28SOI_LL_NOR2AX4_P16)                       0.280 *    1.074 r
  U296/Z (C8T28SOI_LL_BFX5_P16)                          0.161 *    1.235 r
  U297/Z (C8T28SOI_LL_IVX2_P16)                          0.072 *    1.307 f
  U246/Z (C8T28SOI_LL_AOI22X2_P16)                       0.042 *    1.349 r
  U247/Z (C8T28SOI_LL_IVX2_P16)                          0.015 *    1.364 f
  datamem/scheduler/lsu_addr_a[5] (par_mem_scheduler_dataw32_addrw14_ports2_rd_delay1)
                                                         0.000      1.364 f
  datamem/scheduler/addr_a_conv/data_in[5] (ser_par_conv_portw14_port_cnt2_1)
                                                         0.000      1.364 f
  datamem/scheduler/addr_a_conv/U18/Z (C8T28SOI_LL_IVX2_P16)
                                                         0.015 *    1.380 r
  datamem/scheduler/addr_a_conv/U19/Z (C8T28SOI_LL_IVX2_P16)
                                                         0.012 *    1.392 f
  datamem/scheduler/addr_a_conv/data_out[5] (ser_par_conv_portw14_port_cnt2_1)
                                                         0.000      1.392 f
  datamem/scheduler/U177/Z (C8T28SOI_LL_AOI22X2_P16)     0.019 *    1.410 r
  datamem/scheduler/U178/Z (C8T28SOI_LL_IVX2_P16)        0.023 *    1.434 f
  datamem/scheduler/addr[5] (par_mem_scheduler_dataw32_addrw14_ports2_rd_delay1)
                                                         0.000      1.434 f
  datamem/par_mem_logic_inst/addrs_from_lsus[5] (par_mem_logic_PORTS2_LSU_ADDRW14_CTRLW1_DATAW32_PM_FUNC2)
                                                         0.000      1.434 f
  datamem/par_mem_logic_inst/addr_crsbar_0/addrs_from_lsus[5] (addr_crsbar_PORTS2_LSU_ADDRW14_CTRLW1_PM_FUNC2)
                                                         0.000      1.434 f
  datamem/par_mem_logic_inst/addr_crsbar_0/U64/Z (C8T28SOI_LL_AOI22X2_P16)
                                                         0.051 *    1.485 r
  datamem/par_mem_logic_inst/addr_crsbar_0/U66/Z (C8T28SOIDV_LLS_XNOR2X4_P16)
                                                         0.043 *    1.528 r
  datamem/par_mem_logic_inst/addr_crsbar_0/U67/Z (C8T28SOIDV_LLS_XNOR3X1_P16)
                                                         0.047 *    1.575 r
  datamem/par_mem_logic_inst/addr_crsbar_0/U74/Z (C8T28SOI_LL_NAND2X2_P16)
                                                         0.026 *    1.601 f
  datamem/par_mem_logic_inst/addr_crsbar_0/U75/Z (C8T28SOI_LL_OAI12X3_P16)
                                                         0.020 *    1.621 r
  datamem/par_mem_logic_inst/addr_crsbar_0/U76/Z (C8T28SOIDV_LLS_XNOR2X4_P16)
                                                         0.031 *    1.653 r
  datamem/par_mem_logic_inst/addr_crsbar_0/U81/Z (C8T28SOIDV_LLS_XNOR2X4_P16)
                                                         0.025 *    1.678 f
  datamem/par_mem_logic_inst/addr_crsbar_0/module_nums[0] (addr_crsbar_PORTS2_LSU_ADDRW14_CTRLW1_PM_FUNC2)
                                                         0.000      1.678 f
  datamem/par_mem_logic_inst/ctrl_units_0/module_nums[0] (ctrl_units_PORTS2_CTRLW1)
                                                         0.000      1.678 f
  datamem/par_mem_logic_inst/ctrl_units_0/ctrl_uniti_0/module_num[0] (ctrl_unit_PORTS2_CTRLW1_1)
                                                         0.000      1.678 f
  datamem/par_mem_logic_inst/ctrl_units_0/ctrl_uniti_0/U12/Z (C8T28SOI_LL_NOR2AX4_P16)
                                                         0.026 *    1.704 r
  datamem/par_mem_logic_inst/ctrl_units_0/ctrl_uniti_0/U13/Z (C8T28SOI_LL_AOI22X2_P16)
                                                         0.019 *    1.723 f
  datamem/par_mem_logic_inst/ctrl_units_0/ctrl_uniti_0/U19/Z (C8T28SOI_LL_AND2X5_P16)
                                                         0.033 *    1.757 f
  datamem/par_mem_logic_inst/ctrl_units_0/ctrl_uniti_0/mem_en_x (ctrl_unit_PORTS2_CTRLW1_1)
                                                         0.000      1.757 f
  datamem/par_mem_logic_inst/ctrl_units_0/U18/Z (C8T28SOI_LL_NAND2AX2_P16)
                                                         0.049 *    1.806 f
  datamem/par_mem_logic_inst/ctrl_units_0/mem_en_xs[0] (ctrl_units_PORTS2_CTRLW1)
                                                         0.000      1.806 f
  datamem/par_mem_logic_inst/mem_en_xs[0] (par_mem_logic_PORTS2_LSU_ADDRW14_CTRLW1_DATAW32_PM_FUNC2)
                                                         0.000      1.806 f
  datamem/dmem_2/en_x (synch_singleport_mem_wrapper_DATAW32_ADDRW13_0)
                                                         0.000      1.806 f
  datamem/dmem_2/en_wr_arbiter/en (block_en_wr_arbiter_ADDRW13_NBLOCKS9_0)
                                                         0.000      1.806 f
  datamem/dmem_2/en_wr_arbiter/U6/Z (C8T28SOI_LL_IVX2_P16)
                                                         0.087 *    1.892 r
  datamem/dmem_2/en_wr_arbiter/U8/Z (C8T28SOI_LL_NAND2X2_P16)
                                                         0.080 *    1.972 f
  datamem/dmem_2/en_wr_arbiter/en_blocks[8] (block_en_wr_arbiter_ADDRW13_NBLOCKS9_0)
                                                         0.000      1.972 f
  datamem/dmem_2/cacti_mem_x_8/en_x (cacti_mem_wrapper_DATAW32_ADDRW12_0)
                                                         0.000      1.972 f
  datamem/dmem_2/cacti_mem_x_8/mem_4096x32/mem_en_x (ram_4096x32)
                                                         0.000 *    1.972 f
  data arrival time                                                 1.972

  clock clk (rise edge)                                 20.000     20.000
  clock network delay (ideal)                            0.010     20.010
  clock uncertainty                                     -0.010     20.000
  datamem/dmem_2/cacti_mem_x_8/mem_4096x32/clk (ram_4096x32)
                                                         0.000     20.000 r
  library setup time                                    -0.532     19.468
  data required time                                               19.468
  --------------------------------------------------------------------------
  data required time                                               19.468
  data arrival time                                                -1.972
  --------------------------------------------------------------------------
  slack (MET)                                                      17.495


  Startpoint: core/loopbuffer/clk_r_REG624_S42
              (rising edge-triggered flip-flop clocked by clk)
  Endpoint: datamem/dmem_2/cacti_mem_x_6/mem_1024x32
            (rising edge-triggered flip-flop clocked by clk)
  Path Group: clk
  Path Type: max

  Point                                                   Incr       Path
  --------------------------------------------------------------------------
  clock clk (rise edge)                                  0.000      0.000
  clock network delay (ideal)                            0.010      0.010
  core/loopbuffer/clk_r_REG624_S42/CP (C8T28SOIDV_LL_DFPRQX10_P16)
                                                         0.000      0.010 r
  core/loopbuffer/clk_r_REG624_S42/Q (C8T28SOIDV_LL_DFPRQX10_P16)
                                                         0.056      0.066 r
  core/loopbuffer/U31/Z (C8T28SOI_LL_NOR2X4_P16)         0.013 *    0.079 f
  core/loopbuffer/U32/Z (C8T28SOI_LL_IVX2_P16)           0.029 *    0.108 r
  core/loopbuffer/U36/Z (C8T28SOI_LL_AOI22X2_P16)        0.112 *    0.219 f
  core/loopbuffer/U19/Z (C8T28SOI_LL_BFX5_P16)           0.112 *    0.331 f
  core/loopbuffer/U20/Z (C8T28SOI_LL_IVX2_P16)           0.129 *    0.460 r
  core/loopbuffer/U605/Z (C8T28SOI_LL_OA22X5_P16)        0.089 *    0.549 r
  core/loopbuffer/glock_out (tta0_loopbuf_1_32_51_1_0)
                                                         0.000      0.549 r
  core/inst_decoder/lock (tta0_decoder)                  0.000      0.549 r
  core/inst_decoder/U63/Z (C8T28SOI_LL_NOR2X4_P16)       0.022 *    0.570 f
  core/inst_decoder/U64/Z (C8T28SOI_LL_NAND2AX2_P16)     0.026 *    0.596 r
  core/inst_decoder/glock[7] (tta0_decoder)              0.000      0.596 r
  U292/Z (C8T28SOI_LL_BFX9_P16)                          0.115 *    0.712 r
  core/fu_lsu_r/glock (fu_ldw_stw_always_4_dataw32_addrw16_1)
                                                         0.000      0.712 r
  core/fu_lsu_r/U131/Z (C8T28SOI_LL_OR2X5_P16)           0.082 *    0.794 r
  core/fu_lsu_r/mem_en_x[0] (fu_ldw_stw_always_4_dataw32_addrw16_1)
                                                         0.000      0.794 r
  U159/Z (C8T28SOI_LL_NOR2AX4_P16)                       0.280 *    1.074 r
  U296/Z (C8T28SOI_LL_BFX5_P16)                          0.161 *    1.235 r
  U297/Z (C8T28SOI_LL_IVX2_P16)                          0.072 *    1.307 f
  U246/Z (C8T28SOI_LL_AOI22X2_P16)                       0.042 *    1.349 r
  U247/Z (C8T28SOI_LL_IVX2_P16)                          0.015 *    1.364 f
  datamem/scheduler/lsu_addr_a[5] (par_mem_scheduler_dataw32_addrw14_ports2_rd_delay1)
                                                         0.000      1.364 f
  datamem/scheduler/addr_a_conv/data_in[5] (ser_par_conv_portw14_port_cnt2_1)
                                                         0.000      1.364 f
  datamem/scheduler/addr_a_conv/U18/Z (C8T28SOI_LL_IVX2_P16)
                                                         0.015 *    1.380 r
  datamem/scheduler/addr_a_conv/U19/Z (C8T28SOI_LL_IVX2_P16)
                                                         0.012 *    1.392 f
  datamem/scheduler/addr_a_conv/data_out[5] (ser_par_conv_portw14_port_cnt2_1)
                                                         0.000      1.392 f
  datamem/scheduler/U177/Z (C8T28SOI_LL_AOI22X2_P16)     0.019 *    1.410 r
  datamem/scheduler/U178/Z (C8T28SOI_LL_IVX2_P16)        0.023 *    1.434 f
  datamem/scheduler/addr[5] (par_mem_scheduler_dataw32_addrw14_ports2_rd_delay1)
                                                         0.000      1.434 f
  datamem/par_mem_logic_inst/addrs_from_lsus[5] (par_mem_logic_PORTS2_LSU_ADDRW14_CTRLW1_DATAW32_PM_FUNC2)
                                                         0.000      1.434 f
  datamem/par_mem_logic_inst/addr_crsbar_0/addrs_from_lsus[5] (addr_crsbar_PORTS2_LSU_ADDRW14_CTRLW1_PM_FUNC2)
                                                         0.000      1.434 f
  datamem/par_mem_logic_inst/addr_crsbar_0/U64/Z (C8T28SOI_LL_AOI22X2_P16)
                                                         0.051 *    1.485 r
  datamem/par_mem_logic_inst/addr_crsbar_0/U66/Z (C8T28SOIDV_LLS_XNOR2X4_P16)
                                                         0.043 *    1.528 r
  datamem/par_mem_logic_inst/addr_crsbar_0/U67/Z (C8T28SOIDV_LLS_XNOR3X1_P16)
                                                         0.047 *    1.575 r
  datamem/par_mem_logic_inst/addr_crsbar_0/U74/Z (C8T28SOI_LL_NAND2X2_P16)
                                                         0.026 *    1.601 f
  datamem/par_mem_logic_inst/addr_crsbar_0/U75/Z (C8T28SOI_LL_OAI12X3_P16)
                                                         0.020 *    1.621 r
  datamem/par_mem_logic_inst/addr_crsbar_0/U76/Z (C8T28SOIDV_LLS_XNOR2X4_P16)
                                                         0.031 *    1.653 r
  datamem/par_mem_logic_inst/addr_crsbar_0/U81/Z (C8T28SOIDV_LLS_XNOR2X4_P16)
                                                         0.025 *    1.678 f
  datamem/par_mem_logic_inst/addr_crsbar_0/module_nums[0] (addr_crsbar_PORTS2_LSU_ADDRW14_CTRLW1_PM_FUNC2)
                                                         0.000      1.678 f
  datamem/par_mem_logic_inst/ctrl_units_0/module_nums[0] (ctrl_units_PORTS2_CTRLW1)
                                                         0.000      1.678 f
  datamem/par_mem_logic_inst/ctrl_units_0/ctrl_uniti_0/module_num[0] (ctrl_unit_PORTS2_CTRLW1_1)
                                                         0.000      1.678 f
  datamem/par_mem_logic_inst/ctrl_units_0/ctrl_uniti_0/U12/Z (C8T28SOI_LL_NOR2AX4_P16)
                                                         0.026 *    1.704 r
  datamem/par_mem_logic_inst/ctrl_units_0/ctrl_uniti_0/U13/Z (C8T28SOI_LL_AOI22X2_P16)
                                                         0.019 *    1.723 f
  datamem/par_mem_logic_inst/ctrl_units_0/ctrl_uniti_0/U19/Z (C8T28SOI_LL_AND2X5_P16)
                                                         0.033 *    1.757 f
  datamem/par_mem_logic_inst/ctrl_units_0/ctrl_uniti_0/mem_en_x (ctrl_unit_PORTS2_CTRLW1_1)
                                                         0.000      1.757 f
  datamem/par_mem_logic_inst/ctrl_units_0/U18/Z (C8T28SOI_LL_NAND2AX2_P16)
                                                         0.049 *    1.806 f
  datamem/par_mem_logic_inst/ctrl_units_0/mem_en_xs[0] (ctrl_units_PORTS2_CTRLW1)
                                                         0.000      1.806 f
  datamem/par_mem_logic_inst/mem_en_xs[0] (par_mem_logic_PORTS2_LSU_ADDRW14_CTRLW1_DATAW32_PM_FUNC2)
                                                         0.000      1.806 f
  datamem/dmem_2/en_x (synch_singleport_mem_wrapper_DATAW32_ADDRW13_0)
                                                         0.000      1.806 f
  datamem/dmem_2/en_wr_arbiter/en (block_en_wr_arbiter_ADDRW13_NBLOCKS9_0)
                                                         0.000      1.806 f
  datamem/dmem_2/en_wr_arbiter/U6/Z (C8T28SOI_LL_IVX2_P16)
                                                         0.087 *    1.892 r
  datamem/dmem_2/en_wr_arbiter/U7/Z (C8T28SOI_LL_NAND2X2_P16)
                                                         0.074 *    1.967 f
  datamem/dmem_2/en_wr_arbiter/en_blocks[6] (block_en_wr_arbiter_ADDRW13_NBLOCKS9_0)
                                                         0.000      1.967 f
  datamem/dmem_2/cacti_mem_x_6/en_x (cacti_mem_wrapper_DATAW32_ADDRW10_0)
                                                         0.000      1.967 f
  datamem/dmem_2/cacti_mem_x_6/mem_1024x32/mem_en_x (ram_1024x32)
                                                         0.000 *    1.967 f
  data arrival time                                                 1.967

  clock clk (rise edge)                                 20.000     20.000
  clock network delay (ideal)                            0.010     20.010
  clock uncertainty                                     -0.010     20.000
  datamem/dmem_2/cacti_mem_x_6/mem_1024x32/clk (ram_1024x32)
                                                         0.000     20.000 r
  library setup time                                    -0.528     19.472
  data required time                                               19.472
  --------------------------------------------------------------------------
  data required time                                               19.472
  data arrival time                                                -1.967
  --------------------------------------------------------------------------
  slack (MET)                                                      17.505


  Startpoint: core/loopbuffer/clk_r_REG624_S42
              (rising edge-triggered flip-flop clocked by clk)
  Endpoint: datamem/dmem_2/cacti_mem_x_7/mem_2048x32
            (rising edge-triggered flip-flop clocked by clk)
  Path Group: clk
  Path Type: max

  Point                                                   Incr       Path
  --------------------------------------------------------------------------
  clock clk (rise edge)                                  0.000      0.000
  clock network delay (ideal)                            0.010      0.010
  core/loopbuffer/clk_r_REG624_S42/CP (C8T28SOIDV_LL_DFPRQX10_P16)
                                                         0.000      0.010 r
  core/loopbuffer/clk_r_REG624_S42/Q (C8T28SOIDV_LL_DFPRQX10_P16)
                                                         0.056      0.066 r
  core/loopbuffer/U31/Z (C8T28SOI_LL_NOR2X4_P16)         0.013 *    0.079 f
  core/loopbuffer/U32/Z (C8T28SOI_LL_IVX2_P16)           0.029 *    0.108 r
  core/loopbuffer/U36/Z (C8T28SOI_LL_AOI22X2_P16)        0.112 *    0.219 f
  core/loopbuffer/U19/Z (C8T28SOI_LL_BFX5_P16)           0.112 *    0.331 f
  core/loopbuffer/U20/Z (C8T28SOI_LL_IVX2_P16)           0.129 *    0.460 r
  core/loopbuffer/U605/Z (C8T28SOI_LL_OA22X5_P16)        0.089 *    0.549 r
  core/loopbuffer/glock_out (tta0_loopbuf_1_32_51_1_0)
                                                         0.000      0.549 r
  core/inst_decoder/lock (tta0_decoder)                  0.000      0.549 r
  core/inst_decoder/U63/Z (C8T28SOI_LL_NOR2X4_P16)       0.022 *    0.570 f
  core/inst_decoder/U64/Z (C8T28SOI_LL_NAND2AX2_P16)     0.026 *    0.596 r
  core/inst_decoder/glock[7] (tta0_decoder)              0.000      0.596 r
  U292/Z (C8T28SOI_LL_BFX9_P16)                          0.115 *    0.712 r
  core/fu_lsu_r/glock (fu_ldw_stw_always_4_dataw32_addrw16_1)
                                                         0.000      0.712 r
  core/fu_lsu_r/U131/Z (C8T28SOI_LL_OR2X5_P16)           0.082 *    0.794 r
  core/fu_lsu_r/mem_en_x[0] (fu_ldw_stw_always_4_dataw32_addrw16_1)
                                                         0.000      0.794 r
  U159/Z (C8T28SOI_LL_NOR2AX4_P16)                       0.280 *    1.074 r
  U296/Z (C8T28SOI_LL_BFX5_P16)                          0.161 *    1.235 r
  U297/Z (C8T28SOI_LL_IVX2_P16)                          0.072 *    1.307 f
  U246/Z (C8T28SOI_LL_AOI22X2_P16)                       0.042 *    1.349 r
  U247/Z (C8T28SOI_LL_IVX2_P16)                          0.015 *    1.364 f
  datamem/scheduler/lsu_addr_a[5] (par_mem_scheduler_dataw32_addrw14_ports2_rd_delay1)
                                                         0.000      1.364 f
  datamem/scheduler/addr_a_conv/data_in[5] (ser_par_conv_portw14_port_cnt2_1)
                                                         0.000      1.364 f
  datamem/scheduler/addr_a_conv/U18/Z (C8T28SOI_LL_IVX2_P16)
                                                         0.015 *    1.380 r
  datamem/scheduler/addr_a_conv/U19/Z (C8T28SOI_LL_IVX2_P16)
                                                         0.012 *    1.392 f
  datamem/scheduler/addr_a_conv/data_out[5] (ser_par_conv_portw14_port_cnt2_1)
                                                         0.000      1.392 f
  datamem/scheduler/U177/Z (C8T28SOI_LL_AOI22X2_P16)     0.019 *    1.410 r
  datamem/scheduler/U178/Z (C8T28SOI_LL_IVX2_P16)        0.023 *    1.434 f
  datamem/scheduler/addr[5] (par_mem_scheduler_dataw32_addrw14_ports2_rd_delay1)
                                                         0.000      1.434 f
  datamem/par_mem_logic_inst/addrs_from_lsus[5] (par_mem_logic_PORTS2_LSU_ADDRW14_CTRLW1_DATAW32_PM_FUNC2)
                                                         0.000      1.434 f
  datamem/par_mem_logic_inst/addr_crsbar_0/addrs_from_lsus[5] (addr_crsbar_PORTS2_LSU_ADDRW14_CTRLW1_PM_FUNC2)
                                                         0.000      1.434 f
  datamem/par_mem_logic_inst/addr_crsbar_0/U64/Z (C8T28SOI_LL_AOI22X2_P16)
                                                         0.051 *    1.485 r
  datamem/par_mem_logic_inst/addr_crsbar_0/U66/Z (C8T28SOIDV_LLS_XNOR2X4_P16)
                                                         0.043 *    1.528 r
  datamem/par_mem_logic_inst/addr_crsbar_0/U67/Z (C8T28SOIDV_LLS_XNOR3X1_P16)
                                                         0.047 *    1.575 r
  datamem/par_mem_logic_inst/addr_crsbar_0/U74/Z (C8T28SOI_LL_NAND2X2_P16)
                                                         0.026 *    1.601 f
  datamem/par_mem_logic_inst/addr_crsbar_0/U75/Z (C8T28SOI_LL_OAI12X3_P16)
                                                         0.020 *    1.621 r
  datamem/par_mem_logic_inst/addr_crsbar_0/U76/Z (C8T28SOIDV_LLS_XNOR2X4_P16)
                                                         0.031 *    1.653 r
  datamem/par_mem_logic_inst/addr_crsbar_0/U81/Z (C8T28SOIDV_LLS_XNOR2X4_P16)
                                                         0.025 *    1.678 f
  datamem/par_mem_logic_inst/addr_crsbar_0/module_nums[0] (addr_crsbar_PORTS2_LSU_ADDRW14_CTRLW1_PM_FUNC2)
                                                         0.000      1.678 f
  datamem/par_mem_logic_inst/ctrl_units_0/module_nums[0] (ctrl_units_PORTS2_CTRLW1)
                                                         0.000      1.678 f
  datamem/par_mem_logic_inst/ctrl_units_0/ctrl_uniti_0/module_num[0] (ctrl_unit_PORTS2_CTRLW1_1)
                                                         0.000      1.678 f
  datamem/par_mem_logic_inst/ctrl_units_0/ctrl_uniti_0/U12/Z (C8T28SOI_LL_NOR2AX4_P16)
                                                         0.026 *    1.704 r
  datamem/par_mem_logic_inst/ctrl_units_0/ctrl_uniti_0/U13/Z (C8T28SOI_LL_AOI22X2_P16)
                                                         0.019 *    1.723 f
  datamem/par_mem_logic_inst/ctrl_units_0/ctrl_uniti_0/U19/Z (C8T28SOI_LL_AND2X5_P16)
                                                         0.033 *    1.757 f
  datamem/par_mem_logic_inst/ctrl_units_0/ctrl_uniti_0/mem_en_x (ctrl_unit_PORTS2_CTRLW1_1)
                                                         0.000      1.757 f
  datamem/par_mem_logic_inst/ctrl_units_0/U18/Z (C8T28SOI_LL_NAND2AX2_P16)
                                                         0.049 *    1.806 f
  datamem/par_mem_logic_inst/ctrl_units_0/mem_en_xs[0] (ctrl_units_PORTS2_CTRLW1)
                                                         0.000      1.806 f
  datamem/par_mem_logic_inst/mem_en_xs[0] (par_mem_logic_PORTS2_LSU_ADDRW14_CTRLW1_DATAW32_PM_FUNC2)
                                                         0.000      1.806 f
  datamem/dmem_2/en_x (synch_singleport_mem_wrapper_DATAW32_ADDRW13_0)
                                                         0.000      1.806 f
  datamem/dmem_2/en_wr_arbiter/en (block_en_wr_arbiter_ADDRW13_NBLOCKS9_0)
                                                         0.000      1.806 f
  datamem/dmem_2/en_wr_arbiter/U6/Z (C8T28SOI_LL_IVX2_P16)
                                                         0.087 *    1.892 r
  datamem/dmem_2/en_wr_arbiter/U29/Z (C8T28SOI_LL_NAND3X3_P16)
                                                         0.064 *    1.956 f
  datamem/dmem_2/en_wr_arbiter/en_blocks[7] (block_en_wr_arbiter_ADDRW13_NBLOCKS9_0)
                                                         0.000      1.956 f
  datamem/dmem_2/cacti_mem_x_7/en_x (cacti_mem_wrapper_DATAW32_ADDRW11_0)
                                                         0.000      1.956 f
  datamem/dmem_2/cacti_mem_x_7/mem_2048x32/mem_en_x (ram_2048x32)
                                                         0.000 *    1.956 f
  data arrival time                                                 1.956

  clock clk (rise edge)                                 20.000     20.000
  clock network delay (ideal)                            0.010     20.010
  clock uncertainty                                     -0.010     20.000
  datamem/dmem_2/cacti_mem_x_7/mem_2048x32/clk (ram_2048x32)
                                                         0.000     20.000 r
  library setup time                                    -0.522     19.478
  data required time                                               19.478
  --------------------------------------------------------------------------
  data required time                                               19.478
  data arrival time                                                -1.956
  --------------------------------------------------------------------------
  slack (MET)                                                      17.522


  Startpoint: core/loopbuffer/clk_r_REG624_S42
              (rising edge-triggered flip-flop clocked by clk)
  Endpoint: datamem/dmem_2/cacti_mem_x_2/mem_64x32
            (rising edge-triggered flip-flop clocked by clk)
  Path Group: clk
  Path Type: max

  Point                                                   Incr       Path
  --------------------------------------------------------------------------
  clock clk (rise edge)                                  0.000      0.000
  clock network delay (ideal)                            0.010      0.010
  core/loopbuffer/clk_r_REG624_S42/CP (C8T28SOIDV_LL_DFPRQX10_P16)
                                                         0.000      0.010 r
  core/loopbuffer/clk_r_REG624_S42/Q (C8T28SOIDV_LL_DFPRQX10_P16)
                                                         0.056      0.066 r
  core/loopbuffer/U31/Z (C8T28SOI_LL_NOR2X4_P16)         0.013 *    0.079 f
  core/loopbuffer/U32/Z (C8T28SOI_LL_IVX2_P16)           0.029 *    0.108 r
  core/loopbuffer/U36/Z (C8T28SOI_LL_AOI22X2_P16)        0.112 *    0.219 f
  core/loopbuffer/U19/Z (C8T28SOI_LL_BFX5_P16)           0.112 *    0.331 f
  core/loopbuffer/U20/Z (C8T28SOI_LL_IVX2_P16)           0.129 *    0.460 r
  core/loopbuffer/U605/Z (C8T28SOI_LL_OA22X5_P16)        0.089 *    0.549 r
  core/loopbuffer/glock_out (tta0_loopbuf_1_32_51_1_0)
                                                         0.000      0.549 r
  core/inst_decoder/lock (tta0_decoder)                  0.000      0.549 r
  core/inst_decoder/U63/Z (C8T28SOI_LL_NOR2X4_P16)       0.022 *    0.570 f
  core/inst_decoder/U64/Z (C8T28SOI_LL_NAND2AX2_P16)     0.026 *    0.596 r
  core/inst_decoder/glock[7] (tta0_decoder)              0.000      0.596 r
  U292/Z (C8T28SOI_LL_BFX9_P16)                          0.115 *    0.712 r
  core/fu_lsu_r/glock (fu_ldw_stw_always_4_dataw32_addrw16_1)
                                                         0.000      0.712 r
  core/fu_lsu_r/U131/Z (C8T28SOI_LL_OR2X5_P16)           0.082 *    0.794 r
  core/fu_lsu_r/mem_en_x[0] (fu_ldw_stw_always_4_dataw32_addrw16_1)
                                                         0.000      0.794 r
  U159/Z (C8T28SOI_LL_NOR2AX4_P16)                       0.280 *    1.074 r
  U296/Z (C8T28SOI_LL_BFX5_P16)                          0.161 *    1.235 r
  U297/Z (C8T28SOI_LL_IVX2_P16)                          0.072 *    1.307 f
  U246/Z (C8T28SOI_LL_AOI22X2_P16)                       0.042 *    1.349 r
  U247/Z (C8T28SOI_LL_IVX2_P16)                          0.015 *    1.364 f
  datamem/scheduler/lsu_addr_a[5] (par_mem_scheduler_dataw32_addrw14_ports2_rd_delay1)
                                                         0.000      1.364 f
  datamem/scheduler/addr_a_conv/data_in[5] (ser_par_conv_portw14_port_cnt2_1)
                                                         0.000      1.364 f
  datamem/scheduler/addr_a_conv/U18/Z (C8T28SOI_LL_IVX2_P16)
                                                         0.015 *    1.380 r
  datamem/scheduler/addr_a_conv/U19/Z (C8T28SOI_LL_IVX2_P16)
                                                         0.012 *    1.392 f
  datamem/scheduler/addr_a_conv/data_out[5] (ser_par_conv_portw14_port_cnt2_1)
                                                         0.000      1.392 f
  datamem/scheduler/U177/Z (C8T28SOI_LL_AOI22X2_P16)     0.019 *    1.410 r
  datamem/scheduler/U178/Z (C8T28SOI_LL_IVX2_P16)        0.023 *    1.434 f
  datamem/scheduler/addr[5] (par_mem_scheduler_dataw32_addrw14_ports2_rd_delay1)
                                                         0.000      1.434 f
  datamem/par_mem_logic_inst/addrs_from_lsus[5] (par_mem_logic_PORTS2_LSU_ADDRW14_CTRLW1_DATAW32_PM_FUNC2)
                                                         0.000      1.434 f
  datamem/par_mem_logic_inst/addr_crsbar_0/addrs_from_lsus[5] (addr_crsbar_PORTS2_LSU_ADDRW14_CTRLW1_PM_FUNC2)
                                                         0.000      1.434 f
  datamem/par_mem_logic_inst/addr_crsbar_0/U64/Z (C8T28SOI_LL_AOI22X2_P16)
                                                         0.051 *    1.485 r
  datamem/par_mem_logic_inst/addr_crsbar_0/U66/Z (C8T28SOIDV_LLS_XNOR2X4_P16)
                                                         0.043 *    1.528 r
  datamem/par_mem_logic_inst/addr_crsbar_0/U67/Z (C8T28SOIDV_LLS_XNOR3X1_P16)
                                                         0.047 *    1.575 r
  datamem/par_mem_logic_inst/addr_crsbar_0/U74/Z (C8T28SOI_LL_NAND2X2_P16)
                                                         0.026 *    1.601 f
  datamem/par_mem_logic_inst/addr_crsbar_0/U75/Z (C8T28SOI_LL_OAI12X3_P16)
                                                         0.020 *    1.621 r
  datamem/par_mem_logic_inst/addr_crsbar_0/U76/Z (C8T28SOIDV_LLS_XNOR2X4_P16)
                                                         0.031 *    1.653 r
  datamem/par_mem_logic_inst/addr_crsbar_0/U81/Z (C8T28SOIDV_LLS_XNOR2X4_P16)
                                                         0.025 *    1.678 f
  datamem/par_mem_logic_inst/addr_crsbar_0/module_nums[0] (addr_crsbar_PORTS2_LSU_ADDRW14_CTRLW1_PM_FUNC2)
                                                         0.000      1.678 f
  datamem/par_mem_logic_inst/ctrl_units_0/module_nums[0] (ctrl_units_PORTS2_CTRLW1)
                                                         0.000      1.678 f
  datamem/par_mem_logic_inst/ctrl_units_0/ctrl_uniti_0/module_num[0] (ctrl_unit_PORTS2_CTRLW1_1)
                                                         0.000      1.678 f
  datamem/par_mem_logic_inst/ctrl_units_0/ctrl_uniti_0/U12/Z (C8T28SOI_LL_NOR2AX4_P16)
                                                         0.026 *    1.704 r
  datamem/par_mem_logic_inst/ctrl_units_0/ctrl_uniti_0/U13/Z (C8T28SOI_LL_AOI22X2_P16)
                                                         0.019 *    1.723 f
  datamem/par_mem_logic_inst/ctrl_units_0/ctrl_uniti_0/U19/Z (C8T28SOI_LL_AND2X5_P16)
                                                         0.033 *    1.757 f
  datamem/par_mem_logic_inst/ctrl_units_0/ctrl_uniti_0/mem_en_x (ctrl_unit_PORTS2_CTRLW1_1)
                                                         0.000      1.757 f
  datamem/par_mem_logic_inst/ctrl_units_0/U18/Z (C8T28SOI_LL_NAND2AX2_P16)
                                                         0.049 *    1.806 f
  datamem/par_mem_logic_inst/ctrl_units_0/mem_en_xs[0] (ctrl_units_PORTS2_CTRLW1)
                                                         0.000      1.806 f
  datamem/par_mem_logic_inst/mem_en_xs[0] (par_mem_logic_PORTS2_LSU_ADDRW14_CTRLW1_DATAW32_PM_FUNC2)
                                                         0.000      1.806 f
  datamem/dmem_2/en_x (synch_singleport_mem_wrapper_DATAW32_ADDRW13_0)
                                                         0.000      1.806 f
  datamem/dmem_2/en_wr_arbiter/en (block_en_wr_arbiter_ADDRW13_NBLOCKS9_0)
                                                         0.000      1.806 f
  datamem/dmem_2/en_wr_arbiter/U6/Z (C8T28SOI_LL_IVX2_P16)
                                                         0.087 *    1.892 r
  datamem/dmem_2/en_wr_arbiter/U25/Z (C8T28SOI_LL_NAND3X3_P16)
                                                         0.057 *    1.949 f
  datamem/dmem_2/en_wr_arbiter/en_blocks[2] (block_en_wr_arbiter_ADDRW13_NBLOCKS9_0)
                                                         0.000      1.949 f
  datamem/dmem_2/cacti_mem_x_2/en_x (cacti_mem_wrapper_DATAW32_ADDRW6_0)
                                                         0.000      1.949 f
  datamem/dmem_2/cacti_mem_x_2/mem_64x32/mem_en_x (ram_64x32)
                                                         0.000 *    1.949 f
  data arrival time                                                 1.949

  clock clk (rise edge)                                 20.000     20.000
  clock network delay (ideal)                            0.010     20.010
  clock uncertainty                                     -0.010     20.000
  datamem/dmem_2/cacti_mem_x_2/mem_64x32/clk (ram_64x32)
                                                         0.000     20.000 r
  library setup time                                    -0.523     19.477
  data required time                                               19.477
  --------------------------------------------------------------------------
  data required time                                               19.477
  data arrival time                                                -1.949
  --------------------------------------------------------------------------
  slack (MET)                                                      17.527


  Startpoint: core/loopbuffer/clk_r_REG624_S42
              (rising edge-triggered flip-flop clocked by clk)
  Endpoint: datamem/dmem_2/cacti_mem_x_5/mem_512x32
            (rising edge-triggered flip-flop clocked by clk)
  Path Group: clk
  Path Type: max

  Point                                                   Incr       Path
  --------------------------------------------------------------------------
  clock clk (rise edge)                                  0.000      0.000
  clock network delay (ideal)                            0.010      0.010
  core/loopbuffer/clk_r_REG624_S42/CP (C8T28SOIDV_LL_DFPRQX10_P16)
                                                         0.000      0.010 r
  core/loopbuffer/clk_r_REG624_S42/Q (C8T28SOIDV_LL_DFPRQX10_P16)
                                                         0.056      0.066 r
  core/loopbuffer/U31/Z (C8T28SOI_LL_NOR2X4_P16)         0.013 *    0.079 f
  core/loopbuffer/U32/Z (C8T28SOI_LL_IVX2_P16)           0.029 *    0.108 r
  core/loopbuffer/U36/Z (C8T28SOI_LL_AOI22X2_P16)        0.112 *    0.219 f
  core/loopbuffer/U19/Z (C8T28SOI_LL_BFX5_P16)           0.112 *    0.331 f
  core/loopbuffer/U20/Z (C8T28SOI_LL_IVX2_P16)           0.129 *    0.460 r
  core/loopbuffer/U605/Z (C8T28SOI_LL_OA22X5_P16)        0.089 *    0.549 r
  core/loopbuffer/glock_out (tta0_loopbuf_1_32_51_1_0)
                                                         0.000      0.549 r
  core/inst_decoder/lock (tta0_decoder)                  0.000      0.549 r
  core/inst_decoder/U63/Z (C8T28SOI_LL_NOR2X4_P16)       0.022 *    0.570 f
  core/inst_decoder/U64/Z (C8T28SOI_LL_NAND2AX2_P16)     0.026 *    0.596 r
  core/inst_decoder/glock[7] (tta0_decoder)              0.000      0.596 r
  U292/Z (C8T28SOI_LL_BFX9_P16)                          0.115 *    0.712 r
  core/fu_lsu_r/glock (fu_ldw_stw_always_4_dataw32_addrw16_1)
                                                         0.000      0.712 r
  core/fu_lsu_r/U131/Z (C8T28SOI_LL_OR2X5_P16)           0.082 *    0.794 r
  core/fu_lsu_r/mem_en_x[0] (fu_ldw_stw_always_4_dataw32_addrw16_1)
                                                         0.000      0.794 r
  U159/Z (C8T28SOI_LL_NOR2AX4_P16)                       0.280 *    1.074 r
  U296/Z (C8T28SOI_LL_BFX5_P16)                          0.161 *    1.235 r
  U297/Z (C8T28SOI_LL_IVX2_P16)                          0.072 *    1.307 f
  U246/Z (C8T28SOI_LL_AOI22X2_P16)                       0.042 *    1.349 r
  U247/Z (C8T28SOI_LL_IVX2_P16)                          0.015 *    1.364 f
  datamem/scheduler/lsu_addr_a[5] (par_mem_scheduler_dataw32_addrw14_ports2_rd_delay1)
                                                         0.000      1.364 f
  datamem/scheduler/addr_a_conv/data_in[5] (ser_par_conv_portw14_port_cnt2_1)
                                                         0.000      1.364 f
  datamem/scheduler/addr_a_conv/U18/Z (C8T28SOI_LL_IVX2_P16)
                                                         0.015 *    1.380 r
  datamem/scheduler/addr_a_conv/U19/Z (C8T28SOI_LL_IVX2_P16)
                                                         0.012 *    1.392 f
  datamem/scheduler/addr_a_conv/data_out[5] (ser_par_conv_portw14_port_cnt2_1)
                                                         0.000      1.392 f
  datamem/scheduler/U177/Z (C8T28SOI_LL_AOI22X2_P16)     0.019 *    1.410 r
  datamem/scheduler/U178/Z (C8T28SOI_LL_IVX2_P16)        0.023 *    1.434 f
  datamem/scheduler/addr[5] (par_mem_scheduler_dataw32_addrw14_ports2_rd_delay1)
                                                         0.000      1.434 f
  datamem/par_mem_logic_inst/addrs_from_lsus[5] (par_mem_logic_PORTS2_LSU_ADDRW14_CTRLW1_DATAW32_PM_FUNC2)
                                                         0.000      1.434 f
  datamem/par_mem_logic_inst/addr_crsbar_0/addrs_from_lsus[5] (addr_crsbar_PORTS2_LSU_ADDRW14_CTRLW1_PM_FUNC2)
                                                         0.000      1.434 f
  datamem/par_mem_logic_inst/addr_crsbar_0/U64/Z (C8T28SOI_LL_AOI22X2_P16)
                                                         0.051 *    1.485 r
  datamem/par_mem_logic_inst/addr_crsbar_0/U66/Z (C8T28SOIDV_LLS_XNOR2X4_P16)
                                                         0.043 *    1.528 r
  datamem/par_mem_logic_inst/addr_crsbar_0/U67/Z (C8T28SOIDV_LLS_XNOR3X1_P16)
                                                         0.047 *    1.575 r
  datamem/par_mem_logic_inst/addr_crsbar_0/U74/Z (C8T28SOI_LL_NAND2X2_P16)
                                                         0.026 *    1.601 f
  datamem/par_mem_logic_inst/addr_crsbar_0/U75/Z (C8T28SOI_LL_OAI12X3_P16)
                                                         0.020 *    1.621 r
  datamem/par_mem_logic_inst/addr_crsbar_0/U76/Z (C8T28SOIDV_LLS_XNOR2X4_P16)
                                                         0.031 *    1.653 r
  datamem/par_mem_logic_inst/addr_crsbar_0/U81/Z (C8T28SOIDV_LLS_XNOR2X4_P16)
                                                         0.025 *    1.678 f
  datamem/par_mem_logic_inst/addr_crsbar_0/module_nums[0] (addr_crsbar_PORTS2_LSU_ADDRW14_CTRLW1_PM_FUNC2)
                                                         0.000      1.678 f
  datamem/par_mem_logic_inst/ctrl_units_0/module_nums[0] (ctrl_units_PORTS2_CTRLW1)
                                                         0.000      1.678 f
  datamem/par_mem_logic_inst/ctrl_units_0/ctrl_uniti_0/module_num[0] (ctrl_unit_PORTS2_CTRLW1_1)
                                                         0.000      1.678 f
  datamem/par_mem_logic_inst/ctrl_units_0/ctrl_uniti_0/U12/Z (C8T28SOI_LL_NOR2AX4_P16)
                                                         0.026 *    1.704 r
  datamem/par_mem_logic_inst/ctrl_units_0/ctrl_uniti_0/U13/Z (C8T28SOI_LL_AOI22X2_P16)
                                                         0.019 *    1.723 f
  datamem/par_mem_logic_inst/ctrl_units_0/ctrl_uniti_0/U19/Z (C8T28SOI_LL_AND2X5_P16)
                                                         0.033 *    1.757 f
  datamem/par_mem_logic_inst/ctrl_units_0/ctrl_uniti_0/mem_en_x (ctrl_unit_PORTS2_CTRLW1_1)
                                                         0.000      1.757 f
  datamem/par_mem_logic_inst/ctrl_units_0/U18/Z (C8T28SOI_LL_NAND2AX2_P16)
                                                         0.049 *    1.806 f
  datamem/par_mem_logic_inst/ctrl_units_0/mem_en_xs[0] (ctrl_units_PORTS2_CTRLW1)
                                                         0.000      1.806 f
  datamem/par_mem_logic_inst/mem_en_xs[0] (par_mem_logic_PORTS2_LSU_ADDRW14_CTRLW1_DATAW32_PM_FUNC2)
                                                         0.000      1.806 f
  datamem/dmem_2/en_x (synch_singleport_mem_wrapper_DATAW32_ADDRW13_0)
                                                         0.000      1.806 f
  datamem/dmem_2/en_wr_arbiter/en (block_en_wr_arbiter_ADDRW13_NBLOCKS9_0)
                                                         0.000      1.806 f
  datamem/dmem_2/en_wr_arbiter/U6/Z (C8T28SOI_LL_IVX2_P16)
                                                         0.087 *    1.892 r
  datamem/dmem_2/en_wr_arbiter/U28/Z (C8T28SOI_LL_NAND3X3_P16)
                                                         0.058 *    1.951 f
  datamem/dmem_2/en_wr_arbiter/en_blocks[5] (block_en_wr_arbiter_ADDRW13_NBLOCKS9_0)
                                                         0.000      1.951 f
  datamem/dmem_2/cacti_mem_x_5/en_x (cacti_mem_wrapper_DATAW32_ADDRW9_0)
                                                         0.000      1.951 f
  datamem/dmem_2/cacti_mem_x_5/mem_512x32/mem_en_x (ram_512x32)
                                                         0.000 *    1.951 f
  data arrival time                                                 1.951

  clock clk (rise edge)                                 20.000     20.000
  clock network delay (ideal)                            0.010     20.010
  clock uncertainty                                     -0.010     20.000
  datamem/dmem_2/cacti_mem_x_5/mem_512x32/clk (ram_512x32)
                                                         0.000     20.000 r
  library setup time                                    -0.521     19.479
  data required time                                               19.479
  --------------------------------------------------------------------------
  data required time                                               19.479
  data arrival time                                                -1.951
  --------------------------------------------------------------------------
  slack (MET)                                                      17.528


  Startpoint: core/loopbuffer/clk_r_REG624_S42
              (rising edge-triggered flip-flop clocked by clk)
  Endpoint: datamem/dmem_2/cacti_mem_x_1/mem_32x32
            (rising edge-triggered flip-flop clocked by clk)
  Path Group: clk
  Path Type: max

  Point                                                   Incr       Path
  --------------------------------------------------------------------------
  clock clk (rise edge)                                  0.000      0.000
  clock network delay (ideal)                            0.010      0.010
  core/loopbuffer/clk_r_REG624_S42/CP (C8T28SOIDV_LL_DFPRQX10_P16)
                                                         0.000      0.010 r
  core/loopbuffer/clk_r_REG624_S42/Q (C8T28SOIDV_LL_DFPRQX10_P16)
                                                         0.056      0.066 r
  core/loopbuffer/U31/Z (C8T28SOI_LL_NOR2X4_P16)         0.013 *    0.079 f
  core/loopbuffer/U32/Z (C8T28SOI_LL_IVX2_P16)           0.029 *    0.108 r
  core/loopbuffer/U36/Z (C8T28SOI_LL_AOI22X2_P16)        0.112 *    0.219 f
  core/loopbuffer/U19/Z (C8T28SOI_LL_BFX5_P16)           0.112 *    0.331 f
  core/loopbuffer/U20/Z (C8T28SOI_LL_IVX2_P16)           0.129 *    0.460 r
  core/loopbuffer/U605/Z (C8T28SOI_LL_OA22X5_P16)        0.089 *    0.549 r
  core/loopbuffer/glock_out (tta0_loopbuf_1_32_51_1_0)
                                                         0.000      0.549 r
  core/inst_decoder/lock (tta0_decoder)                  0.000      0.549 r
  core/inst_decoder/U63/Z (C8T28SOI_LL_NOR2X4_P16)       0.022 *    0.570 f
  core/inst_decoder/U64/Z (C8T28SOI_LL_NAND2AX2_P16)     0.026 *    0.596 r
  core/inst_decoder/glock[7] (tta0_decoder)              0.000      0.596 r
  U292/Z (C8T28SOI_LL_BFX9_P16)                          0.115 *    0.712 r
  core/fu_lsu_r/glock (fu_ldw_stw_always_4_dataw32_addrw16_1)
                                                         0.000      0.712 r
  core/fu_lsu_r/U131/Z (C8T28SOI_LL_OR2X5_P16)           0.082 *    0.794 r
  core/fu_lsu_r/mem_en_x[0] (fu_ldw_stw_always_4_dataw32_addrw16_1)
                                                         0.000      0.794 r
  U159/Z (C8T28SOI_LL_NOR2AX4_P16)                       0.280 *    1.074 r
  U296/Z (C8T28SOI_LL_BFX5_P16)                          0.161 *    1.235 r
  U297/Z (C8T28SOI_LL_IVX2_P16)                          0.072 *    1.307 f
  U246/Z (C8T28SOI_LL_AOI22X2_P16)                       0.042 *    1.349 r
  U247/Z (C8T28SOI_LL_IVX2_P16)                          0.015 *    1.364 f
  datamem/scheduler/lsu_addr_a[5] (par_mem_scheduler_dataw32_addrw14_ports2_rd_delay1)
                                                         0.000      1.364 f
  datamem/scheduler/addr_a_conv/data_in[5] (ser_par_conv_portw14_port_cnt2_1)
                                                         0.000      1.364 f
  datamem/scheduler/addr_a_conv/U18/Z (C8T28SOI_LL_IVX2_P16)
                                                         0.015 *    1.380 r
  datamem/scheduler/addr_a_conv/U19/Z (C8T28SOI_LL_IVX2_P16)
                                                         0.012 *    1.392 f
  datamem/scheduler/addr_a_conv/data_out[5] (ser_par_conv_portw14_port_cnt2_1)
                                                         0.000      1.392 f
  datamem/scheduler/U177/Z (C8T28SOI_LL_AOI22X2_P16)     0.019 *    1.410 r
  datamem/scheduler/U178/Z (C8T28SOI_LL_IVX2_P16)        0.023 *    1.434 f
  datamem/scheduler/addr[5] (par_mem_scheduler_dataw32_addrw14_ports2_rd_delay1)
                                                         0.000      1.434 f
  datamem/par_mem_logic_inst/addrs_from_lsus[5] (par_mem_logic_PORTS2_LSU_ADDRW14_CTRLW1_DATAW32_PM_FUNC2)
                                                         0.000      1.434 f
  datamem/par_mem_logic_inst/addr_crsbar_0/addrs_from_lsus[5] (addr_crsbar_PORTS2_LSU_ADDRW14_CTRLW1_PM_FUNC2)
                                                         0.000      1.434 f
  datamem/par_mem_logic_inst/addr_crsbar_0/U64/Z (C8T28SOI_LL_AOI22X2_P16)
                                                         0.051 *    1.485 r
  datamem/par_mem_logic_inst/addr_crsbar_0/U66/Z (C8T28SOIDV_LLS_XNOR2X4_P16)
                                                         0.043 *    1.528 r
  datamem/par_mem_logic_inst/addr_crsbar_0/U67/Z (C8T28SOIDV_LLS_XNOR3X1_P16)
                                                         0.047 *    1.575 r
  datamem/par_mem_logic_inst/addr_crsbar_0/U74/Z (C8T28SOI_LL_NAND2X2_P16)
                                                         0.026 *    1.601 f
  datamem/par_mem_logic_inst/addr_crsbar_0/U75/Z (C8T28SOI_LL_OAI12X3_P16)
                                                         0.020 *    1.621 r
  datamem/par_mem_logic_inst/addr_crsbar_0/U76/Z (C8T28SOIDV_LLS_XNOR2X4_P16)
                                                         0.031 *    1.653 r
  datamem/par_mem_logic_inst/addr_crsbar_0/U81/Z (C8T28SOIDV_LLS_XNOR2X4_P16)
                                                         0.025 *    1.678 f
  datamem/par_mem_logic_inst/addr_crsbar_0/module_nums[0] (addr_crsbar_PORTS2_LSU_ADDRW14_CTRLW1_PM_FUNC2)
                                                         0.000      1.678 f
  datamem/par_mem_logic_inst/ctrl_units_0/module_nums[0] (ctrl_units_PORTS2_CTRLW1)
                                                         0.000      1.678 f
  datamem/par_mem_logic_inst/ctrl_units_0/ctrl_uniti_0/module_num[0] (ctrl_unit_PORTS2_CTRLW1_1)
                                                         0.000      1.678 f
  datamem/par_mem_logic_inst/ctrl_units_0/ctrl_uniti_0/U12/Z (C8T28SOI_LL_NOR2AX4_P16)
                                                         0.026 *    1.704 r
  datamem/par_mem_logic_inst/ctrl_units_0/ctrl_uniti_0/U13/Z (C8T28SOI_LL_AOI22X2_P16)
                                                         0.019 *    1.723 f
  datamem/par_mem_logic_inst/ctrl_units_0/ctrl_uniti_0/U19/Z (C8T28SOI_LL_AND2X5_P16)
                                                         0.033 *    1.757 f
  datamem/par_mem_logic_inst/ctrl_units_0/ctrl_uniti_0/mem_en_x (ctrl_unit_PORTS2_CTRLW1_1)
                                                         0.000      1.757 f
  datamem/par_mem_logic_inst/ctrl_units_0/U18/Z (C8T28SOI_LL_NAND2AX2_P16)
                                                         0.049 *    1.806 f
  datamem/par_mem_logic_inst/ctrl_units_0/mem_en_xs[0] (ctrl_units_PORTS2_CTRLW1)
                                                         0.000      1.806 f
  datamem/par_mem_logic_inst/mem_en_xs[0] (par_mem_logic_PORTS2_LSU_ADDRW14_CTRLW1_DATAW32_PM_FUNC2)
                                                         0.000      1.806 f
  datamem/dmem_2/en_x (synch_singleport_mem_wrapper_DATAW32_ADDRW13_0)
                                                         0.000      1.806 f
  datamem/dmem_2/en_wr_arbiter/en (block_en_wr_arbiter_ADDRW13_NBLOCKS9_0)
                                                         0.000      1.806 f
  datamem/dmem_2/en_wr_arbiter/U6/Z (C8T28SOI_LL_IVX2_P16)
                                                         0.087 *    1.892 r
  datamem/dmem_2/en_wr_arbiter/U24/Z (C8T28SOI_LL_NAND3X3_P16)
                                                         0.053 *    1.945 f
  datamem/dmem_2/en_wr_arbiter/en_blocks[1] (block_en_wr_arbiter_ADDRW13_NBLOCKS9_0)
                                                         0.000      1.945 f
  datamem/dmem_2/cacti_mem_x_1/en_x (cacti_mem_wrapper_DATAW32_ADDRW5_0)
                                                         0.000      1.945 f
  datamem/dmem_2/cacti_mem_x_1/mem_32x32/mem_en_x (ram_32x32)
                                                         0.000 *    1.945 f
  data arrival time                                                 1.945

  clock clk (rise edge)                                 20.000     20.000
  clock network delay (ideal)                            0.010     20.010
  clock uncertainty                                     -0.010     20.000
  datamem/dmem_2/cacti_mem_x_1/mem_32x32/clk (ram_32x32)
                                                         0.000     20.000 r
  library setup time                                    -0.521     19.479
  data required time                                               19.479
  --------------------------------------------------------------------------
  data required time                                               19.479
  data arrival time                                                -1.945
  --------------------------------------------------------------------------
  slack (MET)                                                      17.533


  Startpoint: core/loopbuffer/clk_r_REG624_S42
              (rising edge-triggered flip-flop clocked by clk)
  Endpoint: datamem/dmem_2/cacti_mem_x_4/mem_256x32
            (rising edge-triggered flip-flop clocked by clk)
  Path Group: clk
  Path Type: max

  Point                                                   Incr       Path
  --------------------------------------------------------------------------
  clock clk (rise edge)                                  0.000      0.000
  clock network delay (ideal)                            0.010      0.010
  core/loopbuffer/clk_r_REG624_S42/CP (C8T28SOIDV_LL_DFPRQX10_P16)
                                                         0.000      0.010 r
  core/loopbuffer/clk_r_REG624_S42/Q (C8T28SOIDV_LL_DFPRQX10_P16)
                                                         0.056      0.066 r
  core/loopbuffer/U31/Z (C8T28SOI_LL_NOR2X4_P16)         0.013 *    0.079 f
  core/loopbuffer/U32/Z (C8T28SOI_LL_IVX2_P16)           0.029 *    0.108 r
  core/loopbuffer/U36/Z (C8T28SOI_LL_AOI22X2_P16)        0.112 *    0.219 f
  core/loopbuffer/U19/Z (C8T28SOI_LL_BFX5_P16)           0.112 *    0.331 f
  core/loopbuffer/U20/Z (C8T28SOI_LL_IVX2_P16)           0.129 *    0.460 r
  core/loopbuffer/U605/Z (C8T28SOI_LL_OA22X5_P16)        0.089 *    0.549 r
  core/loopbuffer/glock_out (tta0_loopbuf_1_32_51_1_0)
                                                         0.000      0.549 r
  core/inst_decoder/lock (tta0_decoder)                  0.000      0.549 r
  core/inst_decoder/U63/Z (C8T28SOI_LL_NOR2X4_P16)       0.022 *    0.570 f
  core/inst_decoder/U64/Z (C8T28SOI_LL_NAND2AX2_P16)     0.026 *    0.596 r
  core/inst_decoder/glock[7] (tta0_decoder)              0.000      0.596 r
  U292/Z (C8T28SOI_LL_BFX9_P16)                          0.115 *    0.712 r
  core/fu_lsu_r/glock (fu_ldw_stw_always_4_dataw32_addrw16_1)
                                                         0.000      0.712 r
  core/fu_lsu_r/U131/Z (C8T28SOI_LL_OR2X5_P16)           0.082 *    0.794 r
  core/fu_lsu_r/mem_en_x[0] (fu_ldw_stw_always_4_dataw32_addrw16_1)
                                                         0.000      0.794 r
  U159/Z (C8T28SOI_LL_NOR2AX4_P16)                       0.280 *    1.074 r
  U296/Z (C8T28SOI_LL_BFX5_P16)                          0.161 *    1.235 r
  U297/Z (C8T28SOI_LL_IVX2_P16)                          0.072 *    1.307 f
  U246/Z (C8T28SOI_LL_AOI22X2_P16)                       0.042 *    1.349 r
  U247/Z (C8T28SOI_LL_IVX2_P16)                          0.015 *    1.364 f
  datamem/scheduler/lsu_addr_a[5] (par_mem_scheduler_dataw32_addrw14_ports2_rd_delay1)
                                                         0.000      1.364 f
  datamem/scheduler/addr_a_conv/data_in[5] (ser_par_conv_portw14_port_cnt2_1)
                                                         0.000      1.364 f
  datamem/scheduler/addr_a_conv/U18/Z (C8T28SOI_LL_IVX2_P16)
                                                         0.015 *    1.380 r
  datamem/scheduler/addr_a_conv/U19/Z (C8T28SOI_LL_IVX2_P16)
                                                         0.012 *    1.392 f
  datamem/scheduler/addr_a_conv/data_out[5] (ser_par_conv_portw14_port_cnt2_1)
                                                         0.000      1.392 f
  datamem/scheduler/U177/Z (C8T28SOI_LL_AOI22X2_P16)     0.019 *    1.410 r
  datamem/scheduler/U178/Z (C8T28SOI_LL_IVX2_P16)        0.023 *    1.434 f
  datamem/scheduler/addr[5] (par_mem_scheduler_dataw32_addrw14_ports2_rd_delay1)
                                                         0.000      1.434 f
  datamem/par_mem_logic_inst/addrs_from_lsus[5] (par_mem_logic_PORTS2_LSU_ADDRW14_CTRLW1_DATAW32_PM_FUNC2)
                                                         0.000      1.434 f
  datamem/par_mem_logic_inst/addr_crsbar_0/addrs_from_lsus[5] (addr_crsbar_PORTS2_LSU_ADDRW14_CTRLW1_PM_FUNC2)
                                                         0.000      1.434 f
  datamem/par_mem_logic_inst/addr_crsbar_0/U64/Z (C8T28SOI_LL_AOI22X2_P16)
                                                         0.051 *    1.485 r
  datamem/par_mem_logic_inst/addr_crsbar_0/U66/Z (C8T28SOIDV_LLS_XNOR2X4_P16)
                                                         0.043 *    1.528 r
  datamem/par_mem_logic_inst/addr_crsbar_0/U67/Z (C8T28SOIDV_LLS_XNOR3X1_P16)
                                                         0.047 *    1.575 r
  datamem/par_mem_logic_inst/addr_crsbar_0/U74/Z (C8T28SOI_LL_NAND2X2_P16)
                                                         0.026 *    1.601 f
  datamem/par_mem_logic_inst/addr_crsbar_0/U75/Z (C8T28SOI_LL_OAI12X3_P16)
                                                         0.020 *    1.621 r
  datamem/par_mem_logic_inst/addr_crsbar_0/U76/Z (C8T28SOIDV_LLS_XNOR2X4_P16)
                                                         0.031 *    1.653 r
  datamem/par_mem_logic_inst/addr_crsbar_0/U81/Z (C8T28SOIDV_LLS_XNOR2X4_P16)
                                                         0.025 *    1.678 f
  datamem/par_mem_logic_inst/addr_crsbar_0/module_nums[0] (addr_crsbar_PORTS2_LSU_ADDRW14_CTRLW1_PM_FUNC2)
                                                         0.000      1.678 f
  datamem/par_mem_logic_inst/ctrl_units_0/module_nums[0] (ctrl_units_PORTS2_CTRLW1)
                                                         0.000      1.678 f
  datamem/par_mem_logic_inst/ctrl_units_0/ctrl_uniti_0/module_num[0] (ctrl_unit_PORTS2_CTRLW1_1)
                                                         0.000      1.678 f
  datamem/par_mem_logic_inst/ctrl_units_0/ctrl_uniti_0/U12/Z (C8T28SOI_LL_NOR2AX4_P16)
                                                         0.026 *    1.704 r
  datamem/par_mem_logic_inst/ctrl_units_0/ctrl_uniti_0/U13/Z (C8T28SOI_LL_AOI22X2_P16)
                                                         0.019 *    1.723 f
  datamem/par_mem_logic_inst/ctrl_units_0/ctrl_uniti_0/U19/Z (C8T28SOI_LL_AND2X5_P16)
                                                         0.033 *    1.757 f
  datamem/par_mem_logic_inst/ctrl_units_0/ctrl_uniti_0/mem_en_x (ctrl_unit_PORTS2_CTRLW1_1)
                                                         0.000      1.757 f
  datamem/par_mem_logic_inst/ctrl_units_0/U18/Z (C8T28SOI_LL_NAND2AX2_P16)
                                                         0.049 *    1.806 f
  datamem/par_mem_logic_inst/ctrl_units_0/mem_en_xs[0] (ctrl_units_PORTS2_CTRLW1)
                                                         0.000      1.806 f
  datamem/par_mem_logic_inst/mem_en_xs[0] (par_mem_logic_PORTS2_LSU_ADDRW14_CTRLW1_DATAW32_PM_FUNC2)
                                                         0.000      1.806 f
  datamem/dmem_2/en_x (synch_singleport_mem_wrapper_DATAW32_ADDRW13_0)
                                                         0.000      1.806 f
  datamem/dmem_2/en_wr_arbiter/en (block_en_wr_arbiter_ADDRW13_NBLOCKS9_0)
                                                         0.000      1.806 f
  datamem/dmem_2/en_wr_arbiter/U6/Z (C8T28SOI_LL_IVX2_P16)
                                                         0.087 *    1.892 r
  datamem/dmem_2/en_wr_arbiter/U27/Z (C8T28SOI_LL_NAND3X3_P16)
                                                         0.053 *    1.945 f
  datamem/dmem_2/en_wr_arbiter/en_blocks[4] (block_en_wr_arbiter_ADDRW13_NBLOCKS9_0)
                                                         0.000      1.945 f
  datamem/dmem_2/cacti_mem_x_4/en_x (cacti_mem_wrapper_DATAW32_ADDRW8_0)
                                                         0.000      1.945 f
  datamem/dmem_2/cacti_mem_x_4/mem_256x32/mem_en_x (ram_256x32)
                                                         0.000 *    1.945 f
  data arrival time                                                 1.945

  clock clk (rise edge)                                 20.000     20.000
  clock network delay (ideal)                            0.010     20.010
  clock uncertainty                                     -0.010     20.000
  datamem/dmem_2/cacti_mem_x_4/mem_256x32/clk (ram_256x32)
                                                         0.000     20.000 r
  library setup time                                    -0.519     19.481
  data required time                                               19.481
  --------------------------------------------------------------------------
  data required time                                               19.481
  data arrival time                                                -1.945
  --------------------------------------------------------------------------
  slack (MET)                                                      17.535


  Startpoint: core/loopbuffer/clk_r_REG624_S42
              (rising edge-triggered flip-flop clocked by clk)
  Endpoint: datamem/dmem_2/cacti_mem_x_3/mem_128x32
            (rising edge-triggered flip-flop clocked by clk)
  Path Group: clk
  Path Type: max

  Point                                                   Incr       Path
  --------------------------------------------------------------------------
  clock clk (rise edge)                                  0.000      0.000
  clock network delay (ideal)                            0.010      0.010
  core/loopbuffer/clk_r_REG624_S42/CP (C8T28SOIDV_LL_DFPRQX10_P16)
                                                         0.000      0.010 r
  core/loopbuffer/clk_r_REG624_S42/Q (C8T28SOIDV_LL_DFPRQX10_P16)
                                                         0.056      0.066 r
  core/loopbuffer/U31/Z (C8T28SOI_LL_NOR2X4_P16)         0.013 *    0.079 f
  core/loopbuffer/U32/Z (C8T28SOI_LL_IVX2_P16)           0.029 *    0.108 r
  core/loopbuffer/U36/Z (C8T28SOI_LL_AOI22X2_P16)        0.112 *    0.219 f
  core/loopbuffer/U19/Z (C8T28SOI_LL_BFX5_P16)           0.112 *    0.331 f
  core/loopbuffer/U20/Z (C8T28SOI_LL_IVX2_P16)           0.129 *    0.460 r
  core/loopbuffer/U605/Z (C8T28SOI_LL_OA22X5_P16)        0.089 *    0.549 r
  core/loopbuffer/glock_out (tta0_loopbuf_1_32_51_1_0)
                                                         0.000      0.549 r
  core/inst_decoder/lock (tta0_decoder)                  0.000      0.549 r
  core/inst_decoder/U63/Z (C8T28SOI_LL_NOR2X4_P16)       0.022 *    0.570 f
  core/inst_decoder/U64/Z (C8T28SOI_LL_NAND2AX2_P16)     0.026 *    0.596 r
  core/inst_decoder/glock[7] (tta0_decoder)              0.000      0.596 r
  U292/Z (C8T28SOI_LL_BFX9_P16)                          0.115 *    0.712 r
  core/fu_lsu_r/glock (fu_ldw_stw_always_4_dataw32_addrw16_1)
                                                         0.000      0.712 r
  core/fu_lsu_r/U131/Z (C8T28SOI_LL_OR2X5_P16)           0.082 *    0.794 r
  core/fu_lsu_r/mem_en_x[0] (fu_ldw_stw_always_4_dataw32_addrw16_1)
                                                         0.000      0.794 r
  U159/Z (C8T28SOI_LL_NOR2AX4_P16)                       0.280 *    1.074 r
  U296/Z (C8T28SOI_LL_BFX5_P16)                          0.161 *    1.235 r
  U297/Z (C8T28SOI_LL_IVX2_P16)                          0.072 *    1.307 f
  U246/Z (C8T28SOI_LL_AOI22X2_P16)                       0.042 *    1.349 r
  U247/Z (C8T28SOI_LL_IVX2_P16)                          0.015 *    1.364 f
  datamem/scheduler/lsu_addr_a[5] (par_mem_scheduler_dataw32_addrw14_ports2_rd_delay1)
                                                         0.000      1.364 f
  datamem/scheduler/addr_a_conv/data_in[5] (ser_par_conv_portw14_port_cnt2_1)
                                                         0.000      1.364 f
  datamem/scheduler/addr_a_conv/U18/Z (C8T28SOI_LL_IVX2_P16)
                                                         0.015 *    1.380 r
  datamem/scheduler/addr_a_conv/U19/Z (C8T28SOI_LL_IVX2_P16)
                                                         0.012 *    1.392 f
  datamem/scheduler/addr_a_conv/data_out[5] (ser_par_conv_portw14_port_cnt2_1)
                                                         0.000      1.392 f
  datamem/scheduler/U177/Z (C8T28SOI_LL_AOI22X2_P16)     0.019 *    1.410 r
  datamem/scheduler/U178/Z (C8T28SOI_LL_IVX2_P16)        0.023 *    1.434 f
  datamem/scheduler/addr[5] (par_mem_scheduler_dataw32_addrw14_ports2_rd_delay1)
                                                         0.000      1.434 f
  datamem/par_mem_logic_inst/addrs_from_lsus[5] (par_mem_logic_PORTS2_LSU_ADDRW14_CTRLW1_DATAW32_PM_FUNC2)
                                                         0.000      1.434 f
  datamem/par_mem_logic_inst/addr_crsbar_0/addrs_from_lsus[5] (addr_crsbar_PORTS2_LSU_ADDRW14_CTRLW1_PM_FUNC2)
                                                         0.000      1.434 f
  datamem/par_mem_logic_inst/addr_crsbar_0/U64/Z (C8T28SOI_LL_AOI22X2_P16)
                                                         0.051 *    1.485 r
  datamem/par_mem_logic_inst/addr_crsbar_0/U66/Z (C8T28SOIDV_LLS_XNOR2X4_P16)
                                                         0.043 *    1.528 r
  datamem/par_mem_logic_inst/addr_crsbar_0/U67/Z (C8T28SOIDV_LLS_XNOR3X1_P16)
                                                         0.047 *    1.575 r
  datamem/par_mem_logic_inst/addr_crsbar_0/U74/Z (C8T28SOI_LL_NAND2X2_P16)
                                                         0.026 *    1.601 f
  datamem/par_mem_logic_inst/addr_crsbar_0/U75/Z (C8T28SOI_LL_OAI12X3_P16)
                                                         0.020 *    1.621 r
  datamem/par_mem_logic_inst/addr_crsbar_0/U76/Z (C8T28SOIDV_LLS_XNOR2X4_P16)
                                                         0.031 *    1.653 r
  datamem/par_mem_logic_inst/addr_crsbar_0/U81/Z (C8T28SOIDV_LLS_XNOR2X4_P16)
                                                         0.025 *    1.678 f
  datamem/par_mem_logic_inst/addr_crsbar_0/module_nums[0] (addr_crsbar_PORTS2_LSU_ADDRW14_CTRLW1_PM_FUNC2)
                                                         0.000      1.678 f
  datamem/par_mem_logic_inst/ctrl_units_0/module_nums[0] (ctrl_units_PORTS2_CTRLW1)
                                                         0.000      1.678 f
  datamem/par_mem_logic_inst/ctrl_units_0/ctrl_uniti_0/module_num[0] (ctrl_unit_PORTS2_CTRLW1_1)
                                                         0.000      1.678 f
  datamem/par_mem_logic_inst/ctrl_units_0/ctrl_uniti_0/U12/Z (C8T28SOI_LL_NOR2AX4_P16)
                                                         0.026 *    1.704 r
  datamem/par_mem_logic_inst/ctrl_units_0/ctrl_uniti_0/U13/Z (C8T28SOI_LL_AOI22X2_P16)
                                                         0.019 *    1.723 f
  datamem/par_mem_logic_inst/ctrl_units_0/ctrl_uniti_0/U19/Z (C8T28SOI_LL_AND2X5_P16)
                                                         0.033 *    1.757 f
  datamem/par_mem_logic_inst/ctrl_units_0/ctrl_uniti_0/mem_en_x (ctrl_unit_PORTS2_CTRLW1_1)
                                                         0.000      1.757 f
  datamem/par_mem_logic_inst/ctrl_units_0/U18/Z (C8T28SOI_LL_NAND2AX2_P16)
                                                         0.049 *    1.806 f
  datamem/par_mem_logic_inst/ctrl_units_0/mem_en_xs[0] (ctrl_units_PORTS2_CTRLW1)
                                                         0.000      1.806 f
  datamem/par_mem_logic_inst/mem_en_xs[0] (par_mem_logic_PORTS2_LSU_ADDRW14_CTRLW1_DATAW32_PM_FUNC2)
                                                         0.000      1.806 f
  datamem/dmem_2/en_x (synch_singleport_mem_wrapper_DATAW32_ADDRW13_0)
                                                         0.000      1.806 f
  datamem/dmem_2/en_wr_arbiter/en (block_en_wr_arbiter_ADDRW13_NBLOCKS9_0)
                                                         0.000      1.806 f
  datamem/dmem_2/en_wr_arbiter/U6/Z (C8T28SOI_LL_IVX2_P16)
                                                         0.087 *    1.892 r
  datamem/dmem_2/en_wr_arbiter/U26/Z (C8T28SOI_LL_NAND3X3_P16)
                                                         0.052 *    1.945 f
  datamem/dmem_2/en_wr_arbiter/en_blocks[3] (block_en_wr_arbiter_ADDRW13_NBLOCKS9_0)
                                                         0.000      1.945 f
  datamem/dmem_2/cacti_mem_x_3/en_x (cacti_mem_wrapper_DATAW32_ADDRW7_0)
                                                         0.000      1.945 f
  datamem/dmem_2/cacti_mem_x_3/mem_128x32/mem_en_x (ram_128x32)
                                                         0.000 *    1.945 f
  data arrival time                                                 1.945

  clock clk (rise edge)                                 20.000     20.000
  clock network delay (ideal)                            0.010     20.010
  clock uncertainty                                     -0.010     20.000
  datamem/dmem_2/cacti_mem_x_3/mem_128x32/clk (ram_128x32)
                                                         0.000     20.000 r
  library setup time                                    -0.520     19.480
  data required time                                               19.480
  --------------------------------------------------------------------------
  data required time                                               19.480
  data arrival time                                                -1.945
  --------------------------------------------------------------------------
  slack (MET)                                                      17.536


  Startpoint: core/loopbuffer/clk_r_REG624_S42
              (rising edge-triggered flip-flop clocked by clk)
  Endpoint: datamem/dmem_2/cacti_mem_0/mem_32x32
            (rising edge-triggered flip-flop clocked by clk)
  Path Group: clk
  Path Type: max

  Point                                                   Incr       Path
  --------------------------------------------------------------------------
  clock clk (rise edge)                                  0.000      0.000
  clock network delay (ideal)                            0.010      0.010
  core/loopbuffer/clk_r_REG624_S42/CP (C8T28SOIDV_LL_DFPRQX10_P16)
                                                         0.000      0.010 r
  core/loopbuffer/clk_r_REG624_S42/Q (C8T28SOIDV_LL_DFPRQX10_P16)
                                                         0.056      0.066 r
  core/loopbuffer/U31/Z (C8T28SOI_LL_NOR2X4_P16)         0.013 *    0.079 f
  core/loopbuffer/U32/Z (C8T28SOI_LL_IVX2_P16)           0.029 *    0.108 r
  core/loopbuffer/U36/Z (C8T28SOI_LL_AOI22X2_P16)        0.112 *    0.219 f
  core/loopbuffer/U19/Z (C8T28SOI_LL_BFX5_P16)           0.112 *    0.331 f
  core/loopbuffer/U20/Z (C8T28SOI_LL_IVX2_P16)           0.129 *    0.460 r
  core/loopbuffer/U605/Z (C8T28SOI_LL_OA22X5_P16)        0.089 *    0.549 r
  core/loopbuffer/glock_out (tta0_loopbuf_1_32_51_1_0)
                                                         0.000      0.549 r
  core/inst_decoder/lock (tta0_decoder)                  0.000      0.549 r
  core/inst_decoder/U63/Z (C8T28SOI_LL_NOR2X4_P16)       0.022 *    0.570 f
  core/inst_decoder/U64/Z (C8T28SOI_LL_NAND2AX2_P16)     0.026 *    0.596 r
  core/inst_decoder/glock[7] (tta0_decoder)              0.000      0.596 r
  U292/Z (C8T28SOI_LL_BFX9_P16)                          0.115 *    0.712 r
  core/fu_lsu_r/glock (fu_ldw_stw_always_4_dataw32_addrw16_1)
                                                         0.000      0.712 r
  core/fu_lsu_r/U131/Z (C8T28SOI_LL_OR2X5_P16)           0.082 *    0.794 r
  core/fu_lsu_r/mem_en_x[0] (fu_ldw_stw_always_4_dataw32_addrw16_1)
                                                         0.000      0.794 r
  U159/Z (C8T28SOI_LL_NOR2AX4_P16)                       0.280 *    1.074 r
  U296/Z (C8T28SOI_LL_BFX5_P16)                          0.161 *    1.235 r
  U297/Z (C8T28SOI_LL_IVX2_P16)                          0.072 *    1.307 f
  U246/Z (C8T28SOI_LL_AOI22X2_P16)                       0.042 *    1.349 r
  U247/Z (C8T28SOI_LL_IVX2_P16)                          0.015 *    1.364 f
  datamem/scheduler/lsu_addr_a[5] (par_mem_scheduler_dataw32_addrw14_ports2_rd_delay1)
                                                         0.000      1.364 f
  datamem/scheduler/addr_a_conv/data_in[5] (ser_par_conv_portw14_port_cnt2_1)
                                                         0.000      1.364 f
  datamem/scheduler/addr_a_conv/U18/Z (C8T28SOI_LL_IVX2_P16)
                                                         0.015 *    1.380 r
  datamem/scheduler/addr_a_conv/U19/Z (C8T28SOI_LL_IVX2_P16)
                                                         0.012 *    1.392 f
  datamem/scheduler/addr_a_conv/data_out[5] (ser_par_conv_portw14_port_cnt2_1)
                                                         0.000      1.392 f
  datamem/scheduler/U177/Z (C8T28SOI_LL_AOI22X2_P16)     0.019 *    1.410 r
  datamem/scheduler/U178/Z (C8T28SOI_LL_IVX2_P16)        0.023 *    1.434 f
  datamem/scheduler/addr[5] (par_mem_scheduler_dataw32_addrw14_ports2_rd_delay1)
                                                         0.000      1.434 f
  datamem/par_mem_logic_inst/addrs_from_lsus[5] (par_mem_logic_PORTS2_LSU_ADDRW14_CTRLW1_DATAW32_PM_FUNC2)
                                                         0.000      1.434 f
  datamem/par_mem_logic_inst/addr_crsbar_0/addrs_from_lsus[5] (addr_crsbar_PORTS2_LSU_ADDRW14_CTRLW1_PM_FUNC2)
                                                         0.000      1.434 f
  datamem/par_mem_logic_inst/addr_crsbar_0/U64/Z (C8T28SOI_LL_AOI22X2_P16)
                                                         0.051 *    1.485 r
  datamem/par_mem_logic_inst/addr_crsbar_0/U66/Z (C8T28SOIDV_LLS_XNOR2X4_P16)
                                                         0.043 *    1.528 r
  datamem/par_mem_logic_inst/addr_crsbar_0/U67/Z (C8T28SOIDV_LLS_XNOR3X1_P16)
                                                         0.047 *    1.575 r
  datamem/par_mem_logic_inst/addr_crsbar_0/U74/Z (C8T28SOI_LL_NAND2X2_P16)
                                                         0.026 *    1.601 f
  datamem/par_mem_logic_inst/addr_crsbar_0/U75/Z (C8T28SOI_LL_OAI12X3_P16)
                                                         0.020 *    1.621 r
  datamem/par_mem_logic_inst/addr_crsbar_0/U76/Z (C8T28SOIDV_LLS_XNOR2X4_P16)
                                                         0.031 *    1.653 r
  datamem/par_mem_logic_inst/addr_crsbar_0/U81/Z (C8T28SOIDV_LLS_XNOR2X4_P16)
                                                         0.025 *    1.678 f
  datamem/par_mem_logic_inst/addr_crsbar_0/module_nums[0] (addr_crsbar_PORTS2_LSU_ADDRW14_CTRLW1_PM_FUNC2)
                                                         0.000      1.678 f
  datamem/par_mem_logic_inst/ctrl_units_0/module_nums[0] (ctrl_units_PORTS2_CTRLW1)
                                                         0.000      1.678 f
  datamem/par_mem_logic_inst/ctrl_units_0/ctrl_uniti_0/module_num[0] (ctrl_unit_PORTS2_CTRLW1_1)
                                                         0.000      1.678 f
  datamem/par_mem_logic_inst/ctrl_units_0/ctrl_uniti_0/U12/Z (C8T28SOI_LL_NOR2AX4_P16)
                                                         0.026 *    1.704 r
  datamem/par_mem_logic_inst/ctrl_units_0/ctrl_uniti_0/U13/Z (C8T28SOI_LL_AOI22X2_P16)
                                                         0.019 *    1.723 f
  datamem/par_mem_logic_inst/ctrl_units_0/ctrl_uniti_0/U19/Z (C8T28SOI_LL_AND2X5_P16)
                                                         0.033 *    1.757 f
  datamem/par_mem_logic_inst/ctrl_units_0/ctrl_uniti_0/mem_en_x (ctrl_unit_PORTS2_CTRLW1_1)
                                                         0.000      1.757 f
  datamem/par_mem_logic_inst/ctrl_units_0/U18/Z (C8T28SOI_LL_NAND2AX2_P16)
                                                         0.049 *    1.806 f
  datamem/par_mem_logic_inst/ctrl_units_0/mem_en_xs[0] (ctrl_units_PORTS2_CTRLW1)
                                                         0.000      1.806 f
  datamem/par_mem_logic_inst/mem_en_xs[0] (par_mem_logic_PORTS2_LSU_ADDRW14_CTRLW1_DATAW32_PM_FUNC2)
                                                         0.000      1.806 f
  datamem/dmem_2/en_x (synch_singleport_mem_wrapper_DATAW32_ADDRW13_0)
                                                         0.000      1.806 f
  datamem/dmem_2/en_wr_arbiter/en (block_en_wr_arbiter_ADDRW13_NBLOCKS9_0)
                                                         0.000      1.806 f
  datamem/dmem_2/en_wr_arbiter/U6/Z (C8T28SOI_LL_IVX2_P16)
                                                         0.087 *    1.892 r
  datamem/dmem_2/en_wr_arbiter/U23/Z (C8T28SOI_LL_NAND3X3_P16)
                                                         0.047 *    1.939 f
  datamem/dmem_2/en_wr_arbiter/en_blocks[0] (block_en_wr_arbiter_ADDRW13_NBLOCKS9_0)
                                                         0.000      1.939 f
  datamem/dmem_2/cacti_mem_0/en_x (cacti_mem_wrapper_DATAW32_ADDRW5_1)
                                                         0.000      1.939 f
  datamem/dmem_2/cacti_mem_0/mem_32x32/mem_en_x (ram_32x32)
                                                         0.000 *    1.939 f
  data arrival time                                                 1.939

  clock clk (rise edge)                                 20.000     20.000
  clock network delay (ideal)                            0.010     20.010
  clock uncertainty                                     -0.010     20.000
  datamem/dmem_2/cacti_mem_0/mem_32x32/clk (ram_32x32)
                                                         0.000     20.000 r
  library setup time                                    -0.515     19.485
  data required time                                               19.485
  --------------------------------------------------------------------------
  data required time                                               19.485
  data arrival time                                                -1.939
  --------------------------------------------------------------------------
  slack (MET)                                                      17.546


  Startpoint: core/loopbuffer/clk_r_REG624_S42
              (rising edge-triggered flip-flop clocked by clk)
  Endpoint: datamem/dmem_1/cacti_mem_x_8/mem_4096x32
            (rising edge-triggered flip-flop clocked by clk)
  Path Group: clk
  Path Type: max

  Point                                                   Incr       Path
  --------------------------------------------------------------------------
  clock clk (rise edge)                                  0.000      0.000
  clock network delay (ideal)                            0.010      0.010
  core/loopbuffer/clk_r_REG624_S42/CP (C8T28SOIDV_LL_DFPRQX10_P16)
                                                         0.000      0.010 r
  core/loopbuffer/clk_r_REG624_S42/Q (C8T28SOIDV_LL_DFPRQX10_P16)
                                                         0.056      0.066 r
  core/loopbuffer/U31/Z (C8T28SOI_LL_NOR2X4_P16)         0.013 *    0.079 f
  core/loopbuffer/U32/Z (C8T28SOI_LL_IVX2_P16)           0.029 *    0.108 r
  core/loopbuffer/U36/Z (C8T28SOI_LL_AOI22X2_P16)        0.112 *    0.219 f
  core/loopbuffer/U19/Z (C8T28SOI_LL_BFX5_P16)           0.112 *    0.331 f
  core/loopbuffer/U20/Z (C8T28SOI_LL_IVX2_P16)           0.129 *    0.460 r
  core/loopbuffer/U605/Z (C8T28SOI_LL_OA22X5_P16)        0.089 *    0.549 r
  core/loopbuffer/glock_out (tta0_loopbuf_1_32_51_1_0)
                                                         0.000      0.549 r
  core/inst_decoder/lock (tta0_decoder)                  0.000      0.549 r
  core/inst_decoder/U63/Z (C8T28SOI_LL_NOR2X4_P16)       0.022 *    0.570 f
  core/inst_decoder/U64/Z (C8T28SOI_LL_NAND2AX2_P16)     0.026 *    0.596 r
  core/inst_decoder/glock[7] (tta0_decoder)              0.000      0.596 r
  U292/Z (C8T28SOI_LL_BFX9_P16)                          0.115 *    0.712 r
  core/fu_lsu_r/glock (fu_ldw_stw_always_4_dataw32_addrw16_1)
                                                         0.000      0.712 r
  core/fu_lsu_r/U131/Z (C8T28SOI_LL_OR2X5_P16)           0.082 *    0.794 r
  core/fu_lsu_r/mem_en_x[0] (fu_ldw_stw_always_4_dataw32_addrw16_1)
                                                         0.000      0.794 r
  U159/Z (C8T28SOI_LL_NOR2AX4_P16)                       0.280 *    1.074 r
  U296/Z (C8T28SOI_LL_BFX5_P16)                          0.161 *    1.235 r
  U297/Z (C8T28SOI_LL_IVX2_P16)                          0.072 *    1.307 f
  U246/Z (C8T28SOI_LL_AOI22X2_P16)                       0.042 *    1.349 r
  U247/Z (C8T28SOI_LL_IVX2_P16)                          0.015 *    1.364 f
  datamem/scheduler/lsu_addr_a[5] (par_mem_scheduler_dataw32_addrw14_ports2_rd_delay1)
                                                         0.000      1.364 f
  datamem/scheduler/addr_a_conv/data_in[5] (ser_par_conv_portw14_port_cnt2_1)
                                                         0.000      1.364 f
  datamem/scheduler/addr_a_conv/U18/Z (C8T28SOI_LL_IVX2_P16)
                                                         0.015 *    1.380 r
  datamem/scheduler/addr_a_conv/U19/Z (C8T28SOI_LL_IVX2_P16)
                                                         0.012 *    1.392 f
  datamem/scheduler/addr_a_conv/data_out[5] (ser_par_conv_portw14_port_cnt2_1)
                                                         0.000      1.392 f
  datamem/scheduler/U177/Z (C8T28SOI_LL_AOI22X2_P16)     0.019 *    1.410 r
  datamem/scheduler/U178/Z (C8T28SOI_LL_IVX2_P16)        0.023 *    1.434 f
  datamem/scheduler/addr[5] (par_mem_scheduler_dataw32_addrw14_ports2_rd_delay1)
                                                         0.000      1.434 f
  datamem/par_mem_logic_inst/addrs_from_lsus[5] (par_mem_logic_PORTS2_LSU_ADDRW14_CTRLW1_DATAW32_PM_FUNC2)
                                                         0.000      1.434 f
  datamem/par_mem_logic_inst/addr_crsbar_0/addrs_from_lsus[5] (addr_crsbar_PORTS2_LSU_ADDRW14_CTRLW1_PM_FUNC2)
                                                         0.000      1.434 f
  datamem/par_mem_logic_inst/addr_crsbar_0/U64/Z (C8T28SOI_LL_AOI22X2_P16)
                                                         0.051 *    1.485 r
  datamem/par_mem_logic_inst/addr_crsbar_0/U66/Z (C8T28SOIDV_LLS_XNOR2X4_P16)
                                                         0.043 *    1.528 r
  datamem/par_mem_logic_inst/addr_crsbar_0/U67/Z (C8T28SOIDV_LLS_XNOR3X1_P16)
                                                         0.047 *    1.575 r
  datamem/par_mem_logic_inst/addr_crsbar_0/U74/Z (C8T28SOI_LL_NAND2X2_P16)
                                                         0.026 *    1.601 f
  datamem/par_mem_logic_inst/addr_crsbar_0/U75/Z (C8T28SOI_LL_OAI12X3_P16)
                                                         0.020 *    1.621 r
  datamem/par_mem_logic_inst/addr_crsbar_0/U76/Z (C8T28SOIDV_LLS_XNOR2X4_P16)
                                                         0.031 *    1.653 r
  datamem/par_mem_logic_inst/addr_crsbar_0/U81/Z (C8T28SOIDV_LLS_XNOR2X4_P16)
                                                         0.035 *    1.688 r
  datamem/par_mem_logic_inst/addr_crsbar_0/module_nums[0] (addr_crsbar_PORTS2_LSU_ADDRW14_CTRLW1_PM_FUNC2)
                                                         0.000      1.688 r
  datamem/par_mem_logic_inst/ctrl_units_0/module_nums[0] (ctrl_units_PORTS2_CTRLW1)
                                                         0.000      1.688 r
  datamem/par_mem_logic_inst/ctrl_units_0/ctrl_uniti_0/module_num[0] (ctrl_unit_PORTS2_CTRLW1_1)
                                                         0.000      1.688 r
  datamem/par_mem_logic_inst/ctrl_units_0/ctrl_uniti_0/U20/Z (C8T28SOI_LL_AND2X5_P16)
                                                         0.034 *    1.722 r
  datamem/par_mem_logic_inst/ctrl_units_0/ctrl_uniti_0/ctrl_matrix_row_out[1] (ctrl_unit_PORTS2_CTRLW1_1)
                                                         0.000      1.722 r
  datamem/par_mem_logic_inst/ctrl_units_0/ctrl_uniti_1/t_ctrl_matrix_row_in[0] (ctrl_unit_PORTS2_CTRLW1_0)
                                                         0.000      1.722 r
  datamem/par_mem_logic_inst/ctrl_units_0/ctrl_uniti_1/U17/Z (C8T28SOI_LL_AOI22X2_P16)
                                                         0.017 *    1.739 f
  datamem/par_mem_logic_inst/ctrl_units_0/ctrl_uniti_1/U25/Z (C8T28SOI_LL_AND2X5_P16)
                                                         0.036 *    1.775 f
  datamem/par_mem_logic_inst/ctrl_units_0/ctrl_uniti_1/mem_en_x (ctrl_unit_PORTS2_CTRLW1_0)
                                                         0.000      1.775 f
  datamem/par_mem_logic_inst/ctrl_units_0/U19/Z (C8T28SOI_LL_NAND2AX2_P16)
                                                         0.023 *    1.798 f
  datamem/par_mem_logic_inst/ctrl_units_0/mem_en_xs[1] (ctrl_units_PORTS2_CTRLW1)
                                                         0.000      1.798 f
  datamem/par_mem_logic_inst/mem_en_xs[1] (par_mem_logic_PORTS2_LSU_ADDRW14_CTRLW1_DATAW32_PM_FUNC2)
                                                         0.000      1.798 f
  datamem/dmem_1/en_x (synch_singleport_mem_wrapper_DATAW32_ADDRW13_1)
                                                         0.000      1.798 f
  datamem/dmem_1/en_wr_arbiter/en (block_en_wr_arbiter_ADDRW13_NBLOCKS9_1)
                                                         0.000      1.798 f
  datamem/dmem_1/en_wr_arbiter/U6/Z (C8T28SOI_LL_IVX2_P16)
                                                         0.059 *    1.857 r
  datamem/dmem_1/en_wr_arbiter/U8/Z (C8T28SOI_LL_NAND2X2_P16)
                                                         0.069 *    1.926 f
  datamem/dmem_1/en_wr_arbiter/en_blocks[8] (block_en_wr_arbiter_ADDRW13_NBLOCKS9_1)
                                                         0.000      1.926 f
  datamem/dmem_1/cacti_mem_x_8/en_x (cacti_mem_wrapper_DATAW32_ADDRW12_1)
                                                         0.000      1.926 f
  datamem/dmem_1/cacti_mem_x_8/mem_4096x32/mem_en_x (ram_4096x32)
                                                         0.000 *    1.926 f
  data arrival time                                                 1.926

  clock clk (rise edge)                                 20.000     20.000
  clock network delay (ideal)                            0.010     20.010
  clock uncertainty                                     -0.010     20.000
  datamem/dmem_1/cacti_mem_x_8/mem_4096x32/clk (ram_4096x32)
                                                         0.000     20.000 r
  library setup time                                    -0.525     19.475
  data required time                                               19.475
  --------------------------------------------------------------------------
  data required time                                               19.475
  data arrival time                                                -1.926
  --------------------------------------------------------------------------
  slack (MET)                                                      17.549


1
