Warning: There are 87 switching activity information conflicts. (PWR-19)
 
****************************************
Report : saif
Design : proc
Version: M-2016.12-SP5-1
Date   : Sat Jul 28 00:06:16 2018
****************************************

  

--------------------------------------------------------------------------------
              User              Default           Propagated
Object type   Annotated (%)     Activity (%)      Activity (%)       Total
--------------------------------------------------------------------------------
  
 Nets         297(58.58%)       0(0.00%)          210(41.42%)        507
 Ports        229(100.00%)      0(0.00%)          0(0.00%)           229
 Pins         271(35.47%)       0(0.00%)          493(64.53%)        764
--------------------------------------------------------------------------------
1
