********************************************************************************
                        Threshold Voltage Group Report                         

Vth Group                All                Blackbox           Non-blackbox
Name                    cells                cells                cells
********************************************************************************
undefined           21536 (100.00%)        124 (100.00%)      21412 (100.00%)   
********************************************************************************

Vth Group                All                Blackbox           Non-blackbox
Name                  cell area            cell area            cell area
********************************************************************************
undefined       127608.29 (100.00%)  110633.86 (100.00%)   16974.43 (100.00%)   
********************************************************************************
1
