Warning: There are 73 switching activity information conflicts. (PWR-19)
 
****************************************
Report : saif
Design : proc
Version: M-2016.12-SP5-1
Date   : Fri Jul 27 23:04:46 2018
****************************************

  

--------------------------------------------------------------------------------
              User              Default           Propagated
Object type   Annotated (%)     Activity (%)      Activity (%)       Total
--------------------------------------------------------------------------------
  
 Nets         302(64.53%)       0(0.00%)          166(35.47%)        468
 Ports        229(100.00%)      0(0.00%)          0(0.00%)           229
 Pins         265(39.14%)       0(0.00%)          412(60.86%)        677
--------------------------------------------------------------------------------
1
