********************************************************************************
                        Threshold Voltage Group Report                         

Vth Group                All                Blackbox           Non-blackbox
Name                    cells                cells                cells
********************************************************************************
undefined           20020 (100.00%)        118 (100.00%)      19902 (100.00%)   
********************************************************************************

Vth Group                All                Blackbox           Non-blackbox
Name                  cell area            cell area            cell area
********************************************************************************
undefined       126478.51 (100.00%)  110624.06 (100.00%)   15854.45 (100.00%)   
********************************************************************************
1
