Warning: There are 87 switching activity information conflicts. (PWR-19)
 
****************************************
Report : saif
Design : proc
Version: M-2016.12-SP5-1
Date   : Fri Jul 27 23:45:57 2018
****************************************

  

--------------------------------------------------------------------------------
              User              Default           Propagated
Object type   Annotated (%)     Activity (%)      Activity (%)       Total
--------------------------------------------------------------------------------
  
 Nets         299(58.63%)       0(0.00%)          211(41.37%)        510
 Ports        229(100.00%)      0(0.00%)          0(0.00%)           229
 Pins         276(35.98%)       0(0.00%)          491(64.02%)        767
--------------------------------------------------------------------------------
1
