Information: Updating design information... (UID-85)
 
****************************************
Report : timing
        -path full
        -delay max
        -max_paths 10
Design : proc
Version: M-2016.12-SP5-1
Date   : Fri Jul 27 23:45:06 2018
****************************************

 * Some/all delay information is back-annotated.

Operating Conditions: tt28_0.60V_0.00V_0.00V_0.00V_25C   Library: C28SOI_SC_8_CLK_LL
Wire Load Model Mode: Inactive.

  Startpoint: core/fu_TFG/fu_arch/u5/lut/clk_r_REG828_S44
              (rising edge-triggered flip-flop clocked by clk)
  Endpoint: core/fu_TFG/fu_arch/u6/clk_r_REG801_S45
            (rising edge-triggered flip-flop clocked by clk)
  Path Group: clk
  Path Type: max

  Point                                                   Incr       Path
  --------------------------------------------------------------------------
  clock clk (rise edge)                                  0.000      0.000
  clock network delay (ideal)                            0.010      0.010
  core/fu_TFG/fu_arch/u5/lut/clk_r_REG828_S44/CP (C8T28SOIDV_LL_DFPRQX10_P10)
                                                         0.000      0.010 r
  core/fu_TFG/fu_arch/u5/lut/clk_r_REG828_S44/Q (C8T28SOIDV_LL_DFPRQX10_P10)
                                                         0.299      0.309 r
  core/fu_TFG/fu_arch/u5/lut/U929/Z (C8T28SOI_LL_CNBFX28_P0)
                                                         0.170 *    0.479 r
  core/fu_TFG/fu_arch/u5/lut/U437/Z (C8T28SOI_LLS_NOR2X31_P10)
                                                         0.081 *    0.560 f
  core/fu_TFG/fu_arch/u5/lut/U374/Z (C8T28SOIDV_LL_IVX23_P10)
                                                         0.092 *    0.652 r
  core/fu_TFG/fu_arch/u5/lut/U441/Z (C8T28SOIDV_LL_NOR2X39_P16)
                                                         0.080 *    0.733 f
  core/fu_TFG/fu_arch/u5/lut/U732/Z (C8T28SOIDV_LL_IVX68_P16)
                                                         0.083 *    0.816 r
  core/fu_TFG/fu_arch/u5/lut/U892/Z (C8T28SOI_LL_NOR2X8_P16)
                                                         0.062 *    0.878 f
  core/fu_TFG/fu_arch/u5/lut/U977/Z (C8T28SOI_LL_IVX5_P16)
                                                         0.190 *    1.068 r
  core/fu_TFG/fu_arch/u5/lut/U1885/Z (C8T28SOI_LL_NAND2X4_P16)
                                                         0.202 *    1.270 f
  core/fu_TFG/fu_arch/u5/lut/U1935/Z (C8T28SOI_LL_NOR3X3_P16)
                                                         0.190 *    1.460 r
  core/fu_TFG/fu_arch/u5/lut/U1936/Z (C8T28SOI_LL_NAND3X3_P16)
                                                         0.141 *    1.601 f
  core/fu_TFG/fu_arch/u5/lut/U1937/Z (C8T28SOI_LL_OAI12X3_P16)
                                                         0.160 *    1.761 r
  core/fu_TFG/fu_arch/u5/lut/U1938/Z (C8T28SOI_LL_OAI211X3_P16)
                                                         0.117 *    1.878 f
  core/fu_TFG/fu_arch/u5/lut/U1959/Z (C8T28SOI_LL_AO112X5_P4)
                                                         0.237 *    2.115 f
  core/fu_TFG/fu_arch/u5/lut/U1960/Z (C8T28SOI_LL_CBI4I6X6_P16)
                                                         0.117 *    2.232 r
  core/fu_TFG/fu_arch/u5/lut/U2017/Z (C8T28SOI_LL_OA112X4_P4)
                                                         0.189 *    2.422 r
  core/fu_TFG/fu_arch/u5/lut/U1910/Z (C8T28SOI_LL_OAI21X7_P10)
                                                         0.071 *    2.493 f
  core/fu_TFG/fu_arch/u5/lut/tf_o[24] (distr_2049x32_synch_dataw32_lut_addrw12)
                                                         0.000      2.493 f
  core/fu_TFG/fu_arch/u5/tf_o[24] (tf_lut_synch_dataw32_lut_addrw12)
                                                         0.000      2.493 f
  core/fu_TFG/fu_arch/u6/tf_lut_i[24] (twiddle_twist_dataw32_halfw16)
                                                         0.000      2.493 f
  core/fu_TFG/fu_arch/u6/clk_r_REG801_S45/D (C8T28SOIDV_LL_DFPRQX10_P10)
                                                         0.000 *    2.493 f
  data arrival time                                                 2.493

  clock clk (rise edge)                                  2.857      2.857
  clock network delay (ideal)                            0.010      2.867
  clock uncertainty                                     -0.010      2.857
  core/fu_TFG/fu_arch/u6/clk_r_REG801_S45/CP (C8T28SOIDV_LL_DFPRQX10_P10)
                                                         0.000      2.857 r
  library setup time                                    -0.129      2.728
  data required time                                                2.728
  --------------------------------------------------------------------------
  data required time                                                2.728
  data arrival time                                                -2.493
  --------------------------------------------------------------------------
  slack (MET)                                                       0.236


  Startpoint: core/fu_CADD1/fu_arch/inst_cadd_arith/clk_r_REG2237_S17
              (rising edge-triggered flip-flop clocked by clk)
  Endpoint: datamem/scheduler/d_b_conv/clk_r_REG11_S9
            (rising edge-triggered flip-flop clocked by clk)
  Path Group: clk
  Path Type: max

  Point                                                   Incr       Path
  --------------------------------------------------------------------------
  clock clk (rise edge)                                  0.000      0.000
  clock network delay (ideal)                            0.010      0.010
  core/fu_CADD1/fu_arch/inst_cadd_arith/clk_r_REG2237_S17/CP (C8T28SOIDV_LL_DFPQX10_P10)
                                                         0.000      0.010 r
  core/fu_CADD1/fu_arch/inst_cadd_arith/clk_r_REG2237_S17/Q (C8T28SOIDV_LL_DFPQX10_P10)
                                                         0.257      0.267 r
  core/fu_CADD1/fu_arch/inst_cadd_arith/U1325/Z (C8T28SOI_LL_CNIVX9_P0)
                                                         0.062 *    0.328 f
  core/fu_CADD1/fu_arch/inst_cadd_arith/U1326/Z (C8T28SOI_LL_NOR2X4_P16)
                                                         0.101 *    0.429 r
  core/fu_CADD1/fu_arch/inst_cadd_arith/U1328/Z (C8T28SOI_LL_OAI12X3_P16)
                                                         0.103 *    0.532 f
  core/fu_CADD1/fu_arch/inst_cadd_arith/U1337/Z (C8T28SOI_LL_AOI12X3_P16)
                                                         0.143 *    0.675 r
  core/fu_CADD1/fu_arch/inst_cadd_arith/U1345/Z (C8T28SOI_LL_OAI12X3_P10)
                                                         0.123 *    0.798 f
  core/fu_CADD1/fu_arch/inst_cadd_arith/U1348/Z (C8T28SOI_LL_AOI12X3_P4)
                                                         0.130 *    0.929 r
  core/fu_CADD1/fu_arch/inst_cadd_arith/U1350/Z (C8T28SOI_LL_OAI21X7_P16)
                                                         0.111 *    1.040 f
  core/fu_CADD1/fu_arch/inst_cadd_arith/U1353/Z (C8T28SOI_LL_AOI12X3_P10)
                                                         0.140 *    1.179 r
  core/fu_CADD1/fu_arch/inst_cadd_arith/U2048/Z (C8T28SOIDV_LLS_XOR2X4_P16)
                                                         0.102 *    1.281 f
  core/fu_CADD1/fu_arch/inst_cadd_arith/U2049/Z (C8T28SOI_LL_NAND2X4_P10)
                                                         0.053 *    1.334 r
  core/fu_CADD1/fu_arch/inst_cadd_arith/U2050/Z (C8T28SOI_LL_NAND2X4_P16)
                                                         0.044 *    1.378 f
  core/fu_CADD1/fu_arch/inst_cadd_arith/U2051/Z (C8T28SOI_LL_AOI21X3_P10)
                                                         0.086 *    1.464 r
  core/fu_CADD1/fu_arch/inst_cadd_arith/U2062/Z (C8T28SOI_LL_NAND3X3_P10)
                                                         0.145 *    1.609 f
  core/fu_CADD1/fu_arch/inst_cadd_arith/U2071/Z (C8T28SOI_LL_NOR2X8_P10)
                                                         0.175 *    1.785 r
  core/fu_CADD1/fu_arch/inst_cadd_arith/U2109/Z (C8T28SOI_LL_OAI21X7_P10)
                                                         0.086 *    1.871 f
  core/fu_CADD1/fu_arch/inst_cadd_arith/U2112/Z (C8T28SOI_LL_AOI21X6_P10)
                                                         0.100 *    1.971 r
  core/fu_CADD1/fu_arch/inst_cadd_arith/U267/Z (C8T28SOI_LL_OAI21X7_P4)
                                                         0.066 *    2.037 f
  core/fu_CADD1/fu_arch/inst_cadd_arith/U266/Z (C8T28SOI_LL_AOI21X6_P4)
                                                         0.073 *    2.109 r
  core/fu_CADD1/fu_arch/inst_cadd_arith/U2117/Z (C8T28SOI_LL_OAI12X10_P10)
                                                         0.069 *    2.179 f
  core/fu_CADD1/fu_arch/inst_cadd_arith/U2120/Z (C8T28SOI_LL_AOI21X6_P4)
                                                         0.076 *    2.255 r
  core/fu_CADD1/fu_arch/inst_cadd_arith/U2125/Z (C8T28SOI_LL_CNXOR2X9_P0)
                                                         0.129 *    2.384 f
  core/fu_CADD1/fu_arch/inst_cadd_arith/res_o[14] (cadd_arith_dataw32_halfw16)
                                                         0.000      2.384 f
  core/fu_CADD1/fu_arch/res_o[14] (cadd_full_dataw32_halfw16)
                                                         0.000      2.384 f
  core/fu_CADD1/r1data[14] (fu_cadd_always_1_dataw32_busw32)
                                                         0.000      2.384 f
  core/ic/socket_CADD1_o1_data0[14] (tta0_interconn)     0.000      2.384 f
  core/ic/CADD1_o1/data0[14] (tta0_output_socket_cons_1_1_BUSW_032_DATAW_032_5)
                                                         0.000      2.384 f
  core/ic/CADD1_o1/U3/Z (C8T28SOI_LL_AND2X10_P0)         0.059 *    2.443 f
  core/ic/CADD1_o1/databus0_alt[14] (tta0_output_socket_cons_1_1_BUSW_032_DATAW_032_5)
                                                         0.000      2.443 f
  core/ic/socket_lsu_w_i2_data[14] (tta0_interconn)      0.000      2.443 f
  core/fu_lsu_w/o1data[14] (fu_ldw_stw_always_4_dataw32_addrw16_0)
                                                         0.000      2.443 f
  core/fu_lsu_w/U10/Z (C8T28SOIDV_LL_NAND2AX9_P4)        0.031 *    2.474 r
  core/fu_lsu_w/U11/Z (C8T28SOI_LLS_NAND2X8_P10)         0.029 *    2.503 f
  core/fu_lsu_w/data_out[14] (fu_ldw_stw_always_4_dataw32_addrw16_0)
                                                         0.000      2.503 f
  datamem/scheduler/lsu_d_b[14] (par_mem_scheduler_dataw32_addrw14_ports2_rd_delay1)
                                                         0.000      2.503 f
  datamem/scheduler/d_b_conv/data_in[14] (ser_par_conv_portw32_port_cnt2_1)
                                                         0.000      2.503 f
  datamem/scheduler/d_b_conv/clk_r_REG11_S9/D (C8T28SOIDV_LL_DFPRQX19_P10)
                                                         0.000 *    2.503 f
  data arrival time                                                 2.503

  clock clk (rise edge)                                  2.857      2.857
  clock network delay (ideal)                            0.010      2.867
  clock uncertainty                                     -0.010      2.857
  datamem/scheduler/d_b_conv/clk_r_REG11_S9/CP (C8T28SOIDV_LL_DFPRQX19_P10)
                                                         0.000      2.857 r
  library setup time                                    -0.112      2.745
  data required time                                                2.745
  --------------------------------------------------------------------------
  data required time                                                2.745
  data arrival time                                                -2.503
  --------------------------------------------------------------------------
  slack (MET)                                                       0.243


  Startpoint: core/loopbuffer/clk_r_REG1883_S40
              (rising edge-triggered flip-flop clocked by clk)
  Endpoint: datamem/dmem_1/cacti_mem_x_7/mem_2048x32
            (rising edge-triggered flip-flop clocked by clk)
  Path Group: clk
  Path Type: max

  Point                                                   Incr       Path
  --------------------------------------------------------------------------
  clock clk (rise edge)                                  0.000      0.000
  clock network delay (ideal)                            0.010      0.010
  core/loopbuffer/clk_r_REG1883_S40/CP (C8T28SOIDV_LL_DFPRQX10_P10)
                                                         0.000      0.010 r
  core/loopbuffer/clk_r_REG1883_S40/Q (C8T28SOIDV_LL_DFPRQX10_P10)
                                                         0.240      0.250 r
  core/loopbuffer/U15/Z (C8T28SOI_LL_IVX5_P10)           0.075 *    0.325 f
  core/loopbuffer/U17/Z (C8T28SOI_LL_OAI112X6_P10)       0.071 *    0.396 r
  core/loopbuffer/U38/Z (C8T28SOI_LL_NAND3X3_P4)         0.068 *    0.464 f
  core/loopbuffer/lock_req_out (tta0_loopbuf_1_32_51_1_0)
                                                         0.000      0.464 f
  core/decomp/lock_r (tta0_decompressor)                 0.000      0.464 f
  core/decomp/U1/Z (C8T28SOI_LL_CNIVX9_P0)               0.044 *    0.509 r
  core/decomp/fetch_en (tta0_decompressor)               0.000      0.509 r
  core/inst_fetch/fetch_en (tta0_ifetch)                 0.000      0.509 r
  core/inst_fetch/U180/Z (C8T28SOI_LLS_NAND2X8_P4)       0.036 *    0.545 f
  core/inst_fetch/glock (tta0_ifetch)                    0.000      0.545 f
  core/loopbuffer/glock_in (tta0_loopbuf_1_32_51_1_0)    0.000      0.545 f
  core/loopbuffer/U13/Z (C8T28SOI_LLS_NAND2X8_P4)        0.041 *    0.586 r
  core/loopbuffer/U32/Z (C8T28SOIDV_LL_NAND2X18_P4)      0.031 *    0.617 f
  core/loopbuffer/glock_out (tta0_loopbuf_1_32_51_1_0)
                                                         0.000      0.617 f
  core/inst_decoder/lock (tta0_decoder)                  0.000      0.617 f
  core/inst_decoder/U5/Z (C8T28SOIDV_LL_CNIVX18_P0)      0.024 *    0.641 r
  core/inst_decoder/U3/Z (C8T28SOIDV_LL_NAND2X18_P4)     0.025 *    0.666 f
  core/inst_decoder/glock[7] (tta0_decoder)              0.000      0.666 f
  core/fu_lsu_r/glock (fu_ldw_stw_always_4_dataw32_addrw16_1)
                                                         0.000      0.666 f
  core/fu_lsu_r/U3/Z (C8T28SOIDV_LL_CNIVX28_P0)          0.031 *    0.697 r
  core/fu_lsu_r/U4/Z (C8T28SOIDV_LL_NAND2X36_P4)         0.030 *    0.728 f
  core/fu_lsu_r/mem_en_x[0] (fu_ldw_stw_always_4_dataw32_addrw16_1)
                                                         0.000      0.728 f
  U337/Z (C8T28SOIDV_LL_NAND2AX36_P4)                    0.040 *    0.767 r
  U354/Z (C8T28SOIDV_LL_CNBFX55_P0)                      0.075 *    0.843 r
  U143/Z (C8T28SOIDV_LL_CNBFX55_P4)                      0.077 *    0.920 r
  U299/Z (C8T28SOI_LL_MUXI21X9_P10)                      0.075 *    0.994 r
  datamem/scheduler/lsu_addr_a[10] (par_mem_scheduler_dataw32_addrw14_ports2_rd_delay1)
                                                         0.000      0.994 r
  datamem/scheduler/U43/Z (C8T28SOIDV_LL_NAND2AX9_P16)
                                                         0.056 *    1.050 f
  datamem/scheduler/U44/Z (C8T28SOI_LL_OAI21X7_P10)      0.052 *    1.102 r
  datamem/scheduler/addr[10] (par_mem_scheduler_dataw32_addrw14_ports2_rd_delay1)
                                                         0.000      1.102 r
  datamem/par_mem_logic_inst/addrs_from_lsus[10] (par_mem_logic_PORTS2_LSU_ADDRW14_CTRLW1_DATAW32_PM_FUNC2)
                                                         0.000      1.102 r
  datamem/par_mem_logic_inst/addr_crsbar_0/addrs_from_lsus[10] (addr_crsbar_PORTS2_LSU_ADDRW14_CTRLW1_PM_FUNC2)
                                                         0.000      1.102 r
  datamem/par_mem_logic_inst/addr_crsbar_0/U36/Z (C8T28SOI_LLS_NAND2X8_P10)
                                                         0.068 *    1.171 f
  datamem/par_mem_logic_inst/addr_crsbar_0/U37/Z (C8T28SOIDV_LL_NAND2AX9_P0)
                                                         0.056 *    1.227 r
  datamem/par_mem_logic_inst/addr_crsbar_0/U94/Z (C8T28SOIDV_LLS_XNOR2X4_P10)
                                                         0.114 *    1.341 r
  datamem/par_mem_logic_inst/addr_crsbar_0/U32/Z (C8T28SOI_LL_CNXOR2X9_P0)
                                                         0.139 *    1.480 f
  datamem/par_mem_logic_inst/addr_crsbar_0/U26/Z (C8T28SOI_LL_CNIVX9_P0)
                                                         0.025 *    1.506 r
  datamem/par_mem_logic_inst/addr_crsbar_0/U25/Z (C8T28SOIDV_LLS_XNOR2X4_P10)
                                                         0.091 *    1.597 r
  datamem/par_mem_logic_inst/addr_crsbar_0/U24/Z (C8T28SOIDV_LLS_XNOR2X4_P10)
                                                         0.137 *    1.733 r
  datamem/par_mem_logic_inst/addr_crsbar_0/module_nums[0] (addr_crsbar_PORTS2_LSU_ADDRW14_CTRLW1_PM_FUNC2)
                                                         0.000      1.733 r
  datamem/par_mem_logic_inst/ctrl_units_0/module_nums[0] (ctrl_units_PORTS2_CTRLW1)
                                                         0.000      1.733 r
  datamem/par_mem_logic_inst/ctrl_units_0/ctrl_uniti_0/module_num[0] (ctrl_unit_PORTS2_CTRLW1_1)
                                                         0.000      1.733 r
  datamem/par_mem_logic_inst/ctrl_units_0/ctrl_uniti_0/U14/Z (C8T28SOI_LL_NAND2X4_P0)
                                                         0.072 *    1.805 f
  datamem/par_mem_logic_inst/ctrl_units_0/ctrl_uniti_0/U31/Z (C8T28SOI_LL_CNIVX9_P0)
                                                         0.037 *    1.842 r
  datamem/par_mem_logic_inst/ctrl_units_0/ctrl_uniti_0/ctrl_matrix_row_out[1] (ctrl_unit_PORTS2_CTRLW1_1)
                                                         0.000      1.842 r
  datamem/par_mem_logic_inst/ctrl_units_0/ctrl_uniti_1/t_ctrl_matrix_row_in[0] (ctrl_unit_PORTS2_CTRLW1_0)
                                                         0.000      1.842 r
  datamem/par_mem_logic_inst/ctrl_units_0/ctrl_uniti_1/U14/Z (C8T28SOIDV_LL_NAND2AX9_P10)
                                                         0.031 *    1.873 f
  datamem/par_mem_logic_inst/ctrl_units_0/ctrl_uniti_1/U15/Z (C8T28SOI_LL_AND2X10_P10)
                                                         0.083 *    1.956 f
  datamem/par_mem_logic_inst/ctrl_units_0/ctrl_uniti_1/mem_en_x (ctrl_unit_PORTS2_CTRLW1_0)
                                                         0.000      1.956 f
  datamem/par_mem_logic_inst/ctrl_units_0/U24/Z (C8T28SOI_LL_CNNOR2X8_P0)
                                                         0.036 *    1.992 r
  datamem/par_mem_logic_inst/ctrl_units_0/U15/Z (C8T28SOI_LL_CNIVX14_P0)
                                                         0.031 *    2.023 f
  datamem/par_mem_logic_inst/ctrl_units_0/mem_en_xs[1] (ctrl_units_PORTS2_CTRLW1)
                                                         0.000      2.023 f
  datamem/par_mem_logic_inst/mem_en_xs[1] (par_mem_logic_PORTS2_LSU_ADDRW14_CTRLW1_DATAW32_PM_FUNC2)
                                                         0.000      2.023 f
  datamem/dmem_1/en_x (synch_singleport_mem_wrapper_DATAW32_ADDRW13_1)
                                                         0.000      2.023 f
  datamem/dmem_1/en_wr_arbiter/en (block_en_wr_arbiter_ADDRW13_NBLOCKS9_1)
                                                         0.000      2.023 f
  datamem/dmem_1/en_wr_arbiter/U16/Z (C8T28SOIDV_LL_CNIVX37_P0)
                                                         0.033 *    2.056 r
  datamem/dmem_1/en_wr_arbiter/U20/Z (C8T28SOI_LL_NAND3ABX8_P10)
                                                         0.041 *    2.097 f
  datamem/dmem_1/en_wr_arbiter/en_blocks[7] (block_en_wr_arbiter_ADDRW13_NBLOCKS9_1)
                                                         0.000      2.097 f
  datamem/dmem_1/cacti_mem_x_7/en_x (cacti_mem_wrapper_DATAW32_ADDRW11_1)
                                                         0.000      2.097 f
  datamem/dmem_1/cacti_mem_x_7/mem_2048x32/mem_en_x (ram_2048x32)
                                                         0.000 *    2.097 f
  data arrival time                                                 2.097

  clock clk (rise edge)                                  2.857      2.857
  clock network delay (ideal)                            0.010      2.867
  clock uncertainty                                     -0.010      2.857
  datamem/dmem_1/cacti_mem_x_7/mem_2048x32/clk (ram_2048x32)
                                                         0.000      2.857 r
  library setup time                                    -0.515      2.342
  data required time                                                2.342
  --------------------------------------------------------------------------
  data required time                                                2.342
  data arrival time                                                -2.097
  --------------------------------------------------------------------------
  slack (MET)                                                       0.245


  Startpoint: core/loopbuffer/clk_r_REG1883_S40
              (rising edge-triggered flip-flop clocked by clk)
  Endpoint: datamem/dmem_1/cacti_mem_x_3/mem_128x32
            (rising edge-triggered flip-flop clocked by clk)
  Path Group: clk
  Path Type: max

  Point                                                   Incr       Path
  --------------------------------------------------------------------------
  clock clk (rise edge)                                  0.000      0.000
  clock network delay (ideal)                            0.010      0.010
  core/loopbuffer/clk_r_REG1883_S40/CP (C8T28SOIDV_LL_DFPRQX10_P10)
                                                         0.000      0.010 r
  core/loopbuffer/clk_r_REG1883_S40/Q (C8T28SOIDV_LL_DFPRQX10_P10)
                                                         0.240      0.250 r
  core/loopbuffer/U15/Z (C8T28SOI_LL_IVX5_P10)           0.075 *    0.325 f
  core/loopbuffer/U17/Z (C8T28SOI_LL_OAI112X6_P10)       0.071 *    0.396 r
  core/loopbuffer/U38/Z (C8T28SOI_LL_NAND3X3_P4)         0.068 *    0.464 f
  core/loopbuffer/lock_req_out (tta0_loopbuf_1_32_51_1_0)
                                                         0.000      0.464 f
  core/decomp/lock_r (tta0_decompressor)                 0.000      0.464 f
  core/decomp/U1/Z (C8T28SOI_LL_CNIVX9_P0)               0.044 *    0.509 r
  core/decomp/fetch_en (tta0_decompressor)               0.000      0.509 r
  core/inst_fetch/fetch_en (tta0_ifetch)                 0.000      0.509 r
  core/inst_fetch/U180/Z (C8T28SOI_LLS_NAND2X8_P4)       0.036 *    0.545 f
  core/inst_fetch/glock (tta0_ifetch)                    0.000      0.545 f
  core/loopbuffer/glock_in (tta0_loopbuf_1_32_51_1_0)    0.000      0.545 f
  core/loopbuffer/U13/Z (C8T28SOI_LLS_NAND2X8_P4)        0.041 *    0.586 r
  core/loopbuffer/U32/Z (C8T28SOIDV_LL_NAND2X18_P4)      0.031 *    0.617 f
  core/loopbuffer/glock_out (tta0_loopbuf_1_32_51_1_0)
                                                         0.000      0.617 f
  core/inst_decoder/lock (tta0_decoder)                  0.000      0.617 f
  core/inst_decoder/U5/Z (C8T28SOIDV_LL_CNIVX18_P0)      0.024 *    0.641 r
  core/inst_decoder/U3/Z (C8T28SOIDV_LL_NAND2X18_P4)     0.025 *    0.666 f
  core/inst_decoder/glock[7] (tta0_decoder)              0.000      0.666 f
  core/fu_lsu_r/glock (fu_ldw_stw_always_4_dataw32_addrw16_1)
                                                         0.000      0.666 f
  core/fu_lsu_r/U3/Z (C8T28SOIDV_LL_CNIVX28_P0)          0.031 *    0.697 r
  core/fu_lsu_r/U4/Z (C8T28SOIDV_LL_NAND2X36_P4)         0.030 *    0.728 f
  core/fu_lsu_r/mem_en_x[0] (fu_ldw_stw_always_4_dataw32_addrw16_1)
                                                         0.000      0.728 f
  U337/Z (C8T28SOIDV_LL_NAND2AX36_P4)                    0.040 *    0.767 r
  U354/Z (C8T28SOIDV_LL_CNBFX55_P0)                      0.075 *    0.843 r
  U143/Z (C8T28SOIDV_LL_CNBFX55_P4)                      0.077 *    0.920 r
  U299/Z (C8T28SOI_LL_MUXI21X9_P10)                      0.075 *    0.994 r
  datamem/scheduler/lsu_addr_a[10] (par_mem_scheduler_dataw32_addrw14_ports2_rd_delay1)
                                                         0.000      0.994 r
  datamem/scheduler/U43/Z (C8T28SOIDV_LL_NAND2AX9_P16)
                                                         0.056 *    1.050 f
  datamem/scheduler/U44/Z (C8T28SOI_LL_OAI21X7_P10)      0.052 *    1.102 r
  datamem/scheduler/addr[10] (par_mem_scheduler_dataw32_addrw14_ports2_rd_delay1)
                                                         0.000      1.102 r
  datamem/par_mem_logic_inst/addrs_from_lsus[10] (par_mem_logic_PORTS2_LSU_ADDRW14_CTRLW1_DATAW32_PM_FUNC2)
                                                         0.000      1.102 r
  datamem/par_mem_logic_inst/addr_crsbar_0/addrs_from_lsus[10] (addr_crsbar_PORTS2_LSU_ADDRW14_CTRLW1_PM_FUNC2)
                                                         0.000      1.102 r
  datamem/par_mem_logic_inst/addr_crsbar_0/U36/Z (C8T28SOI_LLS_NAND2X8_P10)
                                                         0.068 *    1.171 f
  datamem/par_mem_logic_inst/addr_crsbar_0/U37/Z (C8T28SOIDV_LL_NAND2AX9_P0)
                                                         0.056 *    1.227 r
  datamem/par_mem_logic_inst/addr_crsbar_0/U94/Z (C8T28SOIDV_LLS_XNOR2X4_P10)
                                                         0.114 *    1.341 r
  datamem/par_mem_logic_inst/addr_crsbar_0/U32/Z (C8T28SOI_LL_CNXOR2X9_P0)
                                                         0.139 *    1.480 f
  datamem/par_mem_logic_inst/addr_crsbar_0/U26/Z (C8T28SOI_LL_CNIVX9_P0)
                                                         0.025 *    1.506 r
  datamem/par_mem_logic_inst/addr_crsbar_0/U25/Z (C8T28SOIDV_LLS_XNOR2X4_P10)
                                                         0.091 *    1.597 r
  datamem/par_mem_logic_inst/addr_crsbar_0/U24/Z (C8T28SOIDV_LLS_XNOR2X4_P10)
                                                         0.137 *    1.733 r
  datamem/par_mem_logic_inst/addr_crsbar_0/module_nums[0] (addr_crsbar_PORTS2_LSU_ADDRW14_CTRLW1_PM_FUNC2)
                                                         0.000      1.733 r
  datamem/par_mem_logic_inst/ctrl_units_0/module_nums[0] (ctrl_units_PORTS2_CTRLW1)
                                                         0.000      1.733 r
  datamem/par_mem_logic_inst/ctrl_units_0/ctrl_uniti_0/module_num[0] (ctrl_unit_PORTS2_CTRLW1_1)
                                                         0.000      1.733 r
  datamem/par_mem_logic_inst/ctrl_units_0/ctrl_uniti_0/U14/Z (C8T28SOI_LL_NAND2X4_P0)
                                                         0.072 *    1.805 f
  datamem/par_mem_logic_inst/ctrl_units_0/ctrl_uniti_0/U31/Z (C8T28SOI_LL_CNIVX9_P0)
                                                         0.037 *    1.842 r
  datamem/par_mem_logic_inst/ctrl_units_0/ctrl_uniti_0/ctrl_matrix_row_out[1] (ctrl_unit_PORTS2_CTRLW1_1)
                                                         0.000      1.842 r
  datamem/par_mem_logic_inst/ctrl_units_0/ctrl_uniti_1/t_ctrl_matrix_row_in[0] (ctrl_unit_PORTS2_CTRLW1_0)
                                                         0.000      1.842 r
  datamem/par_mem_logic_inst/ctrl_units_0/ctrl_uniti_1/U14/Z (C8T28SOIDV_LL_NAND2AX9_P10)
                                                         0.031 *    1.873 f
  datamem/par_mem_logic_inst/ctrl_units_0/ctrl_uniti_1/U15/Z (C8T28SOI_LL_AND2X10_P10)
                                                         0.083 *    1.956 f
  datamem/par_mem_logic_inst/ctrl_units_0/ctrl_uniti_1/mem_en_x (ctrl_unit_PORTS2_CTRLW1_0)
                                                         0.000      1.956 f
  datamem/par_mem_logic_inst/ctrl_units_0/U24/Z (C8T28SOI_LL_CNNOR2X8_P0)
                                                         0.036 *    1.992 r
  datamem/par_mem_logic_inst/ctrl_units_0/U15/Z (C8T28SOI_LL_CNIVX14_P0)
                                                         0.031 *    2.023 f
  datamem/par_mem_logic_inst/ctrl_units_0/mem_en_xs[1] (ctrl_units_PORTS2_CTRLW1)
                                                         0.000      2.023 f
  datamem/par_mem_logic_inst/mem_en_xs[1] (par_mem_logic_PORTS2_LSU_ADDRW14_CTRLW1_DATAW32_PM_FUNC2)
                                                         0.000      2.023 f
  datamem/dmem_1/en_x (synch_singleport_mem_wrapper_DATAW32_ADDRW13_1)
                                                         0.000      2.023 f
  datamem/dmem_1/en_wr_arbiter/en (block_en_wr_arbiter_ADDRW13_NBLOCKS9_1)
                                                         0.000      2.023 f
  datamem/dmem_1/en_wr_arbiter/U16/Z (C8T28SOIDV_LL_CNIVX37_P0)
                                                         0.033 *    2.056 r
  datamem/dmem_1/en_wr_arbiter/U24/Z (C8T28SOI_LLS_NAND2X8_P10)
                                                         0.040 *    2.095 f
  datamem/dmem_1/en_wr_arbiter/en_blocks[3] (block_en_wr_arbiter_ADDRW13_NBLOCKS9_1)
                                                         0.000      2.095 f
  datamem/dmem_1/cacti_mem_x_3/en_x (cacti_mem_wrapper_DATAW32_ADDRW7_1)
                                                         0.000      2.095 f
  datamem/dmem_1/cacti_mem_x_3/mem_128x32/mem_en_x (ram_128x32)
                                                         0.000 *    2.095 f
  data arrival time                                                 2.095

  clock clk (rise edge)                                  2.857      2.857
  clock network delay (ideal)                            0.010      2.867
  clock uncertainty                                     -0.010      2.857
  datamem/dmem_1/cacti_mem_x_3/mem_128x32/clk (ram_128x32)
                                                         0.000      2.857 r
  library setup time                                    -0.515      2.342
  data required time                                                2.342
  --------------------------------------------------------------------------
  data required time                                                2.342
  data arrival time                                                -2.095
  --------------------------------------------------------------------------
  slack (MET)                                                       0.247


  Startpoint: core/loopbuffer/clk_r_REG1883_S40
              (rising edge-triggered flip-flop clocked by clk)
  Endpoint: datamem/dmem_1/cacti_mem_0/mem_32x32
            (rising edge-triggered flip-flop clocked by clk)
  Path Group: clk
  Path Type: max

  Point                                                   Incr       Path
  --------------------------------------------------------------------------
  clock clk (rise edge)                                  0.000      0.000
  clock network delay (ideal)                            0.010      0.010
  core/loopbuffer/clk_r_REG1883_S40/CP (C8T28SOIDV_LL_DFPRQX10_P10)
                                                         0.000      0.010 r
  core/loopbuffer/clk_r_REG1883_S40/Q (C8T28SOIDV_LL_DFPRQX10_P10)
                                                         0.240      0.250 r
  core/loopbuffer/U15/Z (C8T28SOI_LL_IVX5_P10)           0.075 *    0.325 f
  core/loopbuffer/U17/Z (C8T28SOI_LL_OAI112X6_P10)       0.071 *    0.396 r
  core/loopbuffer/U38/Z (C8T28SOI_LL_NAND3X3_P4)         0.068 *    0.464 f
  core/loopbuffer/lock_req_out (tta0_loopbuf_1_32_51_1_0)
                                                         0.000      0.464 f
  core/decomp/lock_r (tta0_decompressor)                 0.000      0.464 f
  core/decomp/U1/Z (C8T28SOI_LL_CNIVX9_P0)               0.044 *    0.509 r
  core/decomp/fetch_en (tta0_decompressor)               0.000      0.509 r
  core/inst_fetch/fetch_en (tta0_ifetch)                 0.000      0.509 r
  core/inst_fetch/U180/Z (C8T28SOI_LLS_NAND2X8_P4)       0.036 *    0.545 f
  core/inst_fetch/glock (tta0_ifetch)                    0.000      0.545 f
  core/loopbuffer/glock_in (tta0_loopbuf_1_32_51_1_0)    0.000      0.545 f
  core/loopbuffer/U13/Z (C8T28SOI_LLS_NAND2X8_P4)        0.041 *    0.586 r
  core/loopbuffer/U32/Z (C8T28SOIDV_LL_NAND2X18_P4)      0.031 *    0.617 f
  core/loopbuffer/glock_out (tta0_loopbuf_1_32_51_1_0)
                                                         0.000      0.617 f
  core/inst_decoder/lock (tta0_decoder)                  0.000      0.617 f
  core/inst_decoder/U5/Z (C8T28SOIDV_LL_CNIVX18_P0)      0.024 *    0.641 r
  core/inst_decoder/U3/Z (C8T28SOIDV_LL_NAND2X18_P4)     0.025 *    0.666 f
  core/inst_decoder/glock[7] (tta0_decoder)              0.000      0.666 f
  core/fu_lsu_r/glock (fu_ldw_stw_always_4_dataw32_addrw16_1)
                                                         0.000      0.666 f
  core/fu_lsu_r/U3/Z (C8T28SOIDV_LL_CNIVX28_P0)          0.031 *    0.697 r
  core/fu_lsu_r/U4/Z (C8T28SOIDV_LL_NAND2X36_P4)         0.030 *    0.728 f
  core/fu_lsu_r/mem_en_x[0] (fu_ldw_stw_always_4_dataw32_addrw16_1)
                                                         0.000      0.728 f
  U337/Z (C8T28SOIDV_LL_NAND2AX36_P4)                    0.040 *    0.767 r
  U354/Z (C8T28SOIDV_LL_CNBFX55_P0)                      0.075 *    0.843 r
  U143/Z (C8T28SOIDV_LL_CNBFX55_P4)                      0.077 *    0.920 r
  U299/Z (C8T28SOI_LL_MUXI21X9_P10)                      0.075 *    0.994 r
  datamem/scheduler/lsu_addr_a[10] (par_mem_scheduler_dataw32_addrw14_ports2_rd_delay1)
                                                         0.000      0.994 r
  datamem/scheduler/U43/Z (C8T28SOIDV_LL_NAND2AX9_P16)
                                                         0.056 *    1.050 f
  datamem/scheduler/U44/Z (C8T28SOI_LL_OAI21X7_P10)      0.052 *    1.102 r
  datamem/scheduler/addr[10] (par_mem_scheduler_dataw32_addrw14_ports2_rd_delay1)
                                                         0.000      1.102 r
  datamem/par_mem_logic_inst/addrs_from_lsus[10] (par_mem_logic_PORTS2_LSU_ADDRW14_CTRLW1_DATAW32_PM_FUNC2)
                                                         0.000      1.102 r
  datamem/par_mem_logic_inst/addr_crsbar_0/addrs_from_lsus[10] (addr_crsbar_PORTS2_LSU_ADDRW14_CTRLW1_PM_FUNC2)
                                                         0.000      1.102 r
  datamem/par_mem_logic_inst/addr_crsbar_0/U36/Z (C8T28SOI_LLS_NAND2X8_P10)
                                                         0.068 *    1.171 f
  datamem/par_mem_logic_inst/addr_crsbar_0/U37/Z (C8T28SOIDV_LL_NAND2AX9_P0)
                                                         0.056 *    1.227 r
  datamem/par_mem_logic_inst/addr_crsbar_0/U94/Z (C8T28SOIDV_LLS_XNOR2X4_P10)
                                                         0.114 *    1.341 r
  datamem/par_mem_logic_inst/addr_crsbar_0/U32/Z (C8T28SOI_LL_CNXOR2X9_P0)
                                                         0.139 *    1.480 f
  datamem/par_mem_logic_inst/addr_crsbar_0/U26/Z (C8T28SOI_LL_CNIVX9_P0)
                                                         0.025 *    1.506 r
  datamem/par_mem_logic_inst/addr_crsbar_0/U25/Z (C8T28SOIDV_LLS_XNOR2X4_P10)
                                                         0.091 *    1.597 r
  datamem/par_mem_logic_inst/addr_crsbar_0/U24/Z (C8T28SOIDV_LLS_XNOR2X4_P10)
                                                         0.137 *    1.733 r
  datamem/par_mem_logic_inst/addr_crsbar_0/module_nums[0] (addr_crsbar_PORTS2_LSU_ADDRW14_CTRLW1_PM_FUNC2)
                                                         0.000      1.733 r
  datamem/par_mem_logic_inst/ctrl_units_0/module_nums[0] (ctrl_units_PORTS2_CTRLW1)
                                                         0.000      1.733 r
  datamem/par_mem_logic_inst/ctrl_units_0/ctrl_uniti_0/module_num[0] (ctrl_unit_PORTS2_CTRLW1_1)
                                                         0.000      1.733 r
  datamem/par_mem_logic_inst/ctrl_units_0/ctrl_uniti_0/U14/Z (C8T28SOI_LL_NAND2X4_P0)
                                                         0.072 *    1.805 f
  datamem/par_mem_logic_inst/ctrl_units_0/ctrl_uniti_0/U31/Z (C8T28SOI_LL_CNIVX9_P0)
                                                         0.037 *    1.842 r
  datamem/par_mem_logic_inst/ctrl_units_0/ctrl_uniti_0/ctrl_matrix_row_out[1] (ctrl_unit_PORTS2_CTRLW1_1)
                                                         0.000      1.842 r
  datamem/par_mem_logic_inst/ctrl_units_0/ctrl_uniti_1/t_ctrl_matrix_row_in[0] (ctrl_unit_PORTS2_CTRLW1_0)
                                                         0.000      1.842 r
  datamem/par_mem_logic_inst/ctrl_units_0/ctrl_uniti_1/U14/Z (C8T28SOIDV_LL_NAND2AX9_P10)
                                                         0.031 *    1.873 f
  datamem/par_mem_logic_inst/ctrl_units_0/ctrl_uniti_1/U15/Z (C8T28SOI_LL_AND2X10_P10)
                                                         0.083 *    1.956 f
  datamem/par_mem_logic_inst/ctrl_units_0/ctrl_uniti_1/mem_en_x (ctrl_unit_PORTS2_CTRLW1_0)
                                                         0.000      1.956 f
  datamem/par_mem_logic_inst/ctrl_units_0/U24/Z (C8T28SOI_LL_CNNOR2X8_P0)
                                                         0.036 *    1.992 r
  datamem/par_mem_logic_inst/ctrl_units_0/U15/Z (C8T28SOI_LL_CNIVX14_P0)
                                                         0.031 *    2.023 f
  datamem/par_mem_logic_inst/ctrl_units_0/mem_en_xs[1] (ctrl_units_PORTS2_CTRLW1)
                                                         0.000      2.023 f
  datamem/par_mem_logic_inst/mem_en_xs[1] (par_mem_logic_PORTS2_LSU_ADDRW14_CTRLW1_DATAW32_PM_FUNC2)
                                                         0.000      2.023 f
  datamem/dmem_1/en_x (synch_singleport_mem_wrapper_DATAW32_ADDRW13_1)
                                                         0.000      2.023 f
  datamem/dmem_1/en_wr_arbiter/en (block_en_wr_arbiter_ADDRW13_NBLOCKS9_1)
                                                         0.000      2.023 f
  datamem/dmem_1/en_wr_arbiter/U16/Z (C8T28SOIDV_LL_CNIVX37_P0)
                                                         0.033 *    2.056 r
  datamem/dmem_1/en_wr_arbiter/U21/Z (C8T28SOI_LL_NAND3ABX8_P4)
                                                         0.038 *    2.093 f
  datamem/dmem_1/en_wr_arbiter/en_blocks[0] (block_en_wr_arbiter_ADDRW13_NBLOCKS9_1)
                                                         0.000      2.093 f
  datamem/dmem_1/cacti_mem_0/en_x (cacti_mem_wrapper_DATAW32_ADDRW5_3)
                                                         0.000      2.093 f
  datamem/dmem_1/cacti_mem_0/mem_32x32/mem_en_x (ram_32x32)
                                                         0.000 *    2.093 f
  data arrival time                                                 2.093

  clock clk (rise edge)                                  2.857      2.857
  clock network delay (ideal)                            0.010      2.867
  clock uncertainty                                     -0.010      2.857
  datamem/dmem_1/cacti_mem_0/mem_32x32/clk (ram_32x32)
                                                         0.000      2.857 r
  library setup time                                    -0.514      2.343
  data required time                                                2.343
  --------------------------------------------------------------------------
  data required time                                                2.343
  data arrival time                                                -2.093
  --------------------------------------------------------------------------
  slack (MET)                                                       0.249


  Startpoint: core/loopbuffer/clk_r_REG1883_S40
              (rising edge-triggered flip-flop clocked by clk)
  Endpoint: datamem/dmem_1/cacti_mem_x_4/mem_256x32
            (rising edge-triggered flip-flop clocked by clk)
  Path Group: clk
  Path Type: max

  Point                                                   Incr       Path
  --------------------------------------------------------------------------
  clock clk (rise edge)                                  0.000      0.000
  clock network delay (ideal)                            0.010      0.010
  core/loopbuffer/clk_r_REG1883_S40/CP (C8T28SOIDV_LL_DFPRQX10_P10)
                                                         0.000      0.010 r
  core/loopbuffer/clk_r_REG1883_S40/Q (C8T28SOIDV_LL_DFPRQX10_P10)
                                                         0.240      0.250 r
  core/loopbuffer/U15/Z (C8T28SOI_LL_IVX5_P10)           0.075 *    0.325 f
  core/loopbuffer/U17/Z (C8T28SOI_LL_OAI112X6_P10)       0.071 *    0.396 r
  core/loopbuffer/U38/Z (C8T28SOI_LL_NAND3X3_P4)         0.068 *    0.464 f
  core/loopbuffer/lock_req_out (tta0_loopbuf_1_32_51_1_0)
                                                         0.000      0.464 f
  core/decomp/lock_r (tta0_decompressor)                 0.000      0.464 f
  core/decomp/U1/Z (C8T28SOI_LL_CNIVX9_P0)               0.044 *    0.509 r
  core/decomp/fetch_en (tta0_decompressor)               0.000      0.509 r
  core/inst_fetch/fetch_en (tta0_ifetch)                 0.000      0.509 r
  core/inst_fetch/U180/Z (C8T28SOI_LLS_NAND2X8_P4)       0.036 *    0.545 f
  core/inst_fetch/glock (tta0_ifetch)                    0.000      0.545 f
  core/loopbuffer/glock_in (tta0_loopbuf_1_32_51_1_0)    0.000      0.545 f
  core/loopbuffer/U13/Z (C8T28SOI_LLS_NAND2X8_P4)        0.041 *    0.586 r
  core/loopbuffer/U32/Z (C8T28SOIDV_LL_NAND2X18_P4)      0.031 *    0.617 f
  core/loopbuffer/glock_out (tta0_loopbuf_1_32_51_1_0)
                                                         0.000      0.617 f
  core/inst_decoder/lock (tta0_decoder)                  0.000      0.617 f
  core/inst_decoder/U5/Z (C8T28SOIDV_LL_CNIVX18_P0)      0.024 *    0.641 r
  core/inst_decoder/U3/Z (C8T28SOIDV_LL_NAND2X18_P4)     0.025 *    0.666 f
  core/inst_decoder/glock[7] (tta0_decoder)              0.000      0.666 f
  core/fu_lsu_r/glock (fu_ldw_stw_always_4_dataw32_addrw16_1)
                                                         0.000      0.666 f
  core/fu_lsu_r/U3/Z (C8T28SOIDV_LL_CNIVX28_P0)          0.031 *    0.697 r
  core/fu_lsu_r/U4/Z (C8T28SOIDV_LL_NAND2X36_P4)         0.030 *    0.728 f
  core/fu_lsu_r/mem_en_x[0] (fu_ldw_stw_always_4_dataw32_addrw16_1)
                                                         0.000      0.728 f
  U337/Z (C8T28SOIDV_LL_NAND2AX36_P4)                    0.040 *    0.767 r
  U354/Z (C8T28SOIDV_LL_CNBFX55_P0)                      0.075 *    0.843 r
  U143/Z (C8T28SOIDV_LL_CNBFX55_P4)                      0.077 *    0.920 r
  U299/Z (C8T28SOI_LL_MUXI21X9_P10)                      0.075 *    0.994 r
  datamem/scheduler/lsu_addr_a[10] (par_mem_scheduler_dataw32_addrw14_ports2_rd_delay1)
                                                         0.000      0.994 r
  datamem/scheduler/U43/Z (C8T28SOIDV_LL_NAND2AX9_P16)
                                                         0.056 *    1.050 f
  datamem/scheduler/U44/Z (C8T28SOI_LL_OAI21X7_P10)      0.052 *    1.102 r
  datamem/scheduler/addr[10] (par_mem_scheduler_dataw32_addrw14_ports2_rd_delay1)
                                                         0.000      1.102 r
  datamem/par_mem_logic_inst/addrs_from_lsus[10] (par_mem_logic_PORTS2_LSU_ADDRW14_CTRLW1_DATAW32_PM_FUNC2)
                                                         0.000      1.102 r
  datamem/par_mem_logic_inst/addr_crsbar_0/addrs_from_lsus[10] (addr_crsbar_PORTS2_LSU_ADDRW14_CTRLW1_PM_FUNC2)
                                                         0.000      1.102 r
  datamem/par_mem_logic_inst/addr_crsbar_0/U36/Z (C8T28SOI_LLS_NAND2X8_P10)
                                                         0.068 *    1.171 f
  datamem/par_mem_logic_inst/addr_crsbar_0/U37/Z (C8T28SOIDV_LL_NAND2AX9_P0)
                                                         0.056 *    1.227 r
  datamem/par_mem_logic_inst/addr_crsbar_0/U94/Z (C8T28SOIDV_LLS_XNOR2X4_P10)
                                                         0.114 *    1.341 r
  datamem/par_mem_logic_inst/addr_crsbar_0/U32/Z (C8T28SOI_LL_CNXOR2X9_P0)
                                                         0.139 *    1.480 f
  datamem/par_mem_logic_inst/addr_crsbar_0/U26/Z (C8T28SOI_LL_CNIVX9_P0)
                                                         0.025 *    1.506 r
  datamem/par_mem_logic_inst/addr_crsbar_0/U25/Z (C8T28SOIDV_LLS_XNOR2X4_P10)
                                                         0.091 *    1.597 r
  datamem/par_mem_logic_inst/addr_crsbar_0/U24/Z (C8T28SOIDV_LLS_XNOR2X4_P10)
                                                         0.137 *    1.733 r
  datamem/par_mem_logic_inst/addr_crsbar_0/module_nums[0] (addr_crsbar_PORTS2_LSU_ADDRW14_CTRLW1_PM_FUNC2)
                                                         0.000      1.733 r
  datamem/par_mem_logic_inst/ctrl_units_0/module_nums[0] (ctrl_units_PORTS2_CTRLW1)
                                                         0.000      1.733 r
  datamem/par_mem_logic_inst/ctrl_units_0/ctrl_uniti_0/module_num[0] (ctrl_unit_PORTS2_CTRLW1_1)
                                                         0.000      1.733 r
  datamem/par_mem_logic_inst/ctrl_units_0/ctrl_uniti_0/U14/Z (C8T28SOI_LL_NAND2X4_P0)
                                                         0.072 *    1.805 f
  datamem/par_mem_logic_inst/ctrl_units_0/ctrl_uniti_0/U31/Z (C8T28SOI_LL_CNIVX9_P0)
                                                         0.037 *    1.842 r
  datamem/par_mem_logic_inst/ctrl_units_0/ctrl_uniti_0/ctrl_matrix_row_out[1] (ctrl_unit_PORTS2_CTRLW1_1)
                                                         0.000      1.842 r
  datamem/par_mem_logic_inst/ctrl_units_0/ctrl_uniti_1/t_ctrl_matrix_row_in[0] (ctrl_unit_PORTS2_CTRLW1_0)
                                                         0.000      1.842 r
  datamem/par_mem_logic_inst/ctrl_units_0/ctrl_uniti_1/U14/Z (C8T28SOIDV_LL_NAND2AX9_P10)
                                                         0.031 *    1.873 f
  datamem/par_mem_logic_inst/ctrl_units_0/ctrl_uniti_1/U15/Z (C8T28SOI_LL_AND2X10_P10)
                                                         0.083 *    1.956 f
  datamem/par_mem_logic_inst/ctrl_units_0/ctrl_uniti_1/mem_en_x (ctrl_unit_PORTS2_CTRLW1_0)
                                                         0.000      1.956 f
  datamem/par_mem_logic_inst/ctrl_units_0/U24/Z (C8T28SOI_LL_CNNOR2X8_P0)
                                                         0.036 *    1.992 r
  datamem/par_mem_logic_inst/ctrl_units_0/U15/Z (C8T28SOI_LL_CNIVX14_P0)
                                                         0.031 *    2.023 f
  datamem/par_mem_logic_inst/ctrl_units_0/mem_en_xs[1] (ctrl_units_PORTS2_CTRLW1)
                                                         0.000      2.023 f
  datamem/par_mem_logic_inst/mem_en_xs[1] (par_mem_logic_PORTS2_LSU_ADDRW14_CTRLW1_DATAW32_PM_FUNC2)
                                                         0.000      2.023 f
  datamem/dmem_1/en_x (synch_singleport_mem_wrapper_DATAW32_ADDRW13_1)
                                                         0.000      2.023 f
  datamem/dmem_1/en_wr_arbiter/en (block_en_wr_arbiter_ADDRW13_NBLOCKS9_1)
                                                         0.000      2.023 f
  datamem/dmem_1/en_wr_arbiter/U16/Z (C8T28SOIDV_LL_CNIVX37_P0)
                                                         0.033 *    2.056 r
  datamem/dmem_1/en_wr_arbiter/U26/Z (C8T28SOIDV_LL_NAND2X9_P10)
                                                         0.039 *    2.094 f
  datamem/dmem_1/en_wr_arbiter/en_blocks[4] (block_en_wr_arbiter_ADDRW13_NBLOCKS9_1)
                                                         0.000      2.094 f
  datamem/dmem_1/cacti_mem_x_4/en_x (cacti_mem_wrapper_DATAW32_ADDRW8_1)
                                                         0.000      2.094 f
  datamem/dmem_1/cacti_mem_x_4/mem_256x32/mem_en_x (ram_256x32)
                                                         0.000 *    2.094 f
  data arrival time                                                 2.094

  clock clk (rise edge)                                  2.857      2.857
  clock network delay (ideal)                            0.010      2.867
  clock uncertainty                                     -0.010      2.857
  datamem/dmem_1/cacti_mem_x_4/mem_256x32/clk (ram_256x32)
                                                         0.000      2.857 r
  library setup time                                    -0.514      2.343
  data required time                                                2.343
  --------------------------------------------------------------------------
  data required time                                                2.343
  data arrival time                                                -2.094
  --------------------------------------------------------------------------
  slack (MET)                                                       0.249


  Startpoint: core/loopbuffer/clk_r_REG1883_S40
              (rising edge-triggered flip-flop clocked by clk)
  Endpoint: datamem/dmem_1/cacti_mem_x_8/mem_4096x32
            (rising edge-triggered flip-flop clocked by clk)
  Path Group: clk
  Path Type: max

  Point                                                   Incr       Path
  --------------------------------------------------------------------------
  clock clk (rise edge)                                  0.000      0.000
  clock network delay (ideal)                            0.010      0.010
  core/loopbuffer/clk_r_REG1883_S40/CP (C8T28SOIDV_LL_DFPRQX10_P10)
                                                         0.000      0.010 r
  core/loopbuffer/clk_r_REG1883_S40/Q (C8T28SOIDV_LL_DFPRQX10_P10)
                                                         0.240      0.250 r
  core/loopbuffer/U15/Z (C8T28SOI_LL_IVX5_P10)           0.075 *    0.325 f
  core/loopbuffer/U17/Z (C8T28SOI_LL_OAI112X6_P10)       0.071 *    0.396 r
  core/loopbuffer/U38/Z (C8T28SOI_LL_NAND3X3_P4)         0.068 *    0.464 f
  core/loopbuffer/lock_req_out (tta0_loopbuf_1_32_51_1_0)
                                                         0.000      0.464 f
  core/decomp/lock_r (tta0_decompressor)                 0.000      0.464 f
  core/decomp/U1/Z (C8T28SOI_LL_CNIVX9_P0)               0.044 *    0.509 r
  core/decomp/fetch_en (tta0_decompressor)               0.000      0.509 r
  core/inst_fetch/fetch_en (tta0_ifetch)                 0.000      0.509 r
  core/inst_fetch/U180/Z (C8T28SOI_LLS_NAND2X8_P4)       0.036 *    0.545 f
  core/inst_fetch/glock (tta0_ifetch)                    0.000      0.545 f
  core/loopbuffer/glock_in (tta0_loopbuf_1_32_51_1_0)    0.000      0.545 f
  core/loopbuffer/U13/Z (C8T28SOI_LLS_NAND2X8_P4)        0.041 *    0.586 r
  core/loopbuffer/U32/Z (C8T28SOIDV_LL_NAND2X18_P4)      0.031 *    0.617 f
  core/loopbuffer/glock_out (tta0_loopbuf_1_32_51_1_0)
                                                         0.000      0.617 f
  core/inst_decoder/lock (tta0_decoder)                  0.000      0.617 f
  core/inst_decoder/U5/Z (C8T28SOIDV_LL_CNIVX18_P0)      0.024 *    0.641 r
  core/inst_decoder/U3/Z (C8T28SOIDV_LL_NAND2X18_P4)     0.025 *    0.666 f
  core/inst_decoder/glock[7] (tta0_decoder)              0.000      0.666 f
  core/fu_lsu_r/glock (fu_ldw_stw_always_4_dataw32_addrw16_1)
                                                         0.000      0.666 f
  core/fu_lsu_r/U3/Z (C8T28SOIDV_LL_CNIVX28_P0)          0.031 *    0.697 r
  core/fu_lsu_r/U4/Z (C8T28SOIDV_LL_NAND2X36_P4)         0.030 *    0.728 f
  core/fu_lsu_r/mem_en_x[0] (fu_ldw_stw_always_4_dataw32_addrw16_1)
                                                         0.000      0.728 f
  U337/Z (C8T28SOIDV_LL_NAND2AX36_P4)                    0.040 *    0.767 r
  U354/Z (C8T28SOIDV_LL_CNBFX55_P0)                      0.075 *    0.843 r
  U143/Z (C8T28SOIDV_LL_CNBFX55_P4)                      0.077 *    0.920 r
  U299/Z (C8T28SOI_LL_MUXI21X9_P10)                      0.075 *    0.994 r
  datamem/scheduler/lsu_addr_a[10] (par_mem_scheduler_dataw32_addrw14_ports2_rd_delay1)
                                                         0.000      0.994 r
  datamem/scheduler/U43/Z (C8T28SOIDV_LL_NAND2AX9_P16)
                                                         0.056 *    1.050 f
  datamem/scheduler/U44/Z (C8T28SOI_LL_OAI21X7_P10)      0.052 *    1.102 r
  datamem/scheduler/addr[10] (par_mem_scheduler_dataw32_addrw14_ports2_rd_delay1)
                                                         0.000      1.102 r
  datamem/par_mem_logic_inst/addrs_from_lsus[10] (par_mem_logic_PORTS2_LSU_ADDRW14_CTRLW1_DATAW32_PM_FUNC2)
                                                         0.000      1.102 r
  datamem/par_mem_logic_inst/addr_crsbar_0/addrs_from_lsus[10] (addr_crsbar_PORTS2_LSU_ADDRW14_CTRLW1_PM_FUNC2)
                                                         0.000      1.102 r
  datamem/par_mem_logic_inst/addr_crsbar_0/U36/Z (C8T28SOI_LLS_NAND2X8_P10)
                                                         0.068 *    1.171 f
  datamem/par_mem_logic_inst/addr_crsbar_0/U37/Z (C8T28SOIDV_LL_NAND2AX9_P0)
                                                         0.056 *    1.227 r
  datamem/par_mem_logic_inst/addr_crsbar_0/U94/Z (C8T28SOIDV_LLS_XNOR2X4_P10)
                                                         0.114 *    1.341 r
  datamem/par_mem_logic_inst/addr_crsbar_0/U32/Z (C8T28SOI_LL_CNXOR2X9_P0)
                                                         0.139 *    1.480 f
  datamem/par_mem_logic_inst/addr_crsbar_0/U26/Z (C8T28SOI_LL_CNIVX9_P0)
                                                         0.025 *    1.506 r
  datamem/par_mem_logic_inst/addr_crsbar_0/U25/Z (C8T28SOIDV_LLS_XNOR2X4_P10)
                                                         0.091 *    1.597 r
  datamem/par_mem_logic_inst/addr_crsbar_0/U24/Z (C8T28SOIDV_LLS_XNOR2X4_P10)
                                                         0.137 *    1.733 r
  datamem/par_mem_logic_inst/addr_crsbar_0/module_nums[0] (addr_crsbar_PORTS2_LSU_ADDRW14_CTRLW1_PM_FUNC2)
                                                         0.000      1.733 r
  datamem/par_mem_logic_inst/ctrl_units_0/module_nums[0] (ctrl_units_PORTS2_CTRLW1)
                                                         0.000      1.733 r
  datamem/par_mem_logic_inst/ctrl_units_0/ctrl_uniti_0/module_num[0] (ctrl_unit_PORTS2_CTRLW1_1)
                                                         0.000      1.733 r
  datamem/par_mem_logic_inst/ctrl_units_0/ctrl_uniti_0/U14/Z (C8T28SOI_LL_NAND2X4_P0)
                                                         0.072 *    1.805 f
  datamem/par_mem_logic_inst/ctrl_units_0/ctrl_uniti_0/U31/Z (C8T28SOI_LL_CNIVX9_P0)
                                                         0.037 *    1.842 r
  datamem/par_mem_logic_inst/ctrl_units_0/ctrl_uniti_0/ctrl_matrix_row_out[1] (ctrl_unit_PORTS2_CTRLW1_1)
                                                         0.000      1.842 r
  datamem/par_mem_logic_inst/ctrl_units_0/ctrl_uniti_1/t_ctrl_matrix_row_in[0] (ctrl_unit_PORTS2_CTRLW1_0)
                                                         0.000      1.842 r
  datamem/par_mem_logic_inst/ctrl_units_0/ctrl_uniti_1/U14/Z (C8T28SOIDV_LL_NAND2AX9_P10)
                                                         0.031 *    1.873 f
  datamem/par_mem_logic_inst/ctrl_units_0/ctrl_uniti_1/U15/Z (C8T28SOI_LL_AND2X10_P10)
                                                         0.083 *    1.956 f
  datamem/par_mem_logic_inst/ctrl_units_0/ctrl_uniti_1/mem_en_x (ctrl_unit_PORTS2_CTRLW1_0)
                                                         0.000      1.956 f
  datamem/par_mem_logic_inst/ctrl_units_0/U24/Z (C8T28SOI_LL_CNNOR2X8_P0)
                                                         0.036 *    1.992 r
  datamem/par_mem_logic_inst/ctrl_units_0/U15/Z (C8T28SOI_LL_CNIVX14_P0)
                                                         0.031 *    2.023 f
  datamem/par_mem_logic_inst/ctrl_units_0/mem_en_xs[1] (ctrl_units_PORTS2_CTRLW1)
                                                         0.000      2.023 f
  datamem/par_mem_logic_inst/mem_en_xs[1] (par_mem_logic_PORTS2_LSU_ADDRW14_CTRLW1_DATAW32_PM_FUNC2)
                                                         0.000      2.023 f
  datamem/dmem_1/en_x (synch_singleport_mem_wrapper_DATAW32_ADDRW13_1)
                                                         0.000      2.023 f
  datamem/dmem_1/en_wr_arbiter/en (block_en_wr_arbiter_ADDRW13_NBLOCKS9_1)
                                                         0.000      2.023 f
  datamem/dmem_1/en_wr_arbiter/U16/Z (C8T28SOIDV_LL_CNIVX37_P0)
                                                         0.033 *    2.056 r
  datamem/dmem_1/en_wr_arbiter/U22/Z (C8T28SOI_LL_CNNAND2X8_P4)
                                                         0.036 *    2.092 f
  datamem/dmem_1/en_wr_arbiter/en_blocks[8] (block_en_wr_arbiter_ADDRW13_NBLOCKS9_1)
                                                         0.000      2.092 f
  datamem/dmem_1/cacti_mem_x_8/en_x (cacti_mem_wrapper_DATAW32_ADDRW12_1)
                                                         0.000      2.092 f
  datamem/dmem_1/cacti_mem_x_8/mem_4096x32/mem_en_x (ram_4096x32)
                                                         0.000 *    2.092 f
  data arrival time                                                 2.092

  clock clk (rise edge)                                  2.857      2.857
  clock network delay (ideal)                            0.010      2.867
  clock uncertainty                                     -0.010      2.857
  datamem/dmem_1/cacti_mem_x_8/mem_4096x32/clk (ram_4096x32)
                                                         0.000      2.857 r
  library setup time                                    -0.515      2.342
  data required time                                                2.342
  --------------------------------------------------------------------------
  data required time                                                2.342
  data arrival time                                                -2.092
  --------------------------------------------------------------------------
  slack (MET)                                                       0.250


  Startpoint: core/loopbuffer/clk_r_REG1883_S40
              (rising edge-triggered flip-flop clocked by clk)
  Endpoint: datamem/dmem_1/cacti_mem_x_6/mem_1024x32
            (rising edge-triggered flip-flop clocked by clk)
  Path Group: clk
  Path Type: max

  Point                                                   Incr       Path
  --------------------------------------------------------------------------
  clock clk (rise edge)                                  0.000      0.000
  clock network delay (ideal)                            0.010      0.010
  core/loopbuffer/clk_r_REG1883_S40/CP (C8T28SOIDV_LL_DFPRQX10_P10)
                                                         0.000      0.010 r
  core/loopbuffer/clk_r_REG1883_S40/Q (C8T28SOIDV_LL_DFPRQX10_P10)
                                                         0.240      0.250 r
  core/loopbuffer/U15/Z (C8T28SOI_LL_IVX5_P10)           0.075 *    0.325 f
  core/loopbuffer/U17/Z (C8T28SOI_LL_OAI112X6_P10)       0.071 *    0.396 r
  core/loopbuffer/U38/Z (C8T28SOI_LL_NAND3X3_P4)         0.068 *    0.464 f
  core/loopbuffer/lock_req_out (tta0_loopbuf_1_32_51_1_0)
                                                         0.000      0.464 f
  core/decomp/lock_r (tta0_decompressor)                 0.000      0.464 f
  core/decomp/U1/Z (C8T28SOI_LL_CNIVX9_P0)               0.044 *    0.509 r
  core/decomp/fetch_en (tta0_decompressor)               0.000      0.509 r
  core/inst_fetch/fetch_en (tta0_ifetch)                 0.000      0.509 r
  core/inst_fetch/U180/Z (C8T28SOI_LLS_NAND2X8_P4)       0.036 *    0.545 f
  core/inst_fetch/glock (tta0_ifetch)                    0.000      0.545 f
  core/loopbuffer/glock_in (tta0_loopbuf_1_32_51_1_0)    0.000      0.545 f
  core/loopbuffer/U13/Z (C8T28SOI_LLS_NAND2X8_P4)        0.041 *    0.586 r
  core/loopbuffer/U32/Z (C8T28SOIDV_LL_NAND2X18_P4)      0.031 *    0.617 f
  core/loopbuffer/glock_out (tta0_loopbuf_1_32_51_1_0)
                                                         0.000      0.617 f
  core/inst_decoder/lock (tta0_decoder)                  0.000      0.617 f
  core/inst_decoder/U5/Z (C8T28SOIDV_LL_CNIVX18_P0)      0.024 *    0.641 r
  core/inst_decoder/U3/Z (C8T28SOIDV_LL_NAND2X18_P4)     0.025 *    0.666 f
  core/inst_decoder/glock[7] (tta0_decoder)              0.000      0.666 f
  core/fu_lsu_r/glock (fu_ldw_stw_always_4_dataw32_addrw16_1)
                                                         0.000      0.666 f
  core/fu_lsu_r/U3/Z (C8T28SOIDV_LL_CNIVX28_P0)          0.031 *    0.697 r
  core/fu_lsu_r/U4/Z (C8T28SOIDV_LL_NAND2X36_P4)         0.030 *    0.728 f
  core/fu_lsu_r/mem_en_x[0] (fu_ldw_stw_always_4_dataw32_addrw16_1)
                                                         0.000      0.728 f
  U337/Z (C8T28SOIDV_LL_NAND2AX36_P4)                    0.040 *    0.767 r
  U354/Z (C8T28SOIDV_LL_CNBFX55_P0)                      0.075 *    0.843 r
  U143/Z (C8T28SOIDV_LL_CNBFX55_P4)                      0.077 *    0.920 r
  U299/Z (C8T28SOI_LL_MUXI21X9_P10)                      0.075 *    0.994 r
  datamem/scheduler/lsu_addr_a[10] (par_mem_scheduler_dataw32_addrw14_ports2_rd_delay1)
                                                         0.000      0.994 r
  datamem/scheduler/U43/Z (C8T28SOIDV_LL_NAND2AX9_P16)
                                                         0.056 *    1.050 f
  datamem/scheduler/U44/Z (C8T28SOI_LL_OAI21X7_P10)      0.052 *    1.102 r
  datamem/scheduler/addr[10] (par_mem_scheduler_dataw32_addrw14_ports2_rd_delay1)
                                                         0.000      1.102 r
  datamem/par_mem_logic_inst/addrs_from_lsus[10] (par_mem_logic_PORTS2_LSU_ADDRW14_CTRLW1_DATAW32_PM_FUNC2)
                                                         0.000      1.102 r
  datamem/par_mem_logic_inst/addr_crsbar_0/addrs_from_lsus[10] (addr_crsbar_PORTS2_LSU_ADDRW14_CTRLW1_PM_FUNC2)
                                                         0.000      1.102 r
  datamem/par_mem_logic_inst/addr_crsbar_0/U36/Z (C8T28SOI_LLS_NAND2X8_P10)
                                                         0.068 *    1.171 f
  datamem/par_mem_logic_inst/addr_crsbar_0/U37/Z (C8T28SOIDV_LL_NAND2AX9_P0)
                                                         0.056 *    1.227 r
  datamem/par_mem_logic_inst/addr_crsbar_0/U94/Z (C8T28SOIDV_LLS_XNOR2X4_P10)
                                                         0.114 *    1.341 r
  datamem/par_mem_logic_inst/addr_crsbar_0/U32/Z (C8T28SOI_LL_CNXOR2X9_P0)
                                                         0.139 *    1.480 f
  datamem/par_mem_logic_inst/addr_crsbar_0/U26/Z (C8T28SOI_LL_CNIVX9_P0)
                                                         0.025 *    1.506 r
  datamem/par_mem_logic_inst/addr_crsbar_0/U25/Z (C8T28SOIDV_LLS_XNOR2X4_P10)
                                                         0.091 *    1.597 r
  datamem/par_mem_logic_inst/addr_crsbar_0/U24/Z (C8T28SOIDV_LLS_XNOR2X4_P10)
                                                         0.137 *    1.733 r
  datamem/par_mem_logic_inst/addr_crsbar_0/module_nums[0] (addr_crsbar_PORTS2_LSU_ADDRW14_CTRLW1_PM_FUNC2)
                                                         0.000      1.733 r
  datamem/par_mem_logic_inst/ctrl_units_0/module_nums[0] (ctrl_units_PORTS2_CTRLW1)
                                                         0.000      1.733 r
  datamem/par_mem_logic_inst/ctrl_units_0/ctrl_uniti_0/module_num[0] (ctrl_unit_PORTS2_CTRLW1_1)
                                                         0.000      1.733 r
  datamem/par_mem_logic_inst/ctrl_units_0/ctrl_uniti_0/U14/Z (C8T28SOI_LL_NAND2X4_P0)
                                                         0.072 *    1.805 f
  datamem/par_mem_logic_inst/ctrl_units_0/ctrl_uniti_0/U31/Z (C8T28SOI_LL_CNIVX9_P0)
                                                         0.037 *    1.842 r
  datamem/par_mem_logic_inst/ctrl_units_0/ctrl_uniti_0/ctrl_matrix_row_out[1] (ctrl_unit_PORTS2_CTRLW1_1)
                                                         0.000      1.842 r
  datamem/par_mem_logic_inst/ctrl_units_0/ctrl_uniti_1/t_ctrl_matrix_row_in[0] (ctrl_unit_PORTS2_CTRLW1_0)
                                                         0.000      1.842 r
  datamem/par_mem_logic_inst/ctrl_units_0/ctrl_uniti_1/U14/Z (C8T28SOIDV_LL_NAND2AX9_P10)
                                                         0.031 *    1.873 f
  datamem/par_mem_logic_inst/ctrl_units_0/ctrl_uniti_1/U15/Z (C8T28SOI_LL_AND2X10_P10)
                                                         0.083 *    1.956 f
  datamem/par_mem_logic_inst/ctrl_units_0/ctrl_uniti_1/mem_en_x (ctrl_unit_PORTS2_CTRLW1_0)
                                                         0.000      1.956 f
  datamem/par_mem_logic_inst/ctrl_units_0/U24/Z (C8T28SOI_LL_CNNOR2X8_P0)
                                                         0.036 *    1.992 r
  datamem/par_mem_logic_inst/ctrl_units_0/U15/Z (C8T28SOI_LL_CNIVX14_P0)
                                                         0.031 *    2.023 f
  datamem/par_mem_logic_inst/ctrl_units_0/mem_en_xs[1] (ctrl_units_PORTS2_CTRLW1)
                                                         0.000      2.023 f
  datamem/par_mem_logic_inst/mem_en_xs[1] (par_mem_logic_PORTS2_LSU_ADDRW14_CTRLW1_DATAW32_PM_FUNC2)
                                                         0.000      2.023 f
  datamem/dmem_1/en_x (synch_singleport_mem_wrapper_DATAW32_ADDRW13_1)
                                                         0.000      2.023 f
  datamem/dmem_1/en_wr_arbiter/en (block_en_wr_arbiter_ADDRW13_NBLOCKS9_1)
                                                         0.000      2.023 f
  datamem/dmem_1/en_wr_arbiter/U16/Z (C8T28SOIDV_LL_CNIVX37_P0)
                                                         0.033 *    2.056 r
  datamem/dmem_1/en_wr_arbiter/U30/Z (C8T28SOIDV_LL_NAND2X9_P10)
                                                         0.037 *    2.093 f
  datamem/dmem_1/en_wr_arbiter/en_blocks[6] (block_en_wr_arbiter_ADDRW13_NBLOCKS9_1)
                                                         0.000      2.093 f
  datamem/dmem_1/cacti_mem_x_6/en_x (cacti_mem_wrapper_DATAW32_ADDRW10_1)
                                                         0.000      2.093 f
  datamem/dmem_1/cacti_mem_x_6/mem_1024x32/mem_en_x (ram_1024x32)
                                                         0.000 *    2.093 f
  data arrival time                                                 2.093

  clock clk (rise edge)                                  2.857      2.857
  clock network delay (ideal)                            0.010      2.867
  clock uncertainty                                     -0.010      2.857
  datamem/dmem_1/cacti_mem_x_6/mem_1024x32/clk (ram_1024x32)
                                                         0.000      2.857 r
  library setup time                                    -0.514      2.343
  data required time                                                2.343
  --------------------------------------------------------------------------
  data required time                                                2.343
  data arrival time                                                -2.093
  --------------------------------------------------------------------------
  slack (MET)                                                       0.251


  Startpoint: core/loopbuffer/clk_r_REG1883_S40
              (rising edge-triggered flip-flop clocked by clk)
  Endpoint: datamem/dmem_1/cacti_mem_x_5/mem_512x32
            (rising edge-triggered flip-flop clocked by clk)
  Path Group: clk
  Path Type: max

  Point                                                   Incr       Path
  --------------------------------------------------------------------------
  clock clk (rise edge)                                  0.000      0.000
  clock network delay (ideal)                            0.010      0.010
  core/loopbuffer/clk_r_REG1883_S40/CP (C8T28SOIDV_LL_DFPRQX10_P10)
                                                         0.000      0.010 r
  core/loopbuffer/clk_r_REG1883_S40/Q (C8T28SOIDV_LL_DFPRQX10_P10)
                                                         0.240      0.250 r
  core/loopbuffer/U15/Z (C8T28SOI_LL_IVX5_P10)           0.075 *    0.325 f
  core/loopbuffer/U17/Z (C8T28SOI_LL_OAI112X6_P10)       0.071 *    0.396 r
  core/loopbuffer/U38/Z (C8T28SOI_LL_NAND3X3_P4)         0.068 *    0.464 f
  core/loopbuffer/lock_req_out (tta0_loopbuf_1_32_51_1_0)
                                                         0.000      0.464 f
  core/decomp/lock_r (tta0_decompressor)                 0.000      0.464 f
  core/decomp/U1/Z (C8T28SOI_LL_CNIVX9_P0)               0.044 *    0.509 r
  core/decomp/fetch_en (tta0_decompressor)               0.000      0.509 r
  core/inst_fetch/fetch_en (tta0_ifetch)                 0.000      0.509 r
  core/inst_fetch/U180/Z (C8T28SOI_LLS_NAND2X8_P4)       0.036 *    0.545 f
  core/inst_fetch/glock (tta0_ifetch)                    0.000      0.545 f
  core/loopbuffer/glock_in (tta0_loopbuf_1_32_51_1_0)    0.000      0.545 f
  core/loopbuffer/U13/Z (C8T28SOI_LLS_NAND2X8_P4)        0.041 *    0.586 r
  core/loopbuffer/U32/Z (C8T28SOIDV_LL_NAND2X18_P4)      0.031 *    0.617 f
  core/loopbuffer/glock_out (tta0_loopbuf_1_32_51_1_0)
                                                         0.000      0.617 f
  core/inst_decoder/lock (tta0_decoder)                  0.000      0.617 f
  core/inst_decoder/U5/Z (C8T28SOIDV_LL_CNIVX18_P0)      0.024 *    0.641 r
  core/inst_decoder/U3/Z (C8T28SOIDV_LL_NAND2X18_P4)     0.025 *    0.666 f
  core/inst_decoder/glock[7] (tta0_decoder)              0.000      0.666 f
  core/fu_lsu_r/glock (fu_ldw_stw_always_4_dataw32_addrw16_1)
                                                         0.000      0.666 f
  core/fu_lsu_r/U3/Z (C8T28SOIDV_LL_CNIVX28_P0)          0.031 *    0.697 r
  core/fu_lsu_r/U4/Z (C8T28SOIDV_LL_NAND2X36_P4)         0.030 *    0.728 f
  core/fu_lsu_r/mem_en_x[0] (fu_ldw_stw_always_4_dataw32_addrw16_1)
                                                         0.000      0.728 f
  U337/Z (C8T28SOIDV_LL_NAND2AX36_P4)                    0.040 *    0.767 r
  U354/Z (C8T28SOIDV_LL_CNBFX55_P0)                      0.075 *    0.843 r
  U143/Z (C8T28SOIDV_LL_CNBFX55_P4)                      0.077 *    0.920 r
  U299/Z (C8T28SOI_LL_MUXI21X9_P10)                      0.075 *    0.994 r
  datamem/scheduler/lsu_addr_a[10] (par_mem_scheduler_dataw32_addrw14_ports2_rd_delay1)
                                                         0.000      0.994 r
  datamem/scheduler/U43/Z (C8T28SOIDV_LL_NAND2AX9_P16)
                                                         0.056 *    1.050 f
  datamem/scheduler/U44/Z (C8T28SOI_LL_OAI21X7_P10)      0.052 *    1.102 r
  datamem/scheduler/addr[10] (par_mem_scheduler_dataw32_addrw14_ports2_rd_delay1)
                                                         0.000      1.102 r
  datamem/par_mem_logic_inst/addrs_from_lsus[10] (par_mem_logic_PORTS2_LSU_ADDRW14_CTRLW1_DATAW32_PM_FUNC2)
                                                         0.000      1.102 r
  datamem/par_mem_logic_inst/addr_crsbar_0/addrs_from_lsus[10] (addr_crsbar_PORTS2_LSU_ADDRW14_CTRLW1_PM_FUNC2)
                                                         0.000      1.102 r
  datamem/par_mem_logic_inst/addr_crsbar_0/U36/Z (C8T28SOI_LLS_NAND2X8_P10)
                                                         0.068 *    1.171 f
  datamem/par_mem_logic_inst/addr_crsbar_0/U37/Z (C8T28SOIDV_LL_NAND2AX9_P0)
                                                         0.056 *    1.227 r
  datamem/par_mem_logic_inst/addr_crsbar_0/U94/Z (C8T28SOIDV_LLS_XNOR2X4_P10)
                                                         0.114 *    1.341 r
  datamem/par_mem_logic_inst/addr_crsbar_0/U32/Z (C8T28SOI_LL_CNXOR2X9_P0)
                                                         0.139 *    1.480 f
  datamem/par_mem_logic_inst/addr_crsbar_0/U26/Z (C8T28SOI_LL_CNIVX9_P0)
                                                         0.025 *    1.506 r
  datamem/par_mem_logic_inst/addr_crsbar_0/U25/Z (C8T28SOIDV_LLS_XNOR2X4_P10)
                                                         0.091 *    1.597 r
  datamem/par_mem_logic_inst/addr_crsbar_0/U24/Z (C8T28SOIDV_LLS_XNOR2X4_P10)
                                                         0.137 *    1.733 r
  datamem/par_mem_logic_inst/addr_crsbar_0/module_nums[0] (addr_crsbar_PORTS2_LSU_ADDRW14_CTRLW1_PM_FUNC2)
                                                         0.000      1.733 r
  datamem/par_mem_logic_inst/ctrl_units_0/module_nums[0] (ctrl_units_PORTS2_CTRLW1)
                                                         0.000      1.733 r
  datamem/par_mem_logic_inst/ctrl_units_0/ctrl_uniti_0/module_num[0] (ctrl_unit_PORTS2_CTRLW1_1)
                                                         0.000      1.733 r
  datamem/par_mem_logic_inst/ctrl_units_0/ctrl_uniti_0/U14/Z (C8T28SOI_LL_NAND2X4_P0)
                                                         0.072 *    1.805 f
  datamem/par_mem_logic_inst/ctrl_units_0/ctrl_uniti_0/U31/Z (C8T28SOI_LL_CNIVX9_P0)
                                                         0.037 *    1.842 r
  datamem/par_mem_logic_inst/ctrl_units_0/ctrl_uniti_0/ctrl_matrix_row_out[1] (ctrl_unit_PORTS2_CTRLW1_1)
                                                         0.000      1.842 r
  datamem/par_mem_logic_inst/ctrl_units_0/ctrl_uniti_1/t_ctrl_matrix_row_in[0] (ctrl_unit_PORTS2_CTRLW1_0)
                                                         0.000      1.842 r
  datamem/par_mem_logic_inst/ctrl_units_0/ctrl_uniti_1/U14/Z (C8T28SOIDV_LL_NAND2AX9_P10)
                                                         0.031 *    1.873 f
  datamem/par_mem_logic_inst/ctrl_units_0/ctrl_uniti_1/U15/Z (C8T28SOI_LL_AND2X10_P10)
                                                         0.083 *    1.956 f
  datamem/par_mem_logic_inst/ctrl_units_0/ctrl_uniti_1/mem_en_x (ctrl_unit_PORTS2_CTRLW1_0)
                                                         0.000      1.956 f
  datamem/par_mem_logic_inst/ctrl_units_0/U24/Z (C8T28SOI_LL_CNNOR2X8_P0)
                                                         0.036 *    1.992 r
  datamem/par_mem_logic_inst/ctrl_units_0/U15/Z (C8T28SOI_LL_CNIVX14_P0)
                                                         0.031 *    2.023 f
  datamem/par_mem_logic_inst/ctrl_units_0/mem_en_xs[1] (ctrl_units_PORTS2_CTRLW1)
                                                         0.000      2.023 f
  datamem/par_mem_logic_inst/mem_en_xs[1] (par_mem_logic_PORTS2_LSU_ADDRW14_CTRLW1_DATAW32_PM_FUNC2)
                                                         0.000      2.023 f
  datamem/dmem_1/en_x (synch_singleport_mem_wrapper_DATAW32_ADDRW13_1)
                                                         0.000      2.023 f
  datamem/dmem_1/en_wr_arbiter/en (block_en_wr_arbiter_ADDRW13_NBLOCKS9_1)
                                                         0.000      2.023 f
  datamem/dmem_1/en_wr_arbiter/U16/Z (C8T28SOIDV_LL_CNIVX37_P0)
                                                         0.033 *    2.056 r
  datamem/dmem_1/en_wr_arbiter/U15/Z (C8T28SOIDV_LL_NAND2X9_P10)
                                                         0.037 *    2.092 f
  datamem/dmem_1/en_wr_arbiter/en_blocks[5] (block_en_wr_arbiter_ADDRW13_NBLOCKS9_1)
                                                         0.000      2.092 f
  datamem/dmem_1/cacti_mem_x_5/en_x (cacti_mem_wrapper_DATAW32_ADDRW9_1)
                                                         0.000      2.092 f
  datamem/dmem_1/cacti_mem_x_5/mem_512x32/mem_en_x (ram_512x32)
                                                         0.000 *    2.092 f
  data arrival time                                                 2.092

  clock clk (rise edge)                                  2.857      2.857
  clock network delay (ideal)                            0.010      2.867
  clock uncertainty                                     -0.010      2.857
  datamem/dmem_1/cacti_mem_x_5/mem_512x32/clk (ram_512x32)
                                                         0.000      2.857 r
  library setup time                                    -0.513      2.344
  data required time                                                2.344
  --------------------------------------------------------------------------
  data required time                                                2.344
  data arrival time                                                -2.092
  --------------------------------------------------------------------------
  slack (MET)                                                       0.251


  Startpoint: core/loopbuffer/clk_r_REG1883_S40
              (rising edge-triggered flip-flop clocked by clk)
  Endpoint: datamem/dmem_1/cacti_mem_x_2/mem_64x32
            (rising edge-triggered flip-flop clocked by clk)
  Path Group: clk
  Path Type: max

  Point                                                   Incr       Path
  --------------------------------------------------------------------------
  clock clk (rise edge)                                  0.000      0.000
  clock network delay (ideal)                            0.010      0.010
  core/loopbuffer/clk_r_REG1883_S40/CP (C8T28SOIDV_LL_DFPRQX10_P10)
                                                         0.000      0.010 r
  core/loopbuffer/clk_r_REG1883_S40/Q (C8T28SOIDV_LL_DFPRQX10_P10)
                                                         0.240      0.250 r
  core/loopbuffer/U15/Z (C8T28SOI_LL_IVX5_P10)           0.075 *    0.325 f
  core/loopbuffer/U17/Z (C8T28SOI_LL_OAI112X6_P10)       0.071 *    0.396 r
  core/loopbuffer/U38/Z (C8T28SOI_LL_NAND3X3_P4)         0.068 *    0.464 f
  core/loopbuffer/lock_req_out (tta0_loopbuf_1_32_51_1_0)
                                                         0.000      0.464 f
  core/decomp/lock_r (tta0_decompressor)                 0.000      0.464 f
  core/decomp/U1/Z (C8T28SOI_LL_CNIVX9_P0)               0.044 *    0.509 r
  core/decomp/fetch_en (tta0_decompressor)               0.000      0.509 r
  core/inst_fetch/fetch_en (tta0_ifetch)                 0.000      0.509 r
  core/inst_fetch/U180/Z (C8T28SOI_LLS_NAND2X8_P4)       0.036 *    0.545 f
  core/inst_fetch/glock (tta0_ifetch)                    0.000      0.545 f
  core/loopbuffer/glock_in (tta0_loopbuf_1_32_51_1_0)    0.000      0.545 f
  core/loopbuffer/U13/Z (C8T28SOI_LLS_NAND2X8_P4)        0.041 *    0.586 r
  core/loopbuffer/U32/Z (C8T28SOIDV_LL_NAND2X18_P4)      0.031 *    0.617 f
  core/loopbuffer/glock_out (tta0_loopbuf_1_32_51_1_0)
                                                         0.000      0.617 f
  core/inst_decoder/lock (tta0_decoder)                  0.000      0.617 f
  core/inst_decoder/U5/Z (C8T28SOIDV_LL_CNIVX18_P0)      0.024 *    0.641 r
  core/inst_decoder/U3/Z (C8T28SOIDV_LL_NAND2X18_P4)     0.025 *    0.666 f
  core/inst_decoder/glock[7] (tta0_decoder)              0.000      0.666 f
  core/fu_lsu_r/glock (fu_ldw_stw_always_4_dataw32_addrw16_1)
                                                         0.000      0.666 f
  core/fu_lsu_r/U3/Z (C8T28SOIDV_LL_CNIVX28_P0)          0.031 *    0.697 r
  core/fu_lsu_r/U4/Z (C8T28SOIDV_LL_NAND2X36_P4)         0.030 *    0.728 f
  core/fu_lsu_r/mem_en_x[0] (fu_ldw_stw_always_4_dataw32_addrw16_1)
                                                         0.000      0.728 f
  U337/Z (C8T28SOIDV_LL_NAND2AX36_P4)                    0.040 *    0.767 r
  U354/Z (C8T28SOIDV_LL_CNBFX55_P0)                      0.075 *    0.843 r
  U143/Z (C8T28SOIDV_LL_CNBFX55_P4)                      0.077 *    0.920 r
  U299/Z (C8T28SOI_LL_MUXI21X9_P10)                      0.075 *    0.994 r
  datamem/scheduler/lsu_addr_a[10] (par_mem_scheduler_dataw32_addrw14_ports2_rd_delay1)
                                                         0.000      0.994 r
  datamem/scheduler/U43/Z (C8T28SOIDV_LL_NAND2AX9_P16)
                                                         0.056 *    1.050 f
  datamem/scheduler/U44/Z (C8T28SOI_LL_OAI21X7_P10)      0.052 *    1.102 r
  datamem/scheduler/addr[10] (par_mem_scheduler_dataw32_addrw14_ports2_rd_delay1)
                                                         0.000      1.102 r
  datamem/par_mem_logic_inst/addrs_from_lsus[10] (par_mem_logic_PORTS2_LSU_ADDRW14_CTRLW1_DATAW32_PM_FUNC2)
                                                         0.000      1.102 r
  datamem/par_mem_logic_inst/addr_crsbar_0/addrs_from_lsus[10] (addr_crsbar_PORTS2_LSU_ADDRW14_CTRLW1_PM_FUNC2)
                                                         0.000      1.102 r
  datamem/par_mem_logic_inst/addr_crsbar_0/U36/Z (C8T28SOI_LLS_NAND2X8_P10)
                                                         0.068 *    1.171 f
  datamem/par_mem_logic_inst/addr_crsbar_0/U37/Z (C8T28SOIDV_LL_NAND2AX9_P0)
                                                         0.056 *    1.227 r
  datamem/par_mem_logic_inst/addr_crsbar_0/U94/Z (C8T28SOIDV_LLS_XNOR2X4_P10)
                                                         0.114 *    1.341 r
  datamem/par_mem_logic_inst/addr_crsbar_0/U32/Z (C8T28SOI_LL_CNXOR2X9_P0)
                                                         0.139 *    1.480 f
  datamem/par_mem_logic_inst/addr_crsbar_0/U26/Z (C8T28SOI_LL_CNIVX9_P0)
                                                         0.025 *    1.506 r
  datamem/par_mem_logic_inst/addr_crsbar_0/U25/Z (C8T28SOIDV_LLS_XNOR2X4_P10)
                                                         0.091 *    1.597 r
  datamem/par_mem_logic_inst/addr_crsbar_0/U24/Z (C8T28SOIDV_LLS_XNOR2X4_P10)
                                                         0.137 *    1.733 r
  datamem/par_mem_logic_inst/addr_crsbar_0/module_nums[0] (addr_crsbar_PORTS2_LSU_ADDRW14_CTRLW1_PM_FUNC2)
                                                         0.000      1.733 r
  datamem/par_mem_logic_inst/ctrl_units_0/module_nums[0] (ctrl_units_PORTS2_CTRLW1)
                                                         0.000      1.733 r
  datamem/par_mem_logic_inst/ctrl_units_0/ctrl_uniti_0/module_num[0] (ctrl_unit_PORTS2_CTRLW1_1)
                                                         0.000      1.733 r
  datamem/par_mem_logic_inst/ctrl_units_0/ctrl_uniti_0/U14/Z (C8T28SOI_LL_NAND2X4_P0)
                                                         0.072 *    1.805 f
  datamem/par_mem_logic_inst/ctrl_units_0/ctrl_uniti_0/U31/Z (C8T28SOI_LL_CNIVX9_P0)
                                                         0.037 *    1.842 r
  datamem/par_mem_logic_inst/ctrl_units_0/ctrl_uniti_0/ctrl_matrix_row_out[1] (ctrl_unit_PORTS2_CTRLW1_1)
                                                         0.000      1.842 r
  datamem/par_mem_logic_inst/ctrl_units_0/ctrl_uniti_1/t_ctrl_matrix_row_in[0] (ctrl_unit_PORTS2_CTRLW1_0)
                                                         0.000      1.842 r
  datamem/par_mem_logic_inst/ctrl_units_0/ctrl_uniti_1/U14/Z (C8T28SOIDV_LL_NAND2AX9_P10)
                                                         0.031 *    1.873 f
  datamem/par_mem_logic_inst/ctrl_units_0/ctrl_uniti_1/U15/Z (C8T28SOI_LL_AND2X10_P10)
                                                         0.083 *    1.956 f
  datamem/par_mem_logic_inst/ctrl_units_0/ctrl_uniti_1/mem_en_x (ctrl_unit_PORTS2_CTRLW1_0)
                                                         0.000      1.956 f
  datamem/par_mem_logic_inst/ctrl_units_0/U24/Z (C8T28SOI_LL_CNNOR2X8_P0)
                                                         0.036 *    1.992 r
  datamem/par_mem_logic_inst/ctrl_units_0/U15/Z (C8T28SOI_LL_CNIVX14_P0)
                                                         0.031 *    2.023 f
  datamem/par_mem_logic_inst/ctrl_units_0/mem_en_xs[1] (ctrl_units_PORTS2_CTRLW1)
                                                         0.000      2.023 f
  datamem/par_mem_logic_inst/mem_en_xs[1] (par_mem_logic_PORTS2_LSU_ADDRW14_CTRLW1_DATAW32_PM_FUNC2)
                                                         0.000      2.023 f
  datamem/dmem_1/en_x (synch_singleport_mem_wrapper_DATAW32_ADDRW13_1)
                                                         0.000      2.023 f
  datamem/dmem_1/en_wr_arbiter/en (block_en_wr_arbiter_ADDRW13_NBLOCKS9_1)
                                                         0.000      2.023 f
  datamem/dmem_1/en_wr_arbiter/U16/Z (C8T28SOIDV_LL_CNIVX37_P0)
                                                         0.033 *    2.056 r
  datamem/dmem_1/en_wr_arbiter/U28/Z (C8T28SOIDV_LL_NAND2X9_P4)
                                                         0.036 *    2.092 f
  datamem/dmem_1/en_wr_arbiter/en_blocks[2] (block_en_wr_arbiter_ADDRW13_NBLOCKS9_1)
                                                         0.000      2.092 f
  datamem/dmem_1/cacti_mem_x_2/en_x (cacti_mem_wrapper_DATAW32_ADDRW6_1)
                                                         0.000      2.092 f
  datamem/dmem_1/cacti_mem_x_2/mem_64x32/mem_en_x (ram_64x32)
                                                         0.000 *    2.092 f
  data arrival time                                                 2.092

  clock clk (rise edge)                                  2.857      2.857
  clock network delay (ideal)                            0.010      2.867
  clock uncertainty                                     -0.010      2.857
  datamem/dmem_1/cacti_mem_x_2/mem_64x32/clk (ram_64x32)
                                                         0.000      2.857 r
  library setup time                                    -0.513      2.344
  data required time                                                2.344
  --------------------------------------------------------------------------
  data required time                                                2.344
  data arrival time                                                -2.092
  --------------------------------------------------------------------------
  slack (MET)                                                       0.253


1
