Warning: There are 100 switching activity information conflicts. (PWR-19)
 
****************************************
Report : saif
Design : proc
Version: M-2016.12-SP5-1
Date   : Sun Jul 29 00:54:36 2018
****************************************

  

--------------------------------------------------------------------------------
              User              Default           Propagated
Object type   Annotated (%)     Activity (%)      Activity (%)       Total
--------------------------------------------------------------------------------
  
 Nets         277(66.11%)       0(0.00%)          142(33.89%)        419
 Ports        229(100.00%)      0(0.00%)          0(0.00%)           229
 Pins         216(34.45%)       0(0.00%)          411(65.55%)        627
--------------------------------------------------------------------------------
1
