Warning: There are 95 switching activity information conflicts. (PWR-19)
 
****************************************
Report : saif
Design : proc
Version: M-2016.12-SP5-1
Date   : Sun Jul 29 07:40:09 2018
****************************************

  

--------------------------------------------------------------------------------
              User              Default           Propagated
Object type   Annotated (%)     Activity (%)      Activity (%)       Total
--------------------------------------------------------------------------------
  
 Nets         283(65.81%)       0(0.00%)          147(34.19%)        430
 Ports        229(100.00%)      0(0.00%)          0(0.00%)           229
 Pins         258(37.66%)       0(0.00%)          427(62.34%)        685
--------------------------------------------------------------------------------
1
