Warning: There are 83 switching activity information conflicts. (PWR-19)
 
****************************************
Report : saif
Design : proc
Version: M-2016.12-SP5-1
Date   : Sun Jul 29 02:33:07 2018
****************************************

  

--------------------------------------------------------------------------------
              User              Default           Propagated
Object type   Annotated (%)     Activity (%)      Activity (%)       Total
--------------------------------------------------------------------------------
  
 Nets         302(62.66%)       0(0.00%)          180(37.34%)        482
 Ports        229(100.00%)      0(0.00%)          0(0.00%)           229
 Pins         266(37.36%)       0(0.00%)          446(62.64%)        712
--------------------------------------------------------------------------------
1
