Information: Updating design information... (UID-85)
 
****************************************
Report : timing
        -path full
        -delay max
        -max_paths 10
Design : proc
Version: M-2016.12-SP5-1
Date   : Sun Jul 29 02:33:00 2018
****************************************

 * Some/all delay information is back-annotated.

Operating Conditions: tt28_0.95V_0.00V_0.00V_0.00V_25C   Library: C28SOI_SC_8_CLK_LL
Wire Load Model Mode: Inactive.

  Startpoint: core/rf_rf_def/R_35_clk_r_REG1881_S19
              (rising edge-triggered flip-flop clocked by clk)
  Endpoint: core/fu_CMUL/fu_arch/clk_r_REG138_S4
            (rising edge-triggered flip-flop clocked by clk)
  Path Group: clk
  Path Type: max

  Point                                                   Incr       Path
  --------------------------------------------------------------------------
  clock clk (rise edge)                                  0.000      0.000
  clock network delay (ideal)                            0.010      0.010
  core/rf_rf_def/R_35_clk_r_REG1881_S19/CP (C8T28SOIDV_LL_DFPRQX19_P0)
                                                         0.000      0.010 r
  core/rf_rf_def/R_35_clk_r_REG1881_S19/Q (C8T28SOIDV_LL_DFPRQX19_P0)
                                                         0.078      0.088 f
  core/rf_rf_def/U30/Z (C8T28SOI_LL_AOI22X2_P4)          0.048 *    0.136 r
  core/rf_rf_def/U31/Z (C8T28SOIDV_LL_NAND2X9_P4)        0.020 *    0.156 f
  core/rf_rf_def/r1data[23] (rf_1wr_1rd_always_1_guarded_0_dataw32_rf_size3)
                                                         0.000      0.156 f
  core/ic/socket_rf_def_o1_data0[23] (tta0_interconn)    0.000      0.156 f
  core/ic/rf_def_o1/data0[23] (tta0_output_socket_cons_2_1_BUSW_032_BUSW_132_DATAW_032_0)
                                                         0.000      0.156 f
  core/ic/rf_def_o1/U18/Z (C8T28SOI_LL_AND2X19_P10)      0.022 *    0.178 f
  core/ic/rf_def_o1/databus0_alt[23] (tta0_output_socket_cons_2_1_BUSW_032_BUSW_132_DATAW_032_0)
                                                         0.000      0.178 f
  core/ic/U43/Z (C8T28SOI_LL_OR2X19_P10)                 0.027 *    0.205 f
  core/ic/CMUL_i2/databus0[23] (tta0_input_socket_cons_1_BUSW_032_DATAW32_9)
                                                         0.000      0.205 f
  core/ic/CMUL_i2/U14/Z (C8T28SOIDV_LL_CNBFX18_P4)       0.019 *    0.224 f
  core/ic/CMUL_i2/data[23] (tta0_input_socket_cons_1_BUSW_032_DATAW32_9)
                                                         0.000      0.224 f
  core/ic/socket_CMUL_i2_data[23] (tta0_interconn)       0.000      0.224 f
  core/fu_CMUL/o1data[23] (fu_cmul_always_3_dataw32_busw32)
                                                         0.000      0.224 f
  core/fu_CMUL/U47/Z (C8T28SOIDV_LL_NAND2X18_P16)        0.014 *    0.238 r
  core/fu_CMUL/U48/Z (C8T28SOIDV_LL_NAND2X36_P16)        0.034 *    0.272 f
  core/fu_CMUL/fu_arch/B[23] (cmul_pipe_1_dataw32_halfw16)
                                                         0.000      0.272 f
  core/fu_CMUL/fu_arch/U129/Z (C8T28SOI_LL_XNOR2X19_P16)
                                                         0.080 *    0.351 r
  core/fu_CMUL/fu_arch/U133/Z (C8T28SOIDV_LL_NAND2X27_P16)
                                                         0.036 *    0.387 f
  core/fu_CMUL/fu_arch/U161/Z (C8T28SOI_LL_OAI22X3_P16)
                                                         0.046 *    0.433 r
  core/fu_CMUL/fu_arch/U232/CO (C8T28SOIDV_LL_FA1X5_P16)
                                                         0.071 *    0.504 r
  core/fu_CMUL/fu_arch/U235/Z (C8T28SOIDV_LLS_XNOR2X4_P16)
                                                         0.038 *    0.541 r
  core/fu_CMUL/fu_arch/U236/Z (C8T28SOIDV_LLS_XNOR2X4_P16)
                                                         0.041 *    0.582 r
  core/fu_CMUL/fu_arch/U300/CO (C8T28SOIDV_LLS1_FA1X4_P16)
                                                         0.047 *    0.629 r
  core/fu_CMUL/fu_arch/U237/Z (C8T28SOI_LL_NAND2AX4_P16)
                                                         0.022 *    0.651 f
  core/fu_CMUL/fu_arch/U238/Z (C8T28SOI_LL_NAND2X8_P16)
                                                         0.022 *    0.673 r
  core/fu_CMUL/fu_arch/U297/S0 (C8T28SOIDV_LLS1_FA1X9_P16)
                                                         0.109 *    0.782 f
  core/fu_CMUL/fu_arch/U709/Z (C8T28SOIDV_LLS_XNOR2X4_P16)
                                                         0.035 *    0.818 f
  core/fu_CMUL/fu_arch/U1470/Z (C8T28SOI_LL_NOR2X8_P16)
                                                         0.021 *    0.839 r
  core/fu_CMUL/fu_arch/U363/Z (C8T28SOI_LL_IVX10_P16)    0.016 *    0.854 f
  core/fu_CMUL/fu_arch/U417/Z (C8T28SOI_LL_AOI12X10_P16)
                                                         0.025 *    0.880 r
  core/fu_CMUL/fu_arch/U419/Z (C8T28SOI_LL_OAI12X10_P16)
                                                         0.021 *    0.901 f
  core/fu_CMUL/fu_arch/U422/Z (C8T28SOI_LL_AOI12X10_P16)
                                                         0.024 *    0.925 r
  core/fu_CMUL/fu_arch/U396/Z (C8T28SOI_LL_OA12X5_P4)    0.033 *    0.958 r
  core/fu_CMUL/fu_arch/U2932/Z (C8T28SOI_LL_NOR2X8_P16)
                                                         0.012 *    0.970 f
  core/fu_CMUL/fu_arch/U2381/Z (C8T28SOI_LL_NOR2AX4_P10)
                                                         0.024 *    0.994 r
  core/fu_CMUL/fu_arch/U180/Z (C8T28SOI_LL_NAND2X8_P4)
                                                         0.016 *    1.010 f
  core/fu_CMUL/fu_arch/U66/Z (C8T28SOIDV_LLS_XNOR2X4_P4)
                                                         0.019 *    1.030 f
  core/fu_CMUL/fu_arch/clk_r_REG138_S4/D (C8T28SOIDV_LL_DFPRQX10_P10)
                                                         0.000 *    1.030 f
  data arrival time                                                 1.030

  clock clk (rise edge)                                  1.111      1.111
  clock network delay (ideal)                            0.010      1.121
  clock uncertainty                                     -0.010      1.111
  core/fu_CMUL/fu_arch/clk_r_REG138_S4/CP (C8T28SOIDV_LL_DFPRQX10_P10)
                                                         0.000      1.111 r
  library setup time                                    -0.028      1.083
  data required time                                                1.083
  --------------------------------------------------------------------------
  data required time                                                1.083
  data arrival time                                                -1.030
  --------------------------------------------------------------------------
  slack (MET)                                                       0.053


  Startpoint: core/rf_rf_def/R_35_clk_r_REG1881_S19
              (rising edge-triggered flip-flop clocked by clk)
  Endpoint: core/fu_CMUL/fu_arch/clk_r_REG162_S4
            (rising edge-triggered flip-flop clocked by clk)
  Path Group: clk
  Path Type: max

  Point                                                   Incr       Path
  --------------------------------------------------------------------------
  clock clk (rise edge)                                  0.000      0.000
  clock network delay (ideal)                            0.010      0.010
  core/rf_rf_def/R_35_clk_r_REG1881_S19/CP (C8T28SOIDV_LL_DFPRQX19_P0)
                                                         0.000      0.010 r
  core/rf_rf_def/R_35_clk_r_REG1881_S19/Q (C8T28SOIDV_LL_DFPRQX19_P0)
                                                         0.078      0.088 f
  core/rf_rf_def/U30/Z (C8T28SOI_LL_AOI22X2_P4)          0.048 *    0.136 r
  core/rf_rf_def/U31/Z (C8T28SOIDV_LL_NAND2X9_P4)        0.020 *    0.156 f
  core/rf_rf_def/r1data[23] (rf_1wr_1rd_always_1_guarded_0_dataw32_rf_size3)
                                                         0.000      0.156 f
  core/ic/socket_rf_def_o1_data0[23] (tta0_interconn)    0.000      0.156 f
  core/ic/rf_def_o1/data0[23] (tta0_output_socket_cons_2_1_BUSW_032_BUSW_132_DATAW_032_0)
                                                         0.000      0.156 f
  core/ic/rf_def_o1/U18/Z (C8T28SOI_LL_AND2X19_P10)      0.022 *    0.178 f
  core/ic/rf_def_o1/databus0_alt[23] (tta0_output_socket_cons_2_1_BUSW_032_BUSW_132_DATAW_032_0)
                                                         0.000      0.178 f
  core/ic/U43/Z (C8T28SOI_LL_OR2X19_P10)                 0.027 *    0.205 f
  core/ic/CMUL_i2/databus0[23] (tta0_input_socket_cons_1_BUSW_032_DATAW32_9)
                                                         0.000      0.205 f
  core/ic/CMUL_i2/U14/Z (C8T28SOIDV_LL_CNBFX18_P4)       0.019 *    0.224 f
  core/ic/CMUL_i2/data[23] (tta0_input_socket_cons_1_BUSW_032_DATAW32_9)
                                                         0.000      0.224 f
  core/ic/socket_CMUL_i2_data[23] (tta0_interconn)       0.000      0.224 f
  core/fu_CMUL/o1data[23] (fu_cmul_always_3_dataw32_busw32)
                                                         0.000      0.224 f
  core/fu_CMUL/U47/Z (C8T28SOIDV_LL_NAND2X18_P16)        0.014 *    0.238 r
  core/fu_CMUL/U48/Z (C8T28SOIDV_LL_NAND2X36_P16)        0.034 *    0.272 f
  core/fu_CMUL/fu_arch/B[23] (cmul_pipe_1_dataw32_halfw16)
                                                         0.000      0.272 f
  core/fu_CMUL/fu_arch/U129/Z (C8T28SOI_LL_XNOR2X19_P16)
                                                         0.080 *    0.351 r
  core/fu_CMUL/fu_arch/U133/Z (C8T28SOIDV_LL_NAND2X27_P16)
                                                         0.036 *    0.387 f
  core/fu_CMUL/fu_arch/U947/Z (C8T28SOI_LL_OAI22X3_P16)
                                                         0.051 *    0.438 r
  core/fu_CMUL/fu_arch/U1018/S0 (C8T28SOIDV_LL_FA1X5_P16)
                                                         0.095 *    0.532 f
  core/fu_CMUL/fu_arch/U1056/S0 (C8T28SOIDV_LL_FA1X5_P16)
                                                         0.085 *    0.617 r
  core/fu_CMUL/fu_arch/U1057/S0 (C8T28SOIDV_LL_FA1X5_P16)
                                                         0.074 *    0.691 f
  core/fu_CMUL/fu_arch/U1183/S0 (C8T28SOIDV_LLS1_FA1X4_P16)
                                                         0.050 *    0.741 f
  core/fu_CMUL/fu_arch/U1029/Z (C8T28SOI_LL_NAND2AX4_P4)
                                                         0.032 *    0.773 f
  core/fu_CMUL/fu_arch/U1190/Z (C8T28SOI_LL_AOI21X6_P16)
                                                         0.024 *    0.797 r
  core/fu_CMUL/fu_arch/U1191/Z (C8T28SOI_LL_OAI12X3_P16)
                                                         0.018 *    0.815 f
  core/fu_CMUL/fu_arch/U1192/Z (C8T28SOI_LL_NAND2X4_P0)
                                                         0.013 *    0.828 r
  core/fu_CMUL/fu_arch/U1670/Z (C8T28SOIDV_LL_NAND2X9_P4)
                                                         0.012 *    0.840 f
  core/fu_CMUL/fu_arch/U1194/Z (C8T28SOI_LL_NAND3ABX12_P16)
                                                         0.012 *    0.852 r
  core/fu_CMUL/fu_arch/U644/Z (C8T28SOI_LL_CNNAND2X8_P0)
                                                         0.013 *    0.865 f
  core/fu_CMUL/fu_arch/U548/Z (C8T28SOI_LL_AOI12X19_P4)
                                                         0.018 *    0.882 r
  core/fu_CMUL/fu_arch/U2621/Z (C8T28SOI_LL_CNIVX14_P4)
                                                         0.012 *    0.894 f
  core/fu_CMUL/fu_arch/U510/Z (C8T28SOI_LLBR0P6_NAND3X14_P4)
                                                         0.015 *    0.909 r
  core/fu_CMUL/fu_arch/U1310/Z (C8T28SOIDV_LL_NAND2X36_P4)
                                                         0.016 *    0.926 f
  core/fu_CMUL/fu_arch/U2637/Z (C8T28SOI_LL_AOI12X10_P4)
                                                         0.024 *    0.950 r
  core/fu_CMUL/fu_arch/U1274/Z (C8T28SOI_LL_OAI12X3_P4)
                                                         0.017 *    0.967 f
  core/fu_CMUL/fu_arch/U2703/Z (C8T28SOI_LL_AOI12X3_P4)
                                                         0.021 *    0.988 r
  core/fu_CMUL/fu_arch/U2704/Z (C8T28SOIDV_LLS_XNOR2X4_P16)
                                                         0.036 *    1.024 r
  core/fu_CMUL/fu_arch/clk_r_REG162_S4/D (C8T28SOIDV_LL_DFPRQX10_P10)
                                                         0.000 *    1.024 r
  data arrival time                                                 1.024

  clock clk (rise edge)                                  1.111      1.111
  clock network delay (ideal)                            0.010      1.121
  clock uncertainty                                     -0.010      1.111
  core/fu_CMUL/fu_arch/clk_r_REG162_S4/CP (C8T28SOIDV_LL_DFPRQX10_P10)
                                                         0.000      1.111 r
  library setup time                                    -0.023      1.088
  data required time                                                1.088
  --------------------------------------------------------------------------
  data required time                                                1.088
  data arrival time                                                -1.024
  --------------------------------------------------------------------------
  slack (MET)                                                       0.064


  Startpoint: core/rf_rf_def/R_35_clk_r_REG1881_S19
              (rising edge-triggered flip-flop clocked by clk)
  Endpoint: core/fu_CMUL/fu_arch/clk_r_REG2011_S4
            (rising edge-triggered flip-flop clocked by clk)
  Path Group: clk
  Path Type: max

  Point                                                   Incr       Path
  --------------------------------------------------------------------------
  clock clk (rise edge)                                  0.000      0.000
  clock network delay (ideal)                            0.010      0.010
  core/rf_rf_def/R_35_clk_r_REG1881_S19/CP (C8T28SOIDV_LL_DFPRQX19_P0)
                                                         0.000      0.010 r
  core/rf_rf_def/R_35_clk_r_REG1881_S19/Q (C8T28SOIDV_LL_DFPRQX19_P0)
                                                         0.078      0.088 f
  core/rf_rf_def/U30/Z (C8T28SOI_LL_AOI22X2_P4)          0.048 *    0.136 r
  core/rf_rf_def/U31/Z (C8T28SOIDV_LL_NAND2X9_P4)        0.020 *    0.156 f
  core/rf_rf_def/r1data[23] (rf_1wr_1rd_always_1_guarded_0_dataw32_rf_size3)
                                                         0.000      0.156 f
  core/ic/socket_rf_def_o1_data0[23] (tta0_interconn)    0.000      0.156 f
  core/ic/rf_def_o1/data0[23] (tta0_output_socket_cons_2_1_BUSW_032_BUSW_132_DATAW_032_0)
                                                         0.000      0.156 f
  core/ic/rf_def_o1/U18/Z (C8T28SOI_LL_AND2X19_P10)      0.022 *    0.178 f
  core/ic/rf_def_o1/databus0_alt[23] (tta0_output_socket_cons_2_1_BUSW_032_BUSW_132_DATAW_032_0)
                                                         0.000      0.178 f
  core/ic/U43/Z (C8T28SOI_LL_OR2X19_P10)                 0.027 *    0.205 f
  core/ic/CMUL_i2/databus0[23] (tta0_input_socket_cons_1_BUSW_032_DATAW32_9)
                                                         0.000      0.205 f
  core/ic/CMUL_i2/U14/Z (C8T28SOIDV_LL_CNBFX18_P4)       0.019 *    0.224 f
  core/ic/CMUL_i2/data[23] (tta0_input_socket_cons_1_BUSW_032_DATAW32_9)
                                                         0.000      0.224 f
  core/ic/socket_CMUL_i2_data[23] (tta0_interconn)       0.000      0.224 f
  core/fu_CMUL/o1data[23] (fu_cmul_always_3_dataw32_busw32)
                                                         0.000      0.224 f
  core/fu_CMUL/U47/Z (C8T28SOIDV_LL_NAND2X18_P16)        0.014 *    0.238 r
  core/fu_CMUL/U48/Z (C8T28SOIDV_LL_NAND2X36_P16)        0.034 *    0.272 f
  core/fu_CMUL/fu_arch/B[23] (cmul_pipe_1_dataw32_halfw16)
                                                         0.000      0.272 f
  core/fu_CMUL/fu_arch/U129/Z (C8T28SOI_LL_XNOR2X19_P16)
                                                         0.080 *    0.351 r
  core/fu_CMUL/fu_arch/U133/Z (C8T28SOIDV_LL_NAND2X27_P16)
                                                         0.036 *    0.387 f
  core/fu_CMUL/fu_arch/U161/Z (C8T28SOI_LL_OAI22X3_P16)
                                                         0.046 *    0.433 r
  core/fu_CMUL/fu_arch/U232/CO (C8T28SOIDV_LL_FA1X5_P16)
                                                         0.071 *    0.504 r
  core/fu_CMUL/fu_arch/U235/Z (C8T28SOIDV_LLS_XNOR2X4_P16)
                                                         0.038 *    0.541 r
  core/fu_CMUL/fu_arch/U236/Z (C8T28SOIDV_LLS_XNOR2X4_P16)
                                                         0.041 *    0.582 r
  core/fu_CMUL/fu_arch/U300/CO (C8T28SOIDV_LLS1_FA1X4_P16)
                                                         0.047 *    0.629 r
  core/fu_CMUL/fu_arch/U237/Z (C8T28SOI_LL_NAND2AX4_P16)
                                                         0.022 *    0.651 f
  core/fu_CMUL/fu_arch/U238/Z (C8T28SOI_LL_NAND2X8_P16)
                                                         0.022 *    0.673 r
  core/fu_CMUL/fu_arch/U297/S0 (C8T28SOIDV_LLS1_FA1X9_P16)
                                                         0.109 *    0.782 f
  core/fu_CMUL/fu_arch/U709/Z (C8T28SOIDV_LLS_XNOR2X4_P16)
                                                         0.035 *    0.818 f
  core/fu_CMUL/fu_arch/U1470/Z (C8T28SOI_LL_NOR2X8_P16)
                                                         0.021 *    0.839 r
  core/fu_CMUL/fu_arch/U363/Z (C8T28SOI_LL_IVX10_P16)    0.016 *    0.854 f
  core/fu_CMUL/fu_arch/U417/Z (C8T28SOI_LL_AOI12X10_P16)
                                                         0.025 *    0.880 r
  core/fu_CMUL/fu_arch/U419/Z (C8T28SOI_LL_OAI12X10_P16)
                                                         0.021 *    0.901 f
  core/fu_CMUL/fu_arch/U422/Z (C8T28SOI_LL_AOI12X10_P16)
                                                         0.024 *    0.925 r
  core/fu_CMUL/fu_arch/U396/Z (C8T28SOI_LL_OA12X5_P4)    0.033 *    0.958 r
  core/fu_CMUL/fu_arch/U362/Z (C8T28SOI_LL_IVX10_P16)    0.012 *    0.970 f
  core/fu_CMUL/fu_arch/U124/Z (C8T28SOIDV_LL_NAND2AX17_P4)
                                                         0.026 *    0.996 f
  core/fu_CMUL/fu_arch/U1231/Z (C8T28SOI_LL_CNXOR2X15_P4)
                                                         0.021 *    1.018 f
  core/fu_CMUL/fu_arch/clk_r_REG2011_S4/D (C8T28SOIDV_LL_DFPRQX10_P10)
                                                         0.000 *    1.018 f
  data arrival time                                                 1.018

  clock clk (rise edge)                                  1.111      1.111
  clock network delay (ideal)                            0.010      1.121
  clock uncertainty                                     -0.010      1.111
  core/fu_CMUL/fu_arch/clk_r_REG2011_S4/CP (C8T28SOIDV_LL_DFPRQX10_P10)
                                                         0.000      1.111 r
  library setup time                                    -0.027      1.084
  data required time                                                1.084
  --------------------------------------------------------------------------
  data required time                                                1.084
  data arrival time                                                -1.018
  --------------------------------------------------------------------------
  slack (MET)                                                       0.066


  Startpoint: core/fu_CADD1/fu_arch/inst_cadd_reg/clk_r_REG2178_S1
              (rising edge-triggered flip-flop clocked by clk)
  Endpoint: datamem/scheduler/d_b_conv/clk_r_REG269_S19
            (rising edge-triggered flip-flop clocked by clk)
  Path Group: clk
  Path Type: max

  Point                                                   Incr       Path
  --------------------------------------------------------------------------
  clock clk (rise edge)                                  0.000      0.000
  clock network delay (ideal)                            0.010      0.010
  core/fu_CADD1/fu_arch/inst_cadd_reg/clk_r_REG2178_S1/CP (C8T28SOIDV_LL_DFPRQX10_P10)
                                                         0.000      0.010 r
  core/fu_CADD1/fu_arch/inst_cadd_reg/clk_r_REG2178_S1/Q (C8T28SOIDV_LL_DFPRQX10_P10)
                                                         0.083      0.093 r
  core/fu_CADD1/fu_arch/inst_cadd_reg/opc_o[1] (cadd_reg_dataw32)
                                                         0.000      0.093 r
  core/fu_CADD1/fu_arch/inst_cadd_arith/opc_i[1] (cadd_arith_dataw32_halfw16)
                                                         0.000      0.093 r
  core/fu_CADD1/fu_arch/inst_cadd_arith/U96/Z (C8T28SOIDV_LL_NAND2AX9_P10)
                                                         0.032 *    0.125 f
  core/fu_CADD1/fu_arch/inst_cadd_arith/U514/Z (C8T28SOIDV_LL_NOR2X39_P16)
                                                         0.047 *    0.172 r
  core/fu_CADD1/fu_arch/inst_cadd_arith/U24/Z (C8T28SOI_LL_OR2X9_P16)
                                                         0.050 *    0.223 r
  core/fu_CADD1/fu_arch/inst_cadd_arith/U13/Z (C8T28SOIDV_LL_CNBFX37_P4)
                                                         0.028 *    0.250 r
  core/fu_CADD1/fu_arch/inst_cadd_arith/U10/Z (C8T28SOIDV_LL_IVX68_P16)
                                                         0.013 *    0.264 f
  core/fu_CADD1/fu_arch/inst_cadd_arith/U716/Z (C8T28SOI_LL_OAI22X3_P16)
                                                         0.029 *    0.293 r
  core/fu_CADD1/fu_arch/inst_cadd_arith/U717/Z (C8T28SOI_LL_CNXOR2X9_P0)
                                                         0.040 *    0.333 f
  core/fu_CADD1/fu_arch/inst_cadd_arith/U718/Z (C8T28SOI_LL_IVX5_P16)
                                                         0.015 *    0.347 r
  core/fu_CADD1/fu_arch/inst_cadd_arith/U720/Z (C8T28SOI_LL_OAI21X7_P16)
                                                         0.019 *    0.366 f
  core/fu_CADD1/fu_arch/inst_cadd_arith/U723/Z (C8T28SOI_LL_AOI12X10_P16)
                                                         0.026 *    0.393 r
  core/fu_CADD1/fu_arch/inst_cadd_arith/U725/Z (C8T28SOI_LL_OAI21X7_P16)
                                                         0.024 *    0.416 f
  core/fu_CADD1/fu_arch/inst_cadd_arith/U728/Z (C8T28SOI_LL_AOI12X10_P16)
                                                         0.026 *    0.442 r
  core/fu_CADD1/fu_arch/inst_cadd_arith/U730/Z (C8T28SOI_LL_OAI21X7_P16)
                                                         0.024 *    0.466 f
  core/fu_CADD1/fu_arch/inst_cadd_arith/U733/Z (C8T28SOI_LL_AOI12X10_P16)
                                                         0.027 *    0.493 r
  core/fu_CADD1/fu_arch/inst_cadd_arith/U735/Z (C8T28SOI_LL_OAI12X10_P16)
                                                         0.022 *    0.515 f
  core/fu_CADD1/fu_arch/inst_cadd_arith/U738/Z (C8T28SOI_LL_AOI12X10_P16)
                                                         0.027 *    0.542 r
  core/fu_CADD1/fu_arch/inst_cadd_arith/U740/Z (C8T28SOI_LL_OAI21X7_P16)
                                                         0.024 *    0.567 f
  core/fu_CADD1/fu_arch/inst_cadd_arith/U743/Z (C8T28SOI_LL_AOI12X10_P16)
                                                         0.026 *    0.593 r
  core/fu_CADD1/fu_arch/inst_cadd_arith/U745/Z (C8T28SOI_LL_OAI21X7_P16)
                                                         0.024 *    0.617 f
  core/fu_CADD1/fu_arch/inst_cadd_arith/U748/Z (C8T28SOI_LL_AOI12X10_P16)
                                                         0.026 *    0.643 r
  core/fu_CADD1/fu_arch/inst_cadd_arith/U750/Z (C8T28SOI_LL_OAI21X7_P16)
                                                         0.022 *    0.665 f
  core/fu_CADD1/fu_arch/inst_cadd_arith/U753/Z (C8T28SOI_LL_AOI12X3_P16)
                                                         0.027 *    0.692 r
  core/fu_CADD1/fu_arch/inst_cadd_arith/U754/Z (C8T28SOI_LL_CNIVX9_P4)
                                                         0.015 *    0.707 f
  core/fu_CADD1/fu_arch/inst_cadd_arith/U964/CO (C8T28SOIDV_LLS1_FA1X4_P16)
                                                         0.036 *    0.743 f
  core/fu_CADD1/fu_arch/inst_cadd_arith/U1156/CO (C8T28SOIDV_LLS1_FA1X4_P16)
                                                         0.043 *    0.786 f
  core/fu_CADD1/fu_arch/inst_cadd_arith/U755/Z (C8T28SOI_LL_CNXOR2X9_P0)
                                                         0.031 *    0.817 r
  core/fu_CADD1/fu_arch/inst_cadd_arith/U756/Z (C8T28SOI_LL_NAND2X4_P16)
                                                         0.011 *    0.827 f
  core/fu_CADD1/fu_arch/inst_cadd_arith/U757/Z (C8T28SOI_LL_NAND2X4_P16)
                                                         0.016 *    0.843 r
  core/fu_CADD1/fu_arch/inst_cadd_arith/U758/Z (C8T28SOI_LL_CNIVX9_P4)
                                                         0.012 *    0.856 f
  core/fu_CADD1/fu_arch/inst_cadd_arith/U489/Z (C8T28SOI_LL_OR2X5_P16)
                                                         0.042 *    0.898 f
  core/fu_CADD1/fu_arch/inst_cadd_arith/U962/Z (C8T28SOI_LL_NAND2X4_P16)
                                                         0.017 *    0.915 r
  core/fu_CADD1/fu_arch/inst_cadd_arith/U1165/Z (C8T28SOIDV_LLS_XNOR2X4_P16)
                                                         0.031 *    0.946 r
  core/fu_CADD1/fu_arch/inst_cadd_arith/res_o[30] (cadd_arith_dataw32_halfw16)
                                                         0.000      0.946 r
  core/fu_CADD1/fu_arch/res_o[30] (cadd_full_dataw32_halfw16)
                                                         0.000      0.946 r
  core/fu_CADD1/r1data[30] (fu_cadd_always_1_dataw32_busw32)
                                                         0.000      0.946 r
  core/ic/socket_CADD1_o1_data0[30] (tta0_interconn)     0.000      0.946 r
  core/ic/CADD1_o1/data0[30] (tta0_output_socket_cons_1_1_BUSW_032_DATAW_032_5)
                                                         0.000      0.946 r
  core/ic/CADD1_o1/U30/Z (C8T28SOI_LL_AND2X10_P16)       0.032 *    0.978 r
  core/ic/CADD1_o1/databus0_alt[30] (tta0_output_socket_cons_1_1_BUSW_032_DATAW_032_5)
                                                         0.000      0.978 r
  core/ic/lsu_w_i2/databus0[30] (tta0_input_socket_cons_1_BUSW_032_DATAW32_2)
                                                         0.000      0.978 r
  core/ic/lsu_w_i2/U27/Z (C8T28SOI_LL_BFX13_P16)         0.023 *    1.001 r
  core/ic/lsu_w_i2/data[30] (tta0_input_socket_cons_1_BUSW_032_DATAW32_2)
                                                         0.000      1.001 r
  core/ic/socket_lsu_w_i2_data[30] (tta0_interconn)      0.000      1.001 r
  core/fu_lsu_w/o1data[30] (fu_ldw_stw_always_4_dataw32_addrw16_0)
                                                         0.000      1.001 r
  core/fu_lsu_w/U22/Z (C8T28SOI_LL_NAND2X4_P16)          0.012 *    1.013 f
  core/fu_lsu_w/U23/Z (C8T28SOI_LL_NAND2X4_P4)           0.015 *    1.028 r
  core/fu_lsu_w/data_out[30] (fu_ldw_stw_always_4_dataw32_addrw16_0)
                                                         0.000      1.028 r
  datamem/scheduler/lsu_d_b[30] (par_mem_scheduler_dataw32_addrw14_ports2_rd_delay1)
                                                         0.000      1.028 r
  datamem/scheduler/d_b_conv/data_in[30] (ser_par_conv_portw32_port_cnt2_1)
                                                         0.000      1.028 r
  datamem/scheduler/d_b_conv/clk_r_REG269_S19/D (C8T28SOIDV_LL_DFPRQX10_P4)
                                                         0.000 *    1.028 r
  data arrival time                                                 1.028

  clock clk (rise edge)                                  1.111      1.111
  clock network delay (ideal)                            0.010      1.121
  clock uncertainty                                     -0.010      1.111
  datamem/scheduler/d_b_conv/clk_r_REG269_S19/CP (C8T28SOIDV_LL_DFPRQX10_P4)
                                                         0.000      1.111 r
  library setup time                                    -0.016      1.095
  data required time                                                1.095
  --------------------------------------------------------------------------
  data required time                                                1.095
  data arrival time                                                -1.028
  --------------------------------------------------------------------------
  slack (MET)                                                       0.066


  Startpoint: core/rf_rf_def/R_35_clk_r_REG1881_S19
              (rising edge-triggered flip-flop clocked by clk)
  Endpoint: core/fu_CMUL/fu_arch/clk_r_REG139_S4
            (rising edge-triggered flip-flop clocked by clk)
  Path Group: clk
  Path Type: max

  Point                                                   Incr       Path
  --------------------------------------------------------------------------
  clock clk (rise edge)                                  0.000      0.000
  clock network delay (ideal)                            0.010      0.010
  core/rf_rf_def/R_35_clk_r_REG1881_S19/CP (C8T28SOIDV_LL_DFPRQX19_P0)
                                                         0.000      0.010 r
  core/rf_rf_def/R_35_clk_r_REG1881_S19/Q (C8T28SOIDV_LL_DFPRQX19_P0)
                                                         0.078      0.088 f
  core/rf_rf_def/U30/Z (C8T28SOI_LL_AOI22X2_P4)          0.048 *    0.136 r
  core/rf_rf_def/U31/Z (C8T28SOIDV_LL_NAND2X9_P4)        0.020 *    0.156 f
  core/rf_rf_def/r1data[23] (rf_1wr_1rd_always_1_guarded_0_dataw32_rf_size3)
                                                         0.000      0.156 f
  core/ic/socket_rf_def_o1_data0[23] (tta0_interconn)    0.000      0.156 f
  core/ic/rf_def_o1/data0[23] (tta0_output_socket_cons_2_1_BUSW_032_BUSW_132_DATAW_032_0)
                                                         0.000      0.156 f
  core/ic/rf_def_o1/U18/Z (C8T28SOI_LL_AND2X19_P10)      0.022 *    0.178 f
  core/ic/rf_def_o1/databus0_alt[23] (tta0_output_socket_cons_2_1_BUSW_032_BUSW_132_DATAW_032_0)
                                                         0.000      0.178 f
  core/ic/U43/Z (C8T28SOI_LL_OR2X19_P10)                 0.027 *    0.205 f
  core/ic/CMUL_i2/databus0[23] (tta0_input_socket_cons_1_BUSW_032_DATAW32_9)
                                                         0.000      0.205 f
  core/ic/CMUL_i2/U14/Z (C8T28SOIDV_LL_CNBFX18_P4)       0.019 *    0.224 f
  core/ic/CMUL_i2/data[23] (tta0_input_socket_cons_1_BUSW_032_DATAW32_9)
                                                         0.000      0.224 f
  core/ic/socket_CMUL_i2_data[23] (tta0_interconn)       0.000      0.224 f
  core/fu_CMUL/o1data[23] (fu_cmul_always_3_dataw32_busw32)
                                                         0.000      0.224 f
  core/fu_CMUL/U47/Z (C8T28SOIDV_LL_NAND2X18_P16)        0.014 *    0.238 r
  core/fu_CMUL/U48/Z (C8T28SOIDV_LL_NAND2X36_P16)        0.034 *    0.272 f
  core/fu_CMUL/fu_arch/B[23] (cmul_pipe_1_dataw32_halfw16)
                                                         0.000      0.272 f
  core/fu_CMUL/fu_arch/U129/Z (C8T28SOI_LL_XNOR2X19_P16)
                                                         0.080 *    0.351 r
  core/fu_CMUL/fu_arch/U133/Z (C8T28SOIDV_LL_NAND2X27_P16)
                                                         0.036 *    0.387 f
  core/fu_CMUL/fu_arch/U947/Z (C8T28SOI_LL_OAI22X3_P16)
                                                         0.051 *    0.438 r
  core/fu_CMUL/fu_arch/U1018/S0 (C8T28SOIDV_LL_FA1X5_P16)
                                                         0.095 *    0.532 f
  core/fu_CMUL/fu_arch/U1056/S0 (C8T28SOIDV_LL_FA1X5_P16)
                                                         0.085 *    0.617 r
  core/fu_CMUL/fu_arch/U1057/S0 (C8T28SOIDV_LL_FA1X5_P16)
                                                         0.074 *    0.691 f
  core/fu_CMUL/fu_arch/U1183/S0 (C8T28SOIDV_LLS1_FA1X4_P16)
                                                         0.050 *    0.741 f
  core/fu_CMUL/fu_arch/U1029/Z (C8T28SOI_LL_NAND2AX4_P4)
                                                         0.032 *    0.773 f
  core/fu_CMUL/fu_arch/U1190/Z (C8T28SOI_LL_AOI21X6_P16)
                                                         0.024 *    0.797 r
  core/fu_CMUL/fu_arch/U1191/Z (C8T28SOI_LL_OAI12X3_P16)
                                                         0.018 *    0.815 f
  core/fu_CMUL/fu_arch/U1192/Z (C8T28SOI_LL_NAND2X4_P0)
                                                         0.013 *    0.828 r
  core/fu_CMUL/fu_arch/U1670/Z (C8T28SOIDV_LL_NAND2X9_P4)
                                                         0.012 *    0.840 f
  core/fu_CMUL/fu_arch/U1194/Z (C8T28SOI_LL_NAND3ABX12_P16)
                                                         0.012 *    0.852 r
  core/fu_CMUL/fu_arch/U644/Z (C8T28SOI_LL_CNNAND2X8_P0)
                                                         0.013 *    0.865 f
  core/fu_CMUL/fu_arch/U548/Z (C8T28SOI_LL_AOI12X19_P4)
                                                         0.018 *    0.882 r
  core/fu_CMUL/fu_arch/U2621/Z (C8T28SOI_LL_CNIVX14_P4)
                                                         0.012 *    0.894 f
  core/fu_CMUL/fu_arch/U510/Z (C8T28SOI_LLBR0P6_NAND3X14_P4)
                                                         0.015 *    0.909 r
  core/fu_CMUL/fu_arch/U1310/Z (C8T28SOIDV_LL_NAND2X36_P4)
                                                         0.016 *    0.926 f
  core/fu_CMUL/fu_arch/U2637/Z (C8T28SOI_LL_AOI12X10_P4)
                                                         0.024 *    0.950 r
  core/fu_CMUL/fu_arch/U1275/Z (C8T28SOI_LL_OAI12X3_P4)
                                                         0.017 *    0.966 f
  core/fu_CMUL/fu_arch/U348/Z (C8T28SOI_LL_NAND2X4_P4)
                                                         0.014 *    0.980 r
  core/fu_CMUL/fu_arch/U204/Z (C8T28SOI_LL_CNNAND2X8_P0)
                                                         0.009 *    0.990 f
  core/fu_CMUL/fu_arch/U2862/Z (C8T28SOIDV_LLS_XNOR2X4_P16)
                                                         0.025 *    1.015 f
  core/fu_CMUL/fu_arch/clk_r_REG139_S4/D (C8T28SOIDV_LL_DFPRQX10_P10)
                                                         0.000 *    1.015 f
  data arrival time                                                 1.015

  clock clk (rise edge)                                  1.111      1.111
  clock network delay (ideal)                            0.010      1.121
  clock uncertainty                                     -0.010      1.111
  core/fu_CMUL/fu_arch/clk_r_REG139_S4/CP (C8T28SOIDV_LL_DFPRQX10_P10)
                                                         0.000      1.111 r
  library setup time                                    -0.028      1.083
  data required time                                                1.083
  --------------------------------------------------------------------------
  data required time                                                1.083
  data arrival time                                                -1.015
  --------------------------------------------------------------------------
  slack (MET)                                                       0.068


  Startpoint: core/loopbuffer/R_10_clk_r_REG590_S18
              (rising edge-triggered flip-flop clocked by clk)
  Endpoint: datamem/dmem_1/cacti_mem_x_8/mem_4096x32
            (rising edge-triggered flip-flop clocked by clk)
  Path Group: clk
  Path Type: max

  Point                                                   Incr       Path
  --------------------------------------------------------------------------
  clock clk (rise edge)                                  0.000      0.000
  clock network delay (ideal)                            0.010      0.010
  core/loopbuffer/R_10_clk_r_REG590_S18/CP (C8T28SOIDV_LL_DFPRQX10_P10)
                                                         0.000      0.010 r
  core/loopbuffer/R_10_clk_r_REG590_S18/Q (C8T28SOIDV_LL_DFPRQX10_P10)
                                                         0.058      0.068 r
  core/loopbuffer/U30/Z (C8T28SOI_LL_CNIVX9_P4)          0.007 *    0.075 f
  core/loopbuffer/U17/Z (C8T28SOI_LL_NAND2X4_P0)         0.008 *    0.083 r
  core/loopbuffer/U11/Z (C8T28SOI_LL_NAND3AX3_P4)        0.014 *    0.097 f
  core/loopbuffer/U226/Z (C8T28SOI_LLBR0P6_NAND3X3_P0)
                                                         0.018 *    0.115 r
  core/loopbuffer/lock_req_out (tta0_loopbuf_1_32_51_1_0)
                                                         0.000      0.115 r
  core/decomp/lock_r (tta0_decompressor)                 0.000      0.115 r
  core/decomp/U1/Z (C8T28SOI_LL_CNIVX9_P0)               0.011 *    0.126 f
  core/decomp/fetch_en (tta0_decompressor)               0.000      0.126 f
  core/inst_fetch/fetch_en (tta0_ifetch)                 0.000      0.126 f
  core/inst_fetch/U4/Z (C8T28SOIDV_LL_NAND2AX9_P0)       0.010 *    0.136 r
  core/inst_fetch/glock (tta0_ifetch)                    0.000      0.136 r
  core/loopbuffer/glock_in (tta0_loopbuf_1_32_51_1_0)    0.000      0.136 r
  core/loopbuffer/U7/Z (C8T28SOIDV_LL_NAND2AX9_P10)      0.009 *    0.145 f
  core/loopbuffer/U5/Z (C8T28SOIDV_LL_NAND2X9_P0)        0.012 *    0.157 r
  core/loopbuffer/glock_out (tta0_loopbuf_1_32_51_1_0)
                                                         0.000      0.157 r
  core/inst_decoder/lock (tta0_decoder)                  0.000      0.157 r
  core/inst_decoder/U10/Z (C8T28SOIDV_LL_CNIVX18_P0)     0.009 *    0.166 f
  core/inst_decoder/U4/Z (C8T28SOIDV_LL_NAND2AX17_P0)    0.011 *    0.177 r
  core/inst_decoder/glock[7] (tta0_decoder)              0.000      0.177 r
  core/fu_lsu_r/glock (fu_ldw_stw_always_4_dataw32_addrw16_1)
                                                         0.000      0.177 r
  core/fu_lsu_r/U55/Z (C8T28SOIDV_LL_CNIVX28_P0)         0.009 *    0.186 f
  core/fu_lsu_r/U4/Z (C8T28SOIDV_LL_NAND2AX36_P0)        0.012 *    0.197 r
  core/fu_lsu_r/mem_en_x[0] (fu_ldw_stw_always_4_dataw32_addrw16_1)
                                                         0.000      0.197 r
  U129/Z (C8T28SOIDV_LL_NAND2AX36_P16)                   0.018 *    0.215 f
  U322/Z (C8T28SOIDV_LL_CNBFX55_P0)                      0.025 *    0.240 f
  U154/Z (C8T28SOI_LL_OAI12X3_P4)                        0.025 *    0.265 r
  datamem/scheduler/lsu_addr_a[13] (par_mem_scheduler_dataw32_addrw14_ports2_rd_delay1)
                                                         0.000      0.265 r
  datamem/scheduler/addr_a_conv/data_in[13] (ser_par_conv_portw14_port_cnt2_1)
                                                         0.000      0.265 r
  datamem/scheduler/addr_a_conv/U12/Z (C8T28SOI_LL_CNBFX8_P4)
                                                         0.025 *    0.290 r
  datamem/scheduler/addr_a_conv/data_out[13] (ser_par_conv_portw14_port_cnt2_1)
                                                         0.000      0.290 r
  datamem/scheduler/U36/Z (C8T28SOIDV_LL_NAND2AX9_P4)    0.008 *    0.298 f
  datamem/scheduler/U37/Z (C8T28SOI_LL_CNNAND2X8_P0)     0.012 *    0.310 r
  datamem/scheduler/addr[13] (par_mem_scheduler_dataw32_addrw14_ports2_rd_delay1)
                                                         0.000      0.310 r
  datamem/par_mem_logic_inst/addrs_from_lsus[13] (par_mem_logic_PORTS2_LSU_ADDRW14_CTRLW1_DATAW32_PM_FUNC2)
                                                         0.000      0.310 r
  datamem/par_mem_logic_inst/addr_crsbar_0/addrs_from_lsus[13] (addr_crsbar_PORTS2_LSU_ADDRW14_CTRLW1_PM_FUNC2)
                                                         0.000      0.310 r
  datamem/par_mem_logic_inst/addr_crsbar_0/U97/Z (C8T28SOIDV_LL_NAND2X9_P4)
                                                         0.013 *    0.323 f
  datamem/par_mem_logic_inst/addr_crsbar_0/U96/Z (C8T28SOI_LL_NAND2X8_P4)
                                                         0.009 *    0.332 r
  datamem/par_mem_logic_inst/addr_crsbar_0/U29/Z (C8T28SOIDV_LLS_XNOR2X4_P4)
                                                         0.023 *    0.354 r
  datamem/par_mem_logic_inst/addr_crsbar_0/U84/Z (C8T28SOIDV_LLS_XNOR2X4_P4)
                                                         0.028 *    0.382 r
  datamem/par_mem_logic_inst/addr_crsbar_0/U7/Z (C8T28SOIDV_LLS_XNOR2X4_P0)
                                                         0.027 *    0.409 r
  datamem/par_mem_logic_inst/addr_crsbar_0/U6/Z (C8T28SOI_LL_CNXOR2X9_P0)
                                                         0.037 *    0.447 f
  datamem/par_mem_logic_inst/addr_crsbar_0/U82/Z (C8T28SOIDV_LL_CNIVX28_P0)
                                                         0.011 *    0.457 r
  datamem/par_mem_logic_inst/addr_crsbar_0/module_nums[0] (addr_crsbar_PORTS2_LSU_ADDRW14_CTRLW1_PM_FUNC2)
                                                         0.000      0.457 r
  datamem/par_mem_logic_inst/ctrl_units_0/module_nums[0] (ctrl_units_PORTS2_CTRLW1)
                                                         0.000      0.457 r
  datamem/par_mem_logic_inst/ctrl_units_0/ctrl_uniti_0/module_num[0] (ctrl_unit_PORTS2_CTRLW1_1)
                                                         0.000      0.457 r
  datamem/par_mem_logic_inst/ctrl_units_0/ctrl_uniti_0/U14/Z (C8T28SOI_LL_CNAND2X14_P0)
                                                         0.019 *    0.476 r
  datamem/par_mem_logic_inst/ctrl_units_0/ctrl_uniti_0/ctrl_matrix_row_out[1] (ctrl_unit_PORTS2_CTRLW1_1)
                                                         0.000      0.476 r
  datamem/par_mem_logic_inst/ctrl_units_0/ctrl_uniti_1/t_ctrl_matrix_row_in[0] (ctrl_unit_PORTS2_CTRLW1_0)
                                                         0.000      0.476 r
  datamem/par_mem_logic_inst/ctrl_units_0/ctrl_uniti_1/U10/Z (C8T28SOI_LL_AOI12X10_P4)
                                                         0.012 *    0.488 f
  datamem/par_mem_logic_inst/ctrl_units_0/ctrl_uniti_1/mem_en_x (ctrl_unit_PORTS2_CTRLW1_0)
                                                         0.000      0.488 f
  datamem/par_mem_logic_inst/ctrl_units_0/U10/Z (C8T28SOIDV_LL_CNIVX18_P0)
                                                         0.010 *    0.498 r
  datamem/par_mem_logic_inst/ctrl_units_0/U5/Z (C8T28SOIDV_LL_NAND2AX27_P4)
                                                         0.010 *    0.508 f
  datamem/par_mem_logic_inst/ctrl_units_0/mem_en_xs[1] (ctrl_units_PORTS2_CTRLW1)
                                                         0.000      0.508 f
  datamem/par_mem_logic_inst/mem_en_xs[1] (par_mem_logic_PORTS2_LSU_ADDRW14_CTRLW1_DATAW32_PM_FUNC2)
                                                         0.000      0.508 f
  datamem/dmem_1/en_x (synch_singleport_mem_wrapper_DATAW32_ADDRW13_1)
                                                         0.000      0.508 f
  datamem/dmem_1/en_wr_arbiter/en (block_en_wr_arbiter_ADDRW13_NBLOCKS9_1)
                                                         0.000      0.508 f
  datamem/dmem_1/en_wr_arbiter/U30/Z (C8T28SOIDV_LL_CNIVX37_P4)
                                                         0.011 *    0.519 r
  datamem/dmem_1/en_wr_arbiter/U21/Z (C8T28SOIDV_LL_NAND2X9_P4)
                                                         0.015 *    0.534 f
  datamem/dmem_1/en_wr_arbiter/en_blocks[8] (block_en_wr_arbiter_ADDRW13_NBLOCKS9_1)
                                                         0.000      0.534 f
  datamem/dmem_1/cacti_mem_x_8/en_x (cacti_mem_wrapper_DATAW32_ADDRW12_1)
                                                         0.000      0.534 f
  datamem/dmem_1/cacti_mem_x_8/mem_4096x32/mem_en_x (ram_4096x32)
                                                         0.000 *    0.534 f
  data arrival time                                                 0.534

  clock clk (rise edge)                                  1.111      1.111
  clock network delay (ideal)                            0.010      1.121
  clock uncertainty                                     -0.010      1.111
  datamem/dmem_1/cacti_mem_x_8/mem_4096x32/clk (ram_4096x32)
                                                         0.000      1.111 r
  library setup time                                    -0.508      0.603
  data required time                                                0.603
  --------------------------------------------------------------------------
  data required time                                                0.603
  data arrival time                                                -0.534
  --------------------------------------------------------------------------
  slack (MET)                                                       0.069


  Startpoint: core/fu_CADD1/fu_arch/inst_cadd_reg/clk_r_REG2178_S1
              (rising edge-triggered flip-flop clocked by clk)
  Endpoint: datamem/scheduler/d_b_conv/clk_r_REG10_S9
            (rising edge-triggered flip-flop clocked by clk)
  Path Group: clk
  Path Type: max

  Point                                                   Incr       Path
  --------------------------------------------------------------------------
  clock clk (rise edge)                                  0.000      0.000
  clock network delay (ideal)                            0.010      0.010
  core/fu_CADD1/fu_arch/inst_cadd_reg/clk_r_REG2178_S1/CP (C8T28SOIDV_LL_DFPRQX10_P10)
                                                         0.000      0.010 r
  core/fu_CADD1/fu_arch/inst_cadd_reg/clk_r_REG2178_S1/Q (C8T28SOIDV_LL_DFPRQX10_P10)
                                                         0.083      0.093 r
  core/fu_CADD1/fu_arch/inst_cadd_reg/opc_o[1] (cadd_reg_dataw32)
                                                         0.000      0.093 r
  core/fu_CADD1/fu_arch/inst_cadd_arith/opc_i[1] (cadd_arith_dataw32_halfw16)
                                                         0.000      0.093 r
  core/fu_CADD1/fu_arch/inst_cadd_arith/U96/Z (C8T28SOIDV_LL_NAND2AX9_P10)
                                                         0.032 *    0.125 f
  core/fu_CADD1/fu_arch/inst_cadd_arith/U514/Z (C8T28SOIDV_LL_NOR2X39_P16)
                                                         0.047 *    0.172 r
  core/fu_CADD1/fu_arch/inst_cadd_arith/U24/Z (C8T28SOI_LL_OR2X9_P16)
                                                         0.050 *    0.223 r
  core/fu_CADD1/fu_arch/inst_cadd_arith/U177/Z (C8T28SOI_LL_CNBFX18_P4)
                                                         0.031 *    0.254 r
  core/fu_CADD1/fu_arch/inst_cadd_arith/U278/Z (C8T28SOI_LL_AOI22X2_P16)
                                                         0.018 *    0.271 f
  core/fu_CADD1/fu_arch/inst_cadd_arith/U279/Z (C8T28SOI_LL_OAI12X3_P16)
                                                         0.026 *    0.298 r
  core/fu_CADD1/fu_arch/inst_cadd_arith/U280/Z (C8T28SOIDV_LLS_XOR2X4_P16)
                                                         0.045 *    0.343 r
  core/fu_CADD1/fu_arch/inst_cadd_arith/U345/S0 (C8T28SOI_LL_HA1X9_P16)
                                                         0.066 *    0.409 f
  core/fu_CADD1/fu_arch/inst_cadd_arith/U346/Z (C8T28SOI_LL_NOR2X8_P16)
                                                         0.020 *    0.429 r
  core/fu_CADD1/fu_arch/inst_cadd_arith/U368/Z (C8T28SOI_LL_OAI12X3_P16)
                                                         0.023 *    0.452 f
  core/fu_CADD1/fu_arch/inst_cadd_arith/U173/Z (C8T28SOI_LL_AOI21X9_P16)
                                                         0.030 *    0.482 r
  core/fu_CADD1/fu_arch/inst_cadd_arith/U64/Z (C8T28SOI_LL_IVX10_P16)
                                                         0.017 *    0.500 f
  core/fu_CADD1/fu_arch/inst_cadd_arith/U484/Z (C8T28SOI_LL_AOI12X3_P16)
                                                         0.022 *    0.522 r
  core/fu_CADD1/fu_arch/inst_cadd_arith/U485/Z (C8T28SOIDV_LLS_XOR2X4_P16)
                                                         0.044 *    0.566 r
  core/fu_CADD1/fu_arch/inst_cadd_arith/U499/Z (C8T28SOIDV_LL_MX41X4_P16)
                                                         0.055 *    0.621 r
  core/fu_CADD1/fu_arch/inst_cadd_arith/U568/Z (C8T28SOI_LL_NAND2X4_P16)
                                                         0.021 *    0.643 f
  core/fu_CADD1/fu_arch/inst_cadd_arith/U569/Z (C8T28SOI_LL_IVX5_P16)
                                                         0.021 *    0.664 r
  core/fu_CADD1/fu_arch/inst_cadd_arith/U42/Z (C8T28SOI_LL_AOI12X10_P16)
                                                         0.016 *    0.680 f
  core/fu_CADD1/fu_arch/inst_cadd_arith/U572/Z (C8T28SOI_LL_OA21X10_P16)
                                                         0.037 *    0.717 f
  core/fu_CADD1/fu_arch/inst_cadd_arith/U574/Z (C8T28SOI_LL_OAI12X10_P16)
                                                         0.020 *    0.737 r
  core/fu_CADD1/fu_arch/inst_cadd_arith/U575/Z (C8T28SOI_LL_NAND2X8_P4)
                                                         0.014 *    0.752 f
  core/fu_CADD1/fu_arch/inst_cadd_arith/U576/Z (C8T28SOIDV_LL_NAND2AX9_P16)
                                                         0.017 *    0.769 r
  core/fu_CADD1/fu_arch/inst_cadd_arith/U588/Z (C8T28SOI_LL_AOI12X10_P16)
                                                         0.017 *    0.786 f
  core/fu_CADD1/fu_arch/inst_cadd_arith/U590/Z (C8T28SOI_LL_OA21X10_P16)
                                                         0.037 *    0.823 f
  core/fu_CADD1/fu_arch/inst_cadd_arith/U603/Z (C8T28SOI_LL_OAI12X10_P16)
                                                         0.022 *    0.845 r
  core/fu_CADD1/fu_arch/inst_cadd_arith/U113/Z (C8T28SOI_LL_AOI12X10_P16)
                                                         0.019 *    0.864 f
  core/fu_CADD1/fu_arch/inst_cadd_arith/U616/Z (C8T28SOI_LL_OA12X5_P4)
                                                         0.031 *    0.894 f
  core/fu_CADD1/fu_arch/inst_cadd_arith/U618/Z (C8T28SOI_LL_OAI21X7_P16)
                                                         0.026 *    0.920 r
  core/fu_CADD1/fu_arch/inst_cadd_arith/U619/Z (C8T28SOIDV_LLS_XNOR2X4_P16)
                                                         0.036 *    0.957 r
  core/fu_CADD1/fu_arch/inst_cadd_arith/res_o[14] (cadd_arith_dataw32_halfw16)
                                                         0.000      0.957 r
  core/fu_CADD1/fu_arch/res_o[14] (cadd_full_dataw32_halfw16)
                                                         0.000      0.957 r
  core/fu_CADD1/r1data[14] (fu_cadd_always_1_dataw32_busw32)
                                                         0.000      0.957 r
  core/ic/socket_CADD1_o1_data0[14] (tta0_interconn)     0.000      0.957 r
  core/ic/CADD1_o1/data0[14] (tta0_output_socket_cons_1_1_BUSW_032_DATAW_032_5)
                                                         0.000      0.957 r
  core/ic/CADD1_o1/U29/Z (C8T28SOI_LL_AND2X10_P16)       0.034 *    0.991 r
  core/ic/CADD1_o1/databus0_alt[14] (tta0_output_socket_cons_1_1_BUSW_032_DATAW_032_5)
                                                         0.000      0.991 r
  core/ic/socket_lsu_w_i2_data[14] (tta0_interconn)      0.000      0.991 r
  core/fu_lsu_w/o1data[14] (fu_ldw_stw_always_4_dataw32_addrw16_0)
                                                         0.000      0.991 r
  core/fu_lsu_w/U17/Z (C8T28SOI_LL_NAND2X8_P16)          0.012 *    1.003 f
  core/fu_lsu_w/U18/Z (C8T28SOI_LL_NAND2X4_P16)          0.017 *    1.020 r
  core/fu_lsu_w/data_out[14] (fu_ldw_stw_always_4_dataw32_addrw16_0)
                                                         0.000      1.020 r
  datamem/scheduler/lsu_d_b[14] (par_mem_scheduler_dataw32_addrw14_ports2_rd_delay1)
                                                         0.000      1.020 r
  datamem/scheduler/d_b_conv/data_in[14] (ser_par_conv_portw32_port_cnt2_1)
                                                         0.000      1.020 r
  datamem/scheduler/d_b_conv/clk_r_REG10_S9/D (C8T28SOIDV_LL_DFPRQX10_P16)
                                                         0.000 *    1.020 r
  data arrival time                                                 1.020

  clock clk (rise edge)                                  1.111      1.111
  clock network delay (ideal)                            0.010      1.121
  clock uncertainty                                     -0.010      1.111
  datamem/scheduler/d_b_conv/clk_r_REG10_S9/CP (C8T28SOIDV_LL_DFPRQX10_P16)
                                                         0.000      1.111 r
  library setup time                                    -0.020      1.091
  data required time                                                1.091
  --------------------------------------------------------------------------
  data required time                                                1.091
  data arrival time                                                -1.020
  --------------------------------------------------------------------------
  slack (MET)                                                       0.071


  Startpoint: core/fu_CADD1/fu_arch/inst_cadd_reg/clk_r_REG2178_S1
              (rising edge-triggered flip-flop clocked by clk)
  Endpoint: datamem/scheduler/d_b_conv/clk_r_REG23_S9
            (rising edge-triggered flip-flop clocked by clk)
  Path Group: clk
  Path Type: max

  Point                                                   Incr       Path
  --------------------------------------------------------------------------
  clock clk (rise edge)                                  0.000      0.000
  clock network delay (ideal)                            0.010      0.010
  core/fu_CADD1/fu_arch/inst_cadd_reg/clk_r_REG2178_S1/CP (C8T28SOIDV_LL_DFPRQX10_P10)
                                                         0.000      0.010 r
  core/fu_CADD1/fu_arch/inst_cadd_reg/clk_r_REG2178_S1/Q (C8T28SOIDV_LL_DFPRQX10_P10)
                                                         0.083      0.093 r
  core/fu_CADD1/fu_arch/inst_cadd_reg/opc_o[1] (cadd_reg_dataw32)
                                                         0.000      0.093 r
  core/fu_CADD1/fu_arch/inst_cadd_arith/opc_i[1] (cadd_arith_dataw32_halfw16)
                                                         0.000      0.093 r
  core/fu_CADD1/fu_arch/inst_cadd_arith/U96/Z (C8T28SOIDV_LL_NAND2AX9_P10)
                                                         0.032 *    0.125 f
  core/fu_CADD1/fu_arch/inst_cadd_arith/U514/Z (C8T28SOIDV_LL_NOR2X39_P16)
                                                         0.047 *    0.172 r
  core/fu_CADD1/fu_arch/inst_cadd_arith/U24/Z (C8T28SOI_LL_OR2X9_P16)
                                                         0.050 *    0.223 r
  core/fu_CADD1/fu_arch/inst_cadd_arith/U177/Z (C8T28SOI_LL_CNBFX18_P4)
                                                         0.031 *    0.254 r
  core/fu_CADD1/fu_arch/inst_cadd_arith/U278/Z (C8T28SOI_LL_AOI22X2_P16)
                                                         0.018 *    0.271 f
  core/fu_CADD1/fu_arch/inst_cadd_arith/U279/Z (C8T28SOI_LL_OAI12X3_P16)
                                                         0.026 *    0.298 r
  core/fu_CADD1/fu_arch/inst_cadd_arith/U280/Z (C8T28SOIDV_LLS_XOR2X4_P16)
                                                         0.045 *    0.343 r
  core/fu_CADD1/fu_arch/inst_cadd_arith/U345/S0 (C8T28SOI_LL_HA1X9_P16)
                                                         0.066 *    0.409 f
  core/fu_CADD1/fu_arch/inst_cadd_arith/U346/Z (C8T28SOI_LL_NOR2X8_P16)
                                                         0.020 *    0.429 r
  core/fu_CADD1/fu_arch/inst_cadd_arith/U368/Z (C8T28SOI_LL_OAI12X3_P16)
                                                         0.023 *    0.452 f
  core/fu_CADD1/fu_arch/inst_cadd_arith/U173/Z (C8T28SOI_LL_AOI21X9_P16)
                                                         0.030 *    0.482 r
  core/fu_CADD1/fu_arch/inst_cadd_arith/U64/Z (C8T28SOI_LL_IVX10_P16)
                                                         0.017 *    0.500 f
  core/fu_CADD1/fu_arch/inst_cadd_arith/U484/Z (C8T28SOI_LL_AOI12X3_P16)
                                                         0.022 *    0.522 r
  core/fu_CADD1/fu_arch/inst_cadd_arith/U485/Z (C8T28SOIDV_LLS_XOR2X4_P16)
                                                         0.044 *    0.566 r
  core/fu_CADD1/fu_arch/inst_cadd_arith/U499/Z (C8T28SOIDV_LL_MX41X4_P16)
                                                         0.055 *    0.621 r
  core/fu_CADD1/fu_arch/inst_cadd_arith/U568/Z (C8T28SOI_LL_NAND2X4_P16)
                                                         0.021 *    0.643 f
  core/fu_CADD1/fu_arch/inst_cadd_arith/U569/Z (C8T28SOI_LL_IVX5_P16)
                                                         0.021 *    0.664 r
  core/fu_CADD1/fu_arch/inst_cadd_arith/U42/Z (C8T28SOI_LL_AOI12X10_P16)
                                                         0.016 *    0.680 f
  core/fu_CADD1/fu_arch/inst_cadd_arith/U572/Z (C8T28SOI_LL_OA21X10_P16)
                                                         0.037 *    0.717 f
  core/fu_CADD1/fu_arch/inst_cadd_arith/U574/Z (C8T28SOI_LL_OAI12X10_P16)
                                                         0.020 *    0.737 r
  core/fu_CADD1/fu_arch/inst_cadd_arith/U575/Z (C8T28SOI_LL_NAND2X8_P4)
                                                         0.014 *    0.752 f
  core/fu_CADD1/fu_arch/inst_cadd_arith/U576/Z (C8T28SOIDV_LL_NAND2AX9_P16)
                                                         0.017 *    0.769 r
  core/fu_CADD1/fu_arch/inst_cadd_arith/U588/Z (C8T28SOI_LL_AOI12X10_P16)
                                                         0.017 *    0.786 f
  core/fu_CADD1/fu_arch/inst_cadd_arith/U590/Z (C8T28SOI_LL_OA21X10_P16)
                                                         0.037 *    0.823 f
  core/fu_CADD1/fu_arch/inst_cadd_arith/U603/Z (C8T28SOI_LL_OAI12X10_P16)
                                                         0.022 *    0.845 r
  core/fu_CADD1/fu_arch/inst_cadd_arith/U113/Z (C8T28SOI_LL_AOI12X10_P16)
                                                         0.019 *    0.864 f
  core/fu_CADD1/fu_arch/inst_cadd_arith/U616/Z (C8T28SOI_LL_OA12X5_P4)
                                                         0.031 *    0.894 f
  core/fu_CADD1/fu_arch/inst_cadd_arith/U618/Z (C8T28SOI_LL_OAI21X7_P16)
                                                         0.026 *    0.920 r
  core/fu_CADD1/fu_arch/inst_cadd_arith/U639/Z (C8T28SOI_LL_AOI12X3_P16)
                                                         0.020 *    0.940 f
  core/fu_CADD1/fu_arch/inst_cadd_arith/res_o[15] (cadd_arith_dataw32_halfw16)
                                                         0.000      0.940 f
  core/fu_CADD1/fu_arch/res_o[15] (cadd_full_dataw32_halfw16)
                                                         0.000      0.940 f
  core/fu_CADD1/r1data[15] (fu_cadd_always_1_dataw32_busw32)
                                                         0.000      0.940 f
  core/ic/socket_CADD1_o1_data0[15] (tta0_interconn)     0.000      0.940 f
  core/ic/CADD1_o1/data0[15] (tta0_output_socket_cons_1_1_BUSW_032_DATAW_032_5)
                                                         0.000      0.940 f
  core/ic/CADD1_o1/U25/Z (C8T28SOI_LL_AND2X10_P16)       0.025 *    0.966 f
  core/ic/CADD1_o1/databus0_alt[15] (tta0_output_socket_cons_1_1_BUSW_032_DATAW_032_5)
                                                         0.000      0.966 f
  core/ic/socket_lsu_w_i2_data[15] (tta0_interconn)      0.000      0.966 f
  core/fu_lsu_w/o1data[15] (fu_ldw_stw_always_4_dataw32_addrw16_0)
                                                         0.000      0.966 f
  core/fu_lsu_w/U19/Z (C8T28SOI_LL_AOI22X2_P16)          0.023 *    0.989 r
  core/fu_lsu_w/U20/Z (C8T28SOI_LL_IVX5_P16)             0.018 *    1.007 f
  core/fu_lsu_w/data_out[15] (fu_ldw_stw_always_4_dataw32_addrw16_0)
                                                         0.000      1.007 f
  datamem/scheduler/lsu_d_b[15] (par_mem_scheduler_dataw32_addrw14_ports2_rd_delay1)
                                                         0.000      1.007 f
  datamem/scheduler/d_b_conv/data_in[15] (ser_par_conv_portw32_port_cnt2_1)
                                                         0.000      1.007 f
  datamem/scheduler/d_b_conv/clk_r_REG23_S9/D (C8T28SOIDV_LL_DFPRQX19_P16)
                                                         0.000 *    1.007 f
  data arrival time                                                 1.007

  clock clk (rise edge)                                  1.111      1.111
  clock network delay (ideal)                            0.010      1.121
  clock uncertainty                                     -0.010      1.111
  datamem/scheduler/d_b_conv/clk_r_REG23_S9/CP (C8T28SOIDV_LL_DFPRQX19_P16)
                                                         0.000      1.111 r
  library setup time                                    -0.032      1.079
  data required time                                                1.079
  --------------------------------------------------------------------------
  data required time                                                1.079
  data arrival time                                                -1.007
  --------------------------------------------------------------------------
  slack (MET)                                                       0.072


  Startpoint: core/fu_CADD1/fu_arch/inst_cadd_reg/clk_r_REG2178_S1
              (rising edge-triggered flip-flop clocked by clk)
  Endpoint: datamem/scheduler/d_b_conv/clk_r_REG70_S9
            (rising edge-triggered flip-flop clocked by clk)
  Path Group: clk
  Path Type: max

  Point                                                   Incr       Path
  --------------------------------------------------------------------------
  clock clk (rise edge)                                  0.000      0.000
  clock network delay (ideal)                            0.010      0.010
  core/fu_CADD1/fu_arch/inst_cadd_reg/clk_r_REG2178_S1/CP (C8T28SOIDV_LL_DFPRQX10_P10)
                                                         0.000      0.010 r
  core/fu_CADD1/fu_arch/inst_cadd_reg/clk_r_REG2178_S1/Q (C8T28SOIDV_LL_DFPRQX10_P10)
                                                         0.083      0.093 r
  core/fu_CADD1/fu_arch/inst_cadd_reg/opc_o[1] (cadd_reg_dataw32)
                                                         0.000      0.093 r
  core/fu_CADD1/fu_arch/inst_cadd_arith/opc_i[1] (cadd_arith_dataw32_halfw16)
                                                         0.000      0.093 r
  core/fu_CADD1/fu_arch/inst_cadd_arith/U96/Z (C8T28SOIDV_LL_NAND2AX9_P10)
                                                         0.032 *    0.125 f
  core/fu_CADD1/fu_arch/inst_cadd_arith/U514/Z (C8T28SOIDV_LL_NOR2X39_P16)
                                                         0.047 *    0.172 r
  core/fu_CADD1/fu_arch/inst_cadd_arith/U6/Z (C8T28SOI_LL_IVX29_P16)
                                                         0.032 *    0.204 f
  core/fu_CADD1/fu_arch/inst_cadd_arith/U340/Z (C8T28SOI_LL_OAI22X3_P16)
                                                         0.026 *    0.231 r
  core/fu_CADD1/fu_arch/inst_cadd_arith/U342/Z (C8T28SOI_LL_CNMUX21X9_P0)
                                                         0.033 *    0.264 r
  core/fu_CADD1/fu_arch/inst_cadd_arith/U352/CO (C8T28SOI_LL_HA1X9_P16)
                                                         0.034 *    0.298 r
  core/fu_CADD1/fu_arch/inst_cadd_arith/U362/CO (C8T28SOI_LL_HA1X9_P16)
                                                         0.032 *    0.330 r
  core/fu_CADD1/fu_arch/inst_cadd_arith/U344/S0 (C8T28SOI_LL_HA1X5_P16)
                                                         0.064 *    0.394 f
  core/fu_CADD1/fu_arch/inst_cadd_arith/U343/Z (C8T28SOI_LL_NOR2X8_P16)
                                                         0.023 *    0.417 r
  core/fu_CADD1/fu_arch/inst_cadd_arith/U521/Z (C8T28SOI_LL_IVX5_P16)
                                                         0.013 *    0.430 f
  core/fu_CADD1/fu_arch/inst_cadd_arith/U522/Z (C8T28SOI_LL_NAND2X4_P16)
                                                         0.012 *    0.442 r
  core/fu_CADD1/fu_arch/inst_cadd_arith/U524/Z (C8T28SOI_LL_CNXOR2X9_P4)
                                                         0.038 *    0.480 f
  core/fu_CADD1/fu_arch/inst_cadd_arith/U525/Z (C8T28SOIDV_LL_MX41X4_P4)
                                                         0.043 *    0.523 f
  core/fu_CADD1/fu_arch/inst_cadd_arith/U526/Z (C8T28SOI_LL_NOR2X4_P16)
                                                         0.025 *    0.548 r
  core/fu_CADD1/fu_arch/inst_cadd_arith/U527/Z (C8T28SOI_LL_IVX5_P16)
                                                         0.016 *    0.564 f
  core/fu_CADD1/fu_arch/inst_cadd_arith/U530/Z (C8T28SOI_LL_AOI12X3_P4)
                                                         0.027 *    0.591 r
  core/fu_CADD1/fu_arch/inst_cadd_arith/U543/Z (C8T28SOI_LL_OAI21X7_P16)
                                                         0.030 *    0.621 f
  core/fu_CADD1/fu_arch/inst_cadd_arith/U558/Z (C8T28SOI_LL_AOI12X10_P16)
                                                         0.030 *    0.651 r
  core/fu_CADD1/fu_arch/inst_cadd_arith/U585/Z (C8T28SOI_LL_OAI12X10_P16)
                                                         0.022 *    0.673 f
  core/fu_CADD1/fu_arch/inst_cadd_arith/U42/Z (C8T28SOI_LL_AOI12X10_P16)
                                                         0.025 *    0.698 r
  core/fu_CADD1/fu_arch/inst_cadd_arith/U572/Z (C8T28SOI_LL_OA21X10_P16)
                                                         0.034 *    0.732 r
  core/fu_CADD1/fu_arch/inst_cadd_arith/U574/Z (C8T28SOI_LL_OAI12X10_P16)
                                                         0.016 *    0.747 f
  core/fu_CADD1/fu_arch/inst_cadd_arith/U575/Z (C8T28SOI_LL_NAND2X8_P4)
                                                         0.014 *    0.761 r
  core/fu_CADD1/fu_arch/inst_cadd_arith/U576/Z (C8T28SOIDV_LL_NAND2AX9_P16)
                                                         0.014 *    0.775 f
  core/fu_CADD1/fu_arch/inst_cadd_arith/U588/Z (C8T28SOI_LL_AOI12X10_P16)
                                                         0.023 *    0.797 r
  core/fu_CADD1/fu_arch/inst_cadd_arith/U590/Z (C8T28SOI_LL_OA21X10_P16)
                                                         0.035 *    0.832 r
  core/fu_CADD1/fu_arch/inst_cadd_arith/U603/Z (C8T28SOI_LL_OAI12X10_P16)
                                                         0.017 *    0.849 f
  core/fu_CADD1/fu_arch/inst_cadd_arith/U113/Z (C8T28SOI_LL_AOI12X10_P16)
                                                         0.024 *    0.872 r
  core/fu_CADD1/fu_arch/inst_cadd_arith/U616/Z (C8T28SOI_LL_OA12X5_P4)
                                                         0.032 *    0.904 r
  core/fu_CADD1/fu_arch/inst_cadd_arith/U637/Z (C8T28SOIDV_LLS_XOR2X4_P4)
                                                         0.029 *    0.933 r
  core/fu_CADD1/fu_arch/inst_cadd_arith/res_o[13] (cadd_arith_dataw32_halfw16)
                                                         0.000      0.933 r
  core/fu_CADD1/fu_arch/res_o[13] (cadd_full_dataw32_halfw16)
                                                         0.000      0.933 r
  core/fu_CADD1/r1data[13] (fu_cadd_always_1_dataw32_busw32)
                                                         0.000      0.933 r
  core/ic/socket_CADD1_o1_data0[13] (tta0_interconn)     0.000      0.933 r
  core/ic/CADD1_o1/data0[13] (tta0_output_socket_cons_1_1_BUSW_032_DATAW_032_5)
                                                         0.000      0.933 r
  core/ic/CADD1_o1/U26/Z (C8T28SOI_LL_AND2X10_P16)       0.030 *    0.963 r
  core/ic/CADD1_o1/databus0_alt[13] (tta0_output_socket_cons_1_1_BUSW_032_DATAW_032_5)
                                                         0.000      0.963 r
  core/ic/lsu_w_i2/databus0[13] (tta0_input_socket_cons_1_BUSW_032_DATAW32_2)
                                                         0.000      0.963 r
  core/ic/lsu_w_i2/U29/Z (C8T28SOI_LL_BFX13_P16)         0.023 *    0.987 r
  core/ic/lsu_w_i2/data[13] (tta0_input_socket_cons_1_BUSW_032_DATAW32_2)
                                                         0.000      0.987 r
  core/ic/socket_lsu_w_i2_data[13] (tta0_interconn)      0.000      0.987 r
  core/fu_lsu_w/o1data[13] (fu_ldw_stw_always_4_dataw32_addrw16_0)
                                                         0.000      0.987 r
  core/fu_lsu_w/U26/Z (C8T28SOI_LL_AOI22X6_P16)          0.011 *    0.998 f
  core/fu_lsu_w/U27/Z (C8T28SOI_LL_IVX5_P16)             0.021 *    1.019 r
  core/fu_lsu_w/data_out[13] (fu_ldw_stw_always_4_dataw32_addrw16_0)
                                                         0.000      1.019 r
  datamem/scheduler/lsu_d_b[13] (par_mem_scheduler_dataw32_addrw14_ports2_rd_delay1)
                                                         0.000      1.019 r
  datamem/scheduler/d_b_conv/data_in[13] (ser_par_conv_portw32_port_cnt2_1)
                                                         0.000      1.019 r
  datamem/scheduler/d_b_conv/clk_r_REG70_S9/D (C8T28SOIDV_LL_DFPRQX10_P10)
                                                         0.000 *    1.019 r
  data arrival time                                                 1.019

  clock clk (rise edge)                                  1.111      1.111
  clock network delay (ideal)                            0.010      1.121
  clock uncertainty                                     -0.010      1.111
  datamem/scheduler/d_b_conv/clk_r_REG70_S9/CP (C8T28SOIDV_LL_DFPRQX10_P10)
                                                         0.000      1.111 r
  library setup time                                    -0.020      1.091
  data required time                                                1.091
  --------------------------------------------------------------------------
  data required time                                                1.091
  data arrival time                                                -1.019
  --------------------------------------------------------------------------
  slack (MET)                                                       0.072


  Startpoint: core/rf_rf_def/R_35_clk_r_REG1881_S19
              (rising edge-triggered flip-flop clocked by clk)
  Endpoint: core/fu_CMUL/fu_arch/clk_r_REG4_S4
            (rising edge-triggered flip-flop clocked by clk)
  Path Group: clk
  Path Type: max

  Point                                                   Incr       Path
  --------------------------------------------------------------------------
  clock clk (rise edge)                                  0.000      0.000
  clock network delay (ideal)                            0.010      0.010
  core/rf_rf_def/R_35_clk_r_REG1881_S19/CP (C8T28SOIDV_LL_DFPRQX19_P0)
                                                         0.000      0.010 r
  core/rf_rf_def/R_35_clk_r_REG1881_S19/Q (C8T28SOIDV_LL_DFPRQX19_P0)
                                                         0.078      0.088 f
  core/rf_rf_def/U30/Z (C8T28SOI_LL_AOI22X2_P4)          0.048 *    0.136 r
  core/rf_rf_def/U31/Z (C8T28SOIDV_LL_NAND2X9_P4)        0.020 *    0.156 f
  core/rf_rf_def/r1data[23] (rf_1wr_1rd_always_1_guarded_0_dataw32_rf_size3)
                                                         0.000      0.156 f
  core/ic/socket_rf_def_o1_data0[23] (tta0_interconn)    0.000      0.156 f
  core/ic/rf_def_o1/data0[23] (tta0_output_socket_cons_2_1_BUSW_032_BUSW_132_DATAW_032_0)
                                                         0.000      0.156 f
  core/ic/rf_def_o1/U18/Z (C8T28SOI_LL_AND2X19_P10)      0.022 *    0.178 f
  core/ic/rf_def_o1/databus0_alt[23] (tta0_output_socket_cons_2_1_BUSW_032_BUSW_132_DATAW_032_0)
                                                         0.000      0.178 f
  core/ic/U43/Z (C8T28SOI_LL_OR2X19_P10)                 0.027 *    0.205 f
  core/ic/CMUL_i2/databus0[23] (tta0_input_socket_cons_1_BUSW_032_DATAW32_9)
                                                         0.000      0.205 f
  core/ic/CMUL_i2/U14/Z (C8T28SOIDV_LL_CNBFX18_P4)       0.019 *    0.224 f
  core/ic/CMUL_i2/data[23] (tta0_input_socket_cons_1_BUSW_032_DATAW32_9)
                                                         0.000      0.224 f
  core/ic/socket_CMUL_i2_data[23] (tta0_interconn)       0.000      0.224 f
  core/fu_CMUL/o1data[23] (fu_cmul_always_3_dataw32_busw32)
                                                         0.000      0.224 f
  core/fu_CMUL/U47/Z (C8T28SOIDV_LL_NAND2X18_P16)        0.014 *    0.238 r
  core/fu_CMUL/U48/Z (C8T28SOIDV_LL_NAND2X36_P16)        0.034 *    0.272 f
  core/fu_CMUL/fu_arch/B[23] (cmul_pipe_1_dataw32_halfw16)
                                                         0.000      0.272 f
  core/fu_CMUL/fu_arch/U129/Z (C8T28SOI_LL_XNOR2X19_P16)
                                                         0.080 *    0.351 r
  core/fu_CMUL/fu_arch/U133/Z (C8T28SOIDV_LL_NAND2X27_P16)
                                                         0.036 *    0.387 f
  core/fu_CMUL/fu_arch/U947/Z (C8T28SOI_LL_OAI22X3_P16)
                                                         0.051 *    0.438 r
  core/fu_CMUL/fu_arch/U1018/S0 (C8T28SOIDV_LL_FA1X5_P16)
                                                         0.095 *    0.532 f
  core/fu_CMUL/fu_arch/U1056/S0 (C8T28SOIDV_LL_FA1X5_P16)
                                                         0.085 *    0.617 r
  core/fu_CMUL/fu_arch/U1057/S0 (C8T28SOIDV_LL_FA1X5_P16)
                                                         0.074 *    0.691 f
  core/fu_CMUL/fu_arch/U1183/S0 (C8T28SOIDV_LLS1_FA1X4_P16)
                                                         0.054 *    0.746 r
  core/fu_CMUL/fu_arch/U1029/Z (C8T28SOI_LL_NAND2AX4_P4)
                                                         0.027 *    0.772 r
  core/fu_CMUL/fu_arch/U1185/Z (C8T28SOI_LL_NAND2X4_P16)
                                                         0.015 *    0.787 f
  core/fu_CMUL/fu_arch/U1191/Z (C8T28SOI_LL_OAI12X3_P16)
                                                         0.020 *    0.807 r
  core/fu_CMUL/fu_arch/U1192/Z (C8T28SOI_LL_NAND2X4_P0)
                                                         0.018 *    0.825 f
  core/fu_CMUL/fu_arch/U1670/Z (C8T28SOIDV_LL_NAND2X9_P4)
                                                         0.015 *    0.839 r
  core/fu_CMUL/fu_arch/U1194/Z (C8T28SOI_LL_NAND3ABX12_P16)
                                                         0.013 *    0.852 f
  core/fu_CMUL/fu_arch/U644/Z (C8T28SOI_LL_CNNAND2X8_P0)
                                                         0.016 *    0.868 r
  core/fu_CMUL/fu_arch/U548/Z (C8T28SOI_LL_AOI12X19_P4)
                                                         0.014 *    0.883 f
  core/fu_CMUL/fu_arch/U537/Z (C8T28SOI_LL_OAI21X7_P4)
                                                         0.024 *    0.907 r
  core/fu_CMUL/fu_arch/U1341/Z (C8T28SOIDV_LL_NAND2X18_P4)
                                                         0.016 *    0.923 f
  core/fu_CMUL/fu_arch/U424/Z (C8T28SOIDV_LL_NAND2AX27_P4)
                                                         0.016 *    0.939 r
  core/fu_CMUL/fu_arch/U1244/Z (C8T28SOIDV_LL_NAND2X18_P0)
                                                         0.014 *    0.952 f
  core/fu_CMUL/fu_arch/U241/Z (C8T28SOIDV_LL_NAND2X18_P4)
                                                         0.015 *    0.967 r
  core/fu_CMUL/fu_arch/U189/Z (C8T28SOIDV_LL_NAND2AX9_P0)
                                                         0.015 *    0.982 f
  core/fu_CMUL/fu_arch/U124/Z (C8T28SOIDV_LL_NAND2AX17_P4)
                                                         0.011 *    0.993 r
  core/fu_CMUL/fu_arch/U2682/Z (C8T28SOI_LL_AOI12X3_P16)
                                                         0.013 *    1.006 f
  core/fu_CMUL/fu_arch/clk_r_REG4_S4/D (C8T28SOIDV_LL_DFPRQX19_P16)
                                                         0.000 *    1.006 f
  data arrival time                                                 1.006

  clock clk (rise edge)                                  1.111      1.111
  clock network delay (ideal)                            0.010      1.121
  clock uncertainty                                     -0.010      1.111
  core/fu_CMUL/fu_arch/clk_r_REG4_S4/CP (C8T28SOIDV_LL_DFPRQX19_P16)
                                                         0.000      1.111 r
  library setup time                                    -0.033      1.078
  data required time                                                1.078
  --------------------------------------------------------------------------
  data required time                                                1.078
  data arrival time                                                -1.006
  --------------------------------------------------------------------------
  slack (MET)                                                       0.072


1
