Warning: There are 83 switching activity information conflicts. (PWR-19)
 
****************************************
Report : saif
Design : proc
Version: M-2016.12-SP5-1
Date   : Sat Jul 28 23:41:17 2018
****************************************

  

--------------------------------------------------------------------------------
              User              Default           Propagated
Object type   Annotated (%)     Activity (%)      Activity (%)       Total
--------------------------------------------------------------------------------
  
 Nets         286(64.85%)       0(0.00%)          155(35.15%)        441
 Ports        229(100.00%)      0(0.00%)          0(0.00%)           229
 Pins         273(39.06%)       0(0.00%)          426(60.94%)        699
--------------------------------------------------------------------------------
1
