Information: Updating design information... (UID-85)
 
****************************************
Report : timing
        -path full
        -delay max
        -max_paths 10
Design : proc
Version: M-2016.12-SP5-1
Date   : Sat Jul 28 23:41:16 2018
****************************************

 * Some/all delay information is back-annotated.

Operating Conditions: tt28_0.95V_0.00V_0.00V_0.00V_25C   Library: C28SOI_SC_8_CLK_LL
Wire Load Model Mode: Inactive.

  Startpoint: core/fu_CADD1/fu_arch/inst_cadd_arith/clk_r_REG1173_S24
              (rising edge-triggered flip-flop clocked by clk)
  Endpoint: datamem/scheduler/d_b_conv/clk_r_REG10_S9
            (rising edge-triggered flip-flop clocked by clk)
  Path Group: clk
  Path Type: max

  Point                                                   Incr       Path
  --------------------------------------------------------------------------
  clock clk (rise edge)                                  0.000      0.000
  clock network delay (ideal)                            0.010      0.010
  core/fu_CADD1/fu_arch/inst_cadd_arith/clk_r_REG1173_S24/CP (C8T28SOIDV_LL_DFPQX10_P16)
                                                         0.000      0.010 r
  core/fu_CADD1/fu_arch/inst_cadd_arith/clk_r_REG1173_S24/Q (C8T28SOIDV_LL_DFPQX10_P16)
                                                         0.064      0.074 f
  core/fu_CADD1/fu_arch/inst_cadd_arith/U3/Z (C8T28SOI_LL_IVX5_P16)
                                                         0.102 *    0.175 r
  core/fu_CADD1/fu_arch/inst_cadd_arith/U5/Z (C8T28SOI_LL_NAND2X4_P16)
                                                         0.071 *    0.246 f
  core/fu_CADD1/fu_arch/inst_cadd_arith/U7/Z (C8T28SOI_LL_NOR2AX4_P16)
                                                         0.163 *    0.409 r
  core/fu_CADD1/fu_arch/inst_cadd_arith/U8/Z (C8T28SOI_LL_NOR2X2_P16)
                                                         0.099 *    0.508 f
  core/fu_CADD1/fu_arch/inst_cadd_arith/U24/Z (C8T28SOI_LL_BFX5_P16)
                                                         0.106 *    0.614 f
  core/fu_CADD1/fu_arch/inst_cadd_arith/U25/Z (C8T28SOI_LL_NAND3X7_P16)
                                                         0.163 *    0.777 r
  core/fu_CADD1/fu_arch/inst_cadd_arith/U436/Z (C8T28SOIDV_LLS_XOR2X4_P16)
                                                         0.095 *    0.871 r
  core/fu_CADD1/fu_arch/inst_cadd_arith/DP_OP_142J8_139_4435/U18/CO (C8T28SOIDV_LL_FA1X5_P16)
                                                         0.076 *    0.947 r
  core/fu_CADD1/fu_arch/inst_cadd_arith/DP_OP_142J8_139_4435/U17/CO (C8T28SOIDV_LL_FA1X5_P16)
                                                         0.048 *    0.995 r
  core/fu_CADD1/fu_arch/inst_cadd_arith/DP_OP_142J8_139_4435/U16/S0 (C8T28SOIDV_LL_FA1X5_P16)
                                                         0.071 *    1.066 f
  core/fu_CADD1/fu_arch/inst_cadd_arith/U131/Z (C8T28SOIDV_LL_MX41X4_P16)
                                                         0.061 *    1.127 f
  core/fu_CADD1/fu_arch/inst_cadd_arith/U600/CO (C8T28SOIDV_LL_FA1X5_P16)
                                                         0.068 *    1.195 f
  core/fu_CADD1/fu_arch/inst_cadd_arith/U599/CO (C8T28SOIDV_LL_FA1X5_P16)
                                                         0.062 *    1.257 f
  core/fu_CADD1/fu_arch/inst_cadd_arith/U598/CO (C8T28SOIDV_LL_FA1X5_P16)
                                                         0.061 *    1.318 f
  core/fu_CADD1/fu_arch/inst_cadd_arith/U597/CO (C8T28SOIDV_LL_FA1X5_P16)
                                                         0.060 *    1.378 f
  core/fu_CADD1/fu_arch/inst_cadd_arith/U596/CO (C8T28SOIDV_LL_FA1X5_P16)
                                                         0.060 *    1.438 f
  core/fu_CADD1/fu_arch/inst_cadd_arith/U595/CO (C8T28SOIDV_LL_FA1X5_P16)
                                                         0.060 *    1.499 f
  core/fu_CADD1/fu_arch/inst_cadd_arith/U594/CO (C8T28SOIDV_LL_FA1X5_P16)
                                                         0.060 *    1.559 f
  core/fu_CADD1/fu_arch/inst_cadd_arith/U593/CO (C8T28SOIDV_LL_FA1X5_P16)
                                                         0.060 *    1.619 f
  core/fu_CADD1/fu_arch/inst_cadd_arith/U592/CO (C8T28SOIDV_LL_FA1X5_P16)
                                                         0.061 *    1.680 f
  core/fu_CADD1/fu_arch/inst_cadd_arith/U591/CO (C8T28SOIDV_LL_FA1X5_P16)
                                                         0.061 *    1.741 f
  core/fu_CADD1/fu_arch/inst_cadd_arith/U590/CO (C8T28SOIDV_LL_FA1X5_P16)
                                                         0.060 *    1.801 f
  core/fu_CADD1/fu_arch/inst_cadd_arith/U589/CO (C8T28SOIDV_LL_FA1X5_P16)
                                                         0.060 *    1.861 f
  core/fu_CADD1/fu_arch/inst_cadd_arith/U588/CO (C8T28SOIDV_LL_FA1X5_P16)
                                                         0.060 *    1.922 f
  core/fu_CADD1/fu_arch/inst_cadd_arith/U587/CO (C8T28SOIDV_LL_FA1X5_P16)
                                                         0.060 *    1.982 f
  core/fu_CADD1/fu_arch/inst_cadd_arith/U601/S0 (C8T28SOIDV_LL_FA1X5_P16)
                                                         0.062 *    2.044 f
  core/fu_CADD1/fu_arch/inst_cadd_arith/res_o[30] (cadd_arith_dataw32_halfw16)
                                                         0.000      2.044 f
  core/fu_CADD1/fu_arch/res_o[30] (cadd_full_dataw32_halfw16)
                                                         0.000      2.044 f
  core/fu_CADD1/r1data[30] (fu_cadd_always_1_dataw32_busw32)
                                                         0.000      2.044 f
  core/ic/socket_CADD1_o1_data0[30] (tta0_interconn)     0.000      2.044 f
  core/ic/CADD1_o1/data0[30] (tta0_output_socket_cons_1_1_BUSW_032_DATAW_032_5)
                                                         0.000      2.044 f
  core/ic/CADD1_o1/U32/Z (C8T28SOI_LL_AND2X5_P16)        0.034 *    2.078 f
  core/ic/CADD1_o1/databus0_alt[30] (tta0_output_socket_cons_1_1_BUSW_032_DATAW_032_5)
                                                         0.000      2.078 f
  core/ic/lsu_w_i2/databus0[30] (tta0_input_socket_cons_1_BUSW_032_DATAW32_2)
                                                         0.000      2.078 f
  core/ic/lsu_w_i2/U2/Z (C8T28SOI_LL_BFX5_P16)           0.029 *    2.107 f
  core/ic/lsu_w_i2/data[30] (tta0_input_socket_cons_1_BUSW_032_DATAW32_2)
                                                         0.000      2.107 f
  core/ic/socket_lsu_w_i2_data[30] (tta0_interconn)      0.000      2.107 f
  core/fu_lsu_w/o1data[30] (fu_ldw_stw_always_4_dataw32_addrw16_0)
                                                         0.000      2.107 f
  core/fu_lsu_w/U94/Z (C8T28SOI_LL_AOI22X2_P16)          0.039 *    2.146 r
  core/fu_lsu_w/U95/Z (C8T28SOI_LL_IVX3_P16)             0.028 *    2.174 f
  core/fu_lsu_w/data_out[30] (fu_ldw_stw_always_4_dataw32_addrw16_0)
                                                         0.000      2.174 f
  datamem/scheduler/lsu_d_b[30] (par_mem_scheduler_dataw32_addrw14_ports2_rd_delay1)
                                                         0.000      2.174 f
  datamem/scheduler/d_b_conv/data_in[30] (ser_par_conv_portw32_port_cnt2_1)
                                                         0.000      2.174 f
  datamem/scheduler/d_b_conv/clk_r_REG10_S9/D (C8T28SOIDV_LL_DFPRQX10_P16)
                                                         0.000 *    2.174 f
  data arrival time                                                 2.174

  clock clk (rise edge)                                  2.222      2.222
  clock network delay (ideal)                            0.010      2.232
  clock uncertainty                                     -0.010      2.222
  datamem/scheduler/d_b_conv/clk_r_REG10_S9/CP (C8T28SOIDV_LL_DFPRQX10_P16)
                                                         0.000      2.222 r
  library setup time                                    -0.037      2.185
  data required time                                                2.185
  --------------------------------------------------------------------------
  data required time                                                2.185
  data arrival time                                                -2.174
  --------------------------------------------------------------------------
  slack (MET)                                                       0.011


  Startpoint: core/inst_decoder/clk_r_REG1851_S29
              (rising edge-triggered flip-flop clocked by clk)
  Endpoint: core/fu_CMUL/fu_arch/clk_r_REG943_S14
            (rising edge-triggered flip-flop clocked by clk)
  Path Group: clk
  Path Type: max

  Point                                                   Incr       Path
  --------------------------------------------------------------------------
  clock clk (rise edge)                                  0.000      0.000
  clock network delay (ideal)                            0.010      0.010
  core/inst_decoder/clk_r_REG1851_S29/CP (C8T28SOIDV_LL_DFPRQX19_P16)
                                                         0.000      0.010 r
  core/inst_decoder/clk_r_REG1851_S29/Q (C8T28SOIDV_LL_DFPRQX19_P16)
                                                         0.104      0.114 r
  core/inst_decoder/socket_TFG_o1_bus_cntrl[0] (tta0_decoder)
                                                         0.000      0.114 r
  core/ic/socket_TFG_o1_bus_cntrl[0] (tta0_interconn)    0.000      0.114 r
  core/ic/TFG_o1/databus_cntrl[0] (tta0_output_socket_cons_1_1_BUSW_032_DATAW_032_2)
                                                         0.000      0.114 r
  core/ic/TFG_o1/U22/Z (C8T28SOI_LL_AND2X5_P16)          0.047 *    0.162 r
  core/ic/TFG_o1/databus0_alt[9] (tta0_output_socket_cons_1_1_BUSW_032_DATAW_032_2)
                                                         0.000      0.162 r
  core/ic/CMUL_i1/databus0[9] (tta0_input_socket_cons_1_BUSW_032_DATAW32_10)
                                                         0.000      0.162 r
  core/ic/CMUL_i1/U16/Z (C8T28SOI_LL_BFX5_P16)           0.022 *    0.184 r
  core/ic/CMUL_i1/data[9] (tta0_input_socket_cons_1_BUSW_032_DATAW32_10)
                                                         0.000      0.184 r
  core/ic/socket_CMUL_i1_data[9] (tta0_interconn)        0.000      0.184 r
  U280/Z (C8T28SOI_LL_BFX5_P16)                          0.092 *    0.276 r
  core/fu_CMUL/t1data[9] (fu_cmul_always_3_dataw32_busw32)
                                                         0.000      0.276 r
  core/fu_CMUL/fu_arch/A[9] (cmul_pipe_1_dataw32_halfw16)
                                                         0.000      0.276 r
  core/fu_CMUL/fu_arch/U47/Z (C8T28SOI_LL_BFX5_P16)      0.124 *    0.400 r
  core/fu_CMUL/fu_arch/U48/Z (C8T28SOI_LL_IVX5_P16)      0.095 *    0.495 f
  core/fu_CMUL/fu_arch/U1001/Z (C8T28SOI_LL_AOI22X6_P16)
                                                         0.117 *    0.612 r
  core/fu_CMUL/fu_arch/U1009/Z (C8T28SOI_LL_OAI211X3_P16)
                                                         0.148 *    0.760 f
  core/fu_CMUL/fu_arch/U1496/Z (C8T28SOI_LL_CBI4I6X3_P16)
                                                         0.096 *    0.856 r
  core/fu_CMUL/fu_arch/U1539/S0 (C8T28SOIDV_LL_FA1X5_P16)
                                                         0.101 *    0.957 f
  core/fu_CMUL/fu_arch/U1576/S0 (C8T28SOIDV_LL_FA1X5_P16)
                                                         0.091 *    1.048 r
  core/fu_CMUL/fu_arch/U1622/S0 (C8T28SOIDV_LL_FA1X5_P16)
                                                         0.076 *    1.124 f
  core/fu_CMUL/fu_arch/U1623/S0 (C8T28SOIDV_LL_FA1X5_P16)
                                                         0.066 *    1.190 f
  core/fu_CMUL/fu_arch/U1739/Z (C8T28SOIDV_LL_PAO2X14_P16)
                                                         0.046 *    1.237 f
  core/fu_CMUL/fu_arch/U1740/Z (C8T28SOIDV_LL_PAO2X14_P16)
                                                         0.039 *    1.275 f
  core/fu_CMUL/fu_arch/U1741/Z (C8T28SOIDV_LL_PAO2X14_P16)
                                                         0.039 *    1.314 f
  core/fu_CMUL/fu_arch/U1742/Z (C8T28SOIDV_LL_PAO2X14_P16)
                                                         0.041 *    1.355 f
  core/fu_CMUL/fu_arch/U2038/CO (C8T28SOIDV_LLS1_FA1X4_P16)
                                                         0.042 *    1.398 f
  core/fu_CMUL/fu_arch/U1816/CO (C8T28SOIDV_LLS1_FA1X4_P16)
                                                         0.048 *    1.446 f
  core/fu_CMUL/fu_arch/U2015/CO (C8T28SOIDV_LLS1_FA1X4_P16)
                                                         0.047 *    1.492 f
  core/fu_CMUL/fu_arch/U1815/CO (C8T28SOIDV_LLS1_FA1X4_P16)
                                                         0.046 *    1.539 f
  core/fu_CMUL/fu_arch/U2013/CO (C8T28SOIDV_LLS1_FA1X4_P16)
                                                         0.046 *    1.584 f
  core/fu_CMUL/fu_arch/U1878/CO (C8T28SOIDV_LLS1_FA1X4_P16)
                                                         0.046 *    1.630 f
  core/fu_CMUL/fu_arch/U2014/CO (C8T28SOIDV_LLS1_FA1X4_P16)
                                                         0.046 *    1.676 f
  core/fu_CMUL/fu_arch/U1977/CO (C8T28SOIDV_LLS1_FA1X4_P16)
                                                         0.046 *    1.722 f
  core/fu_CMUL/fu_arch/U2016/CO (C8T28SOIDV_LLS1_FA1X4_P16)
                                                         0.046 *    1.768 f
  core/fu_CMUL/fu_arch/U1978/CO (C8T28SOIDV_LLS1_FA1X4_P16)
                                                         0.046 *    1.814 f
  core/fu_CMUL/fu_arch/U2044/CO (C8T28SOIDV_LLS1_FA1X4_P16)
                                                         0.047 *    1.861 f
  core/fu_CMUL/fu_arch/U2017/CO (C8T28SOIDV_LLS1_FA1X4_P16)
                                                         0.047 *    1.909 f
  core/fu_CMUL/fu_arch/U2028/CO (C8T28SOIDV_LLS1_FA1X4_P16)
                                                         0.046 *    1.955 f
  core/fu_CMUL/fu_arch/U2037/CO (C8T28SOIDV_LLS1_FA1X4_P16)
                                                         0.045 *    2.000 f
  core/fu_CMUL/fu_arch/U2061/CO (C8T28SOIDV_LLS1_FA1X4_P16)
                                                         0.045 *    2.046 f
  core/fu_CMUL/fu_arch/U2065/S0 (C8T28SOIDV_LLS1_FA1X4_P16)
                                                         0.057 *    2.103 r
  core/fu_CMUL/fu_arch/U2066/S0 (C8T28SOI_LL_HA1X5_P16)
                                                         0.066 *    2.168 f
  core/fu_CMUL/fu_arch/clk_r_REG943_S14/D (C8T28SOIDV_LL_DFPRQX10_P16)
                                                         0.000 *    2.168 f
  data arrival time                                                 2.168

  clock clk (rise edge)                                  2.222      2.222
  clock network delay (ideal)                            0.010      2.232
  clock uncertainty                                     -0.010      2.222
  core/fu_CMUL/fu_arch/clk_r_REG943_S14/CP (C8T28SOIDV_LL_DFPRQX10_P16)
                                                         0.000      2.222 r
  library setup time                                    -0.035      2.187
  data required time                                                2.187
  --------------------------------------------------------------------------
  data required time                                                2.187
  data arrival time                                                -2.168
  --------------------------------------------------------------------------
  slack (MET)                                                       0.019


  Startpoint: core/rf_rf_def/clk_r_REG1764_S29
              (rising edge-triggered flip-flop clocked by clk)
  Endpoint: core/fu_CMUL/fu_arch/DP_OP_25J13_122_449/clk_r_REG466_S14
            (rising edge-triggered flip-flop clocked by clk)
  Path Group: clk
  Path Type: max

  Point                                                   Incr       Path
  --------------------------------------------------------------------------
  clock clk (rise edge)                                  0.000      0.000
  clock network delay (ideal)                            0.010      0.010
  core/rf_rf_def/clk_r_REG1764_S29/CP (C8T28SOIDV_LL_DFPRQX10_P16)
                                                         0.000      0.010 r
  core/rf_rf_def/clk_r_REG1764_S29/Q (C8T28SOIDV_LL_DFPRQX10_P16)
                                                         0.127      0.137 r
  core/rf_rf_def/U12/Z (C8T28SOIDV_LL_NOR2X39_P16)       0.055 *    0.192 f
  core/rf_rf_def/U17/Z (C8T28SOI_LL_AO222X5_P16)         0.081 *    0.273 f
  core/rf_rf_def/r1data[17] (rf_1wr_1rd_always_1_guarded_0_dataw32_rf_size3)
                                                         0.000      0.273 f
  core/ic/socket_rf_def_o1_data0[17] (tta0_interconn)    0.000      0.273 f
  core/ic/rf_def_o1/data0[17] (tta0_output_socket_cons_2_1_BUSW_032_BUSW_132_DATAW_032_0)
                                                         0.000      0.273 f
  core/ic/rf_def_o1/U35/Z (C8T28SOI_LL_AND2X5_P16)       0.034 *    0.307 f
  core/ic/rf_def_o1/databus0_alt[17] (tta0_output_socket_cons_2_1_BUSW_032_BUSW_132_DATAW_032_0)
                                                         0.000      0.307 f
  core/ic/U145/Z (C8T28SOI_LL_OR2X9_P16)                 0.035 *    0.342 f
  core/ic/CMUL_i2/databus0[17] (tta0_input_socket_cons_1_BUSW_032_DATAW32_9)
                                                         0.000      0.342 f
  core/ic/CMUL_i2/U29/Z (C8T28SOI_LL_BFX5_P16)           0.028 *    0.370 f
  core/ic/CMUL_i2/data[17] (tta0_input_socket_cons_1_BUSW_032_DATAW32_9)
                                                         0.000      0.370 f
  core/ic/socket_CMUL_i2_data[17] (tta0_interconn)       0.000      0.370 f
  core/fu_CMUL/o1data[17] (fu_cmul_always_3_dataw32_busw32)
                                                         0.000      0.370 f
  core/fu_CMUL/U16/Z (C8T28SOI_LL_AOI22X2_P16)           0.037 *    0.408 r
  core/fu_CMUL/U13/Z (C8T28SOI_LL_IVX10_P16)             0.046 *    0.453 f
  core/fu_CMUL/fu_arch/B[17] (cmul_pipe_1_dataw32_halfw16)
                                                         0.000      0.453 f
  core/fu_CMUL/fu_arch/U120/Z (C8T28SOI_LL_IVX5_P16)     0.082 *    0.535 r
  core/fu_CMUL/fu_arch/U807/Z (C8T28SOI_LL_AOI22X2_P16)
                                                         0.048 *    0.583 f
  core/fu_CMUL/fu_arch/U815/Z (C8T28SOI_LL_OAI22X3_P16)
                                                         0.063 *    0.646 r
  core/fu_CMUL/fu_arch/U819/S0 (C8T28SOIDV_LL_FA1X5_P16)
                                                         0.093 *    0.739 f
  core/fu_CMUL/fu_arch/U820/Z (C8T28SOI_LL_NAND2X4_P16)
                                                         0.015 *    0.754 r
  core/fu_CMUL/fu_arch/U821/Z (C8T28SOI_LL_CBI4I6X3_P16)
                                                         0.012 *    0.766 f
  core/fu_CMUL/fu_arch/U822/Z (C8T28SOI_LL_PAO2X5_P16)
                                                         0.048 *    0.814 f
  core/fu_CMUL/fu_arch/U823/Z (C8T28SOI_LL_PAO2X5_P16)
                                                         0.048 *    0.862 f
  core/fu_CMUL/fu_arch/U824/Z (C8T28SOIDV_LL_PAO2X10_P16)
                                                         0.044 *    0.906 f
  core/fu_CMUL/fu_arch/U825/Z (C8T28SOIDV_LL_PAO2X10_P16)
                                                         0.041 *    0.948 f
  core/fu_CMUL/fu_arch/U826/Z (C8T28SOI_LL_PAO2X5_P16)
                                                         0.046 *    0.994 f
  core/fu_CMUL/fu_arch/U827/Z (C8T28SOI_LL_PAO2X5_P16)
                                                         0.047 *    1.041 f
  core/fu_CMUL/fu_arch/U828/Z (C8T28SOI_LL_PAO2X5_P16)
                                                         0.048 *    1.089 f
  core/fu_CMUL/fu_arch/U829/Z (C8T28SOIDV_LL_PAO2X10_P16)
                                                         0.045 *    1.134 f
  core/fu_CMUL/fu_arch/U830/Z (C8T28SOI_LL_PAO2X5_P16)
                                                         0.046 *    1.180 f
  core/fu_CMUL/fu_arch/U831/Z (C8T28SOI_LL_PAO2X5_P16)
                                                         0.047 *    1.227 f
  core/fu_CMUL/fu_arch/U832/Z (C8T28SOI_LL_PAO2X5_P16)
                                                         0.047 *    1.274 f
  core/fu_CMUL/fu_arch/U833/Z (C8T28SOI_LL_PAO2X5_P16)
                                                         0.048 *    1.322 f
  core/fu_CMUL/fu_arch/U834/Z (C8T28SOIDV_LL_PAO2X10_P16)
                                                         0.050 *    1.372 f
  core/fu_CMUL/fu_arch/U1995/CO (C8T28SOIDV_LLS1_FA1X4_P16)
                                                         0.048 *    1.420 f
  core/fu_CMUL/fu_arch/U836/CO (C8T28SOIDV_LLS1_FA1X4_P16)
                                                         0.055 *    1.475 f
  core/fu_CMUL/fu_arch/U1981/CO (C8T28SOIDV_LLS1_FA1X4_P16)
                                                         0.049 *    1.524 f
  core/fu_CMUL/fu_arch/U835/CO (C8T28SOIDV_LLS1_FA1X4_P16)
                                                         0.046 *    1.570 f
  core/fu_CMUL/fu_arch/U1980/CO (C8T28SOIDV_LLS1_FA1X4_P16)
                                                         0.046 *    1.616 f
  core/fu_CMUL/fu_arch/U897/CO (C8T28SOIDV_LLS1_FA1X4_P16)
                                                         0.046 *    1.661 f
  core/fu_CMUL/fu_arch/U1979/CO (C8T28SOIDV_LLS1_FA1X4_P16)
                                                         0.046 *    1.708 f
  core/fu_CMUL/fu_arch/U946/CO (C8T28SOIDV_LLS1_FA1X4_P16)
                                                         0.046 *    1.754 f
  core/fu_CMUL/fu_arch/U1982/CO (C8T28SOIDV_LLS1_FA1X4_P16)
                                                         0.046 *    1.800 f
  core/fu_CMUL/fu_arch/U997/CO (C8T28SOIDV_LLS1_FA1X4_P16)
                                                         0.046 *    1.846 f
  core/fu_CMUL/fu_arch/U2043/CO (C8T28SOIDV_LLS1_FA1X4_P16)
                                                         0.045 *    1.891 f
  core/fu_CMUL/fu_arch/U1994/CO (C8T28SOIDV_LLS1_FA1X4_P16)
                                                         0.045 *    1.937 f
  core/fu_CMUL/fu_arch/U1993/CO (C8T28SOIDV_LLS1_FA1X4_P16)
                                                         0.046 *    1.982 f
  core/fu_CMUL/fu_arch/U2004/CO (C8T28SOIDV_LLS1_FA1X4_P16)
                                                         0.046 *    2.029 f
  core/fu_CMUL/fu_arch/U2011/CO (C8T28SOIDV_LLS1_FA1X4_P16)
                                                         0.046 *    2.075 f
  core/fu_CMUL/fu_arch/U2042/CO (C8T28SOIDV_LLS1_FA1X4_P16)
                                                         0.046 *    2.120 f
  core/fu_CMUL/fu_arch/U2012/S0 (C8T28SOIDV_LLS1_FA1X4_P16)
                                                         0.047 *    2.168 f
  core/fu_CMUL/fu_arch/DP_OP_25J13_122_449/clk_r_REG466_S14/D (C8T28SOIDV_LL_DFPRQX10_P16)
                                                         0.000 *    2.168 f
  data arrival time                                                 2.168

  clock clk (rise edge)                                  2.222      2.222
  clock network delay (ideal)                            0.010      2.232
  clock uncertainty                                     -0.010      2.222
  core/fu_CMUL/fu_arch/DP_OP_25J13_122_449/clk_r_REG466_S14/CP (C8T28SOIDV_LL_DFPRQX10_P16)
                                                         0.000      2.222 r
  library setup time                                    -0.035      2.187
  data required time                                                2.187
  --------------------------------------------------------------------------
  data required time                                                2.187
  data arrival time                                                -2.168
  --------------------------------------------------------------------------
  slack (MET)                                                       0.019


  Startpoint: core/fu_CADD1/fu_arch/inst_cadd_arith/clk_r_REG1173_S24
              (rising edge-triggered flip-flop clocked by clk)
  Endpoint: datamem/scheduler/d_b_conv/clk_r_REG207_S19
            (rising edge-triggered flip-flop clocked by clk)
  Path Group: clk
  Path Type: max

  Point                                                   Incr       Path
  --------------------------------------------------------------------------
  clock clk (rise edge)                                  0.000      0.000
  clock network delay (ideal)                            0.010      0.010
  core/fu_CADD1/fu_arch/inst_cadd_arith/clk_r_REG1173_S24/CP (C8T28SOIDV_LL_DFPQX10_P16)
                                                         0.000      0.010 r
  core/fu_CADD1/fu_arch/inst_cadd_arith/clk_r_REG1173_S24/Q (C8T28SOIDV_LL_DFPQX10_P16)
                                                         0.064      0.074 f
  core/fu_CADD1/fu_arch/inst_cadd_arith/U3/Z (C8T28SOI_LL_IVX5_P16)
                                                         0.102 *    0.175 r
  core/fu_CADD1/fu_arch/inst_cadd_arith/U5/Z (C8T28SOI_LL_NAND2X4_P16)
                                                         0.071 *    0.246 f
  core/fu_CADD1/fu_arch/inst_cadd_arith/U7/Z (C8T28SOI_LL_NOR2AX4_P16)
                                                         0.163 *    0.409 r
  core/fu_CADD1/fu_arch/inst_cadd_arith/U8/Z (C8T28SOI_LL_NOR2X2_P16)
                                                         0.099 *    0.508 f
  core/fu_CADD1/fu_arch/inst_cadd_arith/U24/Z (C8T28SOI_LL_BFX5_P16)
                                                         0.106 *    0.614 f
  core/fu_CADD1/fu_arch/inst_cadd_arith/U25/Z (C8T28SOI_LL_NAND3X7_P16)
                                                         0.163 *    0.777 r
  core/fu_CADD1/fu_arch/inst_cadd_arith/U541/Z (C8T28SOIDV_LLS_XOR2X4_P16)
                                                         0.094 *    0.871 r
  core/fu_CADD1/fu_arch/inst_cadd_arith/DP_OP_119J8_127_2281/U18/CO (C8T28SOIDV_LL_FA1X5_P16)
                                                         0.076 *    0.947 r
  core/fu_CADD1/fu_arch/inst_cadd_arith/DP_OP_119J8_127_2281/U17/CO (C8T28SOIDV_LL_FA1X5_P16)
                                                         0.049 *    0.996 r
  core/fu_CADD1/fu_arch/inst_cadd_arith/DP_OP_119J8_127_2281/U16/S0 (C8T28SOIDV_LL_FA1X5_P16)
                                                         0.071 *    1.067 f
  core/fu_CADD1/fu_arch/inst_cadd_arith/U226/Z (C8T28SOIDV_LL_MX41X4_P16)
                                                         0.061 *    1.128 f
  core/fu_CADD1/fu_arch/inst_cadd_arith/U585/CO (C8T28SOIDV_LL_FA1X5_P16)
                                                         0.069 *    1.197 f
  core/fu_CADD1/fu_arch/inst_cadd_arith/U584/CO (C8T28SOIDV_LL_FA1X5_P16)
                                                         0.060 *    1.257 f
  core/fu_CADD1/fu_arch/inst_cadd_arith/U583/CO (C8T28SOIDV_LL_FA1X5_P16)
                                                         0.061 *    1.318 f
  core/fu_CADD1/fu_arch/inst_cadd_arith/U582/CO (C8T28SOIDV_LL_FA1X5_P16)
                                                         0.061 *    1.379 f
  core/fu_CADD1/fu_arch/inst_cadd_arith/U581/CO (C8T28SOIDV_LL_FA1X5_P16)
                                                         0.060 *    1.439 f
  core/fu_CADD1/fu_arch/inst_cadd_arith/U580/CO (C8T28SOIDV_LL_FA1X5_P16)
                                                         0.060 *    1.499 f
  core/fu_CADD1/fu_arch/inst_cadd_arith/U579/CO (C8T28SOIDV_LL_FA1X5_P16)
                                                         0.060 *    1.559 f
  core/fu_CADD1/fu_arch/inst_cadd_arith/U578/CO (C8T28SOIDV_LL_FA1X5_P16)
                                                         0.060 *    1.620 f
  core/fu_CADD1/fu_arch/inst_cadd_arith/U577/CO (C8T28SOIDV_LL_FA1X5_P16)
                                                         0.060 *    1.680 f
  core/fu_CADD1/fu_arch/inst_cadd_arith/U576/CO (C8T28SOIDV_LL_FA1X5_P16)
                                                         0.060 *    1.740 f
  core/fu_CADD1/fu_arch/inst_cadd_arith/U575/CO (C8T28SOIDV_LL_FA1X5_P16)
                                                         0.061 *    1.800 f
  core/fu_CADD1/fu_arch/inst_cadd_arith/U574/CO (C8T28SOIDV_LL_FA1X5_P16)
                                                         0.060 *    1.860 f
  core/fu_CADD1/fu_arch/inst_cadd_arith/U573/CO (C8T28SOIDV_LL_FA1X5_P16)
                                                         0.060 *    1.920 f
  core/fu_CADD1/fu_arch/inst_cadd_arith/U572/CO (C8T28SOIDV_LL_FA1X5_P16)
                                                         0.061 *    1.981 f
  core/fu_CADD1/fu_arch/inst_cadd_arith/U586/S0 (C8T28SOIDV_LL_FA1X5_P16)
                                                         0.059 *    2.040 f
  core/fu_CADD1/fu_arch/inst_cadd_arith/res_o[14] (cadd_arith_dataw32_halfw16)
                                                         0.000      2.040 f
  core/fu_CADD1/fu_arch/res_o[14] (cadd_full_dataw32_halfw16)
                                                         0.000      2.040 f
  core/fu_CADD1/r1data[14] (fu_cadd_always_1_dataw32_busw32)
                                                         0.000      2.040 f
  core/ic/socket_CADD1_o1_data0[14] (tta0_interconn)     0.000      2.040 f
  core/ic/CADD1_o1/data0[14] (tta0_output_socket_cons_1_1_BUSW_032_DATAW_032_5)
                                                         0.000      2.040 f
  core/ic/CADD1_o1/U31/Z (C8T28SOI_LL_AND2X5_P16)        0.032 *    2.072 f
  core/ic/CADD1_o1/databus0_alt[14] (tta0_output_socket_cons_1_1_BUSW_032_DATAW_032_5)
                                                         0.000      2.072 f
  core/ic/lsu_w_i2/databus0[14] (tta0_input_socket_cons_1_BUSW_032_DATAW32_2)
                                                         0.000      2.072 f
  core/ic/lsu_w_i2/U18/Z (C8T28SOI_LL_BFX5_P16)          0.030 *    2.102 f
  core/ic/lsu_w_i2/data[14] (tta0_input_socket_cons_1_BUSW_032_DATAW32_2)
                                                         0.000      2.102 f
  core/ic/socket_lsu_w_i2_data[14] (tta0_interconn)      0.000      2.102 f
  core/fu_lsu_w/o1data[14] (fu_ldw_stw_always_4_dataw32_addrw16_0)
                                                         0.000      2.102 f
  core/fu_lsu_w/U92/Z (C8T28SOI_LL_AOI22X2_P16)          0.037 *    2.140 r
  core/fu_lsu_w/U93/Z (C8T28SOI_LL_IVX3_P16)             0.026 *    2.165 f
  core/fu_lsu_w/data_out[14] (fu_ldw_stw_always_4_dataw32_addrw16_0)
                                                         0.000      2.165 f
  datamem/scheduler/lsu_d_b[14] (par_mem_scheduler_dataw32_addrw14_ports2_rd_delay1)
                                                         0.000      2.165 f
  datamem/scheduler/d_b_conv/data_in[14] (ser_par_conv_portw32_port_cnt2_1)
                                                         0.000      2.165 f
  datamem/scheduler/d_b_conv/clk_r_REG207_S19/D (C8T28SOIDV_LL_DFPRQX10_P16)
                                                         0.000 *    2.165 f
  data arrival time                                                 2.165

  clock clk (rise edge)                                  2.222      2.222
  clock network delay (ideal)                            0.010      2.232
  clock uncertainty                                     -0.010      2.222
  datamem/scheduler/d_b_conv/clk_r_REG207_S19/CP (C8T28SOIDV_LL_DFPRQX10_P16)
                                                         0.000      2.222 r
  library setup time                                    -0.036      2.186
  data required time                                                2.186
  --------------------------------------------------------------------------
  data required time                                                2.186
  data arrival time                                                -2.165
  --------------------------------------------------------------------------
  slack (MET)                                                       0.020


  Startpoint: core/rf_rf_def/clk_r_REG1764_S29
              (rising edge-triggered flip-flop clocked by clk)
  Endpoint: core/ic/add_o1/clk_r_REG492_S24
            (rising edge-triggered flip-flop clocked by clk)
  Path Group: clk
  Path Type: max

  Point                                                   Incr       Path
  --------------------------------------------------------------------------
  clock clk (rise edge)                                  0.000      0.000
  clock network delay (ideal)                            0.010      0.010
  core/rf_rf_def/clk_r_REG1764_S29/CP (C8T28SOIDV_LL_DFPRQX10_P16)
                                                         0.000      0.010 r
  core/rf_rf_def/clk_r_REG1764_S29/Q (C8T28SOIDV_LL_DFPRQX10_P16)
                                                         0.127      0.137 r
  core/rf_rf_def/U11/Z (C8T28SOIDV_LL_NOR2AX29_P16)      0.059 *    0.196 f
  core/rf_rf_def/U14/Z (C8T28SOI_LL_AO222X5_P16)         0.078 *    0.274 f
  core/rf_rf_def/r1data[0] (rf_1wr_1rd_always_1_guarded_0_dataw32_rf_size3)
                                                         0.000      0.274 f
  core/ic/socket_rf_def_o1_data0[0] (tta0_interconn)     0.000      0.274 f
  core/ic/rf_def_o1/data0[0] (tta0_output_socket_cons_2_1_BUSW_032_BUSW_132_DATAW_032_0)
                                                         0.000      0.274 f
  core/ic/rf_def_o1/U33/Z (C8T28SOI_LL_AND2X5_P16)       0.034 *    0.308 f
  core/ic/rf_def_o1/databus0_alt[0] (tta0_output_socket_cons_2_1_BUSW_032_BUSW_132_DATAW_032_0)
                                                         0.000      0.308 f
  core/ic/U1/Z (C8T28SOI_LL_OR3X10_P16)                  0.051 *    0.359 f
  core/ic/add_i2/databus0[0] (tta0_input_socket_cons_1_BUSW_032_DATAW32_5)
                                                         0.000      0.359 f
  core/ic/add_i2/U32/Z (C8T28SOI_LL_BFX13_P16)           0.031 *    0.390 f
  core/ic/add_i2/data[0] (tta0_input_socket_cons_1_BUSW_032_DATAW32_5)
                                                         0.000      0.390 f
  core/ic/socket_add_i2_data[0] (tta0_interconn)         0.000      0.390 f
  core/fu_add/o1data[0] (fu_add_sub_always_1_dataw32_busw32)
                                                         0.000      0.390 f
  core/fu_add/U14/Z (C8T28SOI_LL_AOI22X2_P16)            0.041 *    0.430 r
  core/fu_add/U15/Z (C8T28SOI_LL_IVX5_P16)               0.036 *    0.467 f
  core/fu_add/fu_arch/B[0] (add_sub_arith_dataw32)       0.000      0.467 f
  core/fu_add/fu_arch/U4/Z (C8T28SOI_LL_MUXI21X2_P16)    0.040 *    0.507 f
  core/fu_add/fu_arch/U13/CO (C8T28SOIDV_LL_FA1X5_P16)
                                                         0.070 *    0.577 f
  core/fu_add/fu_arch/U45/CO (C8T28SOIDV_LL_FA1X5_P16)
                                                         0.061 *    0.638 f
  core/fu_add/fu_arch/U15/CO (C8T28SOIDV_LL_FA1X5_P16)
                                                         0.062 *    0.700 f
  core/fu_add/fu_arch/U59/CO (C8T28SOIDV_LL_FA1X5_P16)
                                                         0.061 *    0.761 f
  core/fu_add/fu_arch/U41/CO (C8T28SOIDV_LL_FA1X5_P16)
                                                         0.060 *    0.822 f
  core/fu_add/fu_arch/U58/CO (C8T28SOIDV_LL_FA1X5_P16)
                                                         0.060 *    0.882 f
  core/fu_add/fu_arch/U14/CO (C8T28SOIDV_LL_FA1X5_P16)
                                                         0.060 *    0.943 f
  core/fu_add/fu_arch/U57/CO (C8T28SOIDV_LL_FA1X5_P16)
                                                         0.060 *    1.003 f
  core/fu_add/fu_arch/U18/CO (C8T28SOIDV_LL_FA1X5_P16)
                                                         0.060 *    1.063 f
  core/fu_add/fu_arch/U56/CO (C8T28SOIDV_LLS1_FA1X4_P16)
                                                         0.042 *    1.105 f
  core/fu_add/fu_arch/U34/CO (C8T28SOIDV_LLS1_FA1X4_P16)
                                                         0.045 *    1.151 f
  core/fu_add/fu_arch/U55/CO (C8T28SOIDV_LLS1_FA1X4_P16)
                                                         0.045 *    1.196 f
  core/fu_add/fu_arch/U40/CO (C8T28SOIDV_LLS1_FA1X4_P16)
                                                         0.045 *    1.241 f
  core/fu_add/fu_arch/U54/CO (C8T28SOIDV_LL_FA1X5_P16)
                                                         0.062 *    1.303 f
  core/fu_add/fu_arch/U39/CO (C8T28SOIDV_LLS1_FA1X4_P16)
                                                         0.043 *    1.346 f
  core/fu_add/fu_arch/U53/CO (C8T28SOIDV_LLS1_FA1X4_P16)
                                                         0.045 *    1.391 f
  core/fu_add/fu_arch/U38/CO (C8T28SOIDV_LLS1_FA1X4_P16)
                                                         0.045 *    1.436 f
  core/fu_add/fu_arch/U52/CO (C8T28SOIDV_LL_FA1X5_P16)
                                                         0.063 *    1.498 f
  core/fu_add/fu_arch/U37/CO (C8T28SOIDV_LLS1_FA1X4_P16)
                                                         0.042 *    1.541 f
  core/fu_add/fu_arch/U51/CO (C8T28SOIDV_LLS1_FA1X4_P16)
                                                         0.045 *    1.585 f
  core/fu_add/fu_arch/U36/CO (C8T28SOIDV_LLS1_FA1X4_P16)
                                                         0.046 *    1.631 f
  core/fu_add/fu_arch/U50/CO (C8T28SOIDV_LLS1_FA1X4_P16)
                                                         0.047 *    1.678 f
  core/fu_add/fu_arch/U35/CO (C8T28SOIDV_LLS1_FA1X4_P16)
                                                         0.046 *    1.725 f
  core/fu_add/fu_arch/U49/CO (C8T28SOIDV_LLS1_FA1X4_P16)
                                                         0.046 *    1.771 f
  core/fu_add/fu_arch/U44/CO (C8T28SOIDV_LLS1_FA1X4_P16)
                                                         0.047 *    1.818 f
  core/fu_add/fu_arch/U48/CO (C8T28SOIDV_LLS1_FA1X4_P16)
                                                         0.046 *    1.863 f
  core/fu_add/fu_arch/U47/CO (C8T28SOIDV_LLS1_FA1X4_P16)
                                                         0.045 *    1.908 f
  core/fu_add/fu_arch/U61/CO (C8T28SOIDV_LLS1_FA1X4_P16)
                                                         0.045 *    1.954 f
  core/fu_add/fu_arch/U63/CO (C8T28SOIDV_LLS1_FA1X4_P16)
                                                         0.045 *    1.998 f
  core/fu_add/fu_arch/U65/CO (C8T28SOIDV_LL_FA1X5_P16)
                                                         0.063 *    2.062 f
  core/fu_add/fu_arch/U67/CO (C8T28SOIDV_LLS1_FA1X4_P16)
                                                         0.039 *    2.100 f
  core/fu_add/fu_arch/U68/Z (C8T28SOIDV_LLS_XNOR2X4_P16)
                                                         0.030 *    2.131 f
  core/fu_add/fu_arch/U69/Z (C8T28SOIDV_LLS_XNOR2X4_P16)
                                                         0.032 *    2.163 f
  core/fu_add/fu_arch/S[31] (add_sub_arith_dataw32)      0.000      2.163 f
  core/fu_add/r1data[31] (fu_add_sub_always_1_dataw32_busw32)
                                                         0.000      2.163 f
  core/ic/socket_add_o1_data0[31] (tta0_interconn)       0.000      2.163 f
  core/ic/add_o1/data0[31] (tta0_output_socket_cons_3_1_BUSW_032_BUSW_132_BUSW_232_DATAW_032_1)
                                                         0.000      2.163 f
  core/ic/add_o1/clk_r_REG492_S24/D (C8T28SOIDV_LL_DFPRQX10_P16)
                                                         0.000 *    2.163 f
  data arrival time                                                 2.163

  clock clk (rise edge)                                  2.222      2.222
  clock network delay (ideal)                            0.010      2.232
  clock uncertainty                                     -0.010      2.222
  core/ic/add_o1/clk_r_REG492_S24/CP (C8T28SOIDV_LL_DFPRQX10_P16)
                                                         0.000      2.222 r
  library setup time                                    -0.035      2.187
  data required time                                                2.187
  --------------------------------------------------------------------------
  data required time                                                2.187
  data arrival time                                                -2.163
  --------------------------------------------------------------------------
  slack (MET)                                                       0.024


  Startpoint: core/inst_decoder/clk_r_REG1851_S29
              (rising edge-triggered flip-flop clocked by clk)
  Endpoint: core/fu_CMUL/fu_arch/clk_r_REG953_S14
            (rising edge-triggered flip-flop clocked by clk)
  Path Group: clk
  Path Type: max

  Point                                                   Incr       Path
  --------------------------------------------------------------------------
  clock clk (rise edge)                                  0.000      0.000
  clock network delay (ideal)                            0.010      0.010
  core/inst_decoder/clk_r_REG1851_S29/CP (C8T28SOIDV_LL_DFPRQX19_P16)
                                                         0.000      0.010 r
  core/inst_decoder/clk_r_REG1851_S29/Q (C8T28SOIDV_LL_DFPRQX19_P16)
                                                         0.104      0.114 r
  core/inst_decoder/socket_TFG_o1_bus_cntrl[0] (tta0_decoder)
                                                         0.000      0.114 r
  core/ic/socket_TFG_o1_bus_cntrl[0] (tta0_interconn)    0.000      0.114 r
  core/ic/TFG_o1/databus_cntrl[0] (tta0_output_socket_cons_1_1_BUSW_032_DATAW_032_2)
                                                         0.000      0.114 r
  core/ic/TFG_o1/U22/Z (C8T28SOI_LL_AND2X5_P16)          0.047 *    0.162 r
  core/ic/TFG_o1/databus0_alt[9] (tta0_output_socket_cons_1_1_BUSW_032_DATAW_032_2)
                                                         0.000      0.162 r
  core/ic/CMUL_i1/databus0[9] (tta0_input_socket_cons_1_BUSW_032_DATAW32_10)
                                                         0.000      0.162 r
  core/ic/CMUL_i1/U16/Z (C8T28SOI_LL_BFX5_P16)           0.022 *    0.184 r
  core/ic/CMUL_i1/data[9] (tta0_input_socket_cons_1_BUSW_032_DATAW32_10)
                                                         0.000      0.184 r
  core/ic/socket_CMUL_i1_data[9] (tta0_interconn)        0.000      0.184 r
  U280/Z (C8T28SOI_LL_BFX5_P16)                          0.092 *    0.276 r
  core/fu_CMUL/t1data[9] (fu_cmul_always_3_dataw32_busw32)
                                                         0.000      0.276 r
  core/fu_CMUL/fu_arch/A[9] (cmul_pipe_1_dataw32_halfw16)
                                                         0.000      0.276 r
  core/fu_CMUL/fu_arch/U47/Z (C8T28SOI_LL_BFX5_P16)      0.124 *    0.400 r
  core/fu_CMUL/fu_arch/U48/Z (C8T28SOI_LL_IVX5_P16)      0.095 *    0.495 f
  core/fu_CMUL/fu_arch/U1001/Z (C8T28SOI_LL_AOI22X6_P16)
                                                         0.117 *    0.612 r
  core/fu_CMUL/fu_arch/U1009/Z (C8T28SOI_LL_OAI211X3_P16)
                                                         0.148 *    0.760 f
  core/fu_CMUL/fu_arch/U1496/Z (C8T28SOI_LL_CBI4I6X3_P16)
                                                         0.096 *    0.856 r
  core/fu_CMUL/fu_arch/U1539/S0 (C8T28SOIDV_LL_FA1X5_P16)
                                                         0.101 *    0.957 f
  core/fu_CMUL/fu_arch/U1576/S0 (C8T28SOIDV_LL_FA1X5_P16)
                                                         0.091 *    1.048 r
  core/fu_CMUL/fu_arch/U1622/S0 (C8T28SOIDV_LL_FA1X5_P16)
                                                         0.076 *    1.124 f
  core/fu_CMUL/fu_arch/U1623/S0 (C8T28SOIDV_LL_FA1X5_P16)
                                                         0.066 *    1.190 f
  core/fu_CMUL/fu_arch/U1739/Z (C8T28SOIDV_LL_PAO2X14_P16)
                                                         0.046 *    1.237 f
  core/fu_CMUL/fu_arch/U1740/Z (C8T28SOIDV_LL_PAO2X14_P16)
                                                         0.039 *    1.275 f
  core/fu_CMUL/fu_arch/U1741/Z (C8T28SOIDV_LL_PAO2X14_P16)
                                                         0.039 *    1.314 f
  core/fu_CMUL/fu_arch/U1742/Z (C8T28SOIDV_LL_PAO2X14_P16)
                                                         0.041 *    1.355 f
  core/fu_CMUL/fu_arch/U2038/CO (C8T28SOIDV_LLS1_FA1X4_P16)
                                                         0.042 *    1.398 f
  core/fu_CMUL/fu_arch/U1816/CO (C8T28SOIDV_LLS1_FA1X4_P16)
                                                         0.048 *    1.446 f
  core/fu_CMUL/fu_arch/U2015/CO (C8T28SOIDV_LLS1_FA1X4_P16)
                                                         0.047 *    1.492 f
  core/fu_CMUL/fu_arch/U1815/CO (C8T28SOIDV_LLS1_FA1X4_P16)
                                                         0.046 *    1.539 f
  core/fu_CMUL/fu_arch/U2013/CO (C8T28SOIDV_LLS1_FA1X4_P16)
                                                         0.046 *    1.584 f
  core/fu_CMUL/fu_arch/U1878/CO (C8T28SOIDV_LLS1_FA1X4_P16)
                                                         0.046 *    1.630 f
  core/fu_CMUL/fu_arch/U2014/CO (C8T28SOIDV_LLS1_FA1X4_P16)
                                                         0.046 *    1.676 f
  core/fu_CMUL/fu_arch/U1977/CO (C8T28SOIDV_LLS1_FA1X4_P16)
                                                         0.046 *    1.722 f
  core/fu_CMUL/fu_arch/U2016/CO (C8T28SOIDV_LLS1_FA1X4_P16)
                                                         0.046 *    1.768 f
  core/fu_CMUL/fu_arch/U1978/CO (C8T28SOIDV_LLS1_FA1X4_P16)
                                                         0.046 *    1.814 f
  core/fu_CMUL/fu_arch/U2044/CO (C8T28SOIDV_LLS1_FA1X4_P16)
                                                         0.047 *    1.861 f
  core/fu_CMUL/fu_arch/U2017/CO (C8T28SOIDV_LLS1_FA1X4_P16)
                                                         0.047 *    1.909 f
  core/fu_CMUL/fu_arch/U2028/CO (C8T28SOIDV_LLS1_FA1X4_P16)
                                                         0.046 *    1.955 f
  core/fu_CMUL/fu_arch/U2037/CO (C8T28SOIDV_LLS1_FA1X4_P16)
                                                         0.045 *    2.000 f
  core/fu_CMUL/fu_arch/U2061/CO (C8T28SOIDV_LLS1_FA1X4_P16)
                                                         0.045 *    2.046 f
  core/fu_CMUL/fu_arch/U2065/S0 (C8T28SOIDV_LLS1_FA1X4_P16)
                                                         0.057 *    2.103 r
  core/fu_CMUL/fu_arch/U2066/CO (C8T28SOI_LL_HA1X5_P16)
                                                         0.044 *    2.146 r
  core/fu_CMUL/fu_arch/U2068/Z (C8T28SOI_LL_AOI12X3_P16)
                                                         0.015 *    2.162 f
  core/fu_CMUL/fu_arch/clk_r_REG953_S14/D (C8T28SOIDV_LL_DFPRQX10_P16)
                                                         0.000 *    2.162 f
  data arrival time                                                 2.162

  clock clk (rise edge)                                  2.222      2.222
  clock network delay (ideal)                            0.010      2.232
  clock uncertainty                                     -0.010      2.222
  core/fu_CMUL/fu_arch/clk_r_REG953_S14/CP (C8T28SOIDV_LL_DFPRQX10_P16)
                                                         0.000      2.222 r
  library setup time                                    -0.035      2.187
  data required time                                                2.187
  --------------------------------------------------------------------------
  data required time                                                2.187
  data arrival time                                                -2.162
  --------------------------------------------------------------------------
  slack (MET)                                                       0.026


  Startpoint: core/fu_CADD1/fu_arch/inst_cadd_arith/clk_r_REG1173_S24
              (rising edge-triggered flip-flop clocked by clk)
  Endpoint: datamem/scheduler/d_b_conv/clk_r_REG1661_S30
            (rising edge-triggered flip-flop clocked by clk)
  Path Group: clk
  Path Type: max

  Point                                                   Incr       Path
  --------------------------------------------------------------------------
  clock clk (rise edge)                                  0.000      0.000
  clock network delay (ideal)                            0.010      0.010
  core/fu_CADD1/fu_arch/inst_cadd_arith/clk_r_REG1173_S24/CP (C8T28SOIDV_LL_DFPQX10_P16)
                                                         0.000      0.010 r
  core/fu_CADD1/fu_arch/inst_cadd_arith/clk_r_REG1173_S24/Q (C8T28SOIDV_LL_DFPQX10_P16)
                                                         0.064      0.074 f
  core/fu_CADD1/fu_arch/inst_cadd_arith/U3/Z (C8T28SOI_LL_IVX5_P16)
                                                         0.102 *    0.175 r
  core/fu_CADD1/fu_arch/inst_cadd_arith/U5/Z (C8T28SOI_LL_NAND2X4_P16)
                                                         0.071 *    0.246 f
  core/fu_CADD1/fu_arch/inst_cadd_arith/U7/Z (C8T28SOI_LL_NOR2AX4_P16)
                                                         0.163 *    0.409 r
  core/fu_CADD1/fu_arch/inst_cadd_arith/U8/Z (C8T28SOI_LL_NOR2X2_P16)
                                                         0.099 *    0.508 f
  core/fu_CADD1/fu_arch/inst_cadd_arith/U24/Z (C8T28SOI_LL_BFX5_P16)
                                                         0.106 *    0.614 f
  core/fu_CADD1/fu_arch/inst_cadd_arith/U25/Z (C8T28SOI_LL_NAND3X7_P16)
                                                         0.163 *    0.777 r
  core/fu_CADD1/fu_arch/inst_cadd_arith/U436/Z (C8T28SOIDV_LLS_XOR2X4_P16)
                                                         0.095 *    0.871 r
  core/fu_CADD1/fu_arch/inst_cadd_arith/DP_OP_142J8_139_4435/U18/CO (C8T28SOIDV_LL_FA1X5_P16)
                                                         0.076 *    0.947 r
  core/fu_CADD1/fu_arch/inst_cadd_arith/DP_OP_142J8_139_4435/U17/CO (C8T28SOIDV_LL_FA1X5_P16)
                                                         0.048 *    0.995 r
  core/fu_CADD1/fu_arch/inst_cadd_arith/DP_OP_142J8_139_4435/U16/S0 (C8T28SOIDV_LL_FA1X5_P16)
                                                         0.071 *    1.066 f
  core/fu_CADD1/fu_arch/inst_cadd_arith/U131/Z (C8T28SOIDV_LL_MX41X4_P16)
                                                         0.061 *    1.127 f
  core/fu_CADD1/fu_arch/inst_cadd_arith/U600/CO (C8T28SOIDV_LL_FA1X5_P16)
                                                         0.068 *    1.195 f
  core/fu_CADD1/fu_arch/inst_cadd_arith/U599/CO (C8T28SOIDV_LL_FA1X5_P16)
                                                         0.062 *    1.257 f
  core/fu_CADD1/fu_arch/inst_cadd_arith/U598/CO (C8T28SOIDV_LL_FA1X5_P16)
                                                         0.061 *    1.318 f
  core/fu_CADD1/fu_arch/inst_cadd_arith/U597/CO (C8T28SOIDV_LL_FA1X5_P16)
                                                         0.060 *    1.378 f
  core/fu_CADD1/fu_arch/inst_cadd_arith/U596/CO (C8T28SOIDV_LL_FA1X5_P16)
                                                         0.060 *    1.438 f
  core/fu_CADD1/fu_arch/inst_cadd_arith/U595/CO (C8T28SOIDV_LL_FA1X5_P16)
                                                         0.060 *    1.499 f
  core/fu_CADD1/fu_arch/inst_cadd_arith/U594/CO (C8T28SOIDV_LL_FA1X5_P16)
                                                         0.060 *    1.559 f
  core/fu_CADD1/fu_arch/inst_cadd_arith/U593/CO (C8T28SOIDV_LL_FA1X5_P16)
                                                         0.060 *    1.619 f
  core/fu_CADD1/fu_arch/inst_cadd_arith/U592/CO (C8T28SOIDV_LL_FA1X5_P16)
                                                         0.061 *    1.680 f
  core/fu_CADD1/fu_arch/inst_cadd_arith/U591/CO (C8T28SOIDV_LL_FA1X5_P16)
                                                         0.061 *    1.741 f
  core/fu_CADD1/fu_arch/inst_cadd_arith/U590/CO (C8T28SOIDV_LL_FA1X5_P16)
                                                         0.060 *    1.801 f
  core/fu_CADD1/fu_arch/inst_cadd_arith/U589/CO (C8T28SOIDV_LL_FA1X5_P16)
                                                         0.060 *    1.861 f
  core/fu_CADD1/fu_arch/inst_cadd_arith/U588/CO (C8T28SOIDV_LL_FA1X5_P16)
                                                         0.060 *    1.922 f
  core/fu_CADD1/fu_arch/inst_cadd_arith/U587/CO (C8T28SOIDV_LL_FA1X5_P16)
                                                         0.060 *    1.982 f
  core/fu_CADD1/fu_arch/inst_cadd_arith/U601/CO (C8T28SOIDV_LL_FA1X5_P16)
                                                         0.055 *    2.036 f
  core/fu_CADD1/fu_arch/inst_cadd_arith/U140/Z (C8T28SOI_LL_IVX3_P16)
                                                         0.021 *    2.058 r
  core/fu_CADD1/fu_arch/inst_cadd_arith/res_o[31] (cadd_arith_dataw32_halfw16)
                                                         0.000      2.058 r
  core/fu_CADD1/fu_arch/res_o[31] (cadd_full_dataw32_halfw16)
                                                         0.000      2.058 r
  core/fu_CADD1/r1data[31] (fu_cadd_always_1_dataw32_busw32)
                                                         0.000      2.058 r
  core/ic/socket_CADD1_o1_data0[31] (tta0_interconn)     0.000      2.058 r
  core/ic/CADD1_o1/data0[31] (tta0_output_socket_cons_1_1_BUSW_032_DATAW_032_5)
                                                         0.000      2.058 r
  core/ic/CADD1_o1/U29/Z (C8T28SOI_LL_AND2X5_P16)        0.036 *    2.094 r
  core/ic/CADD1_o1/databus0_alt[31] (tta0_output_socket_cons_1_1_BUSW_032_DATAW_032_5)
                                                         0.000      2.094 r
  core/ic/lsu_w_i2/databus0[31] (tta0_input_socket_cons_1_BUSW_032_DATAW32_2)
                                                         0.000      2.094 r
  core/ic/lsu_w_i2/U1/Z (C8T28SOI_LL_BFX5_P16)           0.029 *    2.122 r
  core/ic/lsu_w_i2/data[31] (tta0_input_socket_cons_1_BUSW_032_DATAW32_2)
                                                         0.000      2.122 r
  core/ic/socket_lsu_w_i2_data[31] (tta0_interconn)      0.000      2.122 r
  core/fu_lsu_w/o1data[31] (fu_ldw_stw_always_4_dataw32_addrw16_0)
                                                         0.000      2.122 r
  core/fu_lsu_w/U88/Z (C8T28SOI_LL_AOI22X2_P16)          0.020 *    2.142 f
  core/fu_lsu_w/U89/Z (C8T28SOI_LL_IVX3_P16)             0.031 *    2.173 r
  core/fu_lsu_w/data_out[31] (fu_ldw_stw_always_4_dataw32_addrw16_0)
                                                         0.000      2.173 r
  datamem/scheduler/lsu_d_b[31] (par_mem_scheduler_dataw32_addrw14_ports2_rd_delay1)
                                                         0.000      2.173 r
  datamem/scheduler/d_b_conv/data_in[31] (ser_par_conv_portw32_port_cnt2_1)
                                                         0.000      2.173 r
  datamem/scheduler/d_b_conv/clk_r_REG1661_S30/D (C8T28SOIDV_LL_DFPRQX10_P16)
                                                         0.000 *    2.173 r
  data arrival time                                                 2.173

  clock clk (rise edge)                                  2.222      2.222
  clock network delay (ideal)                            0.010      2.232
  clock uncertainty                                     -0.010      2.222
  datamem/scheduler/d_b_conv/clk_r_REG1661_S30/CP (C8T28SOIDV_LL_DFPRQX10_P16)
                                                         0.000      2.222 r
  library setup time                                    -0.023      2.199
  data required time                                                2.199
  --------------------------------------------------------------------------
  data required time                                                2.199
  data arrival time                                                -2.173
  --------------------------------------------------------------------------
  slack (MET)                                                       0.026


  Startpoint: core/fu_CADD1/fu_arch/inst_cadd_arith/clk_r_REG1173_S24
              (rising edge-triggered flip-flop clocked by clk)
  Endpoint: datamem/scheduler/d_b_conv/clk_r_REG1656_S30
            (rising edge-triggered flip-flop clocked by clk)
  Path Group: clk
  Path Type: max

  Point                                                   Incr       Path
  --------------------------------------------------------------------------
  clock clk (rise edge)                                  0.000      0.000
  clock network delay (ideal)                            0.010      0.010
  core/fu_CADD1/fu_arch/inst_cadd_arith/clk_r_REG1173_S24/CP (C8T28SOIDV_LL_DFPQX10_P16)
                                                         0.000      0.010 r
  core/fu_CADD1/fu_arch/inst_cadd_arith/clk_r_REG1173_S24/Q (C8T28SOIDV_LL_DFPQX10_P16)
                                                         0.064      0.074 f
  core/fu_CADD1/fu_arch/inst_cadd_arith/U3/Z (C8T28SOI_LL_IVX5_P16)
                                                         0.102 *    0.175 r
  core/fu_CADD1/fu_arch/inst_cadd_arith/U5/Z (C8T28SOI_LL_NAND2X4_P16)
                                                         0.071 *    0.246 f
  core/fu_CADD1/fu_arch/inst_cadd_arith/U7/Z (C8T28SOI_LL_NOR2AX4_P16)
                                                         0.163 *    0.409 r
  core/fu_CADD1/fu_arch/inst_cadd_arith/U8/Z (C8T28SOI_LL_NOR2X2_P16)
                                                         0.099 *    0.508 f
  core/fu_CADD1/fu_arch/inst_cadd_arith/U24/Z (C8T28SOI_LL_BFX5_P16)
                                                         0.106 *    0.614 f
  core/fu_CADD1/fu_arch/inst_cadd_arith/U25/Z (C8T28SOI_LL_NAND3X7_P16)
                                                         0.163 *    0.777 r
  core/fu_CADD1/fu_arch/inst_cadd_arith/U541/Z (C8T28SOIDV_LLS_XOR2X4_P16)
                                                         0.094 *    0.871 r
  core/fu_CADD1/fu_arch/inst_cadd_arith/DP_OP_119J8_127_2281/U18/CO (C8T28SOIDV_LL_FA1X5_P16)
                                                         0.076 *    0.947 r
  core/fu_CADD1/fu_arch/inst_cadd_arith/DP_OP_119J8_127_2281/U17/CO (C8T28SOIDV_LL_FA1X5_P16)
                                                         0.049 *    0.996 r
  core/fu_CADD1/fu_arch/inst_cadd_arith/DP_OP_119J8_127_2281/U16/S0 (C8T28SOIDV_LL_FA1X5_P16)
                                                         0.071 *    1.067 f
  core/fu_CADD1/fu_arch/inst_cadd_arith/U226/Z (C8T28SOIDV_LL_MX41X4_P16)
                                                         0.061 *    1.128 f
  core/fu_CADD1/fu_arch/inst_cadd_arith/U585/CO (C8T28SOIDV_LL_FA1X5_P16)
                                                         0.069 *    1.197 f
  core/fu_CADD1/fu_arch/inst_cadd_arith/U584/CO (C8T28SOIDV_LL_FA1X5_P16)
                                                         0.060 *    1.257 f
  core/fu_CADD1/fu_arch/inst_cadd_arith/U583/CO (C8T28SOIDV_LL_FA1X5_P16)
                                                         0.061 *    1.318 f
  core/fu_CADD1/fu_arch/inst_cadd_arith/U582/CO (C8T28SOIDV_LL_FA1X5_P16)
                                                         0.061 *    1.379 f
  core/fu_CADD1/fu_arch/inst_cadd_arith/U581/CO (C8T28SOIDV_LL_FA1X5_P16)
                                                         0.060 *    1.439 f
  core/fu_CADD1/fu_arch/inst_cadd_arith/U580/CO (C8T28SOIDV_LL_FA1X5_P16)
                                                         0.060 *    1.499 f
  core/fu_CADD1/fu_arch/inst_cadd_arith/U579/CO (C8T28SOIDV_LL_FA1X5_P16)
                                                         0.060 *    1.559 f
  core/fu_CADD1/fu_arch/inst_cadd_arith/U578/CO (C8T28SOIDV_LL_FA1X5_P16)
                                                         0.060 *    1.620 f
  core/fu_CADD1/fu_arch/inst_cadd_arith/U577/CO (C8T28SOIDV_LL_FA1X5_P16)
                                                         0.060 *    1.680 f
  core/fu_CADD1/fu_arch/inst_cadd_arith/U576/CO (C8T28SOIDV_LL_FA1X5_P16)
                                                         0.060 *    1.740 f
  core/fu_CADD1/fu_arch/inst_cadd_arith/U575/CO (C8T28SOIDV_LL_FA1X5_P16)
                                                         0.061 *    1.800 f
  core/fu_CADD1/fu_arch/inst_cadd_arith/U574/CO (C8T28SOIDV_LL_FA1X5_P16)
                                                         0.060 *    1.860 f
  core/fu_CADD1/fu_arch/inst_cadd_arith/U573/CO (C8T28SOIDV_LL_FA1X5_P16)
                                                         0.060 *    1.920 f
  core/fu_CADD1/fu_arch/inst_cadd_arith/U572/CO (C8T28SOIDV_LL_FA1X5_P16)
                                                         0.061 *    1.981 f
  core/fu_CADD1/fu_arch/inst_cadd_arith/U586/CO (C8T28SOIDV_LL_FA1X5_P16)
                                                         0.055 *    2.036 f
  core/fu_CADD1/fu_arch/inst_cadd_arith/U235/Z (C8T28SOI_LL_IVX3_P16)
                                                         0.019 *    2.056 r
  core/fu_CADD1/fu_arch/inst_cadd_arith/res_o[15] (cadd_arith_dataw32_halfw16)
                                                         0.000      2.056 r
  core/fu_CADD1/fu_arch/res_o[15] (cadd_full_dataw32_halfw16)
                                                         0.000      2.056 r
  core/fu_CADD1/r1data[15] (fu_cadd_always_1_dataw32_busw32)
                                                         0.000      2.056 r
  core/ic/socket_CADD1_o1_data0[15] (tta0_interconn)     0.000      2.056 r
  core/ic/CADD1_o1/data0[15] (tta0_output_socket_cons_1_1_BUSW_032_DATAW_032_5)
                                                         0.000      2.056 r
  core/ic/CADD1_o1/U30/Z (C8T28SOI_LL_AND2X5_P16)        0.036 *    2.092 r
  core/ic/CADD1_o1/databus0_alt[15] (tta0_output_socket_cons_1_1_BUSW_032_DATAW_032_5)
                                                         0.000      2.092 r
  core/ic/lsu_w_i2/databus0[15] (tta0_input_socket_cons_1_BUSW_032_DATAW32_2)
                                                         0.000      2.092 r
  core/ic/lsu_w_i2/U17/Z (C8T28SOI_LL_BFX5_P16)          0.029 *    2.122 r
  core/ic/lsu_w_i2/data[15] (tta0_input_socket_cons_1_BUSW_032_DATAW32_2)
                                                         0.000      2.122 r
  core/ic/socket_lsu_w_i2_data[15] (tta0_interconn)      0.000      2.122 r
  core/fu_lsu_w/o1data[15] (fu_ldw_stw_always_4_dataw32_addrw16_0)
                                                         0.000      2.122 r
  core/fu_lsu_w/U90/Z (C8T28SOI_LL_AOI22X2_P16)          0.023 *    2.145 f
  core/fu_lsu_w/U91/Z (C8T28SOI_LL_IVX3_P16)             0.029 *    2.174 r
  core/fu_lsu_w/data_out[15] (fu_ldw_stw_always_4_dataw32_addrw16_0)
                                                         0.000      2.174 r
  datamem/scheduler/lsu_d_b[15] (par_mem_scheduler_dataw32_addrw14_ports2_rd_delay1)
                                                         0.000      2.174 r
  datamem/scheduler/d_b_conv/data_in[15] (ser_par_conv_portw32_port_cnt2_1)
                                                         0.000      2.174 r
  datamem/scheduler/d_b_conv/clk_r_REG1656_S30/D (C8T28SOIDV_LL_DFPRQX10_P16)
                                                         0.000 *    2.174 r
  data arrival time                                                 2.174

  clock clk (rise edge)                                  2.222      2.222
  clock network delay (ideal)                            0.010      2.232
  clock uncertainty                                     -0.010      2.222
  datamem/scheduler/d_b_conv/clk_r_REG1656_S30/CP (C8T28SOIDV_LL_DFPRQX10_P16)
                                                         0.000      2.222 r
  library setup time                                    -0.022      2.200
  data required time                                                2.200
  --------------------------------------------------------------------------
  data required time                                                2.200
  data arrival time                                                -2.174
  --------------------------------------------------------------------------
  slack (MET)                                                       0.026


  Startpoint: core/rf_rf_def/clk_r_REG1764_S29
              (rising edge-triggered flip-flop clocked by clk)
  Endpoint: core/fu_CMUL/fu_arch/DP_OP_25J13_122_449/clk_r_REG465_S14
            (rising edge-triggered flip-flop clocked by clk)
  Path Group: clk
  Path Type: max

  Point                                                   Incr       Path
  --------------------------------------------------------------------------
  clock clk (rise edge)                                  0.000      0.000
  clock network delay (ideal)                            0.010      0.010
  core/rf_rf_def/clk_r_REG1764_S29/CP (C8T28SOIDV_LL_DFPRQX10_P16)
                                                         0.000      0.010 r
  core/rf_rf_def/clk_r_REG1764_S29/Q (C8T28SOIDV_LL_DFPRQX10_P16)
                                                         0.127      0.137 r
  core/rf_rf_def/U12/Z (C8T28SOIDV_LL_NOR2X39_P16)       0.055 *    0.192 f
  core/rf_rf_def/U17/Z (C8T28SOI_LL_AO222X5_P16)         0.081 *    0.273 f
  core/rf_rf_def/r1data[17] (rf_1wr_1rd_always_1_guarded_0_dataw32_rf_size3)
                                                         0.000      0.273 f
  core/ic/socket_rf_def_o1_data0[17] (tta0_interconn)    0.000      0.273 f
  core/ic/rf_def_o1/data0[17] (tta0_output_socket_cons_2_1_BUSW_032_BUSW_132_DATAW_032_0)
                                                         0.000      0.273 f
  core/ic/rf_def_o1/U35/Z (C8T28SOI_LL_AND2X5_P16)       0.034 *    0.307 f
  core/ic/rf_def_o1/databus0_alt[17] (tta0_output_socket_cons_2_1_BUSW_032_BUSW_132_DATAW_032_0)
                                                         0.000      0.307 f
  core/ic/U145/Z (C8T28SOI_LL_OR2X9_P16)                 0.035 *    0.342 f
  core/ic/CMUL_i2/databus0[17] (tta0_input_socket_cons_1_BUSW_032_DATAW32_9)
                                                         0.000      0.342 f
  core/ic/CMUL_i2/U29/Z (C8T28SOI_LL_BFX5_P16)           0.028 *    0.370 f
  core/ic/CMUL_i2/data[17] (tta0_input_socket_cons_1_BUSW_032_DATAW32_9)
                                                         0.000      0.370 f
  core/ic/socket_CMUL_i2_data[17] (tta0_interconn)       0.000      0.370 f
  core/fu_CMUL/o1data[17] (fu_cmul_always_3_dataw32_busw32)
                                                         0.000      0.370 f
  core/fu_CMUL/U16/Z (C8T28SOI_LL_AOI22X2_P16)           0.037 *    0.408 r
  core/fu_CMUL/U13/Z (C8T28SOI_LL_IVX10_P16)             0.046 *    0.453 f
  core/fu_CMUL/fu_arch/B[17] (cmul_pipe_1_dataw32_halfw16)
                                                         0.000      0.453 f
  core/fu_CMUL/fu_arch/U120/Z (C8T28SOI_LL_IVX5_P16)     0.082 *    0.535 r
  core/fu_CMUL/fu_arch/U807/Z (C8T28SOI_LL_AOI22X2_P16)
                                                         0.048 *    0.583 f
  core/fu_CMUL/fu_arch/U815/Z (C8T28SOI_LL_OAI22X3_P16)
                                                         0.063 *    0.646 r
  core/fu_CMUL/fu_arch/U819/S0 (C8T28SOIDV_LL_FA1X5_P16)
                                                         0.093 *    0.739 f
  core/fu_CMUL/fu_arch/U820/Z (C8T28SOI_LL_NAND2X4_P16)
                                                         0.015 *    0.754 r
  core/fu_CMUL/fu_arch/U821/Z (C8T28SOI_LL_CBI4I6X3_P16)
                                                         0.012 *    0.766 f
  core/fu_CMUL/fu_arch/U822/Z (C8T28SOI_LL_PAO2X5_P16)
                                                         0.048 *    0.814 f
  core/fu_CMUL/fu_arch/U823/Z (C8T28SOI_LL_PAO2X5_P16)
                                                         0.048 *    0.862 f
  core/fu_CMUL/fu_arch/U824/Z (C8T28SOIDV_LL_PAO2X10_P16)
                                                         0.044 *    0.906 f
  core/fu_CMUL/fu_arch/U825/Z (C8T28SOIDV_LL_PAO2X10_P16)
                                                         0.041 *    0.948 f
  core/fu_CMUL/fu_arch/U826/Z (C8T28SOI_LL_PAO2X5_P16)
                                                         0.046 *    0.994 f
  core/fu_CMUL/fu_arch/U827/Z (C8T28SOI_LL_PAO2X5_P16)
                                                         0.047 *    1.041 f
  core/fu_CMUL/fu_arch/U828/Z (C8T28SOI_LL_PAO2X5_P16)
                                                         0.048 *    1.089 f
  core/fu_CMUL/fu_arch/U829/Z (C8T28SOIDV_LL_PAO2X10_P16)
                                                         0.045 *    1.134 f
  core/fu_CMUL/fu_arch/U830/Z (C8T28SOI_LL_PAO2X5_P16)
                                                         0.046 *    1.180 f
  core/fu_CMUL/fu_arch/U831/Z (C8T28SOI_LL_PAO2X5_P16)
                                                         0.047 *    1.227 f
  core/fu_CMUL/fu_arch/U832/Z (C8T28SOI_LL_PAO2X5_P16)
                                                         0.047 *    1.274 f
  core/fu_CMUL/fu_arch/U833/Z (C8T28SOI_LL_PAO2X5_P16)
                                                         0.048 *    1.322 f
  core/fu_CMUL/fu_arch/U834/Z (C8T28SOIDV_LL_PAO2X10_P16)
                                                         0.050 *    1.372 f
  core/fu_CMUL/fu_arch/U1995/CO (C8T28SOIDV_LLS1_FA1X4_P16)
                                                         0.048 *    1.420 f
  core/fu_CMUL/fu_arch/U836/CO (C8T28SOIDV_LLS1_FA1X4_P16)
                                                         0.055 *    1.475 f
  core/fu_CMUL/fu_arch/U1981/CO (C8T28SOIDV_LLS1_FA1X4_P16)
                                                         0.049 *    1.524 f
  core/fu_CMUL/fu_arch/U835/CO (C8T28SOIDV_LLS1_FA1X4_P16)
                                                         0.046 *    1.570 f
  core/fu_CMUL/fu_arch/U1980/CO (C8T28SOIDV_LLS1_FA1X4_P16)
                                                         0.046 *    1.616 f
  core/fu_CMUL/fu_arch/U897/CO (C8T28SOIDV_LLS1_FA1X4_P16)
                                                         0.046 *    1.661 f
  core/fu_CMUL/fu_arch/U1979/CO (C8T28SOIDV_LLS1_FA1X4_P16)
                                                         0.046 *    1.708 f
  core/fu_CMUL/fu_arch/U946/CO (C8T28SOIDV_LLS1_FA1X4_P16)
                                                         0.046 *    1.754 f
  core/fu_CMUL/fu_arch/U1982/CO (C8T28SOIDV_LLS1_FA1X4_P16)
                                                         0.046 *    1.800 f
  core/fu_CMUL/fu_arch/U997/CO (C8T28SOIDV_LLS1_FA1X4_P16)
                                                         0.046 *    1.846 f
  core/fu_CMUL/fu_arch/U2043/CO (C8T28SOIDV_LLS1_FA1X4_P16)
                                                         0.045 *    1.891 f
  core/fu_CMUL/fu_arch/U1994/CO (C8T28SOIDV_LLS1_FA1X4_P16)
                                                         0.045 *    1.937 f
  core/fu_CMUL/fu_arch/U1993/CO (C8T28SOIDV_LLS1_FA1X4_P16)
                                                         0.046 *    1.982 f
  core/fu_CMUL/fu_arch/U2004/CO (C8T28SOIDV_LLS1_FA1X4_P16)
                                                         0.046 *    2.029 f
  core/fu_CMUL/fu_arch/U2011/CO (C8T28SOIDV_LLS1_FA1X4_P16)
                                                         0.046 *    2.075 f
  core/fu_CMUL/fu_arch/U2042/CO (C8T28SOIDV_LLS1_FA1X4_P16)
                                                         0.046 *    2.120 f
  core/fu_CMUL/fu_arch/U2012/CO (C8T28SOIDV_LLS1_FA1X4_P16)
                                                         0.039 *    2.159 f
  core/fu_CMUL/fu_arch/DP_OP_25J13_122_449/clk_r_REG465_S14/D (C8T28SOIDV_LL_DFPSQX10_P16)
                                                         0.000 *    2.159 f
  data arrival time                                                 2.159

  clock clk (rise edge)                                  2.222      2.222
  clock network delay (ideal)                            0.010      2.232
  clock uncertainty                                     -0.010      2.222
  core/fu_CMUL/fu_arch/DP_OP_25J13_122_449/clk_r_REG465_S14/CP (C8T28SOIDV_LL_DFPSQX10_P16)
                                                         0.000      2.222 r
  library setup time                                    -0.036      2.186
  data required time                                                2.186
  --------------------------------------------------------------------------
  data required time                                                2.186
  data arrival time                                                -2.159
  --------------------------------------------------------------------------
  slack (MET)                                                       0.026


  Startpoint: core/loopbuffer/clk_r_REG496_S27
              (rising edge-triggered flip-flop clocked by clk)
  Endpoint: core/loopbuffer/clk_r_REG528_S29
            (rising edge-triggered flip-flop clocked by clk)
  Path Group: clk
  Path Type: max

  Point                                                   Incr       Path
  --------------------------------------------------------------------------
  clock clk (rise edge)                                  0.000      0.000
  clock network delay (ideal)                            0.010      0.010
  core/loopbuffer/clk_r_REG496_S27/CP (C8T28SOIDV_LL_DFPRQX10_P16)
                                                         0.000      0.010 r
  core/loopbuffer/clk_r_REG496_S27/Q (C8T28SOIDV_LL_DFPRQX10_P16)
                                                         0.069      0.079 r
  core/loopbuffer/U16/Z (C8T28SOI_LL_BFX5_P16)           0.061 *    0.140 r
  core/loopbuffer/U17/Z (C8T28SOI_LL_IVX3_P16)           0.072 *    0.212 f
  core/loopbuffer/U254/Z (C8T28SOI_LL_AOI22X2_P16)       0.051 *    0.263 r
  core/loopbuffer/U255/Z (C8T28SOI_LL_IVX3_P16)          0.043 *    0.306 f
  core/loopbuffer/U257/Z (C8T28SOI_LL_NOR3X7_P16)        0.049 *    0.355 r
  core/loopbuffer/U258/Z (C8T28SOIDV_LL_NOR2AX10_P16)    0.044 *    0.399 r
  core/loopbuffer/U260/Z (C8T28SOIDV_LL_NOR2AX10_P16)    0.038 *    0.438 r
  core/loopbuffer/U263/Z (C8T28SOIDV_LL_NOR2AX10_P16)    0.038 *    0.476 r
  core/loopbuffer/U266/Z (C8T28SOIDV_LL_NOR2AX10_P16)    0.038 *    0.514 r
  core/loopbuffer/U268/Z (C8T28SOIDV_LL_NOR2AX10_P16)    0.039 *    0.553 r
  core/loopbuffer/U271/Z (C8T28SOIDV_LL_NOR2AX10_P16)    0.039 *    0.592 r
  core/loopbuffer/U272/Z (C8T28SOIDV_LL_NOR2AX10_P16)    0.038 *    0.630 r
  core/loopbuffer/U274/Z (C8T28SOIDV_LL_NOR2AX10_P16)    0.036 *    0.666 r
  core/loopbuffer/U275/Z (C8T28SOI_LL_NOR2AX4_P16)       0.054 *    0.720 r
  core/loopbuffer/U276/Z (C8T28SOIDV_LL_NOR2AX10_P16)    0.048 *    0.768 r
  core/loopbuffer/U277/Z (C8T28SOIDV_LL_NOR2AX10_P16)    0.037 *    0.805 r
  core/loopbuffer/U278/Z (C8T28SOI_LL_NOR2AX4_P16)       0.052 *    0.857 r
  core/loopbuffer/U280/Z (C8T28SOI_LL_NOR2AX4_P16)       0.063 *    0.920 r
  core/loopbuffer/U282/Z (C8T28SOIDV_LL_NOR2AX10_P16)    0.047 *    0.967 r
  core/loopbuffer/U284/Z (C8T28SOIDV_LL_NOR2AX10_P16)    0.039 *    1.005 r
  core/loopbuffer/U285/Z (C8T28SOIDV_LL_NOR2AX10_P16)    0.039 *    1.044 r
  core/loopbuffer/U286/Z (C8T28SOIDV_LL_NOR2AX10_P16)    0.039 *    1.083 r
  core/loopbuffer/U287/Z (C8T28SOIDV_LL_NOR2AX10_P16)    0.037 *    1.121 r
  core/loopbuffer/U288/Z (C8T28SOI_LL_NOR2AX4_P16)       0.054 *    1.175 r
  core/loopbuffer/U290/Z (C8T28SOIDV_LL_NOR2AX10_P16)    0.047 *    1.222 r
  core/loopbuffer/U291/Z (C8T28SOIDV_LL_NOR2AX10_P16)    0.039 *    1.260 r
  core/loopbuffer/U292/Z (C8T28SOIDV_LL_NOR2AX10_P16)    0.037 *    1.297 r
  core/loopbuffer/U294/Z (C8T28SOI_LL_NOR2AX4_P16)       0.054 *    1.352 r
  core/loopbuffer/U295/Z (C8T28SOIDV_LL_NOR2AX10_P16)    0.049 *    1.401 r
  core/loopbuffer/U343/Z (C8T28SOIDV_LLS_XNOR2X4_P16)    0.039 *    1.439 r
  core/loopbuffer/U344/Z (C8T28SOI_LL_OAI22X3_P16)       0.020 *    1.460 f
  core/loopbuffer/U345/Z (C8T28SOI_LL_AO212X5_P16)       0.081 *    1.541 f
  core/loopbuffer/U373/Z (C8T28SOI_LL_AOI112X3_P16)      0.039 *    1.580 r
  core/loopbuffer/U374/Z (C8T28SOI_LL_OAI12X3_P16)       0.026 *    1.606 f
  core/loopbuffer/U375/Z (C8T28SOI_LL_AOI112X3_P16)      0.041 *    1.647 r
  core/loopbuffer/U376/Z (C8T28SOI_LL_OAI12X3_P16)       0.025 *    1.672 f
  core/loopbuffer/U4/Z (C8T28SOI_LL_OR3X5_P16)           0.066 *    1.738 f
  core/loopbuffer/U379/Z (C8T28SOI_LL_AOI12X3_P16)       0.145 *    1.882 r
  core/loopbuffer/U156/Z (C8T28SOI_LL_IVX3_P16)          0.175 *    2.058 f
  core/loopbuffer/U577/Z (C8T28SOI_LL_OA112X4_P16)       0.095 *    2.152 f
  core/loopbuffer/clk_r_REG528_S29/D (C8T28SOIDV_LL_DFPRQX10_P16)
                                                         0.000 *    2.152 f
  data arrival time                                                 2.152

  clock clk (rise edge)                                  2.222      2.222
  clock network delay (ideal)                            0.010      2.232
  clock uncertainty                                     -0.010      2.222
  core/loopbuffer/clk_r_REG528_S29/CP (C8T28SOIDV_LL_DFPRQX10_P16)
                                                         0.000      2.222 r
  library setup time                                    -0.036      2.186
  data required time                                                2.186
  --------------------------------------------------------------------------
  data required time                                                2.186
  data arrival time                                                -2.152
  --------------------------------------------------------------------------
  slack (MET)                                                       0.034


1
