Warning: There are 90 switching activity information conflicts. (PWR-19)
 
****************************************
Report : saif
Design : proc
Version: M-2016.12-SP5-1
Date   : Sat Jul 28 10:56:40 2018
****************************************

  

--------------------------------------------------------------------------------
              User              Default           Propagated
Object type   Annotated (%)     Activity (%)      Activity (%)       Total
--------------------------------------------------------------------------------
  
 Nets         285(66.28%)       0(0.00%)          145(33.72%)        430
 Ports        229(100.00%)      0(0.00%)          0(0.00%)           229
 Pins         224(35.05%)       0(0.00%)          415(64.95%)        639
--------------------------------------------------------------------------------
1
