Warning: There are 100 switching activity information conflicts. (PWR-19)
 
****************************************
Report : saif
Design : proc
Version: M-2016.12-SP5-1
Date   : Sat Jul 28 23:59:58 2018
****************************************

  

--------------------------------------------------------------------------------
              User              Default           Propagated
Object type   Annotated (%)     Activity (%)      Activity (%)       Total
--------------------------------------------------------------------------------
  
 Nets         287(65.38%)       0(0.00%)          152(34.62%)        439
 Ports        229(100.00%)      0(0.00%)          0(0.00%)           229
 Pins         252(36.26%)       0(0.00%)          443(63.74%)        695
--------------------------------------------------------------------------------
1
