********************************************************************************
                        Threshold Voltage Group Report                         

Vth Group                All                Blackbox           Non-blackbox
Name                    cells                cells                cells
********************************************************************************
undefined           16889 (100.00%)        118 (100.00%)      16771 (100.00%)   
********************************************************************************

Vth Group                All                Blackbox           Non-blackbox
Name                  cell area            cell area            cell area
********************************************************************************
undefined       110064.26 (100.00%)   96348.50 (100.00%)   13715.76 (100.00%)   
********************************************************************************
1
