********************************************************************************
                        Threshold Voltage Group Report                         

Vth Group                All                Blackbox           Non-blackbox
Name                    cells                cells                cells
********************************************************************************
undefined           16900 (100.00%)        119 (100.00%)      16781 (100.00%)   
********************************************************************************

Vth Group                All                Blackbox           Non-blackbox
Name                  cell area            cell area            cell area
********************************************************************************
undefined       104266.09 (100.00%)   90594.39 (100.00%)   13671.70 (100.00%)   
********************************************************************************
1
