********************************************************************************
                        Threshold Voltage Group Report                         

Vth Group                All                Blackbox           Non-blackbox
Name                    cells                cells                cells
********************************************************************************
undefined           16468 (100.00%)        119 (100.00%)      16349 (100.00%)   
********************************************************************************

Vth Group                All                Blackbox           Non-blackbox
Name                  cell area            cell area            cell area
********************************************************************************
undefined       110714.57 (100.00%)   97280.17 (100.00%)   13434.41 (100.00%)   
********************************************************************************
1
