Warning: There are 86 switching activity information conflicts. (PWR-19)
 
****************************************
Report : saif
Design : proc
Version: M-2016.12-SP5-1
Date   : Sat Jul 28 23:24:12 2018
****************************************

  

--------------------------------------------------------------------------------
              User              Default           Propagated
Object type   Annotated (%)     Activity (%)      Activity (%)       Total
--------------------------------------------------------------------------------
  
 Nets         287(64.64%)       0(0.00%)          157(35.36%)        444
 Ports        229(100.00%)      0(0.00%)          0(0.00%)           229
 Pins         229(32.48%)       0(0.00%)          476(67.52%)        705
--------------------------------------------------------------------------------
1
