Warning: There are 92 switching activity information conflicts. (PWR-19)
 
****************************************
Report : saif
Design : proc
Version: M-2016.12-SP5-1
Date   : Sat Jul 28 17:03:41 2018
****************************************

  

--------------------------------------------------------------------------------
              User              Default           Propagated
Object type   Annotated (%)     Activity (%)      Activity (%)       Total
--------------------------------------------------------------------------------
  
 Nets         286(64.56%)       0(0.00%)          157(35.44%)        443
 Ports        229(100.00%)      0(0.00%)          0(0.00%)           229
 Pins         264(37.55%)       0(0.00%)          439(62.45%)        703
--------------------------------------------------------------------------------
1
