Warning: There are 90 switching activity information conflicts. (PWR-19)
 
****************************************
Report : saif
Design : proc
Version: M-2016.12-SP5-1
Date   : Sat Jul 28 20:00:04 2018
****************************************

  

--------------------------------------------------------------------------------
              User              Default           Propagated
Object type   Annotated (%)     Activity (%)      Activity (%)       Total
--------------------------------------------------------------------------------
  
 Nets         294(56.54%)       0(0.00%)          226(43.46%)        520
 Ports        229(100.00%)      0(0.00%)          0(0.00%)           229
 Pins         262(31.30%)       0(0.00%)          575(68.70%)        837
--------------------------------------------------------------------------------
1
