Warning: There are 89 switching activity information conflicts. (PWR-19)
 
****************************************
Report : saif
Design : proc
Version: M-2016.12-SP5-1
Date   : Sun Jul 29 02:12:47 2018
****************************************

  

--------------------------------------------------------------------------------
              User              Default           Propagated
Object type   Annotated (%)     Activity (%)      Activity (%)       Total
--------------------------------------------------------------------------------
  
 Nets         303(62.22%)       0(0.00%)          184(37.78%)        487
 Ports        229(100.00%)      0(0.00%)          0(0.00%)           229
 Pins         276(38.55%)       0(0.00%)          440(61.45%)        716
--------------------------------------------------------------------------------
1
