********************************************************************************
                        Threshold Voltage Group Report                         

Vth Group                All                Blackbox           Non-blackbox
Name                    cells                cells                cells
********************************************************************************
undefined           19216 (100.00%)        119 (100.00%)      19097 (100.00%)   
********************************************************************************

Vth Group                All                Blackbox           Non-blackbox
Name                  cell area            cell area            cell area
********************************************************************************
undefined       111656.23 (100.00%)   96350.13 (100.00%)   15306.09 (100.00%)   
********************************************************************************
1
