Warning: There are 83 switching activity information conflicts. (PWR-19)
 
****************************************
Report : saif
Design : proc
Version: M-2016.12-SP5-1
Date   : Sun Jul 29 09:50:51 2018
****************************************

  

--------------------------------------------------------------------------------
              User              Default           Propagated
Object type   Annotated (%)     Activity (%)      Activity (%)       Total
--------------------------------------------------------------------------------
  
 Nets         302(62.14%)       0(0.00%)          184(37.86%)        486
 Ports        229(100.00%)      0(0.00%)          0(0.00%)           229
 Pins         257(36.15%)       0(0.00%)          454(63.85%)        711
--------------------------------------------------------------------------------
1
