Warning: There are 105 switching activity information conflicts. (PWR-19)
 
****************************************
Report : saif
Design : proc
Version: M-2016.12-SP5-1
Date   : Fri Jul 27 19:55:10 2018
****************************************

  

--------------------------------------------------------------------------------
              User              Default           Propagated
Object type   Annotated (%)     Activity (%)      Activity (%)       Total
--------------------------------------------------------------------------------
  
 Nets         269(74.10%)       0(0.00%)          94(25.90%)         363
 Ports        229(100.00%)      0(0.00%)          0(0.00%)           229
 Pins         203(38.30%)       0(0.00%)          327(61.70%)        530
--------------------------------------------------------------------------------
1
