Warning: There are 98 switching activity information conflicts. (PWR-19)
 
****************************************
Report : saif
Design : proc
Version: M-2016.12-SP5-1
Date   : Sat Jul 28 05:32:40 2018
****************************************

  

--------------------------------------------------------------------------------
              User              Default           Propagated
Object type   Annotated (%)     Activity (%)      Activity (%)       Total
--------------------------------------------------------------------------------
  
 Nets         266(65.84%)       0(0.00%)          138(34.16%)        404
 Ports        229(100.00%)      0(0.00%)          0(0.00%)           229
 Pins         203(33.06%)       0(0.00%)          411(66.94%)        614
--------------------------------------------------------------------------------
1
