Warning: There are 82 switching activity information conflicts. (PWR-19)
 
****************************************
Report : saif
Design : proc
Version: M-2016.12-SP5-1
Date   : Sat Jul 28 11:36:12 2018
****************************************

  

--------------------------------------------------------------------------------
              User              Default           Propagated
Object type   Annotated (%)     Activity (%)      Activity (%)       Total
--------------------------------------------------------------------------------
  
 Nets         287(61.99%)       0(0.00%)          176(38.01%)        463
 Ports        229(100.00%)      0(0.00%)          0(0.00%)           229
 Pins         242(36.12%)       0(0.00%)          428(63.88%)        670
--------------------------------------------------------------------------------
1
