Warning: There are 82 switching activity information conflicts. (PWR-19)
 
****************************************
Report : saif
Design : proc
Version: M-2016.12-SP5-1
Date   : Sat Jul 28 03:17:55 2018
****************************************

  

--------------------------------------------------------------------------------
              User              Default           Propagated
Object type   Annotated (%)     Activity (%)      Activity (%)       Total
--------------------------------------------------------------------------------
  
 Nets         285(65.22%)       0(0.00%)          152(34.78%)        437
 Ports        229(100.00%)      0(0.00%)          0(0.00%)           229
 Pins         273(39.28%)       0(0.00%)          422(60.72%)        695
--------------------------------------------------------------------------------
1
