Warning: There are 85 switching activity information conflicts. (PWR-19)
 
****************************************
Report : saif
Design : proc
Version: M-2016.12-SP5-1
Date   : Sun Jul 29 06:11:16 2018
****************************************

  

--------------------------------------------------------------------------------
              User              Default           Propagated
Object type   Annotated (%)     Activity (%)      Activity (%)       Total
--------------------------------------------------------------------------------
  
 Nets         287(65.38%)       0(0.00%)          152(34.62%)        439
 Ports        229(100.00%)      0(0.00%)          0(0.00%)           229
 Pins         249(35.83%)       0(0.00%)          446(64.17%)        695
--------------------------------------------------------------------------------
1
