Warning: There are 68 switching activity information conflicts. (PWR-19)
 
****************************************
Report : saif
Design : proc
Version: M-2016.12-SP5-1
Date   : Sat Jul 28 21:20:58 2018
****************************************

  

--------------------------------------------------------------------------------
              User              Default           Propagated
Object type   Annotated (%)     Activity (%)      Activity (%)       Total
--------------------------------------------------------------------------------
  
 Nets         287(65.08%)       0(0.00%)          154(34.92%)        441
 Ports        229(100.00%)      0(0.00%)          0(0.00%)           229
 Pins         253(36.19%)       0(0.00%)          446(63.81%)        699
--------------------------------------------------------------------------------
1
