Warning: There are 94 switching activity information conflicts. (PWR-19)
 
****************************************
Report : saif
Design : proc
Version: M-2016.12-SP5-1
Date   : Sat Jul 28 04:12:21 2018
****************************************

  

--------------------------------------------------------------------------------
              User              Default           Propagated
Object type   Annotated (%)     Activity (%)      Activity (%)       Total
--------------------------------------------------------------------------------
  
 Nets         279(65.80%)       0(0.00%)          145(34.20%)        424
 Ports        229(100.00%)      0(0.00%)          0(0.00%)           229
 Pins         210(30.84%)       0(0.00%)          471(69.16%)        681
--------------------------------------------------------------------------------
1
