 
****************************************
Report : area
Design : proc
Version: M-2016.12-SP5-1
Date   : Sat Jul 28 18:35:55 2018
****************************************

Library(s) Used:

    C28SOI_SC_8_COREPBP16_LL (File: /home/software/cmos28fdsoi_25f/C28SOI_SC_8_COREPBP16_LL/3.3-00/libs/C28SOI_SC_8_COREPBP16_LL_tt28_0.90V_0.00V_0.00V_0.00V_25C.db)
    C28SOI_SC_8_COREPBP10_LL (File: /home/software/cmos28fdsoi_25f/C28SOI_SC_8_COREPBP10_LL/3.3-00/libs/C28SOI_SC_8_COREPBP10_LL_tt28_0.90V_0.00V_0.00V_0.00V_25C.db)
    C28SOI_SC_8_CLK_LL (File: /home/software/cmos28fdsoi_25f/C28SOI_SC_8_CLK_LL/3.2-00/libs/C28SOI_SC_8_CLK_LL_tt28_0.90V_0.00V_0.00V_0.00V_25C.db)
    ram_64x51 (File: /home/zadnik/designs/fft_full_lbuf/vhdl/mem/cacti_mem/ram_300k_028nm_0_90v_64x51/ram_64x51.db)
    C28SOI_SC_8_COREPBP4_LL (File: /home/software/cmos28fdsoi_25f/C28SOI_SC_8_COREPBP4_LL/3.3-00/libs/C28SOI_SC_8_COREPBP4_LL_tt28_0.90V_0.00V_0.00V_0.00V_25C.db)
    ram_4096x32 (File: /home/zadnik/designs/fft_full_lbuf/vhdl/mem/cacti_mem/ram_300k_028nm_0_90v_4096x32/ram_4096x32.db)
    ram_2048x32 (File: /home/zadnik/designs/fft_full_lbuf/vhdl/mem/cacti_mem/ram_300k_028nm_0_90v_2048x32/ram_2048x32.db)
    ram_1024x32 (File: /home/zadnik/designs/fft_full_lbuf/vhdl/mem/cacti_mem/ram_300k_028nm_0_90v_1024x32/ram_1024x32.db)
    ram_512x32 (File: /home/zadnik/designs/fft_full_lbuf/vhdl/mem/cacti_mem/ram_300k_028nm_0_90v_512x32/ram_512x32.db)
    ram_256x32 (File: /home/zadnik/designs/fft_full_lbuf/vhdl/mem/cacti_mem/ram_300k_028nm_0_90v_256x32/ram_256x32.db)
    ram_128x32 (File: /home/zadnik/designs/fft_full_lbuf/vhdl/mem/cacti_mem/ram_300k_028nm_0_90v_128x32/ram_128x32.db)
    ram_64x32 (File: /home/zadnik/designs/fft_full_lbuf/vhdl/mem/cacti_mem/ram_300k_028nm_0_90v_64x32/ram_64x32.db)
    ram_32x32 (File: /home/zadnik/designs/fft_full_lbuf/vhdl/mem/cacti_mem/ram_300k_028nm_0_90v_32x32/ram_32x32.db)

Number of ports:                        11471
Number of nets:                         29929
Number of cells:                        19039
Number of combinational cells:          16073
Number of sequential cells:              2735
Number of macros/black boxes:              19
Number of buf/inv:                       3481
Number of references:                      54

Combinational area:               8580.947460
Buf/Inv area:                     1021.740816
Noncombinational area:            6400.812719
Macro/Black Box area:            96178.389893
Net Interconnect area:      undefined  (Wire load has zero net area)

Total cell area:                111160.150072
Total area:                 undefined
1
