Warning: There are 89 switching activity information conflicts. (PWR-19)
 
****************************************
Report : saif
Design : proc
Version: M-2016.12-SP5-1
Date   : Sat Jul 28 18:36:14 2018
****************************************

  

--------------------------------------------------------------------------------
              User              Default           Propagated
Object type   Annotated (%)     Activity (%)      Activity (%)       Total
--------------------------------------------------------------------------------
  
 Nets         286(65.75%)       0(0.00%)          149(34.25%)        435
 Ports        229(100.00%)      0(0.00%)          0(0.00%)           229
 Pins         259(39.85%)       0(0.00%)          391(60.15%)        650
--------------------------------------------------------------------------------
1
