Information: Updating design information... (UID-85)
 
****************************************
Report : timing
        -path full
        -delay max
        -max_paths 10
Design : proc
Version: M-2016.12-SP5-1
Date   : Sat Jul 28 18:35:55 2018
****************************************

 * Some/all delay information is back-annotated.

Operating Conditions: tt28_0.90V_0.00V_0.00V_0.00V_25C   Library: C28SOI_SC_8_CLK_LL
Wire Load Model Mode: Inactive.

  Startpoint: core/rf_rf_def/R_8_clk_r_REG1856_S51
              (rising edge-triggered flip-flop clocked by clk)
  Endpoint: core/fu_CMUL/fu_arch/clk_r_REG239_S24
            (rising edge-triggered flip-flop clocked by clk)
  Path Group: clk
  Path Type: max

  Point                                                   Incr       Path
  --------------------------------------------------------------------------
  clock clk (rise edge)                                  0.000      0.000
  clock network delay (ideal)                            0.010      0.010
  core/rf_rf_def/R_8_clk_r_REG1856_S51/CP (C8T28SOIDV_LL_DFPRQX19_P10)
                                                         0.000      0.010 r
  core/rf_rf_def/R_8_clk_r_REG1856_S51/Q (C8T28SOIDV_LL_DFPRQX19_P10)
                                                         0.111      0.121 f
  core/rf_rf_def/U32/Z (C8T28SOIDV_LL_NOR2X39_P16)       0.055 *    0.176 r
  core/rf_rf_def/U40/Z (C8T28SOI_LL_AO222X5_P16)         0.063 *    0.239 r
  core/rf_rf_def/r1data[6] (rf_1wr_1rd_always_1_guarded_0_dataw32_rf_size3)
                                                         0.000      0.239 r
  core/ic/socket_rf_def_o1_data0[6] (tta0_interconn)     0.000      0.239 r
  core/ic/rf_def_o1/data0[6] (tta0_output_socket_cons_2_1_BUSW_032_BUSW_132_DATAW_032_0)
                                                         0.000      0.239 r
  core/ic/rf_def_o1/U55/Z (C8T28SOI_LL_AND2X5_P16)       0.038 *    0.277 r
  core/ic/rf_def_o1/databus0_alt[6] (tta0_output_socket_cons_2_1_BUSW_032_BUSW_132_DATAW_032_0)
                                                         0.000      0.277 r
  core/ic/U170/Z (C8T28SOI_LL_OR2X9_P16)                 0.029 *    0.306 r
  core/ic/add_i2/databus0[6] (tta0_input_socket_cons_1_BUSW_032_DATAW32_5)
                                                         0.000      0.306 r
  core/ic/add_i2/U11/Z (C8T28SOI_LL_BFX13_P16)           0.027 *    0.333 r
  core/ic/add_i2/data[6] (tta0_input_socket_cons_1_BUSW_032_DATAW32_5)
                                                         0.000      0.333 r
  core/ic/socket_add_i2_data[6] (tta0_interconn)         0.000      0.333 r
  core/fu_CMUL/o1data[6] (fu_cmul_always_3_dataw32_busw32)
                                                         0.000      0.333 r
  core/fu_CMUL/U26/Z (C8T28SOI_LL_AO22X10_P16)           0.092 *    0.425 r
  core/fu_CMUL/fu_arch/B[6] (cmul_pipe_1_dataw32_halfw16)
                                                         0.000      0.425 r
  core/fu_CMUL/fu_arch/U1339/Z (C8T28SOIDV_LLS_XNOR2X4_P16)
                                                         0.075 *    0.500 r
  core/fu_CMUL/fu_arch/U1340/Z (C8T28SOI_LL_OAI22X3_P16)
                                                         0.039 *    0.539 f
  core/fu_CMUL/fu_arch/U398/Z (C8T28SOI_LL_IVX5_P16)     0.030 *    0.569 r
  core/fu_CMUL/fu_arch/U397/Z (C8T28SOIDV_LLS_XNOR3X2_P16)
                                                         0.085 *    0.655 r
  core/fu_CMUL/fu_arch/U687/Z (C8T28SOIDV_LLS_XNOR2X4_P16)
                                                         0.068 *    0.723 r
  core/fu_CMUL/fu_arch/U303/Z (C8T28SOIDV_LLS_XNOR2X8_P16)
                                                         0.055 *    0.779 r
  core/fu_CMUL/fu_arch/U649/Z (C8T28SOIDV_LLS_XNOR2X4_P16)
                                                         0.051 *    0.829 r
  core/fu_CMUL/fu_arch/U1310/Z (C8T28SOIDV_LLS_XNOR2X11_P16)
                                                         0.061 *    0.890 r
  core/fu_CMUL/fu_arch/U1269/Z (C8T28SOIDV_LLS_XNOR3X7_P16)
                                                         0.076 *    0.967 r
  core/fu_CMUL/fu_arch/U1599/Z (C8T28SOIDV_LLS_XNOR3X7_P16)
                                                         0.071 *    1.038 r
  core/fu_CMUL/fu_arch/U2281/CO (C8T28SOI_LL_HA1X9_P16)
                                                         0.055 *    1.093 r
  core/fu_CMUL/fu_arch/U2283/Z (C8T28SOI_LL_NOR2X8_P16)
                                                         0.012 *    1.105 f
  core/fu_CMUL/fu_arch/U2284/Z (C8T28SOI_LL_IVX10_P16)
                                                         0.017 *    1.122 r
  core/fu_CMUL/fu_arch/U2285/Z (C8T28SOIDV_LL_NAND2X9_P16)
                                                         0.018 *    1.140 f
  core/fu_CMUL/fu_arch/U1253/Z (C8T28SOI_LL_NOR2X8_P16)
                                                         0.028 *    1.168 r
  core/fu_CMUL/fu_arch/U1469/Z (C8T28SOI_LL_NAND2X8_P16)
                                                         0.021 *    1.190 f
  core/fu_CMUL/fu_arch/U2288/Z (C8T28SOI_LL_IVX10_P16)
                                                         0.024 *    1.214 r
  core/fu_CMUL/fu_arch/U1263/Z (C8T28SOI_LL_AOI21X12_P16)
                                                         0.026 *    1.240 f
  core/fu_CMUL/fu_arch/U2011/Z (C8T28SOI_LL_AOI13X17_P16)
                                                         0.028 *    1.268 r
  core/fu_CMUL/fu_arch/U502/Z (C8T28SOIDV_LL_NAND2X18_P16)
                                                         0.019 *    1.287 f
  core/fu_CMUL/fu_arch/U1449/Z (C8T28SOIDV_LL_NAND2X18_P16)
                                                         0.020 *    1.307 r
  core/fu_CMUL/fu_arch/U2447/Z (C8T28SOI_LL_AOI12X10_P16)
                                                         0.017 *    1.324 f
  core/fu_CMUL/fu_arch/U35/Z (C8T28SOI_LL_OAI12X3_P16)
                                                         0.028 *    1.352 r
  core/fu_CMUL/fu_arch/U4/Z (C8T28SOI_LL_IVX10_P16)      0.016 *    1.368 f
  core/fu_CMUL/fu_arch/clk_r_REG239_S24/D (C8T28SOIDV_LL_DFPRQX19_P16)
                                                         0.000 *    1.368 f
  data arrival time                                                 1.368

  clock clk (rise edge)                                  1.429      1.429
  clock network delay (ideal)                            0.010      1.439
  clock uncertainty                                     -0.010      1.429
  core/fu_CMUL/fu_arch/clk_r_REG239_S24/CP (C8T28SOIDV_LL_DFPRQX19_P16)
                                                         0.000      1.429 r
  library setup time                                    -0.034      1.395
  data required time                                                1.395
  --------------------------------------------------------------------------
  data required time                                                1.395
  data arrival time                                                -1.368
  --------------------------------------------------------------------------
  slack (MET)                                                       0.027


  Startpoint: core/rf_rf_def/R_8_clk_r_REG1856_S51
              (rising edge-triggered flip-flop clocked by clk)
  Endpoint: core/fu_CMUL/fu_arch/clk_r_REG600_S24
            (rising edge-triggered flip-flop clocked by clk)
  Path Group: clk
  Path Type: max

  Point                                                   Incr       Path
  --------------------------------------------------------------------------
  clock clk (rise edge)                                  0.000      0.000
  clock network delay (ideal)                            0.010      0.010
  core/rf_rf_def/R_8_clk_r_REG1856_S51/CP (C8T28SOIDV_LL_DFPRQX19_P10)
                                                         0.000      0.010 r
  core/rf_rf_def/R_8_clk_r_REG1856_S51/Q (C8T28SOIDV_LL_DFPRQX19_P10)
                                                         0.111      0.121 f
  core/rf_rf_def/U32/Z (C8T28SOIDV_LL_NOR2X39_P16)       0.055 *    0.176 r
  core/rf_rf_def/U40/Z (C8T28SOI_LL_AO222X5_P16)         0.063 *    0.239 r
  core/rf_rf_def/r1data[6] (rf_1wr_1rd_always_1_guarded_0_dataw32_rf_size3)
                                                         0.000      0.239 r
  core/ic/socket_rf_def_o1_data0[6] (tta0_interconn)     0.000      0.239 r
  core/ic/rf_def_o1/data0[6] (tta0_output_socket_cons_2_1_BUSW_032_BUSW_132_DATAW_032_0)
                                                         0.000      0.239 r
  core/ic/rf_def_o1/U55/Z (C8T28SOI_LL_AND2X5_P16)       0.038 *    0.277 r
  core/ic/rf_def_o1/databus0_alt[6] (tta0_output_socket_cons_2_1_BUSW_032_BUSW_132_DATAW_032_0)
                                                         0.000      0.277 r
  core/ic/U170/Z (C8T28SOI_LL_OR2X9_P16)                 0.029 *    0.306 r
  core/ic/add_i2/databus0[6] (tta0_input_socket_cons_1_BUSW_032_DATAW32_5)
                                                         0.000      0.306 r
  core/ic/add_i2/U11/Z (C8T28SOI_LL_BFX13_P16)           0.027 *    0.333 r
  core/ic/add_i2/data[6] (tta0_input_socket_cons_1_BUSW_032_DATAW32_5)
                                                         0.000      0.333 r
  core/ic/socket_add_i2_data[6] (tta0_interconn)         0.000      0.333 r
  core/fu_CMUL/o1data[6] (fu_cmul_always_3_dataw32_busw32)
                                                         0.000      0.333 r
  core/fu_CMUL/U26/Z (C8T28SOI_LL_AO22X10_P16)           0.092 *    0.425 r
  core/fu_CMUL/fu_arch/B[6] (cmul_pipe_1_dataw32_halfw16)
                                                         0.000      0.425 r
  core/fu_CMUL/fu_arch/U1339/Z (C8T28SOIDV_LLS_XNOR2X4_P16)
                                                         0.075 *    0.500 r
  core/fu_CMUL/fu_arch/U1340/Z (C8T28SOI_LL_OAI22X3_P16)
                                                         0.039 *    0.539 f
  core/fu_CMUL/fu_arch/U398/Z (C8T28SOI_LL_IVX5_P16)     0.030 *    0.569 r
  core/fu_CMUL/fu_arch/U397/Z (C8T28SOIDV_LLS_XNOR3X2_P16)
                                                         0.085 *    0.655 r
  core/fu_CMUL/fu_arch/U687/Z (C8T28SOIDV_LLS_XNOR2X4_P16)
                                                         0.068 *    0.723 r
  core/fu_CMUL/fu_arch/U303/Z (C8T28SOIDV_LLS_XNOR2X8_P16)
                                                         0.055 *    0.779 r
  core/fu_CMUL/fu_arch/U649/Z (C8T28SOIDV_LLS_XNOR2X4_P16)
                                                         0.051 *    0.829 r
  core/fu_CMUL/fu_arch/U1310/Z (C8T28SOIDV_LLS_XNOR2X11_P16)
                                                         0.061 *    0.890 r
  core/fu_CMUL/fu_arch/U1269/Z (C8T28SOIDV_LLS_XNOR3X7_P16)
                                                         0.076 *    0.967 r
  core/fu_CMUL/fu_arch/U1596/Z (C8T28SOI_LL_OAI12X3_P16)
                                                         0.033 *    1.000 f
  core/fu_CMUL/fu_arch/U204/Z (C8T28SOI_LL_NAND2X4_P16)
                                                         0.030 *    1.030 r
  core/fu_CMUL/fu_arch/U2282/S0 (C8T28SOI_LL_HA1X9_P16)
                                                         0.069 *    1.098 f
  core/fu_CMUL/fu_arch/U2293/Z (C8T28SOI_LL_NAND2X4_P16)
                                                         0.018 *    1.117 r
  core/fu_CMUL/fu_arch/U2294/Z (C8T28SOI_LL_IVX5_P16)    0.023 *    1.140 f
  core/fu_CMUL/fu_arch/U2297/Z (C8T28SOI_LL_AOI12X10_P16)
                                                         0.026 *    1.165 r
  core/fu_CMUL/fu_arch/U1623/Z (C8T28SOI_LL_OA21X10_P16)
                                                         0.034 *    1.199 r
  core/fu_CMUL/fu_arch/U1265/Z (C8T28SOIDV_LL_NAND2X9_P16)
                                                         0.013 *    1.212 f
  core/fu_CMUL/fu_arch/U1263/Z (C8T28SOI_LL_AOI21X12_P16)
                                                         0.027 *    1.239 r
  core/fu_CMUL/fu_arch/U2011/Z (C8T28SOI_LL_AOI13X17_P16)
                                                         0.028 *    1.267 f
  core/fu_CMUL/fu_arch/U502/Z (C8T28SOIDV_LL_NAND2X18_P16)
                                                         0.021 *    1.288 r
  core/fu_CMUL/fu_arch/U1449/Z (C8T28SOIDV_LL_NAND2X18_P16)
                                                         0.018 *    1.306 f
  core/fu_CMUL/fu_arch/U98/Z (C8T28SOI_LL_NAND2X8_P16)
                                                         0.016 *    1.322 r
  core/fu_CMUL/fu_arch/U34/Z (C8T28SOI_LL_NAND2X8_P16)
                                                         0.012 *    1.334 f
  core/fu_CMUL/fu_arch/U2460/Z (C8T28SOIDV_LLS_XNOR2X4_P16)
                                                         0.028 *    1.362 f
  core/fu_CMUL/fu_arch/clk_r_REG600_S24/D (C8T28SOIDV_LL_DFPRQX19_P16)
                                                         0.000 *    1.362 f
  data arrival time                                                 1.362

  clock clk (rise edge)                                  1.429      1.429
  clock network delay (ideal)                            0.010      1.439
  clock uncertainty                                     -0.010      1.429
  core/fu_CMUL/fu_arch/clk_r_REG600_S24/CP (C8T28SOIDV_LL_DFPRQX19_P16)
                                                         0.000      1.429 r
  library setup time                                    -0.036      1.393
  data required time                                                1.393
  --------------------------------------------------------------------------
  data required time                                                1.393
  data arrival time                                                -1.362
  --------------------------------------------------------------------------
  slack (MET)                                                       0.031


  Startpoint: core/rf_rf_def/R_8_clk_r_REG1856_S51
              (rising edge-triggered flip-flop clocked by clk)
  Endpoint: core/fu_CMUL/fu_arch/clk_r_REG599_S24
            (rising edge-triggered flip-flop clocked by clk)
  Path Group: clk
  Path Type: max

  Point                                                   Incr       Path
  --------------------------------------------------------------------------
  clock clk (rise edge)                                  0.000      0.000
  clock network delay (ideal)                            0.010      0.010
  core/rf_rf_def/R_8_clk_r_REG1856_S51/CP (C8T28SOIDV_LL_DFPRQX19_P10)
                                                         0.000      0.010 r
  core/rf_rf_def/R_8_clk_r_REG1856_S51/Q (C8T28SOIDV_LL_DFPRQX19_P10)
                                                         0.111      0.121 f
  core/rf_rf_def/U32/Z (C8T28SOIDV_LL_NOR2X39_P16)       0.055 *    0.176 r
  core/rf_rf_def/U40/Z (C8T28SOI_LL_AO222X5_P16)         0.063 *    0.239 r
  core/rf_rf_def/r1data[6] (rf_1wr_1rd_always_1_guarded_0_dataw32_rf_size3)
                                                         0.000      0.239 r
  core/ic/socket_rf_def_o1_data0[6] (tta0_interconn)     0.000      0.239 r
  core/ic/rf_def_o1/data0[6] (tta0_output_socket_cons_2_1_BUSW_032_BUSW_132_DATAW_032_0)
                                                         0.000      0.239 r
  core/ic/rf_def_o1/U55/Z (C8T28SOI_LL_AND2X5_P16)       0.038 *    0.277 r
  core/ic/rf_def_o1/databus0_alt[6] (tta0_output_socket_cons_2_1_BUSW_032_BUSW_132_DATAW_032_0)
                                                         0.000      0.277 r
  core/ic/U170/Z (C8T28SOI_LL_OR2X9_P16)                 0.029 *    0.306 r
  core/ic/add_i2/databus0[6] (tta0_input_socket_cons_1_BUSW_032_DATAW32_5)
                                                         0.000      0.306 r
  core/ic/add_i2/U11/Z (C8T28SOI_LL_BFX13_P16)           0.027 *    0.333 r
  core/ic/add_i2/data[6] (tta0_input_socket_cons_1_BUSW_032_DATAW32_5)
                                                         0.000      0.333 r
  core/ic/socket_add_i2_data[6] (tta0_interconn)         0.000      0.333 r
  core/fu_CMUL/o1data[6] (fu_cmul_always_3_dataw32_busw32)
                                                         0.000      0.333 r
  core/fu_CMUL/U26/Z (C8T28SOI_LL_AO22X10_P16)           0.092 *    0.425 r
  core/fu_CMUL/fu_arch/B[6] (cmul_pipe_1_dataw32_halfw16)
                                                         0.000      0.425 r
  core/fu_CMUL/fu_arch/U1339/Z (C8T28SOIDV_LLS_XNOR2X4_P16)
                                                         0.075 *    0.500 r
  core/fu_CMUL/fu_arch/U1340/Z (C8T28SOI_LL_OAI22X3_P16)
                                                         0.039 *    0.539 f
  core/fu_CMUL/fu_arch/U398/Z (C8T28SOI_LL_IVX5_P16)     0.030 *    0.569 r
  core/fu_CMUL/fu_arch/U397/Z (C8T28SOIDV_LLS_XNOR3X2_P16)
                                                         0.085 *    0.655 r
  core/fu_CMUL/fu_arch/U687/Z (C8T28SOIDV_LLS_XNOR2X4_P16)
                                                         0.068 *    0.723 r
  core/fu_CMUL/fu_arch/U303/Z (C8T28SOIDV_LLS_XNOR2X8_P16)
                                                         0.055 *    0.779 r
  core/fu_CMUL/fu_arch/U649/Z (C8T28SOIDV_LLS_XNOR2X4_P16)
                                                         0.051 *    0.829 r
  core/fu_CMUL/fu_arch/U1310/Z (C8T28SOIDV_LLS_XNOR2X11_P16)
                                                         0.061 *    0.890 r
  core/fu_CMUL/fu_arch/U1269/Z (C8T28SOIDV_LLS_XNOR3X7_P16)
                                                         0.076 *    0.967 r
  core/fu_CMUL/fu_arch/U1599/Z (C8T28SOIDV_LLS_XNOR3X7_P16)
                                                         0.071 *    1.038 r
  core/fu_CMUL/fu_arch/U2281/CO (C8T28SOI_LL_HA1X9_P16)
                                                         0.055 *    1.093 r
  core/fu_CMUL/fu_arch/U2283/Z (C8T28SOI_LL_NOR2X8_P16)
                                                         0.012 *    1.105 f
  core/fu_CMUL/fu_arch/U2284/Z (C8T28SOI_LL_IVX10_P16)
                                                         0.017 *    1.122 r
  core/fu_CMUL/fu_arch/U2285/Z (C8T28SOIDV_LL_NAND2X9_P16)
                                                         0.018 *    1.140 f
  core/fu_CMUL/fu_arch/U1253/Z (C8T28SOI_LL_NOR2X8_P16)
                                                         0.028 *    1.168 r
  core/fu_CMUL/fu_arch/U1469/Z (C8T28SOI_LL_NAND2X8_P16)
                                                         0.021 *    1.190 f
  core/fu_CMUL/fu_arch/U2288/Z (C8T28SOI_LL_IVX10_P16)
                                                         0.024 *    1.214 r
  core/fu_CMUL/fu_arch/U1263/Z (C8T28SOI_LL_AOI21X12_P16)
                                                         0.026 *    1.240 f
  core/fu_CMUL/fu_arch/U2011/Z (C8T28SOI_LL_AOI13X17_P16)
                                                         0.028 *    1.268 r
  core/fu_CMUL/fu_arch/U502/Z (C8T28SOIDV_LL_NAND2X18_P16)
                                                         0.019 *    1.287 f
  core/fu_CMUL/fu_arch/U1449/Z (C8T28SOIDV_LL_NAND2X18_P16)
                                                         0.020 *    1.307 r
  core/fu_CMUL/fu_arch/U2325/Z (C8T28SOI_LL_AOI12X10_P16)
                                                         0.017 *    1.325 f
  core/fu_CMUL/fu_arch/U2326/Z (C8T28SOIDV_LLS_XNOR2X4_P16)
                                                         0.029 *    1.353 f
  core/fu_CMUL/fu_arch/clk_r_REG599_S24/D (C8T28SOIDV_LL_DFPRQX10_P16)
                                                         0.000 *    1.353 f
  data arrival time                                                 1.353

  clock clk (rise edge)                                  1.429      1.429
  clock network delay (ideal)                            0.010      1.439
  clock uncertainty                                     -0.010      1.429
  core/fu_CMUL/fu_arch/clk_r_REG599_S24/CP (C8T28SOIDV_LL_DFPRQX10_P16)
                                                         0.000      1.429 r
  library setup time                                    -0.039      1.390
  data required time                                                1.390
  --------------------------------------------------------------------------
  data required time                                                1.390
  data arrival time                                                -1.353
  --------------------------------------------------------------------------
  slack (MET)                                                       0.037


  Startpoint: core/rf_rf_def/R_8_clk_r_REG1856_S51
              (rising edge-triggered flip-flop clocked by clk)
  Endpoint: core/fu_CMUL/fu_arch/clk_r_REG598_S24
            (rising edge-triggered flip-flop clocked by clk)
  Path Group: clk
  Path Type: max

  Point                                                   Incr       Path
  --------------------------------------------------------------------------
  clock clk (rise edge)                                  0.000      0.000
  clock network delay (ideal)                            0.010      0.010
  core/rf_rf_def/R_8_clk_r_REG1856_S51/CP (C8T28SOIDV_LL_DFPRQX19_P10)
                                                         0.000      0.010 r
  core/rf_rf_def/R_8_clk_r_REG1856_S51/Q (C8T28SOIDV_LL_DFPRQX19_P10)
                                                         0.111      0.121 f
  core/rf_rf_def/U32/Z (C8T28SOIDV_LL_NOR2X39_P16)       0.055 *    0.176 r
  core/rf_rf_def/U40/Z (C8T28SOI_LL_AO222X5_P16)         0.063 *    0.239 r
  core/rf_rf_def/r1data[6] (rf_1wr_1rd_always_1_guarded_0_dataw32_rf_size3)
                                                         0.000      0.239 r
  core/ic/socket_rf_def_o1_data0[6] (tta0_interconn)     0.000      0.239 r
  core/ic/rf_def_o1/data0[6] (tta0_output_socket_cons_2_1_BUSW_032_BUSW_132_DATAW_032_0)
                                                         0.000      0.239 r
  core/ic/rf_def_o1/U55/Z (C8T28SOI_LL_AND2X5_P16)       0.038 *    0.277 r
  core/ic/rf_def_o1/databus0_alt[6] (tta0_output_socket_cons_2_1_BUSW_032_BUSW_132_DATAW_032_0)
                                                         0.000      0.277 r
  core/ic/U170/Z (C8T28SOI_LL_OR2X9_P16)                 0.029 *    0.306 r
  core/ic/add_i2/databus0[6] (tta0_input_socket_cons_1_BUSW_032_DATAW32_5)
                                                         0.000      0.306 r
  core/ic/add_i2/U11/Z (C8T28SOI_LL_BFX13_P16)           0.027 *    0.333 r
  core/ic/add_i2/data[6] (tta0_input_socket_cons_1_BUSW_032_DATAW32_5)
                                                         0.000      0.333 r
  core/ic/socket_add_i2_data[6] (tta0_interconn)         0.000      0.333 r
  core/fu_CMUL/o1data[6] (fu_cmul_always_3_dataw32_busw32)
                                                         0.000      0.333 r
  core/fu_CMUL/U26/Z (C8T28SOI_LL_AO22X10_P16)           0.092 *    0.425 r
  core/fu_CMUL/fu_arch/B[6] (cmul_pipe_1_dataw32_halfw16)
                                                         0.000      0.425 r
  core/fu_CMUL/fu_arch/U1339/Z (C8T28SOIDV_LLS_XNOR2X4_P16)
                                                         0.075 *    0.500 r
  core/fu_CMUL/fu_arch/U1340/Z (C8T28SOI_LL_OAI22X3_P16)
                                                         0.039 *    0.539 f
  core/fu_CMUL/fu_arch/U398/Z (C8T28SOI_LL_IVX5_P16)     0.030 *    0.569 r
  core/fu_CMUL/fu_arch/U397/Z (C8T28SOIDV_LLS_XNOR3X2_P16)
                                                         0.085 *    0.655 r
  core/fu_CMUL/fu_arch/U687/Z (C8T28SOIDV_LLS_XNOR2X4_P16)
                                                         0.068 *    0.723 r
  core/fu_CMUL/fu_arch/U303/Z (C8T28SOIDV_LLS_XNOR2X8_P16)
                                                         0.055 *    0.779 r
  core/fu_CMUL/fu_arch/U649/Z (C8T28SOIDV_LLS_XNOR2X4_P16)
                                                         0.051 *    0.829 r
  core/fu_CMUL/fu_arch/U1310/Z (C8T28SOIDV_LLS_XNOR2X11_P16)
                                                         0.061 *    0.890 r
  core/fu_CMUL/fu_arch/U1269/Z (C8T28SOIDV_LLS_XNOR3X7_P16)
                                                         0.076 *    0.967 r
  core/fu_CMUL/fu_arch/U1596/Z (C8T28SOI_LL_OAI12X3_P16)
                                                         0.033 *    1.000 f
  core/fu_CMUL/fu_arch/U204/Z (C8T28SOI_LL_NAND2X4_P16)
                                                         0.030 *    1.030 r
  core/fu_CMUL/fu_arch/U2282/S0 (C8T28SOI_LL_HA1X9_P16)
                                                         0.069 *    1.098 f
  core/fu_CMUL/fu_arch/U2293/Z (C8T28SOI_LL_NAND2X4_P16)
                                                         0.018 *    1.117 r
  core/fu_CMUL/fu_arch/U2294/Z (C8T28SOI_LL_IVX5_P16)    0.023 *    1.140 f
  core/fu_CMUL/fu_arch/U2297/Z (C8T28SOI_LL_AOI12X10_P16)
                                                         0.026 *    1.165 r
  core/fu_CMUL/fu_arch/U1623/Z (C8T28SOI_LL_OA21X10_P16)
                                                         0.034 *    1.199 r
  core/fu_CMUL/fu_arch/U1265/Z (C8T28SOIDV_LL_NAND2X9_P16)
                                                         0.013 *    1.212 f
  core/fu_CMUL/fu_arch/U1263/Z (C8T28SOI_LL_AOI21X12_P16)
                                                         0.027 *    1.239 r
  core/fu_CMUL/fu_arch/U2011/Z (C8T28SOI_LL_AOI13X17_P16)
                                                         0.028 *    1.267 f
  core/fu_CMUL/fu_arch/U502/Z (C8T28SOIDV_LL_NAND2X18_P16)
                                                         0.021 *    1.288 r
  core/fu_CMUL/fu_arch/U1449/Z (C8T28SOIDV_LL_NAND2X18_P16)
                                                         0.018 *    1.306 f
  core/fu_CMUL/fu_arch/U431/Z (C8T28SOI_LL_AOI12X10_P16)
                                                         0.021 *    1.327 r
  core/fu_CMUL/fu_arch/U1266/Z (C8T28SOIDV_LLS_XNOR2X4_P16)
                                                         0.037 *    1.363 r
  core/fu_CMUL/fu_arch/clk_r_REG598_S24/D (C8T28SOIDV_LL_DFPRQX19_P16)
                                                         0.000 *    1.364 r
  data arrival time                                                 1.364

  clock clk (rise edge)                                  1.429      1.429
  clock network delay (ideal)                            0.010      1.439
  clock uncertainty                                     -0.010      1.429
  core/fu_CMUL/fu_arch/clk_r_REG598_S24/CP (C8T28SOIDV_LL_DFPRQX19_P16)
                                                         0.000      1.429 r
  library setup time                                    -0.027      1.402
  data required time                                                1.402
  --------------------------------------------------------------------------
  data required time                                                1.402
  data arrival time                                                -1.364
  --------------------------------------------------------------------------
  slack (MET)                                                       0.038


  Startpoint: core/rf_rf_def/R_8_clk_r_REG1856_S51
              (rising edge-triggered flip-flop clocked by clk)
  Endpoint: core/fu_CMUL/fu_arch/clk_r_REG496_S24
            (rising edge-triggered flip-flop clocked by clk)
  Path Group: clk
  Path Type: max

  Point                                                   Incr       Path
  --------------------------------------------------------------------------
  clock clk (rise edge)                                  0.000      0.000
  clock network delay (ideal)                            0.010      0.010
  core/rf_rf_def/R_8_clk_r_REG1856_S51/CP (C8T28SOIDV_LL_DFPRQX19_P10)
                                                         0.000      0.010 r
  core/rf_rf_def/R_8_clk_r_REG1856_S51/Q (C8T28SOIDV_LL_DFPRQX19_P10)
                                                         0.111      0.121 f
  core/rf_rf_def/U32/Z (C8T28SOIDV_LL_NOR2X39_P16)       0.055 *    0.176 r
  core/rf_rf_def/U40/Z (C8T28SOI_LL_AO222X5_P16)         0.063 *    0.239 r
  core/rf_rf_def/r1data[6] (rf_1wr_1rd_always_1_guarded_0_dataw32_rf_size3)
                                                         0.000      0.239 r
  core/ic/socket_rf_def_o1_data0[6] (tta0_interconn)     0.000      0.239 r
  core/ic/rf_def_o1/data0[6] (tta0_output_socket_cons_2_1_BUSW_032_BUSW_132_DATAW_032_0)
                                                         0.000      0.239 r
  core/ic/rf_def_o1/U55/Z (C8T28SOI_LL_AND2X5_P16)       0.038 *    0.277 r
  core/ic/rf_def_o1/databus0_alt[6] (tta0_output_socket_cons_2_1_BUSW_032_BUSW_132_DATAW_032_0)
                                                         0.000      0.277 r
  core/ic/U170/Z (C8T28SOI_LL_OR2X9_P16)                 0.029 *    0.306 r
  core/ic/add_i2/databus0[6] (tta0_input_socket_cons_1_BUSW_032_DATAW32_5)
                                                         0.000      0.306 r
  core/ic/add_i2/U11/Z (C8T28SOI_LL_BFX13_P16)           0.027 *    0.333 r
  core/ic/add_i2/data[6] (tta0_input_socket_cons_1_BUSW_032_DATAW32_5)
                                                         0.000      0.333 r
  core/ic/socket_add_i2_data[6] (tta0_interconn)         0.000      0.333 r
  core/fu_CMUL/o1data[6] (fu_cmul_always_3_dataw32_busw32)
                                                         0.000      0.333 r
  core/fu_CMUL/U26/Z (C8T28SOI_LL_AO22X10_P16)           0.092 *    0.425 r
  core/fu_CMUL/fu_arch/B[6] (cmul_pipe_1_dataw32_halfw16)
                                                         0.000      0.425 r
  core/fu_CMUL/fu_arch/U1339/Z (C8T28SOIDV_LLS_XNOR2X4_P16)
                                                         0.075 *    0.500 r
  core/fu_CMUL/fu_arch/U1340/Z (C8T28SOI_LL_OAI22X3_P16)
                                                         0.039 *    0.539 f
  core/fu_CMUL/fu_arch/U398/Z (C8T28SOI_LL_IVX5_P16)     0.030 *    0.569 r
  core/fu_CMUL/fu_arch/U397/Z (C8T28SOIDV_LLS_XNOR3X2_P16)
                                                         0.085 *    0.655 r
  core/fu_CMUL/fu_arch/U687/Z (C8T28SOIDV_LLS_XNOR2X4_P16)
                                                         0.068 *    0.723 r
  core/fu_CMUL/fu_arch/U303/Z (C8T28SOIDV_LLS_XNOR2X8_P16)
                                                         0.055 *    0.779 r
  core/fu_CMUL/fu_arch/U649/Z (C8T28SOIDV_LLS_XNOR2X4_P16)
                                                         0.051 *    0.829 r
  core/fu_CMUL/fu_arch/U1310/Z (C8T28SOIDV_LLS_XNOR2X11_P16)
                                                         0.061 *    0.890 r
  core/fu_CMUL/fu_arch/U1269/Z (C8T28SOIDV_LLS_XNOR3X7_P16)
                                                         0.076 *    0.967 r
  core/fu_CMUL/fu_arch/U1599/Z (C8T28SOIDV_LLS_XNOR3X7_P16)
                                                         0.071 *    1.038 r
  core/fu_CMUL/fu_arch/U2281/CO (C8T28SOI_LL_HA1X9_P16)
                                                         0.055 *    1.093 r
  core/fu_CMUL/fu_arch/U2283/Z (C8T28SOI_LL_NOR2X8_P16)
                                                         0.012 *    1.105 f
  core/fu_CMUL/fu_arch/U2284/Z (C8T28SOI_LL_IVX10_P16)
                                                         0.017 *    1.122 r
  core/fu_CMUL/fu_arch/U2285/Z (C8T28SOIDV_LL_NAND2X9_P16)
                                                         0.018 *    1.140 f
  core/fu_CMUL/fu_arch/U1253/Z (C8T28SOI_LL_NOR2X8_P16)
                                                         0.028 *    1.168 r
  core/fu_CMUL/fu_arch/U1469/Z (C8T28SOI_LL_NAND2X8_P16)
                                                         0.021 *    1.190 f
  core/fu_CMUL/fu_arch/U2288/Z (C8T28SOI_LL_IVX10_P16)
                                                         0.024 *    1.214 r
  core/fu_CMUL/fu_arch/U1263/Z (C8T28SOI_LL_AOI21X12_P16)
                                                         0.026 *    1.240 f
  core/fu_CMUL/fu_arch/U2011/Z (C8T28SOI_LL_AOI13X17_P16)
                                                         0.028 *    1.268 r
  core/fu_CMUL/fu_arch/U502/Z (C8T28SOIDV_LL_NAND2X18_P16)
                                                         0.019 *    1.287 f
  core/fu_CMUL/fu_arch/U1449/Z (C8T28SOIDV_LL_NAND2X18_P16)
                                                         0.020 *    1.307 r
  core/fu_CMUL/fu_arch/U1218/Z (C8T28SOI_LL_IVX10_P16)
                                                         0.013 *    1.320 f
  core/fu_CMUL/fu_arch/U2528/Z (C8T28SOIDV_LLS_XOR2X4_P16)
                                                         0.031 *    1.351 f
  core/fu_CMUL/fu_arch/clk_r_REG496_S24/D (C8T28SOIDV_LL_DFPRQX10_P16)
                                                         0.000 *    1.351 f
  data arrival time                                                 1.351

  clock clk (rise edge)                                  1.429      1.429
  clock network delay (ideal)                            0.010      1.439
  clock uncertainty                                     -0.010      1.429
  core/fu_CMUL/fu_arch/clk_r_REG496_S24/CP (C8T28SOIDV_LL_DFPRQX10_P16)
                                                         0.000      1.429 r
  library setup time                                    -0.038      1.391
  data required time                                                1.391
  --------------------------------------------------------------------------
  data required time                                                1.391
  data arrival time                                                -1.351
  --------------------------------------------------------------------------
  slack (MET)                                                       0.040


  Startpoint: core/rf_rf_def/R_8_clk_r_REG1856_S51
              (rising edge-triggered flip-flop clocked by clk)
  Endpoint: core/fu_CMUL/fu_arch/clk_r_REG596_S4
            (rising edge-triggered flip-flop clocked by clk)
  Path Group: clk
  Path Type: max

  Point                                                   Incr       Path
  --------------------------------------------------------------------------
  clock clk (rise edge)                                  0.000      0.000
  clock network delay (ideal)                            0.010      0.010
  core/rf_rf_def/R_8_clk_r_REG1856_S51/CP (C8T28SOIDV_LL_DFPRQX19_P10)
                                                         0.000      0.010 r
  core/rf_rf_def/R_8_clk_r_REG1856_S51/Q (C8T28SOIDV_LL_DFPRQX19_P10)
                                                         0.111      0.121 f
  core/rf_rf_def/U32/Z (C8T28SOIDV_LL_NOR2X39_P16)       0.055 *    0.176 r
  core/rf_rf_def/U31/Z (C8T28SOI_LL_AOI22X2_P16)         0.027 *    0.203 f
  core/rf_rf_def/U4/Z (C8T28SOI_LL_NAND2X4_P16)          0.026 *    0.228 r
  core/rf_rf_def/r1data[1] (rf_1wr_1rd_always_1_guarded_0_dataw32_rf_size3)
                                                         0.000      0.228 r
  core/ic/socket_rf_def_o1_data0[1] (tta0_interconn)     0.000      0.228 r
  core/ic/rf_def_o1/data0[1] (tta0_output_socket_cons_2_1_BUSW_032_BUSW_132_DATAW_032_0)
                                                         0.000      0.228 r
  core/ic/rf_def_o1/U45/Z (C8T28SOI_LL_AND2X5_P16)       0.038 *    0.267 r
  core/ic/rf_def_o1/databus0_alt[1] (tta0_output_socket_cons_2_1_BUSW_032_BUSW_132_DATAW_032_0)
                                                         0.000      0.267 r
  core/ic/U18/Z (C8T28SOIDV_LL_NAND2AX9_P16)             0.028 *    0.295 r
  core/ic/CMUL_i2/databus0[1] (tta0_input_socket_cons_1_BUSW_032_DATAW32_9)
                                                         0.000      0.295 r
  core/ic/CMUL_i2/U24/Z (C8T28SOI_LL_BFX5_P16)           0.036 *    0.330 r
  core/ic/CMUL_i2/data[1] (tta0_input_socket_cons_1_BUSW_032_DATAW32_9)
                                                         0.000      0.330 r
  core/ic/socket_CMUL_i2_data[1] (tta0_interconn)        0.000      0.330 r
  core/fu_CMUL/o1data[1] (fu_cmul_always_3_dataw32_busw32)
                                                         0.000      0.330 r
  core/fu_CMUL/U23/Z (C8T28SOI_LL_AO22X10_P16)           0.100 *    0.430 r
  core/fu_CMUL/fu_arch/B[1] (cmul_pipe_1_dataw32_halfw16)
                                                         0.000      0.430 r
  core/fu_CMUL/fu_arch/U872/Z (C8T28SOIDV_LLS_XNOR2X4_P16)
                                                         0.051 *    0.480 f
  core/fu_CMUL/fu_arch/U897/Z (C8T28SOI_LL_OAI22X3_P16)
                                                         0.088 *    0.569 r
  core/fu_CMUL/fu_arch/U927/S0 (C8T28SOIDV_LL_FA1X5_P16)
                                                         0.129 *    0.698 f
  core/fu_CMUL/fu_arch/U976/CO (C8T28SOIDV_LL_FA1X5_P16)
                                                         0.076 *    0.774 f
  core/fu_CMUL/fu_arch/U1070/CO (C8T28SOIDV_LL_FA1X5_P16)
                                                         0.078 *    0.852 f
  core/fu_CMUL/fu_arch/U1074/S0 (C8T28SOIDV_LLS1_FA1X4_P16)
                                                         0.094 *    0.946 f
  core/fu_CMUL/fu_arch/U1064/Z (C8T28SOI_LL_OR2X5_P16)
                                                         0.050 *    0.996 f
  core/fu_CMUL/fu_arch/U1082/Z (C8T28SOI_LL_AOI12X3_P16)
                                                         0.022 *    1.018 r
  core/fu_CMUL/fu_arch/U1909/Z (C8T28SOI_LL_OAI12X3_P16)
                                                         0.025 *    1.043 f
  core/fu_CMUL/fu_arch/U137/Z (C8T28SOI_LL_AOI12X3_P16)
                                                         0.034 *    1.077 r
  core/fu_CMUL/fu_arch/U1537/Z (C8T28SOI_LL_OAI12X10_P16)
                                                         0.029 *    1.105 f
  core/fu_CMUL/fu_arch/U134/Z (C8T28SOI_LL_AOI12X10_P16)
                                                         0.047 *    1.153 r
  core/fu_CMUL/fu_arch/U2387/Z (C8T28SOI_LL_OAI12X10_P16)
                                                         0.034 *    1.187 f
  core/fu_CMUL/fu_arch/U1805/Z (C8T28SOIDV_LL_NAND2X9_P16)
                                                         0.023 *    1.210 r
  core/fu_CMUL/fu_arch/U1595/Z (C8T28SOIDV_LL_NAND2X18_P16)
                                                         0.017 *    1.227 f
  core/fu_CMUL/fu_arch/U1594/Z (C8T28SOI_LL_IVX14_P16)
                                                         0.017 *    1.245 r
  core/fu_CMUL/fu_arch/U2404/Z (C8T28SOI_LL_OAI12X20_P16)
                                                         0.020 *    1.264 f
  core/fu_CMUL/fu_arch/U2574/Z (C8T28SOI_LL_NAND3ABX8_P16)
                                                         0.022 *    1.287 r
  core/fu_CMUL/fu_arch/U2575/Z (C8T28SOI_LL_NAND3ABX15_P16)
                                                         0.017 *    1.303 f
  core/fu_CMUL/fu_arch/U1712/Z (C8T28SOI_LL_AOI12X10_P16)
                                                         0.019 *    1.323 r
  core/fu_CMUL/fu_arch/U1661/Z (C8T28SOIDV_LLS_XNOR2X4_P16)
                                                         0.036 *    1.359 r
  core/fu_CMUL/fu_arch/clk_r_REG596_S4/D (C8T28SOIDV_LL_DFPRQX10_P16)
                                                         0.000 *    1.359 r
  data arrival time                                                 1.359

  clock clk (rise edge)                                  1.429      1.429
  clock network delay (ideal)                            0.010      1.439
  clock uncertainty                                     -0.010      1.429
  core/fu_CMUL/fu_arch/clk_r_REG596_S4/CP (C8T28SOIDV_LL_DFPRQX10_P16)
                                                         0.000      1.429 r
  library setup time                                    -0.027      1.402
  data required time                                                1.402
  --------------------------------------------------------------------------
  data required time                                                1.402
  data arrival time                                                -1.359
  --------------------------------------------------------------------------
  slack (MET)                                                       0.043


  Startpoint: core/rf_rf_def/R_8_clk_r_REG1856_S51
              (rising edge-triggered flip-flop clocked by clk)
  Endpoint: core/fu_CMUL/fu_arch/clk_r_REG425_S24
            (rising edge-triggered flip-flop clocked by clk)
  Path Group: clk
  Path Type: max

  Point                                                   Incr       Path
  --------------------------------------------------------------------------
  clock clk (rise edge)                                  0.000      0.000
  clock network delay (ideal)                            0.010      0.010
  core/rf_rf_def/R_8_clk_r_REG1856_S51/CP (C8T28SOIDV_LL_DFPRQX19_P10)
                                                         0.000      0.010 r
  core/rf_rf_def/R_8_clk_r_REG1856_S51/Q (C8T28SOIDV_LL_DFPRQX19_P10)
                                                         0.108      0.118 r
  core/rf_rf_def/U34/Z (C8T28SOIDV_LL_NOR2X29_P16)       0.036 *    0.154 f
  core/rf_rf_def/U36/Z (C8T28SOI_LL_AO222X5_P16)         0.083 *    0.237 f
  core/rf_rf_def/r1data[18] (rf_1wr_1rd_always_1_guarded_0_dataw32_rf_size3)
                                                         0.000      0.237 f
  core/ic/socket_rf_def_o1_data0[18] (tta0_interconn)    0.000      0.237 f
  core/ic/rf_def_o1/data0[18] (tta0_output_socket_cons_2_1_BUSW_032_BUSW_132_DATAW_032_0)
                                                         0.000      0.237 f
  core/ic/rf_def_o1/U47/Z (C8T28SOI_LL_AND2X5_P16)       0.038 *    0.274 f
  core/ic/rf_def_o1/databus0_alt[18] (tta0_output_socket_cons_2_1_BUSW_032_BUSW_132_DATAW_032_0)
                                                         0.000      0.274 f
  core/ic/U163/Z (C8T28SOI_LL_OR2X9_P16)                 0.039 *    0.314 f
  core/ic/CMUL_i2/databus0[18] (tta0_input_socket_cons_1_BUSW_032_DATAW32_9)
                                                         0.000      0.314 f
  core/ic/CMUL_i2/U20/Z (C8T28SOI_LL_CNBFX8_P4)          0.025 *    0.338 f
  core/ic/CMUL_i2/data[18] (tta0_input_socket_cons_1_BUSW_032_DATAW32_9)
                                                         0.000      0.338 f
  core/ic/socket_CMUL_i2_data[18] (tta0_interconn)       0.000      0.338 f
  core/fu_CMUL/o1data[18] (fu_cmul_always_3_dataw32_busw32)
                                                         0.000      0.338 f
  core/fu_CMUL/U25/Z (C8T28SOI_LL_AO22X10_P16)           0.092 *    0.431 f
  core/fu_CMUL/fu_arch/B[18] (cmul_pipe_1_dataw32_halfw16)
                                                         0.000      0.431 f
  core/fu_CMUL/fu_arch/U2022/Z (C8T28SOIDV_LLS_XNOR2X4_P16)
                                                         0.064 *    0.495 f
  core/fu_CMUL/fu_arch/U2023/Z (C8T28SOI_LL_OAI22X3_P16)
                                                         0.062 *    0.557 r
  core/fu_CMUL/fu_arch/U2033/S0 (C8T28SOIDV_LL_FA1X5_P16)
                                                         0.108 *    0.665 f
  core/fu_CMUL/fu_arch/U2071/S0 (C8T28SOIDV_LL_FA1X5_P16)
                                                         0.102 *    0.767 r
  core/fu_CMUL/fu_arch/U2132/S0 (C8T28SOIDV_LL_FA1X5_P16)
                                                         0.082 *    0.848 f
  core/fu_CMUL/fu_arch/U2133/Z (C8T28SOI_LL_NOR2X4_P16)
                                                         0.033 *    0.881 r
  core/fu_CMUL/fu_arch/U2140/Z (C8T28SOI_LL_OAI12X3_P16)
                                                         0.026 *    0.907 f
  core/fu_CMUL/fu_arch/U2141/Z (C8T28SOI_LL_AOI12X3_P16)
                                                         0.033 *    0.939 r
  core/fu_CMUL/fu_arch/U2143/Z (C8T28SOI_LL_OAI12X3_P16)
                                                         0.025 *    0.964 f
  core/fu_CMUL/fu_arch/U2146/Z (C8T28SOI_LL_AOI12X3_P16)
                                                         0.025 *    0.989 r
  core/fu_CMUL/fu_arch/U2164/Z (C8T28SOI_LL_OAI12X3_P16)
                                                         0.026 *    1.015 f
  core/fu_CMUL/fu_arch/U2167/Z (C8T28SOI_LL_AOI12X3_P16)
                                                         0.039 *    1.054 r
  core/fu_CMUL/fu_arch/U2173/Z (C8T28SOI_LL_OAI21X7_P16)
                                                         0.033 *    1.087 f
  core/fu_CMUL/fu_arch/U2187/Z (C8T28SOI_LL_AOI12X10_P16)
                                                         0.037 *    1.124 r
  core/fu_CMUL/fu_arch/U1395/Z (C8T28SOI_LL_IVX10_P16)
                                                         0.018 *    1.142 f
  core/fu_CMUL/fu_arch/U506/Z (C8T28SOI_LL_NAND3X7_P16)
                                                         0.016 *    1.158 r
  core/fu_CMUL/fu_arch/U2191/Z (C8T28SOIDV_LL_NAND2X9_P16)
                                                         0.019 *    1.177 f
  core/fu_CMUL/fu_arch/U1358/Z (C8T28SOI_LL_AOI12X10_P16)
                                                         0.025 *    1.202 r
  core/fu_CMUL/fu_arch/U1470/Z (C8T28SOI_LL_OAI12X10_P16)
                                                         0.020 *    1.222 f
  core/fu_CMUL/fu_arch/U2202/Z (C8T28SOIDV_LL_NAND2AX9_P16)
                                                         0.022 *    1.244 r
  core/fu_CMUL/fu_arch/U2203/Z (C8T28SOIDV_LL_NAND2X18_P16)
                                                         0.015 *    1.259 f
  core/fu_CMUL/fu_arch/U1490/Z (C8T28SOI_LL_AOI12X10_P16)
                                                         0.021 *    1.280 r
  core/fu_CMUL/fu_arch/U2061/Z (C8T28SOI_LL_OAI12X10_P16)
                                                         0.022 *    1.302 f
  core/fu_CMUL/fu_arch/U2488/Z (C8T28SOIDV_LLS_XNOR2X4_P16)
                                                         0.038 *    1.340 f
  core/fu_CMUL/fu_arch/clk_r_REG425_S24/D (C8T28SOIDV_LL_DFPRQX10_P16)
                                                         0.000 *    1.340 f
  data arrival time                                                 1.340

  clock clk (rise edge)                                  1.429      1.429
  clock network delay (ideal)                            0.010      1.439
  clock uncertainty                                     -0.010      1.429
  core/fu_CMUL/fu_arch/clk_r_REG425_S24/CP (C8T28SOIDV_LL_DFPRQX10_P16)
                                                         0.000      1.429 r
  library setup time                                    -0.039      1.390
  data required time                                                1.390
  --------------------------------------------------------------------------
  data required time                                                1.390
  data arrival time                                                -1.340
  --------------------------------------------------------------------------
  slack (MET)                                                       0.050


  Startpoint: core/rf_rf_def/R_8_clk_r_REG1856_S51
              (rising edge-triggered flip-flop clocked by clk)
  Endpoint: core/fu_CMUL/fu_arch/clk_r_REG424_S24
            (rising edge-triggered flip-flop clocked by clk)
  Path Group: clk
  Path Type: max

  Point                                                   Incr       Path
  --------------------------------------------------------------------------
  clock clk (rise edge)                                  0.000      0.000
  clock network delay (ideal)                            0.010      0.010
  core/rf_rf_def/R_8_clk_r_REG1856_S51/CP (C8T28SOIDV_LL_DFPRQX19_P10)
                                                         0.000      0.010 r
  core/rf_rf_def/R_8_clk_r_REG1856_S51/Q (C8T28SOIDV_LL_DFPRQX19_P10)
                                                         0.108      0.118 r
  core/rf_rf_def/U34/Z (C8T28SOIDV_LL_NOR2X29_P16)       0.036 *    0.154 f
  core/rf_rf_def/U36/Z (C8T28SOI_LL_AO222X5_P16)         0.083 *    0.237 f
  core/rf_rf_def/r1data[18] (rf_1wr_1rd_always_1_guarded_0_dataw32_rf_size3)
                                                         0.000      0.237 f
  core/ic/socket_rf_def_o1_data0[18] (tta0_interconn)    0.000      0.237 f
  core/ic/rf_def_o1/data0[18] (tta0_output_socket_cons_2_1_BUSW_032_BUSW_132_DATAW_032_0)
                                                         0.000      0.237 f
  core/ic/rf_def_o1/U47/Z (C8T28SOI_LL_AND2X5_P16)       0.038 *    0.274 f
  core/ic/rf_def_o1/databus0_alt[18] (tta0_output_socket_cons_2_1_BUSW_032_BUSW_132_DATAW_032_0)
                                                         0.000      0.274 f
  core/ic/U163/Z (C8T28SOI_LL_OR2X9_P16)                 0.039 *    0.314 f
  core/ic/CMUL_i2/databus0[18] (tta0_input_socket_cons_1_BUSW_032_DATAW32_9)
                                                         0.000      0.314 f
  core/ic/CMUL_i2/U20/Z (C8T28SOI_LL_CNBFX8_P4)          0.025 *    0.338 f
  core/ic/CMUL_i2/data[18] (tta0_input_socket_cons_1_BUSW_032_DATAW32_9)
                                                         0.000      0.338 f
  core/ic/socket_CMUL_i2_data[18] (tta0_interconn)       0.000      0.338 f
  core/fu_CMUL/o1data[18] (fu_cmul_always_3_dataw32_busw32)
                                                         0.000      0.338 f
  core/fu_CMUL/U25/Z (C8T28SOI_LL_AO22X10_P16)           0.092 *    0.431 f
  core/fu_CMUL/fu_arch/B[18] (cmul_pipe_1_dataw32_halfw16)
                                                         0.000      0.431 f
  core/fu_CMUL/fu_arch/U2022/Z (C8T28SOIDV_LLS_XNOR2X4_P16)
                                                         0.064 *    0.495 f
  core/fu_CMUL/fu_arch/U2023/Z (C8T28SOI_LL_OAI22X3_P16)
                                                         0.062 *    0.557 r
  core/fu_CMUL/fu_arch/U2033/S0 (C8T28SOIDV_LL_FA1X5_P16)
                                                         0.108 *    0.665 f
  core/fu_CMUL/fu_arch/U2071/S0 (C8T28SOIDV_LL_FA1X5_P16)
                                                         0.102 *    0.767 r
  core/fu_CMUL/fu_arch/U2132/S0 (C8T28SOIDV_LL_FA1X5_P16)
                                                         0.082 *    0.848 f
  core/fu_CMUL/fu_arch/U2133/Z (C8T28SOI_LL_NOR2X4_P16)
                                                         0.033 *    0.881 r
  core/fu_CMUL/fu_arch/U2140/Z (C8T28SOI_LL_OAI12X3_P16)
                                                         0.026 *    0.907 f
  core/fu_CMUL/fu_arch/U2141/Z (C8T28SOI_LL_AOI12X3_P16)
                                                         0.033 *    0.939 r
  core/fu_CMUL/fu_arch/U2143/Z (C8T28SOI_LL_OAI12X3_P16)
                                                         0.025 *    0.964 f
  core/fu_CMUL/fu_arch/U2146/Z (C8T28SOI_LL_AOI12X3_P16)
                                                         0.025 *    0.989 r
  core/fu_CMUL/fu_arch/U2164/Z (C8T28SOI_LL_OAI12X3_P16)
                                                         0.026 *    1.015 f
  core/fu_CMUL/fu_arch/U2167/Z (C8T28SOI_LL_AOI12X3_P16)
                                                         0.039 *    1.054 r
  core/fu_CMUL/fu_arch/U2173/Z (C8T28SOI_LL_OAI21X7_P16)
                                                         0.033 *    1.087 f
  core/fu_CMUL/fu_arch/U2187/Z (C8T28SOI_LL_AOI12X10_P16)
                                                         0.037 *    1.124 r
  core/fu_CMUL/fu_arch/U1395/Z (C8T28SOI_LL_IVX10_P16)
                                                         0.018 *    1.142 f
  core/fu_CMUL/fu_arch/U506/Z (C8T28SOI_LL_NAND3X7_P16)
                                                         0.016 *    1.158 r
  core/fu_CMUL/fu_arch/U2191/Z (C8T28SOIDV_LL_NAND2X9_P16)
                                                         0.019 *    1.177 f
  core/fu_CMUL/fu_arch/U1358/Z (C8T28SOI_LL_AOI12X10_P16)
                                                         0.025 *    1.202 r
  core/fu_CMUL/fu_arch/U1470/Z (C8T28SOI_LL_OAI12X10_P16)
                                                         0.020 *    1.222 f
  core/fu_CMUL/fu_arch/U2202/Z (C8T28SOIDV_LL_NAND2AX9_P16)
                                                         0.022 *    1.244 r
  core/fu_CMUL/fu_arch/U2203/Z (C8T28SOIDV_LL_NAND2X18_P16)
                                                         0.015 *    1.259 f
  core/fu_CMUL/fu_arch/U1490/Z (C8T28SOI_LL_AOI12X10_P16)
                                                         0.021 *    1.280 r
  core/fu_CMUL/fu_arch/U2061/Z (C8T28SOI_LL_OAI12X10_P16)
                                                         0.022 *    1.302 f
  core/fu_CMUL/fu_arch/U1604/Z (C8T28SOIDV_LL_NAND2AX9_P16)
                                                         0.022 *    1.324 r
  core/fu_CMUL/fu_arch/U1603/Z (C8T28SOIDV_LL_NAND2AX9_P16)
                                                         0.013 *    1.337 f
  core/fu_CMUL/fu_arch/U1386/Z (C8T28SOI_LL_AOI12X10_P16)
                                                         0.016 *    1.354 r
  core/fu_CMUL/fu_arch/clk_r_REG424_S24/D (C8T28SOIDV_LL_DFPRQX19_P16)
                                                         0.000 *    1.354 r
  data arrival time                                                 1.354

  clock clk (rise edge)                                  1.429      1.429
  clock network delay (ideal)                            0.010      1.439
  clock uncertainty                                     -0.010      1.429
  core/fu_CMUL/fu_arch/clk_r_REG424_S24/CP (C8T28SOIDV_LL_DFPRQX19_P16)
                                                         0.000      1.429 r
  library setup time                                    -0.025      1.404
  data required time                                                1.404
  --------------------------------------------------------------------------
  data required time                                                1.404
  data arrival time                                                -1.354
  --------------------------------------------------------------------------
  slack (MET)                                                       0.050


  Startpoint: core/rf_rf_def/R_8_clk_r_REG1856_S51
              (rising edge-triggered flip-flop clocked by clk)
  Endpoint: core/fu_CMUL/fu_arch/clk_r_REG96_S24
            (rising edge-triggered flip-flop clocked by clk)
  Path Group: clk
  Path Type: max

  Point                                                   Incr       Path
  --------------------------------------------------------------------------
  clock clk (rise edge)                                  0.000      0.000
  clock network delay (ideal)                            0.010      0.010
  core/rf_rf_def/R_8_clk_r_REG1856_S51/CP (C8T28SOIDV_LL_DFPRQX19_P10)
                                                         0.000      0.010 r
  core/rf_rf_def/R_8_clk_r_REG1856_S51/Q (C8T28SOIDV_LL_DFPRQX19_P10)
                                                         0.111      0.121 f
  core/rf_rf_def/U32/Z (C8T28SOIDV_LL_NOR2X39_P16)       0.055 *    0.176 r
  core/rf_rf_def/U31/Z (C8T28SOI_LL_AOI22X2_P16)         0.027 *    0.203 f
  core/rf_rf_def/U4/Z (C8T28SOI_LL_NAND2X4_P16)          0.026 *    0.228 r
  core/rf_rf_def/r1data[1] (rf_1wr_1rd_always_1_guarded_0_dataw32_rf_size3)
                                                         0.000      0.228 r
  core/ic/socket_rf_def_o1_data0[1] (tta0_interconn)     0.000      0.228 r
  core/ic/rf_def_o1/data0[1] (tta0_output_socket_cons_2_1_BUSW_032_BUSW_132_DATAW_032_0)
                                                         0.000      0.228 r
  core/ic/rf_def_o1/U45/Z (C8T28SOI_LL_AND2X5_P16)       0.038 *    0.267 r
  core/ic/rf_def_o1/databus0_alt[1] (tta0_output_socket_cons_2_1_BUSW_032_BUSW_132_DATAW_032_0)
                                                         0.000      0.267 r
  core/ic/U18/Z (C8T28SOIDV_LL_NAND2AX9_P16)             0.028 *    0.295 r
  core/ic/CMUL_i2/databus0[1] (tta0_input_socket_cons_1_BUSW_032_DATAW32_9)
                                                         0.000      0.295 r
  core/ic/CMUL_i2/U24/Z (C8T28SOI_LL_BFX5_P16)           0.036 *    0.330 r
  core/ic/CMUL_i2/data[1] (tta0_input_socket_cons_1_BUSW_032_DATAW32_9)
                                                         0.000      0.330 r
  core/ic/socket_CMUL_i2_data[1] (tta0_interconn)        0.000      0.330 r
  core/fu_CMUL/o1data[1] (fu_cmul_always_3_dataw32_busw32)
                                                         0.000      0.330 r
  core/fu_CMUL/U23/Z (C8T28SOI_LL_AO22X10_P16)           0.100 *    0.430 r
  core/fu_CMUL/fu_arch/B[1] (cmul_pipe_1_dataw32_halfw16)
                                                         0.000      0.430 r
  core/fu_CMUL/fu_arch/U872/Z (C8T28SOIDV_LLS_XNOR2X4_P16)
                                                         0.051 *    0.480 f
  core/fu_CMUL/fu_arch/U897/Z (C8T28SOI_LL_OAI22X3_P16)
                                                         0.088 *    0.569 r
  core/fu_CMUL/fu_arch/U927/S0 (C8T28SOIDV_LL_FA1X5_P16)
                                                         0.129 *    0.698 f
  core/fu_CMUL/fu_arch/U976/CO (C8T28SOIDV_LL_FA1X5_P16)
                                                         0.076 *    0.774 f
  core/fu_CMUL/fu_arch/U1070/CO (C8T28SOIDV_LL_FA1X5_P16)
                                                         0.078 *    0.852 f
  core/fu_CMUL/fu_arch/U1074/S0 (C8T28SOIDV_LLS1_FA1X4_P16)
                                                         0.094 *    0.946 f
  core/fu_CMUL/fu_arch/U1064/Z (C8T28SOI_LL_OR2X5_P16)
                                                         0.050 *    0.996 f
  core/fu_CMUL/fu_arch/U1082/Z (C8T28SOI_LL_AOI12X3_P16)
                                                         0.022 *    1.018 r
  core/fu_CMUL/fu_arch/U1909/Z (C8T28SOI_LL_OAI12X3_P16)
                                                         0.025 *    1.043 f
  core/fu_CMUL/fu_arch/U137/Z (C8T28SOI_LL_AOI12X3_P16)
                                                         0.034 *    1.077 r
  core/fu_CMUL/fu_arch/U1537/Z (C8T28SOI_LL_OAI12X10_P16)
                                                         0.029 *    1.105 f
  core/fu_CMUL/fu_arch/U134/Z (C8T28SOI_LL_AOI12X10_P16)
                                                         0.047 *    1.153 r
  core/fu_CMUL/fu_arch/U2387/Z (C8T28SOI_LL_OAI12X10_P16)
                                                         0.034 *    1.187 f
  core/fu_CMUL/fu_arch/U1805/Z (C8T28SOIDV_LL_NAND2X9_P16)
                                                         0.023 *    1.210 r
  core/fu_CMUL/fu_arch/U1595/Z (C8T28SOIDV_LL_NAND2X18_P16)
                                                         0.017 *    1.227 f
  core/fu_CMUL/fu_arch/U121/Z (C8T28SOI_LL_AOI21X9_P16)
                                                         0.028 *    1.255 r
  core/fu_CMUL/fu_arch/U2587/Z (C8T28SOI_LL_OAI21X7_P16)
                                                         0.024 *    1.279 f
  core/fu_CMUL/fu_arch/U69/Z (C8T28SOI_LL_AOI12X3_P16)
                                                         0.029 *    1.308 r
  core/fu_CMUL/fu_arch/U418/Z (C8T28SOIDV_LLS_XNOR2X4_P16)
                                                         0.041 *    1.349 r
  core/fu_CMUL/fu_arch/clk_r_REG96_S24/D (C8T28SOIDV_LL_DFPRQX10_P16)
                                                         0.000 *    1.349 r
  data arrival time                                                 1.349

  clock clk (rise edge)                                  1.429      1.429
  clock network delay (ideal)                            0.010      1.439
  clock uncertainty                                     -0.010      1.429
  core/fu_CMUL/fu_arch/clk_r_REG96_S24/CP (C8T28SOIDV_LL_DFPRQX10_P16)
                                                         0.000      1.429 r
  library setup time                                    -0.027      1.402
  data required time                                                1.402
  --------------------------------------------------------------------------
  data required time                                                1.402
  data arrival time                                                -1.349
  --------------------------------------------------------------------------
  slack (MET)                                                       0.052


  Startpoint: core/fu_CADD1/fu_arch/inst_cadd_reg/clk_r_REG2184_S1
              (rising edge-triggered flip-flop clocked by clk)
  Endpoint: datamem/scheduler/d_b_conv/clk_r_REG343_S19
            (rising edge-triggered flip-flop clocked by clk)
  Path Group: clk
  Path Type: max

  Point                                                   Incr       Path
  --------------------------------------------------------------------------
  clock clk (rise edge)                                  0.000      0.000
  clock network delay (ideal)                            0.010      0.010
  core/fu_CADD1/fu_arch/inst_cadd_reg/clk_r_REG2184_S1/CP (C8T28SOIDV_LL_DFPRQX10_P16)
                                                         0.000      0.010 r
  core/fu_CADD1/fu_arch/inst_cadd_reg/clk_r_REG2184_S1/Q (C8T28SOIDV_LL_DFPRQX10_P16)
                                                         0.085      0.095 f
  core/fu_CADD1/fu_arch/inst_cadd_reg/opc_o[1] (cadd_reg_dataw32)
                                                         0.000      0.095 f
  core/fu_CADD1/fu_arch/inst_cadd_arith/opc_i[1] (cadd_arith_dataw32_halfw16)
                                                         0.000      0.095 f
  core/fu_CADD1/fu_arch/inst_cadd_arith/U1057/Z (C8T28SOI_LL_BFX29_P16)
                                                         0.049 *    0.144 f
  core/fu_CADD1/fu_arch/inst_cadd_arith/U12/Z (C8T28SOI_LL_NOR3X29_P16)
                                                         0.079 *    0.223 r
  core/fu_CADD1/fu_arch/inst_cadd_arith/U13/Z (C8T28SOI_LL_OR2X9_P16)
                                                         0.076 *    0.299 r
  core/fu_CADD1/fu_arch/inst_cadd_arith/U546/Z (C8T28SOI_LL_BFX19_P16)
                                                         0.041 *    0.340 r
  core/fu_CADD1/fu_arch/inst_cadd_arith/U50/Z (C8T28SOI_LL_IVX19_P16)
                                                         0.019 *    0.360 f
  core/fu_CADD1/fu_arch/inst_cadd_arith/U80/Z (C8T28SOI_LL_NAND3X27_P16)
                                                         0.039 *    0.399 r
  core/fu_CADD1/fu_arch/inst_cadd_arith/U659/Z (C8T28SOIDV_LLS_XOR2X4_P16)
                                                         0.063 *    0.461 r
  core/fu_CADD1/fu_arch/inst_cadd_arith/U670/S0 (C8T28SOI_LL_HA1X5_P16)
                                                         0.090 *    0.551 f
  core/fu_CADD1/fu_arch/inst_cadd_arith/U671/Z (C8T28SOI_LL_NOR2X4_P16)
                                                         0.040 *    0.591 r
  core/fu_CADD1/fu_arch/inst_cadd_arith/U812/Z (C8T28SOI_LL_IVX3_P16)
                                                         0.026 *    0.617 f
  core/fu_CADD1/fu_arch/inst_cadd_arith/U813/Z (C8T28SOI_LL_NAND2X4_P16)
                                                         0.020 *    0.637 r
  core/fu_CADD1/fu_arch/inst_cadd_arith/U814/Z (C8T28SOIDV_LLS_XOR2X4_P16)
                                                         0.046 *    0.683 r
  core/fu_CADD1/fu_arch/inst_cadd_arith/U815/Z (C8T28SOIDV_LL_MX41X4_P16)
                                                         0.064 *    0.748 r
  core/fu_CADD1/fu_arch/inst_cadd_arith/U818/Z (C8T28SOI_LL_NAND2X4_P16)
                                                         0.023 *    0.771 f
  core/fu_CADD1/fu_arch/inst_cadd_arith/U819/Z (C8T28SOI_LL_IVX3_P16)
                                                         0.030 *    0.800 r
  core/fu_CADD1/fu_arch/inst_cadd_arith/U820/Z (C8T28SOI_LL_AOI12X10_P16)
                                                         0.022 *    0.823 f
  core/fu_CADD1/fu_arch/inst_cadd_arith/U829/Z (C8T28SOI_LL_OAI21X7_P16)
                                                         0.035 *    0.857 r
  core/fu_CADD1/fu_arch/inst_cadd_arith/U840/Z (C8T28SOI_LL_AOI12X10_P16)
                                                         0.025 *    0.883 f
  core/fu_CADD1/fu_arch/inst_cadd_arith/U794/Z (C8T28SOI_LL_OA12X5_P16)
                                                         0.045 *    0.928 f
  core/fu_CADD1/fu_arch/inst_cadd_arith/U853/Z (C8T28SOI_LL_OAI21X7_P16)
                                                         0.032 *    0.961 r
  core/fu_CADD1/fu_arch/inst_cadd_arith/U866/Z (C8T28SOI_LL_AOI12X3_P16)
                                                         0.023 *    0.983 f
  core/fu_CADD1/fu_arch/inst_cadd_arith/U867/Z (C8T28SOI_LL_IVX5_P16)
                                                         0.029 *    1.012 r
  core/fu_CADD1/fu_arch/inst_cadd_arith/U876/Z (C8T28SOI_LL_AOI12X10_P16)
                                                         0.023 *    1.035 f
  core/fu_CADD1/fu_arch/inst_cadd_arith/U1046/Z (C8T28SOI_LL_OA12X5_P16)
                                                         0.045 *    1.079 f
  core/fu_CADD1/fu_arch/inst_cadd_arith/U887/Z (C8T28SOI_LL_OAI21X7_P16)
                                                         0.031 *    1.110 r
  core/fu_CADD1/fu_arch/inst_cadd_arith/U900/Z (C8T28SOI_LL_AOI12X3_P16)
                                                         0.021 *    1.131 f
  core/fu_CADD1/fu_arch/inst_cadd_arith/U901/Z (C8T28SOI_LL_IVX5_P16)
                                                         0.028 *    1.159 r
  core/fu_CADD1/fu_arch/inst_cadd_arith/U911/Z (C8T28SOI_LL_AOI12X10_P16)
                                                         0.024 *    1.184 f
  core/fu_CADD1/fu_arch/inst_cadd_arith/U918/Z (C8T28SOI_LL_OAI21X7_P16)
                                                         0.031 *    1.214 r
  core/fu_CADD1/fu_arch/inst_cadd_arith/U938/Z (C8T28SOI_LL_AOI12X3_P16)
                                                         0.023 *    1.237 f
  core/fu_CADD1/fu_arch/inst_cadd_arith/res_o[15] (cadd_arith_dataw32_halfw16)
                                                         0.000      1.237 f
  core/fu_CADD1/fu_arch/res_o[15] (cadd_full_dataw32_halfw16)
                                                         0.000      1.237 f
  core/fu_CADD1/r1data[15] (fu_cadd_always_1_dataw32_busw32)
                                                         0.000      1.237 f
  core/ic/socket_CADD1_o1_data0[15] (tta0_interconn)     0.000      1.237 f
  core/ic/CADD1_o1/data0[15] (tta0_output_socket_cons_1_1_BUSW_032_DATAW_032_5)
                                                         0.000      1.237 f
  core/ic/CADD1_o1/U1/Z (C8T28SOI_LL_AND2X10_P16)        0.030 *    1.267 f
  core/ic/CADD1_o1/databus0_alt[15] (tta0_output_socket_cons_1_1_BUSW_032_DATAW_032_5)
                                                         0.000      1.267 f
  core/ic/lsu_w_i2/databus0[15] (tta0_input_socket_cons_1_BUSW_032_DATAW32_2)
                                                         0.000      1.267 f
  core/ic/lsu_w_i2/U28/Z (C8T28SOI_LL_BFX24_P10)         0.026 *    1.293 f
  core/ic/lsu_w_i2/data[15] (tta0_input_socket_cons_1_BUSW_032_DATAW32_2)
                                                         0.000      1.293 f
  core/ic/socket_lsu_w_i2_data[15] (tta0_interconn)      0.000      1.293 f
  core/fu_lsu_w/o1data[15] (fu_ldw_stw_always_4_dataw32_addrw16_0)
                                                         0.000      1.293 f
  core/fu_lsu_w/U8/Z (C8T28SOI_LL_AO22X10_P16)           0.045 *    1.337 f
  core/fu_lsu_w/data_out[15] (fu_ldw_stw_always_4_dataw32_addrw16_0)
                                                         0.000      1.337 f
  datamem/scheduler/lsu_d_b[15] (par_mem_scheduler_dataw32_addrw14_ports2_rd_delay1)
                                                         0.000      1.337 f
  datamem/scheduler/d_b_conv/data_in[15] (ser_par_conv_portw32_port_cnt2_1)
                                                         0.000      1.337 f
  datamem/scheduler/d_b_conv/clk_r_REG343_S19/D (C8T28SOIDV_LL_DFPRQX10_P16)
                                                         0.000 *    1.337 f
  data arrival time                                                 1.337

  clock clk (rise edge)                                  1.429      1.429
  clock network delay (ideal)                            0.010      1.439
  clock uncertainty                                     -0.010      1.429
  datamem/scheduler/d_b_conv/clk_r_REG343_S19/CP (C8T28SOIDV_LL_DFPRQX10_P16)
                                                         0.000      1.429 r
  library setup time                                    -0.038      1.391
  data required time                                                1.391
  --------------------------------------------------------------------------
  data required time                                                1.391
  data arrival time                                                -1.337
  --------------------------------------------------------------------------
  slack (MET)                                                       0.053


1
