Warning: There are 105 switching activity information conflicts. (PWR-19)
 
****************************************
Report : saif
Design : proc
Version: M-2016.12-SP5-1
Date   : Sat Jul 28 18:57:17 2018
****************************************

  

--------------------------------------------------------------------------------
              User              Default           Propagated
Object type   Annotated (%)     Activity (%)      Activity (%)       Total
--------------------------------------------------------------------------------
  
 Nets         270(65.06%)       0(0.00%)          145(34.94%)        415
 Ports        229(100.00%)      0(0.00%)          0(0.00%)           229
 Pins         240(37.74%)       0(0.00%)          396(62.26%)        636
--------------------------------------------------------------------------------
1
