Warning: There are 67 switching activity information conflicts. (PWR-19)
 
****************************************
Report : saif
Design : proc
Version: M-2016.12-SP5-1
Date   : Sat Jul 28 07:58:59 2018
****************************************

  

--------------------------------------------------------------------------------
              User              Default           Propagated
Object type   Annotated (%)     Activity (%)      Activity (%)       Total
--------------------------------------------------------------------------------
  
 Nets         287(65.53%)       0(0.00%)          151(34.47%)        438
 Ports        229(100.00%)      0(0.00%)          0(0.00%)           229
 Pins         255(36.80%)       0(0.00%)          438(63.20%)        693
--------------------------------------------------------------------------------
1
