 
****************************************
Report : area
Design : proc
Version: M-2016.12-SP5-1
Date   : Sat Jul 28 07:19:40 2018
****************************************

Library(s) Used:

    C28SOI_SC_8_CORE_LL (File: /home/software/cmos28fdsoi_25f/C28SOI_SC_8_CORE_LL/3.3-00/libs/C28SOI_SC_8_CORE_LL_tt28_0.80V_0.00V_0.00V_0.00V_25C.db)
    C28SOI_SC_8_CLK_LL (File: /home/software/cmos28fdsoi_25f/C28SOI_SC_8_CLK_LL/3.2-00/libs/C28SOI_SC_8_CLK_LL_tt28_0.80V_0.00V_0.00V_0.00V_25C.db)
    C28SOI_SC_8_COREPBP16_LL (File: /home/software/cmos28fdsoi_25f/C28SOI_SC_8_COREPBP16_LL/3.3-00/libs/C28SOI_SC_8_COREPBP16_LL_tt28_0.80V_0.00V_0.00V_0.00V_25C.db)
    C28SOI_SC_8_COREPBP10_LL (File: /home/software/cmos28fdsoi_25f/C28SOI_SC_8_COREPBP10_LL/3.3-00/libs/C28SOI_SC_8_COREPBP10_LL_tt28_0.80V_0.00V_0.00V_0.00V_25C.db)
    C28SOI_SC_8_COREPBP4_LL (File: /home/software/cmos28fdsoi_25f/C28SOI_SC_8_COREPBP4_LL/3.3-00/libs/C28SOI_SC_8_COREPBP4_LL_tt28_0.80V_0.00V_0.00V_0.00V_25C.db)
    ram_64x51 (File: /home/zadnik/designs/fft_full_lbuf/vhdl/mem/cacti_mem/ram_300k_028nm_0_80v_64x51/ram_64x51.db)
    ram_4096x32 (File: /home/zadnik/designs/fft_full_lbuf/vhdl/mem/cacti_mem/ram_300k_028nm_0_80v_4096x32/ram_4096x32.db)
    ram_2048x32 (File: /home/zadnik/designs/fft_full_lbuf/vhdl/mem/cacti_mem/ram_300k_028nm_0_80v_2048x32/ram_2048x32.db)
    ram_1024x32 (File: /home/zadnik/designs/fft_full_lbuf/vhdl/mem/cacti_mem/ram_300k_028nm_0_80v_1024x32/ram_1024x32.db)
    ram_512x32 (File: /home/zadnik/designs/fft_full_lbuf/vhdl/mem/cacti_mem/ram_300k_028nm_0_80v_512x32/ram_512x32.db)
    ram_256x32 (File: /home/zadnik/designs/fft_full_lbuf/vhdl/mem/cacti_mem/ram_300k_028nm_0_80v_256x32/ram_256x32.db)
    ram_128x32 (File: /home/zadnik/designs/fft_full_lbuf/vhdl/mem/cacti_mem/ram_300k_028nm_0_80v_128x32/ram_128x32.db)
    ram_64x32 (File: /home/zadnik/designs/fft_full_lbuf/vhdl/mem/cacti_mem/ram_300k_028nm_0_80v_64x32/ram_64x32.db)
    ram_32x32 (File: /home/zadnik/designs/fft_full_lbuf/vhdl/mem/cacti_mem/ram_300k_028nm_0_80v_32x32/ram_32x32.db)

Number of ports:                        11471
Number of nets:                         30211
Number of cells:                        19379
Number of combinational cells:          16418
Number of sequential cells:              2731
Number of macros/black boxes:              19
Number of buf/inv:                       3535
Number of references:                      74

Combinational area:               9747.827502
Buf/Inv area:                     1168.620822
Noncombinational area:            6376.115122
Macro/Black Box area:            97116.966187
Net Interconnect area:      undefined  (Wire load has zero net area)

Total cell area:                113240.908810
Total area:                 undefined

Hierarchical area distribution
------------------------------

                                  Global cell area              Local cell area
                                  --------------------  -------------------------------- 
Hierarchical cell                 Absolute     Percent  Combi-     Noncombi-  Black-
                                  Total        Total    national   national   boxes       Design
--------------------------------  -----------  -------  ---------  ---------  ----------  -----------------------------------------------------------------------------------
proc                              113240.9088    100.0   108.2560   142.0928      0.0000  proc
clk_gate_cnt_rd_reg                    1.6320      0.0     0.0000     1.6320      0.0000  SNPS_CLOCK_GATE_HIGH_fu_ag_always_2_dataw32_busw32_nexpw4_0_4_0
clk_gate_en_blocks_reg_reg             1.6320      0.0     0.0000     1.6320      0.0000  SNPS_CLOCK_GATE_HIGH_block_mem_output_sel_DATAW32_NBLOCKS9_1_2
clk_gate_tf_reg                        1.6320      0.0     0.0000     1.6320      0.0000  SNPS_CLOCK_GATE_HIGH_cmul_pipe_1_dataw32_halfw16_0
core/decomp                           23.0656      0.0    23.0656     0.0000      0.0000  tta0_decompressor
core/fu_AG                           732.6592      0.6    35.0336   115.9808      0.0000  fu_ag_always_2_dataw32_busw32_nexpw4
core/fu_AG/clk_gate_o1reg_reg_0        1.6320      0.0     0.0000     1.6320      0.0000  SNPS_CLOCK_GATE_HIGH_fu_ag_always_2_dataw32_busw32_nexpw4_5
core/fu_AG/clk_gate_o1tmp_reg_0        1.6320      0.0     0.0000     1.6320      0.0000  SNPS_CLOCK_GATE_HIGH_fu_ag_always_2_dataw32_busw32_nexpw4_3
core/fu_AG/clk_gate_o2reg_reg_0        1.6320      0.0     0.0000     1.6320      0.0000  SNPS_CLOCK_GATE_HIGH_fu_ag_always_2_dataw32_busw32_nexpw4_4
core/fu_AG/clk_gate_o2tmp_reg_0        1.6320      0.0     0.0000     1.6320      0.0000  SNPS_CLOCK_GATE_HIGH_fu_ag_always_2_dataw32_busw32_nexpw4_2
core/fu_AG/clk_gate_r1reg_reg_0        1.6320      0.0     0.0000     1.6320      0.0000  SNPS_CLOCK_GATE_HIGH_fu_ag_always_2_dataw32_busw32_nexpw4_1
core/fu_AG/clk_gate_r1reg_reg_0_0      1.6320      0.0     0.0000     1.6320      0.0000  SNPS_CLOCK_GATE_HIGH_fu_ag_always_2_dataw32_busw32_nexpw4_6
core/fu_AG/clk_gate_t1reg_reg_0        1.6320      0.0     0.0000     1.6320      0.0000  SNPS_CLOCK_GATE_HIGH_fu_ag_always_2_dataw32_busw32_nexpw4_0
core/fu_AG/fu_arch                   570.2208      0.5   287.5584   172.7744      0.0000  ag_arith_dataw32_nexpw4_idxw16_stagew3_mau_shift2
core/fu_AG/fu_arch/u0                109.8880      0.1    58.9696    50.9184      0.0000  idx_stage_split_dataw32_nexpw4_stagew3_idxw16_0
core/fu_CADD1                       1462.0544      1.3     0.4352     0.0000      0.0000  fu_cadd_always_1_dataw32_busw32
core/fu_CADD1/fu_arch               1461.6192      1.3     0.0000     0.0000      0.0000  cadd_full_dataw32_halfw16
core/fu_CADD1/fu_arch/inst_cadd_arith   1104.8640     1.0  796.0896  308.7744     0.0000  cadd_arith_dataw32_halfw16
core/fu_CADD1/fu_arch/inst_cadd_reg    356.7552     0.3   62.0160   280.0512      0.0000  cadd_reg_dataw32
core/fu_CADD1/fu_arch/inst_cadd_reg/clk_gate_a_reg_reg_0      1.6320     0.0    0.0000    1.6320     0.0000 SNPS_CLOCK_GATE_HIGH_cadd_reg_dataw32_8
core/fu_CADD1/fu_arch/inst_cadd_reg/clk_gate_a_reg_reg_0_0      1.6320     0.0    0.0000    1.6320     0.0000 SNPS_CLOCK_GATE_HIGH_cadd_reg_dataw32_9
core/fu_CADD1/fu_arch/inst_cadd_reg/clk_gate_b_reg_0      1.6320     0.0    0.0000    1.6320     0.0000 SNPS_CLOCK_GATE_HIGH_cadd_reg_dataw32_4
core/fu_CADD1/fu_arch/inst_cadd_reg/clk_gate_b_reg_0_0      1.6320     0.0    0.0000    1.6320     0.0000 SNPS_CLOCK_GATE_HIGH_cadd_reg_dataw32_0
core/fu_CADD1/fu_arch/inst_cadd_reg/clk_gate_b_reg_0_1      1.6320     0.0    0.0000    1.6320     0.0000 SNPS_CLOCK_GATE_HIGH_cadd_reg_dataw32_1
core/fu_CADD1/fu_arch/inst_cadd_reg/clk_gate_b_reg_0_2      1.6320     0.0    0.0000    1.6320     0.0000 SNPS_CLOCK_GATE_HIGH_cadd_reg_dataw32_2
core/fu_CADD1/fu_arch/inst_cadd_reg/clk_gate_b_reg_0_3      1.6320     0.0    0.0000    1.6320     0.0000 SNPS_CLOCK_GATE_HIGH_cadd_reg_dataw32_3
core/fu_CADD1/fu_arch/inst_cadd_reg/clk_gate_b_reg_reg_0      1.6320     0.0    0.0000    1.6320     0.0000 SNPS_CLOCK_GATE_HIGH_cadd_reg_dataw32_7
core/fu_CADD1/fu_arch/inst_cadd_reg/clk_gate_c_reg_reg_0      1.6320     0.0    0.0000    1.6320     0.0000 SNPS_CLOCK_GATE_HIGH_cadd_reg_dataw32_6
core/fu_CMUL                        3092.0961      2.7    28.3968   189.7472      0.0000  fu_cmul_always_3_dataw32_busw32
core/fu_CMUL/clk_gate_o1reg_reg_0      1.6320      0.0     0.0000     1.6320      0.0000  SNPS_CLOCK_GATE_HIGH_fu_cmul_always_3_dataw32_busw32_0
core/fu_CMUL/clk_gate_o1reg_reg_0_0      1.6320     0.0    0.0000     1.6320      0.0000  SNPS_CLOCK_GATE_HIGH_fu_cmul_always_3_dataw32_busw32_3
core/fu_CMUL/clk_gate_o1tmp_reg_0      1.6320      0.0     0.0000     1.6320      0.0000  SNPS_CLOCK_GATE_HIGH_fu_cmul_always_3_dataw32_busw32_2
core/fu_CMUL/clk_gate_r1reg_reg_0      1.6320      0.0     0.0000     1.6320      0.0000  SNPS_CLOCK_GATE_HIGH_fu_cmul_always_3_dataw32_busw32_1
core/fu_CMUL/fu_arch                2867.4241      2.5  2681.7025   184.0896      0.0000  cmul_pipe_1_dataw32_halfw16
core/fu_CMUL/fu_arch/clk_gate_out_reg_reg_0      1.6320     0.0    0.0000    1.6320     0.0000 SNPS_CLOCK_GATE_HIGH_cmul_pipe_1_dataw32_halfw16
core/fu_DLY11                       1358.6944      1.2     0.6528   107.7120      0.0000  fu_rotreg_always_11_dataw32_busw32
core/fu_DLY11/clk_gate_cnt_wr_reg      1.6320      0.0     0.0000     1.6320      0.0000  SNPS_CLOCK_GATE_HIGH_fu_rotreg_always_11_dataw32_busw32_0
core/fu_DLY11/clk_gate_r1reg_reg_0      1.6320     0.0     0.0000     1.6320      0.0000  SNPS_CLOCK_GATE_HIGH_fu_rotreg_always_11_dataw32_busw32_1
core/fu_DLY11/rotreg_inst           1247.0656      1.1   202.9120  1009.8816      0.0000  rotreg_dataw32_reg_count10
core/fu_DLY11/rotreg_inst/clk_gate_q_o_reg_0      1.6320     0.0    0.0000    1.6320     0.0000 SNPS_CLOCK_GATE_HIGH_rotreg_dataw32_reg_count10_1
core/fu_DLY11/rotreg_inst/clk_gate_reg_reg[0]_1      1.6320     0.0    0.0000    1.6320     0.0000 SNPS_CLOCK_GATE_HIGH_rotreg_dataw32_reg_count10_2
core/fu_DLY11/rotreg_inst/clk_gate_reg_reg[0]_1_0      1.6320     0.0    0.0000    1.6320     0.0000 SNPS_CLOCK_GATE_HIGH_rotreg_dataw32_reg_count10_0
core/fu_DLY11/rotreg_inst/clk_gate_reg_reg[1]_1      1.6320     0.0    0.0000    1.6320     0.0000 SNPS_CLOCK_GATE_HIGH_rotreg_dataw32_reg_count10_4
core/fu_DLY11/rotreg_inst/clk_gate_reg_reg[1]_1_0      1.6320     0.0    0.0000    1.6320     0.0000 SNPS_CLOCK_GATE_HIGH_rotreg_dataw32_reg_count10_22
core/fu_DLY11/rotreg_inst/clk_gate_reg_reg[2]_1      1.6320     0.0    0.0000    1.6320     0.0000 SNPS_CLOCK_GATE_HIGH_rotreg_dataw32_reg_count10_6
core/fu_DLY11/rotreg_inst/clk_gate_reg_reg[2]_1_0      1.6320     0.0    0.0000    1.6320     0.0000 SNPS_CLOCK_GATE_HIGH_rotreg_dataw32_reg_count10_23
core/fu_DLY11/rotreg_inst/clk_gate_reg_reg[3]_1      1.6320     0.0    0.0000    1.6320     0.0000 SNPS_CLOCK_GATE_HIGH_rotreg_dataw32_reg_count10_8
core/fu_DLY11/rotreg_inst/clk_gate_reg_reg[3]_1_0      1.6320     0.0    0.0000    1.6320     0.0000 SNPS_CLOCK_GATE_HIGH_rotreg_dataw32_reg_count10_24
core/fu_DLY11/rotreg_inst/clk_gate_reg_reg[4]_1      1.6320     0.0    0.0000    1.6320     0.0000 SNPS_CLOCK_GATE_HIGH_rotreg_dataw32_reg_count10_10
core/fu_DLY11/rotreg_inst/clk_gate_reg_reg[4]_1_0      1.6320     0.0    0.0000    1.6320     0.0000 SNPS_CLOCK_GATE_HIGH_rotreg_dataw32_reg_count10_25
core/fu_DLY11/rotreg_inst/clk_gate_reg_reg[5]_1      1.6320     0.0    0.0000    1.6320     0.0000 SNPS_CLOCK_GATE_HIGH_rotreg_dataw32_reg_count10_12
core/fu_DLY11/rotreg_inst/clk_gate_reg_reg[5]_1_0      1.6320     0.0    0.0000    1.6320     0.0000 SNPS_CLOCK_GATE_HIGH_rotreg_dataw32_reg_count10_26
core/fu_DLY11/rotreg_inst/clk_gate_reg_reg[6]_1      1.6320     0.0    0.0000    1.6320     0.0000 SNPS_CLOCK_GATE_HIGH_rotreg_dataw32_reg_count10_14
core/fu_DLY11/rotreg_inst/clk_gate_reg_reg[6]_1_0      1.6320     0.0    0.0000    1.6320     0.0000 SNPS_CLOCK_GATE_HIGH_rotreg_dataw32_reg_count10_27
core/fu_DLY11/rotreg_inst/clk_gate_reg_reg[7]_1      1.6320     0.0    0.0000    1.6320     0.0000 SNPS_CLOCK_GATE_HIGH_rotreg_dataw32_reg_count10_16
core/fu_DLY11/rotreg_inst/clk_gate_reg_reg[7]_1_0      1.6320     0.0    0.0000    1.6320     0.0000 SNPS_CLOCK_GATE_HIGH_rotreg_dataw32_reg_count10_28
core/fu_DLY11/rotreg_inst/clk_gate_reg_reg[8]_1      1.6320     0.0    0.0000    1.6320     0.0000 SNPS_CLOCK_GATE_HIGH_rotreg_dataw32_reg_count10_18
core/fu_DLY11/rotreg_inst/clk_gate_reg_reg[8]_1_0      1.6320     0.0    0.0000    1.6320     0.0000 SNPS_CLOCK_GATE_HIGH_rotreg_dataw32_reg_count10_29
core/fu_DLY11/rotreg_inst/clk_gate_reg_reg[9]_1      1.6320     0.0    0.0000    1.6320     0.0000 SNPS_CLOCK_GATE_HIGH_rotreg_dataw32_reg_count10_20
core/fu_DLY11/rotreg_inst/clk_gate_reg_reg[9]_1_0      1.6320     0.0    0.0000    1.6320     0.0000 SNPS_CLOCK_GATE_HIGH_rotreg_dataw32_reg_count10_30
core/fu_TFG                         3099.2769      2.7     7.1808    31.1168      0.0000  fu_tfg_always_6_dataw32_busw32_nexpw4
core/fu_TFG/clk_gate_o1tmp_reg_0       1.6320      0.0     0.0000     1.6320      0.0000  SNPS_CLOCK_GATE_HIGH_fu_tfg_always_6_dataw32_busw32_nexpw4_3
core/fu_TFG/clk_gate_r1reg_reg_1       1.6320      0.0     0.0000     1.6320      0.0000  SNPS_CLOCK_GATE_HIGH_fu_tfg_always_6_dataw32_busw32_nexpw4_1
core/fu_TFG/clk_gate_r1reg_reg_1_0      1.6320     0.0     0.0000     1.6320      0.0000  SNPS_CLOCK_GATE_HIGH_fu_tfg_always_6_dataw32_busw32_nexpw4_0
core/fu_TFG/clk_gate_t1reg_reg_1       1.6320      0.0     0.0000     1.6320      0.0000  SNPS_CLOCK_GATE_HIGH_fu_tfg_always_6_dataw32_busw32_nexpw4_4
core/fu_TFG/fu_arch                 3054.4513      2.7    28.7232    42.4320      0.0000  tfg_pipe_4_dataw32_halfw16_nexpw4_idxw16_lut_addrw12_stagew3
core/fu_TFG/fu_arch/clk_gate_opc_reg_reg[1]      1.6320     0.0    0.0000    1.6320     0.0000 SNPS_CLOCK_GATE_HIGH_tfg_pipe_4_dataw32_halfw16_nexpw4_idxw16_lut_addrw12_stagew3_0
core/fu_TFG/fu_arch/clk_gate_opc_reg_reg[1]_0      1.6320     0.0    0.0000    1.6320     0.0000 SNPS_CLOCK_GATE_HIGH_tfg_pipe_4_dataw32_halfw16_nexpw4_idxw16_lut_addrw12_stagew3_1
core/fu_TFG/fu_arch/u0                31.3344      0.0    31.3344     0.0000      0.0000  idx_stage_split_dataw32_nexpw4_stagew3_idxw16_1
core/fu_TFG/fu_arch/u1                 3.1552      0.0     3.1552     0.0000      0.0000  radix_2_stagew3_nexpw4
core/fu_TFG/fu_arch/u2                98.7904      0.1    62.0160    36.7744      0.0000  weight_idxw16_stagew3_nexpw4_lut_addrw12
core/fu_TFG/fu_arch/u3               138.8288      0.1    90.7392    48.0896      0.0000  scale_k_idxw16_stagew3
core/fu_TFG/fu_arch/u4                73.2224      0.1    27.9616    45.2608      0.0000  lut_addr_idxw16_lut_addrw12
core/fu_TFG/fu_arch/u5              2458.4449      2.2     0.0000     0.0000      0.0000  tf_lut_synch_dataw32_lut_addrw12
core/fu_TFG/fu_arch/u5/lut          2458.4449      2.2  2424.4993    33.9456      0.0000  distr_2049x32_synch_dataw32_lut_addrw12
core/fu_TFG/fu_arch/u6               176.2560      0.2    77.2480    99.0080      0.0000  twiddle_twist_dataw32_halfw16
core/fu_add                          278.2016      0.2    32.0960    99.2256      0.0000  fu_add_sub_always_1_dataw32_busw32
core/fu_add/clk_gate_o1temp_reg_0      1.6320      0.0     0.0000     1.6320      0.0000  SNPS_CLOCK_GATE_HIGH_fu_add_sub_always_1_dataw32_busw32_0
core/fu_add/clk_gate_t1reg_reg_1       1.6320      0.0     0.0000     1.6320      0.0000  SNPS_CLOCK_GATE_HIGH_fu_add_sub_always_1_dataw32_busw32_1
core/fu_add/fu_arch                  143.6160      0.1   143.6160     0.0000      0.0000  add_sub_arith_dataw32
core/fu_lsu_r                        180.4992      0.2    55.1616   118.8096      0.0000  fu_ldw_stw_always_4_dataw32_addrw16_1
core/fu_lsu_r/clk_gate_addr_reg_reg_0      1.6320     0.0    0.0000    1.6320     0.0000  SNPS_CLOCK_GATE_HIGH_fu_ldw_stw_always_4_dataw32_addrw16_1_4
core/fu_lsu_r/clk_gate_data_out_reg_reg_0      1.6320     0.0    0.0000    1.6320     0.0000 SNPS_CLOCK_GATE_HIGH_fu_ldw_stw_always_4_dataw32_addrw16_1_3
core/fu_lsu_r/clk_gate_o1shadow_reg_reg_0      1.6320     0.0    0.0000    1.6320     0.0000 SNPS_CLOCK_GATE_HIGH_fu_ldw_stw_always_4_dataw32_addrw16_1_1
core/fu_lsu_r/clk_gate_r1_reg_reg_0      1.6320     0.0    0.0000     1.6320      0.0000  SNPS_CLOCK_GATE_HIGH_fu_ldw_stw_always_4_dataw32_addrw16_1_0
core/fu_lsu_w                        158.5216      0.1    48.9600   104.6656      0.0000  fu_ldw_stw_always_4_dataw32_addrw16_0
core/fu_lsu_w/clk_gate_addr_reg_reg_0      1.6320     0.0    0.0000    1.6320     0.0000  SNPS_CLOCK_GATE_HIGH_fu_ldw_stw_always_4_dataw32_addrw16_0_4
core/fu_lsu_w/clk_gate_data_out_reg_reg_0      1.6320     0.0    0.0000    1.6320     0.0000 SNPS_CLOCK_GATE_HIGH_fu_ldw_stw_always_4_dataw32_addrw16_0_3
core/fu_lsu_w/clk_gate_o1shadow_reg_reg_0      1.6320     0.0    0.0000    1.6320     0.0000 SNPS_CLOCK_GATE_HIGH_fu_ldw_stw_always_4_dataw32_addrw16_0_1
core/fu_sh                           284.6208      0.3    27.8528    96.3968      0.0000  fu_shl_shr_always_1_dataw32_shiftw5
core/fu_sh/clk_gate_o1reg_reg_0        1.6320      0.0     0.0000     1.6320      0.0000  SNPS_CLOCK_GATE_HIGH_fu_shl_shr_always_1_dataw32_shiftw5_0
core/fu_sh/clk_gate_o1temp_reg_0       1.6320      0.0     0.0000     1.6320      0.0000  SNPS_CLOCK_GATE_HIGH_fu_shl_shr_always_1_dataw32_shiftw5_1
core/fu_sh/fu_arch                   157.1072      0.1   157.1072     0.0000      0.0000  shl_shr_arith_dataw32_shiftw5
core/ic                             1275.5712      1.1    99.4432     0.0000      0.0000  tta0_interconn
core/ic/AG_i1                          7.8336      0.0     7.8336     0.0000      0.0000  tta0_input_socket_cons_1_BUSW_032_DATAW32_13
core/ic/AG_i2                          1.7408      0.0     1.7408     0.0000      0.0000  tta0_input_socket_cons_1_BUSW_032_DATAW4_1
core/ic/AG_i3                         13.9264      0.0    13.9264     0.0000      0.0000  tta0_input_socket_cons_1_BUSW_032_DATAW32_12
core/ic/AG_o1                         68.0000      0.1    28.1792    39.8208      0.0000  tta0_output_socket_cons_2_1_BUSW_032_BUSW_132_DATAW_032_1
core/ic/CADD1_i1                      14.1440      0.0    14.1440     0.0000      0.0000  tta0_input_socket_cons_1_BUSW_032_DATAW32_11
core/ic/CADD1_i2                       0.4352      0.0     0.4352     0.0000      0.0000  tta0_input_socket_cons_1_BUSW_01_DATAW1
core/ic/CADD1_o1                      26.7648      0.0    23.7184     3.0464      0.0000  tta0_output_socket_cons_1_1_BUSW_032_DATAW_032_5
core/ic/CMUL_i1                       13.9264      0.0    13.9264     0.0000      0.0000  tta0_input_socket_cons_1_BUSW_032_DATAW32_10
core/ic/CMUL_i2                       13.9264      0.0    13.9264     0.0000      0.0000  tta0_input_socket_cons_1_BUSW_032_DATAW32_9
core/ic/CMUL_o1                      104.4480      0.1    13.9264    90.5216      0.0000  tta0_output_socket_cons_1_1_BUSW_032_DATAW_032_4
core/ic/DLY10_i1                      13.9264      0.0    13.9264     0.0000      0.0000  tta0_input_socket_cons_1_BUSW_032_DATAW32_8
core/ic/DLY10_o1                     109.0176      0.1    15.6672    93.3504      0.0000  tta0_output_socket_cons_1_1_BUSW_032_DATAW_032_3
core/ic/TFG_i1                         8.0512      0.0     8.0512     0.0000      0.0000  tta0_input_socket_cons_1_BUSW_032_DATAW32_7
core/ic/TFG_i2                         1.7408      0.0     1.7408     0.0000      0.0000  tta0_input_socket_cons_1_BUSW_032_DATAW4_0
core/ic/TFG_o1                       104.4480      0.1    13.9264    90.5216      0.0000  tta0_output_socket_cons_1_1_BUSW_032_DATAW_032_2
core/ic/TFG_o2                         6.0928      0.0     0.4352     5.6576      0.0000  tta0_output_socket_cons_1_1_BUSW_01_DATAW_01_2
core/ic/add_i1                        13.9264      0.0    13.9264     0.0000      0.0000  tta0_input_socket_cons_1_BUSW_032_DATAW32_6
core/ic/add_i2                        14.3616      0.0    14.3616     0.0000      0.0000  tta0_input_socket_cons_1_BUSW_032_DATAW32_5
core/ic/add_o1                       135.1296      0.1    41.7792    93.3504      0.0000  tta0_output_socket_cons_3_1_BUSW_032_BUSW_132_BUSW_232_DATAW_032_1
core/ic/gcu_i1                         9.6832      0.0     6.8544     2.8288      0.0000  tta0_input_socket_cons_2_BUSW_032_BUSW_132_DATAW6_1
core/ic/gcu_i2                        29.0496      0.0     6.4192    22.6304      0.0000  tta0_output_socket_cons_2_1_BUSW_08_BUSW_18_DATAW_06
core/ic/gcu_o1                        10.3360      0.0     7.5072     2.8288      0.0000  tta0_input_socket_cons_2_BUSW_032_BUSW_132_DATAW6_0
core/ic/iter                          13.9264      0.0    13.9264     0.0000      0.0000  tta0_input_socket_cons_1_BUSW_032_DATAW32_4
core/ic/lsu_r_i1                       6.0928      0.0     6.0928     0.0000      0.0000  tta0_input_socket_cons_1_BUSW_032_DATAW16_1
core/ic/lsu_r_i2                      13.9264      0.0    13.9264     0.0000      0.0000  tta0_input_socket_cons_1_BUSW_032_DATAW32_3
core/ic/lsu_r_o1                     107.7120      0.1    14.3616    93.3504      0.0000  tta0_output_socket_cons_1_1_BUSW_032_DATAW_032_1
core/ic/lsu_w_i1                       6.0928      0.0     6.0928     0.0000      0.0000  tta0_input_socket_cons_1_BUSW_032_DATAW16_0
core/ic/lsu_w_i2                      15.7760      0.0    15.7760     0.0000      0.0000  tta0_input_socket_cons_1_BUSW_032_DATAW32_2
core/ic/rf_def_i1                     13.9264      0.0    13.9264     0.0000      0.0000  tta0_input_socket_cons_1_BUSW_032_DATAW32_1
core/ic/rf_def_o1                     35.9040      0.0    30.2464     5.6576      0.0000  tta0_output_socket_cons_2_1_BUSW_032_BUSW_132_DATAW_032_0
core/ic/sh_i1                          2.2848      0.0     2.2848     0.0000      0.0000  tta0_input_socket_cons_1_BUSW_032_DATAW5
core/ic/sh_i2                         13.9264      0.0    13.9264     0.0000      0.0000  tta0_input_socket_cons_1_BUSW_032_DATAW32_0
core/ic/sh_o1                        135.7824      0.1    39.6032    96.1792      0.0000  tta0_output_socket_cons_3_1_BUSW_032_BUSW_132_BUSW_232_DATAW_032_0
core/ic/simm_socket_B1                16.3200      0.0     2.1760    14.1440      0.0000  tta0_output_socket_cons_1_1_BUSW_04_DATAW_04_4
core/ic/simm_socket_B10                7.1808      0.0     1.5232     5.6576      0.0000  tta0_output_socket_cons_1_1_BUSW_01_DATAW_01_0
core/ic/simm_socket_B2                13.0560      0.0     1.7408    11.3152      0.0000  tta0_output_socket_cons_1_1_BUSW_04_DATAW_04_3
core/ic/simm_socket_B4                16.3200      0.0     2.1760    14.1440      0.0000  tta0_output_socket_cons_1_1_BUSW_04_DATAW_04_2
core/ic/simm_socket_B5                16.3200      0.0     2.1760    14.1440      0.0000  tta0_output_socket_cons_1_1_BUSW_04_DATAW_04_1
core/ic/simm_socket_B6                16.3200      0.0     2.1760    14.1440      0.0000  tta0_output_socket_cons_1_1_BUSW_04_DATAW_04_0
core/ic/simm_socket_B8                 4.3520      0.0     1.5232     2.8288      0.0000  tta0_output_socket_cons_1_1_BUSW_01_DATAW_01_1
core/inst_decoder                     97.2672      0.1    55.9232    28.2880      0.0000  tta0_decoder
core/inst_decoder/clk_gate_fu_TFG_t_load_reg_reg      1.6320     0.0    0.0000    1.6320     0.0000 SNPS_CLOCK_GATE_HIGH_tta0_decoder_7
core/inst_decoder/clk_gate_fu_TFG_t_load_reg_reg_0      1.6320     0.0    0.0000    1.6320     0.0000 SNPS_CLOCK_GATE_HIGH_tta0_decoder_6
core/inst_decoder/clk_gate_fu_gcu_opc_reg_reg      1.6320     0.0    0.0000    1.6320     0.0000 SNPS_CLOCK_GATE_HIGH_tta0_decoder_0
core/inst_decoder/clk_gate_simm_B1_reg_reg_0      1.6320     0.0    0.0000    1.6320     0.0000 SNPS_CLOCK_GATE_HIGH_tta0_decoder_5
core/inst_decoder/clk_gate_simm_B2_reg_reg_0      1.6320     0.0    0.0000    1.6320     0.0000 SNPS_CLOCK_GATE_HIGH_tta0_decoder_4
core/inst_decoder/clk_gate_simm_B4_reg_reg_0      1.6320     0.0    0.0000    1.6320     0.0000 SNPS_CLOCK_GATE_HIGH_tta0_decoder_3
core/inst_decoder/clk_gate_simm_B5_reg_reg_0      1.6320     0.0    0.0000    1.6320     0.0000 SNPS_CLOCK_GATE_HIGH_tta0_decoder_2
core/inst_decoder/clk_gate_simm_B6_reg_reg_0      1.6320     0.0    0.0000    1.6320     0.0000 SNPS_CLOCK_GATE_HIGH_tta0_decoder_1
core/inst_fetch                      269.0624      0.2   109.3440   149.9264      0.0000  tta0_ifetch
core/inst_fetch/clk_gate_instruction_reg_reg_1      1.6320     0.0    0.0000    1.6320     0.0000 SNPS_CLOCK_GATE_HIGH_tta0_ifetch_0
core/inst_fetch/clk_gate_instruction_reg_reg_1_0      1.6320     0.0    0.0000    1.6320     0.0000 SNPS_CLOCK_GATE_HIGH_tta0_ifetch_4
core/inst_fetch/clk_gate_instruction_reg_reg_1_1      1.6320     0.0    0.0000    1.6320     0.0000 SNPS_CLOCK_GATE_HIGH_tta0_ifetch_5
core/inst_fetch/clk_gate_loop_iter_reg_reg      1.6320     0.0    0.0000    1.6320     0.0000 SNPS_CLOCK_GATE_HIGH_tta0_ifetch_1
core/inst_fetch/clk_gate_loop_iter_temp_reg_reg_0      1.6320     0.0    0.0000    1.6320     0.0000 SNPS_CLOCK_GATE_HIGH_tta0_ifetch_2
core/inst_fetch/clk_gate_return_addr_reg_reg_0      1.6320     0.0    0.0000    1.6320     0.0000 SNPS_CLOCK_GATE_HIGH_tta0_ifetch_3
core/loopbuffer                     1066.5664      0.9   389.1776   667.5968      0.0000  tta0_loopbuf_1_32_51_1_0
core/loopbuffer/clk_gate_iter_cntr_r_reg_0      1.6320     0.0    0.0000    1.6320     0.0000 SNPS_CLOCK_GATE_HIGH_tta0_loopbuf_1_32_51_1_0_5
core/loopbuffer/clk_gate_len_cntr_r_reg_1      1.6320     0.0    0.0000    1.6320     0.0000 SNPS_CLOCK_GATE_HIGH_tta0_loopbuf_1_32_51_1_0_6
core/loopbuffer/clk_gate_len_cntr_r_reg_1_0      1.6320     0.0    0.0000    1.6320     0.0000 SNPS_CLOCK_GATE_HIGH_tta0_loopbuf_1_32_51_1_0_7
core/loopbuffer/clk_gate_loop_buffer_r_reg[0]_1      1.6320     0.0    0.0000    1.6320     0.0000 SNPS_CLOCK_GATE_HIGH_tta0_loopbuf_1_32_51_1_0_1
core/loopbuffer/clk_gate_loop_buffer_r_reg[0]_1_0      1.6320     0.0    0.0000    1.6320     0.0000 SNPS_CLOCK_GATE_HIGH_tta0_loopbuf_1_32_51_1_0_4
core/loopbuffer/clk_gate_loop_len_r_reg_0      1.6320     0.0    0.0000    1.6320     0.0000 SNPS_CLOCK_GATE_HIGH_tta0_loopbuf_1_32_51_1_0_3
core/rf_rf_def                       341.5232      0.3    50.7008   285.9264      0.0000  rf_1wr_1rd_always_1_guarded_0_dataw32_rf_size3
core/rf_rf_def/clk_gate_reg_reg[0]_0      1.6320     0.0    0.0000    1.6320      0.0000  SNPS_CLOCK_GATE_HIGH_rf_1wr_1rd_always_1_guarded_0_dataw32_rf_size3_1
core/rf_rf_def/clk_gate_reg_reg[1]_0      1.6320     0.0    0.0000    1.6320      0.0000  SNPS_CLOCK_GATE_HIGH_rf_1wr_1rd_always_1_guarded_0_dataw32_rf_size3_2
core/rf_rf_def/clk_gate_reg_reg[2]_0      1.6320     0.0    0.0000    1.6320      0.0000  SNPS_CLOCK_GATE_HIGH_rf_1wr_1rd_always_1_guarded_0_dataw32_rf_size3_0
datamem/dmem_1                     48399.6343     42.7     2.6112     0.0000      0.0000  synch_singleport_mem_wrapper_DATAW32_ADDRW13_1
datamem/dmem_1/cacti_mem_0           263.1010      0.2     0.0000     0.0000    263.1010  cacti_mem_wrapper_DATAW32_ADDRW5_3
datamem/dmem_1/cacti_mem_x_1         263.1010      0.2     0.0000     0.0000    263.1010  cacti_mem_wrapper_DATAW32_ADDRW5_2
datamem/dmem_1/cacti_mem_x_2         460.6210      0.4     0.0000     0.0000    460.6210  cacti_mem_wrapper_DATAW32_ADDRW6_1
datamem/dmem_1/cacti_mem_x_3         811.9000      0.7     0.0000     0.0000    811.9000  cacti_mem_wrapper_DATAW32_ADDRW7_1
datamem/dmem_1/cacti_mem_x_4        1484.3600      1.3     0.0000     0.0000   1484.3600  cacti_mem_wrapper_DATAW32_ADDRW8_1
datamem/dmem_1/cacti_mem_x_5        3121.2800      2.8     0.0000     0.0000   3121.2800  cacti_mem_wrapper_DATAW32_ADDRW9_1
datamem/dmem_1/cacti_mem_x_6        6131.2402      5.4     0.0000     0.0000   6131.2402  cacti_mem_wrapper_DATAW32_ADDRW10_1
datamem/dmem_1/cacti_mem_x_7       11089.7998      9.8     0.0000     0.0000  11089.7998  cacti_mem_wrapper_DATAW32_ADDRW11_1
datamem/dmem_1/cacti_mem_x_8       24578.5000     21.7     0.0000     0.0000  24578.5000  cacti_mem_wrapper_DATAW32_ADDRW12_1
datamem/dmem_1/en_wr_arbiter          44.6080      0.0    44.6080     0.0000      0.0000  block_en_wr_arbiter_ADDRW13_NBLOCKS9_1
datamem/dmem_1/mem_output_sel        148.5120      0.1   123.0528    25.4592      0.0000  block_mem_output_sel_DATAW32_NBLOCKS9_1
datamem/dmem_2                     48402.0279     42.7     4.6784     0.0000      0.0000  synch_singleport_mem_wrapper_DATAW32_ADDRW13_0
datamem/dmem_2/cacti_mem_0           263.1010      0.2     0.0000     0.0000    263.1010  cacti_mem_wrapper_DATAW32_ADDRW5_1
datamem/dmem_2/cacti_mem_x_1         263.1010      0.2     0.0000     0.0000    263.1010  cacti_mem_wrapper_DATAW32_ADDRW5_0
datamem/dmem_2/cacti_mem_x_2         460.6210      0.4     0.0000     0.0000    460.6210  cacti_mem_wrapper_DATAW32_ADDRW6_0
datamem/dmem_2/cacti_mem_x_3         811.9000      0.7     0.0000     0.0000    811.9000  cacti_mem_wrapper_DATAW32_ADDRW7_0
datamem/dmem_2/cacti_mem_x_4        1484.3600      1.3     0.0000     0.0000   1484.3600  cacti_mem_wrapper_DATAW32_ADDRW8_0
datamem/dmem_2/cacti_mem_x_5        3121.2800      2.8     0.0000     0.0000   3121.2800  cacti_mem_wrapper_DATAW32_ADDRW9_0
datamem/dmem_2/cacti_mem_x_6        6131.2402      5.4     0.0000     0.0000   6131.2402  cacti_mem_wrapper_DATAW32_ADDRW10_0
datamem/dmem_2/cacti_mem_x_7       11089.7998      9.8     0.0000     0.0000  11089.7998  cacti_mem_wrapper_DATAW32_ADDRW11_0
datamem/dmem_2/cacti_mem_x_8       24578.5000     21.7     0.0000     0.0000  24578.5000  cacti_mem_wrapper_DATAW32_ADDRW12_0
datamem/dmem_2/en_wr_arbiter          45.4784      0.0    45.4784     0.0000      0.0000  block_en_wr_arbiter_ADDRW13_NBLOCKS9_0
datamem/dmem_2/mem_output_sel        147.9680      0.1   122.5088    25.4592      0.0000  block_mem_output_sel_DATAW32_NBLOCKS9_0
datamem/par_mem_logic_inst           980.1792      0.9     3.3728     3.0464      0.0000  par_mem_logic_PORTS2_LSU_ADDRW14_CTRLW1_DATAW32_PM_FUNC2
datamem/par_mem_logic_inst/addr_crsbar_0    291.5840     0.3  205.0880   84.8640     0.0000 addr_crsbar_PORTS2_LSU_ADDRW14_CTRLW1_PM_FUNC2
datamem/par_mem_logic_inst/addr_crsbar_0/clk_gate_addrs_latch_reg[0]      1.6320     0.0    0.0000    1.6320     0.0000 SNPS_CLOCK_GATE_HIGH_addr_crsbar_PORTS2_LSU_ADDRW14_CTRLW1_PM_FUNC2
datamem/par_mem_logic_inst/ctrl_units_0     87.2576     0.1   13.1648    5.8752     0.0000 ctrl_units_PORTS2_CTRLW1
datamem/par_mem_logic_inst/ctrl_units_0/ctrl_uniti_0     35.6864     0.0   17.0816   16.9728     0.0000 ctrl_unit_PORTS2_CTRLW1_1
datamem/par_mem_logic_inst/ctrl_units_0/ctrl_uniti_0/clk_gate_rd_mux_ctrl_latch_reg_reg      1.6320     0.0    0.0000    1.6320     0.0000 SNPS_CLOCK_GATE_HIGH_ctrl_unit_PORTS2_CTRLW1_0_1
datamem/par_mem_logic_inst/ctrl_units_0/ctrl_uniti_1     32.5312     0.0   16.7552   14.1440     0.0000 ctrl_unit_PORTS2_CTRLW1_0
datamem/par_mem_logic_inst/ctrl_units_0/ctrl_uniti_1/clk_gate_rd_mux_ctrl_latch_reg_reg      1.6320     0.0    0.0000    1.6320     0.0000 SNPS_CLOCK_GATE_HIGH_ctrl_unit_PORTS2_CTRLW1_0_0
datamem/par_mem_logic_inst/rd_crsbar_0    293.1072     0.3  103.1424  186.7008     0.0000 rd_crsbar_PORTS2_DATAW32_CTRLW1
datamem/par_mem_logic_inst/rd_crsbar_0/clk_gate_crsbar_out_latch_reg[0]_0      1.6320     0.0    0.0000    1.6320     0.0000 SNPS_CLOCK_GATE_HIGH_rd_crsbar_PORTS2_DATAW32_CTRLW1_1
datamem/par_mem_logic_inst/rd_crsbar_0/clk_gate_crsbar_out_latch_reg[1]_0      1.6320     0.0    0.0000    1.6320     0.0000 SNPS_CLOCK_GATE_HIGH_rd_crsbar_PORTS2_DATAW32_CTRLW1_0
datamem/par_mem_logic_inst/wr_crsbar_0    301.8112     0.3  117.5040  181.0432     0.0000 wr_crsbar_PORTS2_DATAW32_CTRLW1
datamem/par_mem_logic_inst/wr_crsbar_0/clk_gate_st_data_latch_reg[0]_0      1.6320     0.0    0.0000    1.6320     0.0000 SNPS_CLOCK_GATE_HIGH_wr_crsbar_PORTS2_DATAW32_CTRLW1_0
datamem/par_mem_logic_inst/wr_crsbar_0/clk_gate_st_data_latch_reg[0]_0_0      1.6320     0.0    0.0000    1.6320     0.0000 SNPS_CLOCK_GATE_HIGH_wr_crsbar_PORTS2_DATAW32_CTRLW1_1
datamem/scheduler                    774.9824      0.7   170.8160   260.2496      0.0000  par_mem_scheduler_dataw32_addrw14_ports2_rd_delay1
datamem/scheduler/addr_a_conv         16.9728      0.0    12.5120     2.8288      0.0000  ser_par_conv_portw14_port_cnt2_1
datamem/scheduler/addr_a_conv/clk_gate_inp_regs_reg[0]_0      1.6320     0.0    0.0000    1.6320     0.0000 SNPS_CLOCK_GATE_HIGH_ser_par_conv_portw14_port_cnt2_0_1
datamem/scheduler/addr_b_conv         52.3328      0.0     8.0512    42.6496      0.0000  ser_par_conv_portw14_port_cnt2_0
datamem/scheduler/addr_b_conv/clk_gate_inp_regs_reg[0]_0      1.6320     0.0    0.0000    1.6320     0.0000 SNPS_CLOCK_GATE_HIGH_ser_par_conv_portw14_port_cnt2_0_0
datamem/scheduler/d_a_conv            27.4176      0.0    22.9568     2.8288      0.0000  ser_par_conv_portw32_port_cnt2_3
datamem/scheduler/d_a_conv/clk_gate_inp_regs_reg[0]_0      1.6320     0.0    0.0000    1.6320     0.0000 SNPS_CLOCK_GATE_HIGH_ser_par_conv_portw32_port_cnt2_1_1
datamem/scheduler/d_b_conv           113.6960      0.1    15.8848    96.1792      0.0000  ser_par_conv_portw32_port_cnt2_1
datamem/scheduler/d_b_conv/clk_gate_inp_regs_reg[0]_0      1.6320     0.0    0.0000    1.6320     0.0000 SNPS_CLOCK_GATE_HIGH_ser_par_conv_portw32_port_cnt2_1_0
datamem/scheduler/par_ser_conv_inst    133.4976     0.1   31.2256    99.0080      0.0000  par_ser_conv_portw32_port_cnt2
datamem/scheduler/par_ser_conv_inst/clk_gate_inp_reg_reg_0      1.6320     0.0    0.0000    1.6320     0.0000 SNPS_CLOCK_GATE_HIGH_par_ser_conv_portw32_port_cnt2_1
datamem/scheduler/par_ser_conv_inst/clk_gate_inp_reg_reg_0_0      1.6320     0.0    0.0000    1.6320     0.0000 SNPS_CLOCK_GATE_HIGH_par_ser_conv_portw32_port_cnt2_2
instmem/cacti_mem                    709.1600      0.6     0.0000     0.0000    709.1600  cacti_mem_wrapper_DATAW51_ADDRW6
--------------------------------  -----------  -------  ---------  ---------  ----------  -----------------------------------------------------------------------------------
Total                                                   9747.8275  6376.1151  97116.9662

1
