Warning: There are 100 switching activity information conflicts. (PWR-19)
 
****************************************
Report : saif
Design : proc
Version: M-2016.12-SP5-1
Date   : Sat Jul 28 07:19:53 2018
****************************************

  

--------------------------------------------------------------------------------
              User              Default           Propagated
Object type   Annotated (%)     Activity (%)      Activity (%)       Total
--------------------------------------------------------------------------------
  
 Nets         238(57.91%)       0(0.00%)          173(42.09%)        411
 Ports        229(100.00%)      0(0.00%)          0(0.00%)           229
 Pins         221(34.37%)       0(0.00%)          422(65.63%)        643
--------------------------------------------------------------------------------
1
