Warning: There are 88 switching activity information conflicts. (PWR-19)
 
****************************************
Report : saif
Design : proc
Version: M-2016.12-SP5-1
Date   : Sun Jul 29 01:31:55 2018
****************************************

  

--------------------------------------------------------------------------------
              User              Default           Propagated
Object type   Annotated (%)     Activity (%)      Activity (%)       Total
--------------------------------------------------------------------------------
  
 Nets         276(64.94%)       0(0.00%)          149(35.06%)        425
 Ports        229(100.00%)      0(0.00%)          0(0.00%)           229
 Pins         253(39.47%)       0(0.00%)          388(60.53%)        641
--------------------------------------------------------------------------------
1
