********************************************************************************
                        Threshold Voltage Group Report                         

Vth Group                All                Blackbox           Non-blackbox
Name                    cells                cells                cells
********************************************************************************
undefined           16662 (100.00%)        118 (100.00%)      16544 (100.00%)   
********************************************************************************

Vth Group                All                Blackbox           Non-blackbox
Name                  cell area            cell area            cell area
********************************************************************************
undefined       110602.94 (100.00%)   97278.53 (100.00%)   13324.41 (100.00%)   
********************************************************************************
1
