Warning: There are 98 switching activity information conflicts. (PWR-19)
 
****************************************
Report : saif
Design : proc
Version: M-2016.12-SP5-1
Date   : Sat Jul 28 17:40:09 2018
****************************************

  

--------------------------------------------------------------------------------
              User              Default           Propagated
Object type   Annotated (%)     Activity (%)      Activity (%)       Total
--------------------------------------------------------------------------------
  
 Nets         274(65.55%)       0(0.00%)          144(34.45%)        418
 Ports        229(100.00%)      0(0.00%)          0(0.00%)           229
 Pins         247(36.70%)       0(0.00%)          426(63.30%)        673
--------------------------------------------------------------------------------
1
