Information: Propagating switching activity (high effort zero delay simulation). (PWR-6)
Warning: Invalid switching activity annotation on constant net(s) is being ignored. (PWR-421)
Warning: Design has unannotated sequential cell outputs. (PWR-415)
Warning: Design has unannotated black box outputs. (PWR-428)
 
****************************************
Report : power
        -analysis_effort high
Design : proc
Version: M-2016.12-SP5-1
Date   : Sat Jul 28 17:58:23 2018
****************************************


Library(s) Used:

    C28SOI_SC_8_COREPBP16_LL (File: /home/software/cmos28fdsoi_25f/C28SOI_SC_8_COREPBP16_LL/3.3-00/libs/C28SOI_SC_8_COREPBP16_LL_tt28_0.90V_0.00V_0.00V_0.00V_25C.db)
    C28SOI_SC_8_COREPBP10_LL (File: /home/software/cmos28fdsoi_25f/C28SOI_SC_8_COREPBP10_LL/3.3-00/libs/C28SOI_SC_8_COREPBP10_LL_tt28_0.90V_0.00V_0.00V_0.00V_25C.db)
    C28SOI_SC_8_CLK_LL (File: /home/software/cmos28fdsoi_25f/C28SOI_SC_8_CLK_LL/3.2-00/libs/C28SOI_SC_8_CLK_LL_tt28_0.90V_0.00V_0.00V_0.00V_25C.db)
    ram_64x51 (File: /home/zadnik/designs/fft_full_lbuf/vhdl/mem/cacti_mem/ram_300k_028nm_0_90v_64x51/ram_64x51.db)
    C28SOI_SC_8_COREPBP4_LL (File: /home/software/cmos28fdsoi_25f/C28SOI_SC_8_COREPBP4_LL/3.3-00/libs/C28SOI_SC_8_COREPBP4_LL_tt28_0.90V_0.00V_0.00V_0.00V_25C.db)
    ram_4096x32 (File: /home/zadnik/designs/fft_full_lbuf/vhdl/mem/cacti_mem/ram_300k_028nm_0_90v_4096x32/ram_4096x32.db)
    ram_2048x32 (File: /home/zadnik/designs/fft_full_lbuf/vhdl/mem/cacti_mem/ram_300k_028nm_0_90v_2048x32/ram_2048x32.db)
    ram_1024x32 (File: /home/zadnik/designs/fft_full_lbuf/vhdl/mem/cacti_mem/ram_300k_028nm_0_90v_1024x32/ram_1024x32.db)
    ram_512x32 (File: /home/zadnik/designs/fft_full_lbuf/vhdl/mem/cacti_mem/ram_300k_028nm_0_90v_512x32/ram_512x32.db)
    ram_256x32 (File: /home/zadnik/designs/fft_full_lbuf/vhdl/mem/cacti_mem/ram_300k_028nm_0_90v_256x32/ram_256x32.db)
    ram_128x32 (File: /home/zadnik/designs/fft_full_lbuf/vhdl/mem/cacti_mem/ram_300k_028nm_0_90v_128x32/ram_128x32.db)
    ram_64x32 (File: /home/zadnik/designs/fft_full_lbuf/vhdl/mem/cacti_mem/ram_300k_028nm_0_90v_64x32/ram_64x32.db)
    ram_32x32 (File: /home/zadnik/designs/fft_full_lbuf/vhdl/mem/cacti_mem/ram_300k_028nm_0_90v_32x32/ram_32x32.db)


Operating Conditions: tt28_0.90V_0.00V_0.00V_0.00V_25C   Library: C28SOI_SC_8_CLK_LL
Wire Load Model Mode: Inactive.


Global Operating Voltage = 0.9  
Power-specific unit information :
    Voltage Units = 1V
    Capacitance Units = 1.000000pf
    Time Units = 1ns
    Dynamic Power Units = 1mW    (derived from V,C,T units)
    Leakage Power Units = 1mW

Warning: Cannot report correlated power unless power prediction mode is set. (PWR-727)
Power Breakdown
---------------

                             Cell        Driven Net  Tot Dynamic      Cell
                             Internal    Switching   Power (mW)       Leakage
Cell                         Power (mW)  Power (mW)  (% Cell/Tot)     Power (mW)
--------------------------------------------------------------------------------
Netlist Power                   4.4326      3.0720      7.5046 (59%)    13.9278
Estimated Clock Tree Power   N/A         N/A          (N/A)           N/A
--------------------------------------------------------------------------------

                 Internal         Switching           Leakage            Total
Power Group      Power            Power               Power              Power   (   %    )  Attrs
--------------------------------------------------------------------------------------------------
io_pad             0.0000            0.0000            0.0000            0.0000  (   0.00%)
memory             0.3243        2.0122e-02           13.9255           14.2699  (  66.58%)
black_box          0.0000            0.0000            0.0000            0.0000  (   0.00%)
clock_network      0.1014            0.5089        3.0208e-04            0.6106  (   2.85%)
register           2.4765            0.1251        7.7876e-04            2.6024  (  12.14%)
sequential         0.0000            0.0000            0.0000            0.0000  (   0.00%)
combinational      1.5304            2.4178        1.1814e-03            3.9494  (  18.43%)
--------------------------------------------------------------------------------------------------
Total              4.4326 mW         3.0720 mW        13.9278 mW        21.4324 mW
1
