Warning: There are 100 switching activity information conflicts. (PWR-19)
 
****************************************
Report : saif
Design : proc
Version: M-2016.12-SP5-1
Date   : Sat Jul 28 17:58:18 2018
****************************************

  

--------------------------------------------------------------------------------
              User              Default           Propagated
Object type   Annotated (%)     Activity (%)      Activity (%)       Total
--------------------------------------------------------------------------------
  
 Nets         270(67.16%)       0(0.00%)          132(32.84%)        402
 Ports        229(100.00%)      0(0.00%)          0(0.00%)           229
 Pins         240(39.47%)       0(0.00%)          368(60.53%)        608
--------------------------------------------------------------------------------
1
