********************************************************************************
                        Threshold Voltage Group Report                         

Vth Group                All                Blackbox           Non-blackbox
Name                    cells                cells                cells
********************************************************************************
undefined           17773 (100.00%)        119 (100.00%)      17654 (100.00%)   
********************************************************************************

Vth Group                All                Blackbox           Non-blackbox
Name                  cell area            cell area            cell area
********************************************************************************
undefined       110770.27 (100.00%)   96350.13 (100.00%)   14420.13 (100.00%)   
********************************************************************************
1
