Warning: There are 90 switching activity information conflicts. (PWR-19)
 
****************************************
Report : saif
Design : proc
Version: M-2016.12-SP5-1
Date   : Sat Jul 28 16:10:21 2018
****************************************

  

--------------------------------------------------------------------------------
              User              Default           Propagated
Object type   Annotated (%)     Activity (%)      Activity (%)       Total
--------------------------------------------------------------------------------
  
 Nets         287(64.93%)       0(0.00%)          155(35.07%)        442
 Ports        229(100.00%)      0(0.00%)          0(0.00%)           229
 Pins         239(34.09%)       0(0.00%)          462(65.91%)        701
--------------------------------------------------------------------------------
1
