Warning: There are 91 switching activity information conflicts. (PWR-19)
 
****************************************
Report : saif
Design : proc
Version: M-2016.12-SP5-1
Date   : Sat Jul 28 03:35:52 2018
****************************************

  

--------------------------------------------------------------------------------
              User              Default           Propagated
Object type   Annotated (%)     Activity (%)      Activity (%)       Total
--------------------------------------------------------------------------------
  
 Nets         284(64.69%)       0(0.00%)          155(35.31%)        439
 Ports        229(100.00%)      0(0.00%)          0(0.00%)           229
 Pins         224(32.05%)       0(0.00%)          475(67.95%)        699
--------------------------------------------------------------------------------
1
