********************************************************************************
                        Threshold Voltage Group Report                         

Vth Group                All                Blackbox           Non-blackbox
Name                    cells                cells                cells
********************************************************************************
undefined           16941 (100.00%)        119 (100.00%)      16822 (100.00%)   
********************************************************************************

Vth Group                All                Blackbox           Non-blackbox
Name                  cell area            cell area            cell area
********************************************************************************
undefined       111079.05 (100.00%)   97280.17 (100.00%)   13798.89 (100.00%)   
********************************************************************************
1
