Information: Updating design information... (UID-85)
 
****************************************
Report : timing
        -path full
        -delay max
        -max_paths 10
Design : proc
Version: M-2016.12-SP5-1
Date   : Sat Jul 28 03:35:39 2018
****************************************

 * Some/all delay information is back-annotated.

Operating Conditions: tt28_0.80V_0.00V_0.00V_0.00V_25C   Library: C28SOI_SC_8_CLK_LL
Wire Load Model Mode: Inactive.

  Startpoint: core/inst_decoder/clk_r_REG1933_S38
              (rising edge-triggered flip-flop clocked by clk)
  Endpoint: core/fu_CMUL/fu_arch/DP_OP_26J13_123_449/clk_r_REG847_S21
            (rising edge-triggered flip-flop clocked by clk)
  Path Group: clk
  Path Type: max

  Point                                                   Incr       Path
  --------------------------------------------------------------------------
  clock clk (rise edge)                                  0.000      0.000
  clock network delay (ideal)                            0.010      0.010
  core/inst_decoder/clk_r_REG1933_S38/CP (C8T28SOIDV_LL_DFPRQX19_P16)
                                                         0.000      0.010 r
  core/inst_decoder/clk_r_REG1933_S38/Q (C8T28SOIDV_LL_DFPRQX19_P16)
                                                         0.161      0.171 r
  core/inst_decoder/socket_TFG_o1_bus_cntrl[0] (tta0_decoder)
                                                         0.000      0.171 r
  core/ic/socket_TFG_o1_bus_cntrl[0] (tta0_interconn)    0.000      0.171 r
  core/ic/TFG_o1/databus_cntrl[0] (tta0_output_socket_cons_1_1_BUSW_032_DATAW_032_2)
                                                         0.000      0.171 r
  core/ic/TFG_o1/U3/Z (C8T28SOI_LL_AND2X5_P16)           0.080 *    0.251 r
  core/ic/TFG_o1/databus0_alt[18] (tta0_output_socket_cons_1_1_BUSW_032_DATAW_032_2)
                                                         0.000      0.251 r
  core/ic/CMUL_i1/databus0[18] (tta0_input_socket_cons_1_BUSW_032_DATAW32_10)
                                                         0.000      0.251 r
  core/ic/CMUL_i1/U14/Z (C8T28SOI_LL_BFX5_P16)           0.106 *    0.357 r
  core/ic/CMUL_i1/data[18] (tta0_input_socket_cons_1_BUSW_032_DATAW32_10)
                                                         0.000      0.357 r
  core/ic/socket_CMUL_i1_data[18] (tta0_interconn)       0.000      0.357 r
  core/fu_CMUL/t1data[18] (fu_cmul_always_3_dataw32_busw32)
                                                         0.000      0.357 r
  core/fu_CMUL/fu_arch/A[18] (cmul_pipe_1_dataw32_halfw16)
                                                         0.000      0.357 r
  core/fu_CMUL/fu_arch/U239/Z (C8T28SOI_LL_IVX3_P16)     0.093 *    0.450 f
  core/fu_CMUL/fu_arch/U240/Z (C8T28SOI_LL_AOI22X12_P16)
                                                         0.101 *    0.551 r
  core/fu_CMUL/fu_arch/U246/Z (C8T28SOI_LL_OAI112X6_P16)
                                                         0.126 *    0.677 f
  core/fu_CMUL/fu_arch/U731/Z (C8T28SOI_LL_OAI22X6_P16)
                                                         0.097 *    0.774 r
  core/fu_CMUL/fu_arch/U746/S0 (C8T28SOIDV_LL_FA1X5_P16)
                                                         0.129 *    0.903 f
  core/fu_CMUL/fu_arch/U759/CO (C8T28SOIDV_LL_FA1X5_P16)
                                                         0.098 *    1.001 f
  core/fu_CMUL/fu_arch/U762/S0 (C8T28SOIDV_LLS1_FA1X4_P16)
                                                         0.084 *    1.085 f
  core/fu_CMUL/fu_arch/U1100/Z (C8T28SOI_LL_OAI12X10_P16)
                                                         0.033 *    1.119 r
  core/fu_CMUL/fu_arch/U766/Z (C8T28SOIDV_LL_NAND2X9_P16)
                                                         0.019 *    1.137 f
  core/fu_CMUL/fu_arch/U206/Z (C8T28SOI_LL_OAI12X3_P16)
                                                         0.027 *    1.164 r
  core/fu_CMUL/fu_arch/U767/Z (C8T28SOI_LL_NAND2X4_P16)
                                                         0.027 *    1.192 f
  core/fu_CMUL/fu_arch/U770/Z (C8T28SOI_LL_OAI12X3_P16)
                                                         0.033 *    1.225 r
  core/fu_CMUL/fu_arch/U771/Z (C8T28SOI_LL_NAND2X4_P16)
                                                         0.029 *    1.254 f
  core/fu_CMUL/fu_arch/U774/Z (C8T28SOI_LL_OAI12X3_P16)
                                                         0.034 *    1.288 r
  core/fu_CMUL/fu_arch/U775/Z (C8T28SOI_LL_NAND2X4_P16)
                                                         0.027 *    1.315 f
  core/fu_CMUL/fu_arch/U777/Z (C8T28SOIDV_LL_PAO2X10_P16)
                                                         0.070 *    1.386 f
  core/fu_CMUL/fu_arch/U193/Z (C8T28SOI_LL_OA12X5_P16)
                                                         0.042 *    1.428 f
  core/fu_CMUL/fu_arch/U264/Z (C8T28SOI_LL_OAI22X8_P16)
                                                         0.027 *    1.456 r
  core/fu_CMUL/fu_arch/U780/Z (C8T28SOIDV_LL_NAND2X9_P16)
                                                         0.028 *    1.484 f
  core/fu_CMUL/fu_arch/U781/Z (C8T28SOI_LL_OAI21X10_P16)
                                                         0.020 *    1.504 r
  core/fu_CMUL/fu_arch/U261/Z (C8T28SOIDV_LL_NAND2X9_P16)
                                                         0.024 *    1.528 f
  core/fu_CMUL/fu_arch/U258/Z (C8T28SOI_LL_OAI21X10_P16)
                                                         0.017 *    1.545 r
  core/fu_CMUL/fu_arch/U248/Z (C8T28SOIDV_LL_NAND2X9_P16)
                                                         0.023 *    1.569 f
  core/fu_CMUL/fu_arch/U785/Z (C8T28SOI_LL_OAI21X10_P16)
                                                         0.019 *    1.587 r
  core/fu_CMUL/fu_arch/U247/Z (C8T28SOIDV_LL_NAND2X9_P16)
                                                         0.023 *    1.611 f
  core/fu_CMUL/fu_arch/U242/Z (C8T28SOI_LL_OAI21X10_P16)
                                                         0.020 *    1.630 r
  core/fu_CMUL/fu_arch/U241/Z (C8T28SOIDV_LL_NAND2X18_P16)
                                                         0.023 *    1.654 f
  core/fu_CMUL/fu_arch/U2065/CO (C8T28SOIDV_LLS1_FA1X4_P16)
                                                         0.056 *    1.709 f
  core/fu_CMUL/fu_arch/U924/CO (C8T28SOIDV_LLS1_FA1X4_P16)
                                                         0.078 *    1.788 f
  core/fu_CMUL/fu_arch/U1084/Z (C8T28SOIDV_LL_NAND2AX9_P16)
                                                         0.036 *    1.824 r
  core/fu_CMUL/fu_arch/U1083/Z (C8T28SOIDV_LL_NAND2AX9_P16)
                                                         0.020 *    1.844 f
  core/fu_CMUL/fu_arch/U861/CO (C8T28SOIDV_LLS1_FA1X4_P16)
                                                         0.059 *    1.903 f
  core/fu_CMUL/fu_arch/U187/Z (C8T28SOI_LL_NAND2AX4_P16)
                                                         0.037 *    1.940 r
  core/fu_CMUL/fu_arch/U1089/Z (C8T28SOIDV_LL_NAND2AX9_P16)
                                                         0.022 *    1.962 f
  core/fu_CMUL/fu_arch/U923/CO (C8T28SOIDV_LLS1_FA1X4_P16)
                                                         0.055 *    2.017 f
  core/fu_CMUL/fu_arch/U2052/CO (C8T28SOIDV_LLS1_FA1X4_P16)
                                                         0.067 *    2.084 f
  core/fu_CMUL/fu_arch/U1011/CO (C8T28SOIDV_LLS1_FA1X4_P16)
                                                         0.070 *    2.154 f
  core/fu_CMUL/fu_arch/U39/Z (C8T28SOI_LL_NAND2AX4_P16)
                                                         0.036 *    2.190 r
  core/fu_CMUL/fu_arch/U1081/Z (C8T28SOIDV_LL_NAND2AX9_P16)
                                                         0.021 *    2.211 f
  core/fu_CMUL/fu_arch/U1012/CO (C8T28SOIDV_LLS1_FA1X4_P16)
                                                         0.054 *    2.264 f
  core/fu_CMUL/fu_arch/U35/Z (C8T28SOI_LL_NAND2AX4_P16)
                                                         0.033 *    2.298 r
  core/fu_CMUL/fu_arch/U224/Z (C8T28SOIDV_LL_NAND2X9_P16)
                                                         0.021 *    2.319 f
  core/fu_CMUL/fu_arch/U1037/CO (C8T28SOIDV_LLS1_FA1X4_P16)
                                                         0.054 *    2.373 f
  core/fu_CMUL/fu_arch/U2063/CO (C8T28SOIDV_LLS1_FA1X4_P16)
                                                         0.067 *    2.440 f
  core/fu_CMUL/fu_arch/U24/Z (C8T28SOI_LL_NAND2AX4_P16)
                                                         0.034 *    2.474 r
  core/fu_CMUL/fu_arch/U221/Z (C8T28SOIDV_LL_NAND2X9_P16)
                                                         0.021 *    2.495 f
  core/fu_CMUL/fu_arch/U2070/CO (C8T28SOIDV_LLS1_FA1X4_P16)
                                                         0.054 *    2.549 f
  core/fu_CMUL/fu_arch/U9/Z (C8T28SOI_LL_NAND2AX4_P16)
                                                         0.034 *    2.584 r
  core/fu_CMUL/fu_arch/U215/Z (C8T28SOIDV_LL_NAND2X9_P16)
                                                         0.021 *    2.605 f
  core/fu_CMUL/fu_arch/U2074/S0 (C8T28SOIDV_LLS1_FA1X4_P16)
                                                         0.061 *    2.666 f
  core/fu_CMUL/fu_arch/DP_OP_26J13_123_449/clk_r_REG847_S21/D (C8T28SOIDV_LL_DFPRQX19_P16)
                                                         0.000 *    2.666 f
  data arrival time                                                 2.666

  clock clk (rise edge)                                  2.857      2.857
  clock network delay (ideal)                            0.010      2.867
  clock uncertainty                                     -0.010      2.857
  core/fu_CMUL/fu_arch/DP_OP_26J13_123_449/clk_r_REG847_S21/CP (C8T28SOIDV_LL_DFPRQX19_P16)
                                                         0.000      2.857 r
  library setup time                                    -0.050      2.807
  data required time                                                2.807
  --------------------------------------------------------------------------
  data required time                                                2.807
  data arrival time                                                -2.666
  --------------------------------------------------------------------------
  slack (MET)                                                       0.141


  Startpoint: core/inst_decoder/clk_r_REG1933_S38
              (rising edge-triggered flip-flop clocked by clk)
  Endpoint: core/fu_CMUL/fu_arch/DP_OP_26J13_123_449/clk_r_REG846_S21
            (rising edge-triggered flip-flop clocked by clk)
  Path Group: clk
  Path Type: max

  Point                                                   Incr       Path
  --------------------------------------------------------------------------
  clock clk (rise edge)                                  0.000      0.000
  clock network delay (ideal)                            0.010      0.010
  core/inst_decoder/clk_r_REG1933_S38/CP (C8T28SOIDV_LL_DFPRQX19_P16)
                                                         0.000      0.010 r
  core/inst_decoder/clk_r_REG1933_S38/Q (C8T28SOIDV_LL_DFPRQX19_P16)
                                                         0.161      0.171 r
  core/inst_decoder/socket_TFG_o1_bus_cntrl[0] (tta0_decoder)
                                                         0.000      0.171 r
  core/ic/socket_TFG_o1_bus_cntrl[0] (tta0_interconn)    0.000      0.171 r
  core/ic/TFG_o1/databus_cntrl[0] (tta0_output_socket_cons_1_1_BUSW_032_DATAW_032_2)
                                                         0.000      0.171 r
  core/ic/TFG_o1/U3/Z (C8T28SOI_LL_AND2X5_P16)           0.080 *    0.251 r
  core/ic/TFG_o1/databus0_alt[18] (tta0_output_socket_cons_1_1_BUSW_032_DATAW_032_2)
                                                         0.000      0.251 r
  core/ic/CMUL_i1/databus0[18] (tta0_input_socket_cons_1_BUSW_032_DATAW32_10)
                                                         0.000      0.251 r
  core/ic/CMUL_i1/U14/Z (C8T28SOI_LL_BFX5_P16)           0.106 *    0.357 r
  core/ic/CMUL_i1/data[18] (tta0_input_socket_cons_1_BUSW_032_DATAW32_10)
                                                         0.000      0.357 r
  core/ic/socket_CMUL_i1_data[18] (tta0_interconn)       0.000      0.357 r
  core/fu_CMUL/t1data[18] (fu_cmul_always_3_dataw32_busw32)
                                                         0.000      0.357 r
  core/fu_CMUL/fu_arch/A[18] (cmul_pipe_1_dataw32_halfw16)
                                                         0.000      0.357 r
  core/fu_CMUL/fu_arch/U239/Z (C8T28SOI_LL_IVX3_P16)     0.093 *    0.450 f
  core/fu_CMUL/fu_arch/U240/Z (C8T28SOI_LL_AOI22X12_P16)
                                                         0.101 *    0.551 r
  core/fu_CMUL/fu_arch/U246/Z (C8T28SOI_LL_OAI112X6_P16)
                                                         0.126 *    0.677 f
  core/fu_CMUL/fu_arch/U731/Z (C8T28SOI_LL_OAI22X6_P16)
                                                         0.097 *    0.774 r
  core/fu_CMUL/fu_arch/U746/S0 (C8T28SOIDV_LL_FA1X5_P16)
                                                         0.129 *    0.903 f
  core/fu_CMUL/fu_arch/U759/CO (C8T28SOIDV_LL_FA1X5_P16)
                                                         0.098 *    1.001 f
  core/fu_CMUL/fu_arch/U762/S0 (C8T28SOIDV_LLS1_FA1X4_P16)
                                                         0.084 *    1.085 f
  core/fu_CMUL/fu_arch/U1100/Z (C8T28SOI_LL_OAI12X10_P16)
                                                         0.033 *    1.119 r
  core/fu_CMUL/fu_arch/U766/Z (C8T28SOIDV_LL_NAND2X9_P16)
                                                         0.019 *    1.137 f
  core/fu_CMUL/fu_arch/U206/Z (C8T28SOI_LL_OAI12X3_P16)
                                                         0.027 *    1.164 r
  core/fu_CMUL/fu_arch/U767/Z (C8T28SOI_LL_NAND2X4_P16)
                                                         0.027 *    1.192 f
  core/fu_CMUL/fu_arch/U770/Z (C8T28SOI_LL_OAI12X3_P16)
                                                         0.033 *    1.225 r
  core/fu_CMUL/fu_arch/U771/Z (C8T28SOI_LL_NAND2X4_P16)
                                                         0.029 *    1.254 f
  core/fu_CMUL/fu_arch/U774/Z (C8T28SOI_LL_OAI12X3_P16)
                                                         0.034 *    1.288 r
  core/fu_CMUL/fu_arch/U775/Z (C8T28SOI_LL_NAND2X4_P16)
                                                         0.027 *    1.315 f
  core/fu_CMUL/fu_arch/U777/Z (C8T28SOIDV_LL_PAO2X10_P16)
                                                         0.070 *    1.386 f
  core/fu_CMUL/fu_arch/U193/Z (C8T28SOI_LL_OA12X5_P16)
                                                         0.042 *    1.428 f
  core/fu_CMUL/fu_arch/U264/Z (C8T28SOI_LL_OAI22X8_P16)
                                                         0.027 *    1.456 r
  core/fu_CMUL/fu_arch/U780/Z (C8T28SOIDV_LL_NAND2X9_P16)
                                                         0.028 *    1.484 f
  core/fu_CMUL/fu_arch/U781/Z (C8T28SOI_LL_OAI21X10_P16)
                                                         0.020 *    1.504 r
  core/fu_CMUL/fu_arch/U261/Z (C8T28SOIDV_LL_NAND2X9_P16)
                                                         0.024 *    1.528 f
  core/fu_CMUL/fu_arch/U258/Z (C8T28SOI_LL_OAI21X10_P16)
                                                         0.017 *    1.545 r
  core/fu_CMUL/fu_arch/U248/Z (C8T28SOIDV_LL_NAND2X9_P16)
                                                         0.023 *    1.569 f
  core/fu_CMUL/fu_arch/U785/Z (C8T28SOI_LL_OAI21X10_P16)
                                                         0.019 *    1.587 r
  core/fu_CMUL/fu_arch/U247/Z (C8T28SOIDV_LL_NAND2X9_P16)
                                                         0.023 *    1.611 f
  core/fu_CMUL/fu_arch/U242/Z (C8T28SOI_LL_OAI21X10_P16)
                                                         0.020 *    1.630 r
  core/fu_CMUL/fu_arch/U241/Z (C8T28SOIDV_LL_NAND2X18_P16)
                                                         0.023 *    1.654 f
  core/fu_CMUL/fu_arch/U2065/CO (C8T28SOIDV_LLS1_FA1X4_P16)
                                                         0.056 *    1.709 f
  core/fu_CMUL/fu_arch/U924/CO (C8T28SOIDV_LLS1_FA1X4_P16)
                                                         0.078 *    1.788 f
  core/fu_CMUL/fu_arch/U1084/Z (C8T28SOIDV_LL_NAND2AX9_P16)
                                                         0.036 *    1.824 r
  core/fu_CMUL/fu_arch/U1083/Z (C8T28SOIDV_LL_NAND2AX9_P16)
                                                         0.020 *    1.844 f
  core/fu_CMUL/fu_arch/U861/CO (C8T28SOIDV_LLS1_FA1X4_P16)
                                                         0.059 *    1.903 f
  core/fu_CMUL/fu_arch/U187/Z (C8T28SOI_LL_NAND2AX4_P16)
                                                         0.037 *    1.940 r
  core/fu_CMUL/fu_arch/U1089/Z (C8T28SOIDV_LL_NAND2AX9_P16)
                                                         0.022 *    1.962 f
  core/fu_CMUL/fu_arch/U923/CO (C8T28SOIDV_LLS1_FA1X4_P16)
                                                         0.055 *    2.017 f
  core/fu_CMUL/fu_arch/U2052/CO (C8T28SOIDV_LLS1_FA1X4_P16)
                                                         0.067 *    2.084 f
  core/fu_CMUL/fu_arch/U1011/CO (C8T28SOIDV_LLS1_FA1X4_P16)
                                                         0.070 *    2.154 f
  core/fu_CMUL/fu_arch/U39/Z (C8T28SOI_LL_NAND2AX4_P16)
                                                         0.036 *    2.190 r
  core/fu_CMUL/fu_arch/U1081/Z (C8T28SOIDV_LL_NAND2AX9_P16)
                                                         0.021 *    2.211 f
  core/fu_CMUL/fu_arch/U1012/CO (C8T28SOIDV_LLS1_FA1X4_P16)
                                                         0.054 *    2.264 f
  core/fu_CMUL/fu_arch/U35/Z (C8T28SOI_LL_NAND2AX4_P16)
                                                         0.033 *    2.298 r
  core/fu_CMUL/fu_arch/U224/Z (C8T28SOIDV_LL_NAND2X9_P16)
                                                         0.021 *    2.319 f
  core/fu_CMUL/fu_arch/U1037/CO (C8T28SOIDV_LLS1_FA1X4_P16)
                                                         0.054 *    2.373 f
  core/fu_CMUL/fu_arch/U2063/CO (C8T28SOIDV_LLS1_FA1X4_P16)
                                                         0.067 *    2.440 f
  core/fu_CMUL/fu_arch/U24/Z (C8T28SOI_LL_NAND2AX4_P16)
                                                         0.034 *    2.474 r
  core/fu_CMUL/fu_arch/U221/Z (C8T28SOIDV_LL_NAND2X9_P16)
                                                         0.021 *    2.495 f
  core/fu_CMUL/fu_arch/U2070/CO (C8T28SOIDV_LLS1_FA1X4_P16)
                                                         0.054 *    2.549 f
  core/fu_CMUL/fu_arch/U9/Z (C8T28SOI_LL_NAND2AX4_P16)
                                                         0.034 *    2.584 r
  core/fu_CMUL/fu_arch/U215/Z (C8T28SOIDV_LL_NAND2X9_P16)
                                                         0.021 *    2.605 f
  core/fu_CMUL/fu_arch/U2074/CO (C8T28SOIDV_LLS1_FA1X4_P16)
                                                         0.045 *    2.650 f
  core/fu_CMUL/fu_arch/DP_OP_26J13_123_449/clk_r_REG846_S21/D (C8T28SOIDV_LL_DFPSQX10_P16)
                                                         0.000 *    2.650 f
  data arrival time                                                 2.650

  clock clk (rise edge)                                  2.857      2.857
  clock network delay (ideal)                            0.010      2.867
  clock uncertainty                                     -0.010      2.857
  core/fu_CMUL/fu_arch/DP_OP_26J13_123_449/clk_r_REG846_S21/CP (C8T28SOIDV_LL_DFPSQX10_P16)
                                                         0.000      2.857 r
  library setup time                                    -0.058      2.799
  data required time                                                2.799
  --------------------------------------------------------------------------
  data required time                                                2.799
  data arrival time                                                -2.650
  --------------------------------------------------------------------------
  slack (MET)                                                       0.149


  Startpoint: core/rf_rf_def/clk_r_REG1888_S38
              (rising edge-triggered flip-flop clocked by clk)
  Endpoint: core/ic/add_o1/clk_r_REG347_S32
            (rising edge-triggered flip-flop clocked by clk)
  Path Group: clk
  Path Type: max

  Point                                                   Incr       Path
  --------------------------------------------------------------------------
  clock clk (rise edge)                                  0.000      0.000
  clock network delay (ideal)                            0.010      0.010
  core/rf_rf_def/clk_r_REG1888_S38/CP (C8T28SOIDV_LL_DFPRQX19_P10)
                                                         0.000      0.010 r
  core/rf_rf_def/clk_r_REG1888_S38/Q (C8T28SOIDV_LL_DFPRQX19_P10)
                                                         0.146      0.156 r
  core/rf_rf_def/U3/Z (C8T28SOIDV_LL_NOR2X39_P16)        0.061 *    0.216 f
  core/rf_rf_def/U12/Z (C8T28SOI_LL_AO222X10_P10)        0.105 *    0.322 f
  core/rf_rf_def/r1data[1] (rf_1wr_1rd_always_1_guarded_0_dataw32_rf_size3)
                                                         0.000      0.322 f
  core/ic/socket_rf_def_o1_data0[1] (tta0_interconn)     0.000      0.322 f
  core/ic/rf_def_o1/data0[1] (tta0_output_socket_cons_2_1_BUSW_032_BUSW_132_DATAW_032_0)
                                                         0.000      0.322 f
  core/ic/rf_def_o1/U1/Z (C8T28SOI_LL_AND2X10_P16)       0.039 *    0.361 f
  core/ic/rf_def_o1/databus0_alt[1] (tta0_output_socket_cons_2_1_BUSW_032_BUSW_132_DATAW_032_0)
                                                         0.000      0.361 f
  core/ic/U9/Z (C8T28SOI_LL_OR3X14_P16)                  0.067 *    0.429 f
  core/ic/CMUL_i2/databus0[1] (tta0_input_socket_cons_1_BUSW_032_DATAW32_9)
                                                         0.000      0.429 f
  core/ic/CMUL_i2/U30/Z (C8T28SOI_LL_BFX5_P16)           0.046 *    0.475 f
  core/ic/CMUL_i2/data[1] (tta0_input_socket_cons_1_BUSW_032_DATAW32_9)
                                                         0.000      0.475 f
  core/ic/AG_i2/databus0[1] (tta0_input_socket_cons_1_BUSW_032_DATAW4_1)
                                                         0.000      0.475 f
  core/ic/AG_i2/U2/Z (C8T28SOI_LL_BFX5_P16)              0.050 *    0.525 f
  core/ic/AG_i2/data[1] (tta0_input_socket_cons_1_BUSW_032_DATAW4_1)
                                                         0.000      0.525 f
  core/ic/socket_add_i2_data[1] (tta0_interconn)         0.000      0.525 f
  core/fu_add/o1data[1] (fu_add_sub_always_1_dataw32_busw32)
                                                         0.000      0.525 f
  core/fu_add/U8/Z (C8T28SOI_LL_AOI22X2_P16)             0.059 *    0.584 r
  core/fu_add/U9/Z (C8T28SOI_LL_IVX3_P16)                0.045 *    0.629 f
  core/fu_add/fu_arch/B[1] (add_sub_arith_dataw32)       0.000      0.629 f
  core/fu_add/fu_arch/U61/Z (C8T28SOIDV_LLS_XOR2X4_P16)
                                                         0.055 *    0.684 f
  core/fu_add/fu_arch/U64/Z (C8T28SOI_LL_NAND2X2_P16)    0.049 *    0.734 r
  core/fu_add/fu_arch/U65/Z (C8T28SOI_LL_IVX3_P16)       0.026 *    0.759 f
  core/fu_add/fu_arch/U66/Z (C8T28SOI_LL_AOI12X3_P16)    0.048 *    0.807 r
  core/fu_add/fu_arch/U68/Z (C8T28SOI_LL_OAI12X3_P16)    0.050 *    0.857 f
  core/fu_add/fu_arch/U71/Z (C8T28SOI_LL_AOI12X3_P16)    0.056 *    0.914 r
  core/fu_add/fu_arch/U73/Z (C8T28SOI_LL_OAI12X3_P16)    0.049 *    0.962 f
  core/fu_add/fu_arch/U76/Z (C8T28SOI_LL_AOI12X3_P16)    0.054 *    1.016 r
  core/fu_add/fu_arch/U78/Z (C8T28SOI_LL_OAI12X3_P16)    0.047 *    1.063 f
  core/fu_add/fu_arch/U81/Z (C8T28SOI_LL_AOI12X3_P16)    0.054 *    1.118 r
  core/fu_add/fu_arch/U83/Z (C8T28SOI_LL_OAI12X3_P16)    0.049 *    1.167 f
  core/fu_add/fu_arch/U86/Z (C8T28SOI_LL_AOI12X3_P16)    0.057 *    1.224 r
  core/fu_add/fu_arch/U88/Z (C8T28SOI_LL_OAI12X3_P16)    0.048 *    1.272 f
  core/fu_add/fu_arch/U91/Z (C8T28SOI_LL_AOI12X3_P16)    0.054 *    1.327 r
  core/fu_add/fu_arch/U93/Z (C8T28SOI_LL_OAI12X3_P16)    0.050 *    1.376 f
  core/fu_add/fu_arch/U96/Z (C8T28SOI_LL_AOI12X3_P16)    0.056 *    1.432 r
  core/fu_add/fu_arch/U98/Z (C8T28SOI_LL_OAI12X3_P16)    0.049 *    1.481 f
  core/fu_add/fu_arch/U101/Z (C8T28SOI_LL_AOI12X3_P16)
                                                         0.055 *    1.536 r
  core/fu_add/fu_arch/U103/Z (C8T28SOI_LL_OAI12X3_P16)
                                                         0.048 *    1.583 f
  core/fu_add/fu_arch/U106/Z (C8T28SOI_LL_AOI12X3_P16)
                                                         0.054 *    1.637 r
  core/fu_add/fu_arch/U108/Z (C8T28SOI_LL_OAI12X3_P16)
                                                         0.048 *    1.686 f
  core/fu_add/fu_arch/U111/Z (C8T28SOI_LL_AOI12X3_P16)
                                                         0.056 *    1.742 r
  core/fu_add/fu_arch/U113/Z (C8T28SOI_LL_OAI12X3_P16)
                                                         0.049 *    1.791 f
  core/fu_add/fu_arch/U116/Z (C8T28SOI_LL_AOI12X3_P16)
                                                         0.054 *    1.846 r
  core/fu_add/fu_arch/U118/Z (C8T28SOI_LL_OAI12X3_P16)
                                                         0.047 *    1.893 f
  core/fu_add/fu_arch/U121/CO (C8T28SOIDV_LL_FA1X5_P16)
                                                         0.096 *    1.989 f
  core/fu_add/fu_arch/U169/CO (C8T28SOIDV_LL_FA1X5_P16)
                                                         0.091 *    2.080 f
  core/fu_add/fu_arch/U124/CO (C8T28SOIDV_LL_FA1X5_P16)
                                                         0.091 *    2.171 f
  core/fu_add/fu_arch/U168/CO (C8T28SOIDV_LL_FA1X5_P16)
                                                         0.091 *    2.261 f
  core/fu_add/fu_arch/U161/CO (C8T28SOIDV_LL_FA1X5_P16)
                                                         0.090 *    2.351 f
  core/fu_add/fu_arch/U167/CO (C8T28SOIDV_LL_FA1X5_P16)
                                                         0.091 *    2.443 f
  core/fu_add/fu_arch/U166/CO (C8T28SOIDV_LL_FA1X5_P16)
                                                         0.092 *    2.535 f
  core/fu_add/fu_arch/U164/CO (C8T28SOIDV_LLS1_FA1X4_P16)
                                                         0.059 *    2.594 f
  core/fu_add/fu_arch/U165/Z (C8T28SOIDV_LLS_XOR2X4_P16)
                                                         0.053 *    2.647 f
  core/fu_add/fu_arch/S[31] (add_sub_arith_dataw32)      0.000      2.647 f
  core/fu_add/r1data[31] (fu_add_sub_always_1_dataw32_busw32)
                                                         0.000      2.647 f
  core/ic/socket_add_o1_data0[31] (tta0_interconn)       0.000      2.647 f
  core/ic/add_o1/data0[31] (tta0_output_socket_cons_3_1_BUSW_032_BUSW_132_BUSW_232_DATAW_032_1)
                                                         0.000      2.647 f
  core/ic/add_o1/clk_r_REG347_S32/D (C8T28SOIDV_LL_DFPRQX10_P16)
                                                         0.000 *    2.647 f
  data arrival time                                                 2.647

  clock clk (rise edge)                                  2.857      2.857
  clock network delay (ideal)                            0.010      2.867
  clock uncertainty                                     -0.010      2.857
  core/ic/add_o1/clk_r_REG347_S32/CP (C8T28SOIDV_LL_DFPRQX10_P16)
                                                         0.000      2.857 r
  library setup time                                    -0.052      2.805
  data required time                                                2.805
  --------------------------------------------------------------------------
  data required time                                                2.805
  data arrival time                                                -2.647
  --------------------------------------------------------------------------
  slack (MET)                                                       0.158


  Startpoint: core/loopbuffer/clk_r_REG351_S35
              (rising edge-triggered flip-flop clocked by clk)
  Endpoint: core/loopbuffer/clk_r_REG1004_S38
            (rising edge-triggered flip-flop clocked by clk)
  Path Group: clk
  Path Type: max

  Point                                                   Incr       Path
  --------------------------------------------------------------------------
  clock clk (rise edge)                                  0.000      0.000
  clock network delay (ideal)                            0.010      0.010
  core/loopbuffer/clk_r_REG351_S35/CP (C8T28SOIDV_LL_DFPRQX10_P16)
                                                         0.000      0.010 r
  core/loopbuffer/clk_r_REG351_S35/Q (C8T28SOIDV_LL_DFPRQX10_P16)
                                                         0.116      0.126 f
  core/loopbuffer/U354/Z (C8T28SOI_LL_BFX5_P16)          0.092 *    0.218 f
  core/loopbuffer/U61/Z (C8T28SOI_LL_AOI22X2_P16)        0.157 *    0.374 r
  core/loopbuffer/U62/Z (C8T28SOI_LL_IVX5_P16)           0.093 *    0.467 f
  core/loopbuffer/U67/Z (C8T28SOI_LL_NOR3X7_P16)         0.074 *    0.541 r
  core/loopbuffer/U70/Z (C8T28SOIDV_LL_NOR2AX10_P16)     0.068 *    0.609 r
  core/loopbuffer/U73/Z (C8T28SOIDV_LL_NOR2AX10_P16)     0.061 *    0.670 r
  core/loopbuffer/U76/Z (C8T28SOIDV_LL_NOR2AX10_P16)     0.061 *    0.732 r
  core/loopbuffer/U79/Z (C8T28SOIDV_LL_NOR2AX10_P16)     0.062 *    0.794 r
  core/loopbuffer/U82/Z (C8T28SOIDV_LL_NOR2AX10_P16)     0.062 *    0.856 r
  core/loopbuffer/U85/Z (C8T28SOIDV_LL_NOR2AX10_P16)     0.062 *    0.918 r
  core/loopbuffer/U88/Z (C8T28SOIDV_LL_NOR2AX10_P16)     0.061 *    0.979 r
  core/loopbuffer/U91/Z (C8T28SOIDV_LL_NOR2AX10_P16)     0.061 *    1.040 r
  core/loopbuffer/U94/Z (C8T28SOIDV_LL_NOR2AX10_P16)     0.061 *    1.101 r
  core/loopbuffer/U97/Z (C8T28SOIDV_LL_NOR2AX10_P16)     0.062 *    1.163 r
  core/loopbuffer/U100/Z (C8T28SOIDV_LL_NOR2AX10_P16)    0.063 *    1.225 r
  core/loopbuffer/U103/Z (C8T28SOIDV_LL_NOR2AX10_P16)    0.062 *    1.287 r
  core/loopbuffer/U106/Z (C8T28SOIDV_LL_NOR2AX10_P16)    0.061 *    1.349 r
  core/loopbuffer/U109/Z (C8T28SOIDV_LL_NOR2AX10_P16)    0.060 *    1.409 r
  core/loopbuffer/U112/Z (C8T28SOIDV_LL_NOR2AX10_P16)    0.060 *    1.469 r
  core/loopbuffer/U115/Z (C8T28SOIDV_LL_NOR2AX10_P16)    0.061 *    1.530 r
  core/loopbuffer/U118/Z (C8T28SOIDV_LL_NOR2AX10_P16)    0.062 *    1.592 r
  core/loopbuffer/U121/Z (C8T28SOIDV_LL_NOR2AX10_P16)    0.062 *    1.655 r
  core/loopbuffer/U124/Z (C8T28SOIDV_LL_NOR2AX10_P16)    0.062 *    1.717 r
  core/loopbuffer/U127/Z (C8T28SOIDV_LL_NOR2AX10_P16)    0.062 *    1.779 r
  core/loopbuffer/U130/Z (C8T28SOIDV_LL_NOR2AX10_P16)    0.062 *    1.842 r
  core/loopbuffer/U133/Z (C8T28SOIDV_LL_NOR2AX10_P16)    0.062 *    1.903 r
  core/loopbuffer/U136/Z (C8T28SOIDV_LL_NOR2AX10_P16)    0.061 *    1.964 r
  core/loopbuffer/U139/Z (C8T28SOIDV_LL_NOR2AX19_P16)    0.063 *    2.027 r
  core/loopbuffer/U142/Z (C8T28SOIDV_LL_NOR2AX10_P16)    0.053 *    2.080 r
  core/loopbuffer/U143/Z (C8T28SOI_LL_NAND2AX4_P16)      0.048 *    2.128 f
  core/loopbuffer/U178/Z (C8T28SOI_LL_NOR2X8_P16)        0.044 *    2.172 r
  core/loopbuffer/U182/Z (C8T28SOI_LL_NAND2X4_P16)       0.035 *    2.207 f
  core/loopbuffer/U187/Z (C8T28SOI_LL_AOI211X2_P16)      0.065 *    2.271 r
  core/loopbuffer/U188/Z (C8T28SOI_LL_OAI211X3_P16)      0.048 *    2.320 f
  core/loopbuffer/U189/Z (C8T28SOI_LL_AOI21X3_P16)       0.051 *    2.370 r
  core/loopbuffer/U35/Z (C8T28SOI_LL_OAI211X6_P16)       0.079 *    2.450 f
  core/loopbuffer/U346/Z (C8T28SOI_LL_CBI4I6X6_P16)      0.094 *    2.544 r
  core/loopbuffer/U351/Z (C8T28SOI_LL_IVX5_P16)          0.028 *    2.572 f
  core/loopbuffer/U352/Z (C8T28SOI_LL_AOI22X2_P16)       0.035 *    2.607 r
  core/loopbuffer/U353/Z (C8T28SOI_LL_IVX5_P16)          0.026 *    2.633 f
  core/loopbuffer/clk_r_REG1004_S38/D (C8T28SOIDV_LL_DFPRQX10_P16)
                                                         0.000 *    2.633 f
  data arrival time                                                 2.633

  clock clk (rise edge)                                  2.857      2.857
  clock network delay (ideal)                            0.010      2.867
  clock uncertainty                                     -0.010      2.857
  core/loopbuffer/clk_r_REG1004_S38/CP (C8T28SOIDV_LL_DFPRQX10_P16)
                                                         0.000      2.857 r
  library setup time                                    -0.052      2.805
  data required time                                                2.805
  --------------------------------------------------------------------------
  data required time                                                2.805
  data arrival time                                                -2.633
  --------------------------------------------------------------------------
  slack (MET)                                                       0.172


  Startpoint: core/inst_decoder/clk_r_REG1933_S38
              (rising edge-triggered flip-flop clocked by clk)
  Endpoint: core/fu_CMUL/fu_arch/DP_OP_25J13_122_449/clk_r_REG715_S21
            (rising edge-triggered flip-flop clocked by clk)
  Path Group: clk
  Path Type: max

  Point                                                   Incr       Path
  --------------------------------------------------------------------------
  clock clk (rise edge)                                  0.000      0.000
  clock network delay (ideal)                            0.010      0.010
  core/inst_decoder/clk_r_REG1933_S38/CP (C8T28SOIDV_LL_DFPRQX19_P16)
                                                         0.000      0.010 r
  core/inst_decoder/clk_r_REG1933_S38/Q (C8T28SOIDV_LL_DFPRQX19_P16)
                                                         0.161      0.171 r
  core/inst_decoder/socket_TFG_o1_bus_cntrl[0] (tta0_decoder)
                                                         0.000      0.171 r
  core/ic/socket_TFG_o1_bus_cntrl[0] (tta0_interconn)    0.000      0.171 r
  core/ic/TFG_o1/databus_cntrl[0] (tta0_output_socket_cons_1_1_BUSW_032_DATAW_032_2)
                                                         0.000      0.171 r
  core/ic/TFG_o1/U6/Z (C8T28SOI_LL_AND2X5_P16)           0.079 *    0.250 r
  core/ic/TFG_o1/databus0_alt[1] (tta0_output_socket_cons_1_1_BUSW_032_DATAW_032_2)
                                                         0.000      0.250 r
  core/ic/CMUL_i1/databus0[1] (tta0_input_socket_cons_1_BUSW_032_DATAW32_10)
                                                         0.000      0.250 r
  core/ic/CMUL_i1/U27/Z (C8T28SOI_LL_BFX5_P16)           0.032 *    0.283 r
  core/ic/CMUL_i1/data[1] (tta0_input_socket_cons_1_BUSW_032_DATAW32_10)
                                                         0.000      0.283 r
  core/ic/socket_CMUL_i1_data[1] (tta0_interconn)        0.000      0.283 r
  U287/Z (C8T28SOI_LL_BFX5_P16)                          0.043 *    0.326 r
  core/fu_CMUL/t1data[1] (fu_cmul_always_3_dataw32_busw32)
                                                         0.000      0.326 r
  core/fu_CMUL/fu_arch/A[1] (cmul_pipe_1_dataw32_halfw16)
                                                         0.000      0.326 r
  core/fu_CMUL/fu_arch/U95/Z (C8T28SOI_LL_BFX13_P16)     0.075 *    0.401 r
  core/fu_CMUL/fu_arch/U98/Z (C8T28SOI_LL_IVX29_P16)     0.043 *    0.444 f
  core/fu_CMUL/fu_arch/U1220/Z (C8T28SOI_LL_AOI22X12_P16)
                                                         0.075 *    0.519 r
  core/fu_CMUL/fu_arch/U1229/Z (C8T28SOI_LL_OAI211X3_P16)
                                                         0.186 *    0.705 f
  core/fu_CMUL/fu_arch/U1699/Z (C8T28SOI_LL_OAI22X3_P16)
                                                         0.171 *    0.876 r
  core/fu_CMUL/fu_arch/U1714/S0 (C8T28SOIDV_LL_FA1X5_P16)
                                                         0.149 *    1.025 f
  core/fu_CMUL/fu_arch/U1730/S0 (C8T28SOIDV_LLS1_FA1X4_P16)
                                                         0.083 *    1.108 r
  core/fu_CMUL/fu_arch/U1744/S0 (C8T28SOIDV_LLS1_FA1X4_P16)
                                                         0.077 *    1.184 f
  core/fu_CMUL/fu_arch/U779/Z (C8T28SOI_LL_OAI22X6_P16)
                                                         0.042 *    1.226 r
  core/fu_CMUL/fu_arch/U1762/Z (C8T28SOIDV_LL_NAND2X9_P16)
                                                         0.031 *    1.257 f
  core/fu_CMUL/fu_arch/U1075/Z (C8T28SOI_LL_OAI12X10_P16)
                                                         0.023 *    1.280 r
  core/fu_CMUL/fu_arch/U308/Z (C8T28SOIDV_LL_NAND2X9_P16)
                                                         0.020 *    1.300 f
  core/fu_CMUL/fu_arch/U272/Z (C8T28SOI_LL_OAI21X7_P16)
                                                         0.018 *    1.318 r
  core/fu_CMUL/fu_arch/U1766/Z (C8T28SOIDV_LL_NAND2X9_P16)
                                                         0.028 *    1.346 f
  core/fu_CMUL/fu_arch/U1768/Z (C8T28SOIDV_LL_PAO2X14_P16)
                                                         0.063 *    1.409 f
  core/fu_CMUL/fu_arch/U198/Z (C8T28SOI_LL_OAI21X7_P16)
                                                         0.019 *    1.428 r
  core/fu_CMUL/fu_arch/U267/Z (C8T28SOIDV_LL_NAND2X9_P16)
                                                         0.024 *    1.452 f
  core/fu_CMUL/fu_arch/U1078/Z (C8T28SOI_LL_NAND2X12_P16)
                                                         0.020 *    1.472 r
  core/fu_CMUL/fu_arch/U1771/Z (C8T28SOIDV_LL_NAND2X18_P16)
                                                         0.014 *    1.486 f
  core/fu_CMUL/fu_arch/U1772/Z (C8T28SOI_LL_OAI21X10_P16)
                                                         0.015 *    1.501 r
  core/fu_CMUL/fu_arch/U1773/Z (C8T28SOIDV_LL_NAND2X9_P16)
                                                         0.021 *    1.522 f
  core/fu_CMUL/fu_arch/U1071/Z (C8T28SOIDV_LL_NAND2AX9_P16)
                                                         0.018 *    1.540 r
  core/fu_CMUL/fu_arch/U249/Z (C8T28SOIDV_LL_NAND2X9_P16)
                                                         0.016 *    1.556 f
  core/fu_CMUL/fu_arch/U1777/Z (C8T28SOIDV_LL_PAO2X14_P16)
                                                         0.058 *    1.614 f
  core/fu_CMUL/fu_arch/U1080/Z (C8T28SOI_LL_AOI22X12_P16)
                                                         0.035 *    1.649 r
  core/fu_CMUL/fu_arch/U192/Z (C8T28SOI_LL_OAI22X8_P16)
                                                         0.032 *    1.682 f
  core/fu_CMUL/fu_arch/U1913/CO (C8T28SOIDV_LLS1_FA1X4_P16)
                                                         0.059 *    1.741 f
  core/fu_CMUL/fu_arch/U191/Z (C8T28SOI_LL_NAND2AX4_P16)
                                                         0.033 *    1.774 r
  core/fu_CMUL/fu_arch/U1070/Z (C8T28SOIDV_LL_NAND2AX9_P16)
                                                         0.021 *    1.795 f
  core/fu_CMUL/fu_arch/U1851/CO (C8T28SOIDV_LLS1_FA1X4_P16)
                                                         0.056 *    1.851 f
  core/fu_CMUL/fu_arch/U2026/CO (C8T28SOIDV_LLS1_FA1X4_P16)
                                                         0.069 *    1.919 f
  core/fu_CMUL/fu_arch/U1912/CO (C8T28SOIDV_LLS1_FA1X4_P16)
                                                         0.069 *    1.988 f
  core/fu_CMUL/fu_arch/U2025/CO (C8T28SOIDV_LLS1_FA1X4_P16)
                                                         0.070 *    2.058 f
  core/fu_CMUL/fu_arch/U1998/CO (C8T28SOIDV_LLS1_FA1X4_P16)
                                                         0.068 *    2.126 f
  core/fu_CMUL/fu_arch/U135/Z (C8T28SOI_LL_NAND2AX4_P16)
                                                         0.032 *    2.158 r
  core/fu_CMUL/fu_arch/U1065/Z (C8T28SOIDV_LL_NAND2AX9_P16)
                                                         0.021 *    2.179 f
  core/fu_CMUL/fu_arch/U1999/CO (C8T28SOIDV_LLS1_FA1X4_P16)
                                                         0.054 *    2.233 f
  core/fu_CMUL/fu_arch/U91/Z (C8T28SOI_LL_NAND2AX4_P16)
                                                         0.032 *    2.265 r
  core/fu_CMUL/fu_arch/U1066/Z (C8T28SOIDV_LL_NAND2AX9_P16)
                                                         0.021 *    2.286 f
  core/fu_CMUL/fu_arch/U2024/CO (C8T28SOIDV_LLS1_FA1X4_P16)
                                                         0.055 *    2.341 f
  core/fu_CMUL/fu_arch/U2038/CO (C8T28SOIDV_LLS1_FA1X4_P16)
                                                         0.066 *    2.407 f
  core/fu_CMUL/fu_arch/U26/Z (C8T28SOI_LL_NAND2AX4_P16)
                                                         0.032 *    2.439 r
  core/fu_CMUL/fu_arch/U1069/Z (C8T28SOIDV_LL_NAND2AX9_P16)
                                                         0.021 *    2.460 f
  core/fu_CMUL/fu_arch/U2045/CO (C8T28SOIDV_LLS1_FA1X4_P16)
                                                         0.054 *    2.514 f
  core/fu_CMUL/fu_arch/U2048/CO (C8T28SOIDV_LLS1_FA1X4_P16)
                                                         0.067 *    2.581 f
  core/fu_CMUL/fu_arch/U1073/Z (C8T28SOIDV_LLS_XNOR2X4_P16)
                                                         0.050 *    2.631 f
  core/fu_CMUL/fu_arch/DP_OP_25J13_122_449/clk_r_REG715_S21/D (C8T28SOIDV_LL_DFPRQX19_P16)
                                                         0.000 *    2.631 f
  data arrival time                                                 2.631

  clock clk (rise edge)                                  2.857      2.857
  clock network delay (ideal)                            0.010      2.867
  clock uncertainty                                     -0.010      2.857
  core/fu_CMUL/fu_arch/DP_OP_25J13_122_449/clk_r_REG715_S21/CP (C8T28SOIDV_LL_DFPRQX19_P16)
                                                         0.000      2.857 r
  library setup time                                    -0.050      2.807
  data required time                                                2.807
  --------------------------------------------------------------------------
  data required time                                                2.807
  data arrival time                                                -2.631
  --------------------------------------------------------------------------
  slack (MET)                                                       0.176


  Startpoint: core/inst_decoder/clk_r_REG1933_S38
              (rising edge-triggered flip-flop clocked by clk)
  Endpoint: core/fu_CMUL/fu_arch/DP_OP_25J13_122_449/clk_r_REG714_S21
            (rising edge-triggered flip-flop clocked by clk)
  Path Group: clk
  Path Type: max

  Point                                                   Incr       Path
  --------------------------------------------------------------------------
  clock clk (rise edge)                                  0.000      0.000
  clock network delay (ideal)                            0.010      0.010
  core/inst_decoder/clk_r_REG1933_S38/CP (C8T28SOIDV_LL_DFPRQX19_P16)
                                                         0.000      0.010 r
  core/inst_decoder/clk_r_REG1933_S38/Q (C8T28SOIDV_LL_DFPRQX19_P16)
                                                         0.161      0.171 r
  core/inst_decoder/socket_TFG_o1_bus_cntrl[0] (tta0_decoder)
                                                         0.000      0.171 r
  core/ic/socket_TFG_o1_bus_cntrl[0] (tta0_interconn)    0.000      0.171 r
  core/ic/TFG_o1/databus_cntrl[0] (tta0_output_socket_cons_1_1_BUSW_032_DATAW_032_2)
                                                         0.000      0.171 r
  core/ic/TFG_o1/U6/Z (C8T28SOI_LL_AND2X5_P16)           0.079 *    0.250 r
  core/ic/TFG_o1/databus0_alt[1] (tta0_output_socket_cons_1_1_BUSW_032_DATAW_032_2)
                                                         0.000      0.250 r
  core/ic/CMUL_i1/databus0[1] (tta0_input_socket_cons_1_BUSW_032_DATAW32_10)
                                                         0.000      0.250 r
  core/ic/CMUL_i1/U27/Z (C8T28SOI_LL_BFX5_P16)           0.032 *    0.283 r
  core/ic/CMUL_i1/data[1] (tta0_input_socket_cons_1_BUSW_032_DATAW32_10)
                                                         0.000      0.283 r
  core/ic/socket_CMUL_i1_data[1] (tta0_interconn)        0.000      0.283 r
  U287/Z (C8T28SOI_LL_BFX5_P16)                          0.043 *    0.326 r
  core/fu_CMUL/t1data[1] (fu_cmul_always_3_dataw32_busw32)
                                                         0.000      0.326 r
  core/fu_CMUL/fu_arch/A[1] (cmul_pipe_1_dataw32_halfw16)
                                                         0.000      0.326 r
  core/fu_CMUL/fu_arch/U95/Z (C8T28SOI_LL_BFX13_P16)     0.075 *    0.401 r
  core/fu_CMUL/fu_arch/U98/Z (C8T28SOI_LL_IVX29_P16)     0.043 *    0.444 f
  core/fu_CMUL/fu_arch/U1220/Z (C8T28SOI_LL_AOI22X12_P16)
                                                         0.075 *    0.519 r
  core/fu_CMUL/fu_arch/U1229/Z (C8T28SOI_LL_OAI211X3_P16)
                                                         0.186 *    0.705 f
  core/fu_CMUL/fu_arch/U1699/Z (C8T28SOI_LL_OAI22X3_P16)
                                                         0.171 *    0.876 r
  core/fu_CMUL/fu_arch/U1714/S0 (C8T28SOIDV_LL_FA1X5_P16)
                                                         0.149 *    1.025 f
  core/fu_CMUL/fu_arch/U1730/S0 (C8T28SOIDV_LLS1_FA1X4_P16)
                                                         0.083 *    1.108 r
  core/fu_CMUL/fu_arch/U1744/S0 (C8T28SOIDV_LLS1_FA1X4_P16)
                                                         0.077 *    1.184 f
  core/fu_CMUL/fu_arch/U779/Z (C8T28SOI_LL_OAI22X6_P16)
                                                         0.042 *    1.226 r
  core/fu_CMUL/fu_arch/U1762/Z (C8T28SOIDV_LL_NAND2X9_P16)
                                                         0.031 *    1.257 f
  core/fu_CMUL/fu_arch/U1075/Z (C8T28SOI_LL_OAI12X10_P16)
                                                         0.023 *    1.280 r
  core/fu_CMUL/fu_arch/U308/Z (C8T28SOIDV_LL_NAND2X9_P16)
                                                         0.020 *    1.300 f
  core/fu_CMUL/fu_arch/U272/Z (C8T28SOI_LL_OAI21X7_P16)
                                                         0.018 *    1.318 r
  core/fu_CMUL/fu_arch/U1766/Z (C8T28SOIDV_LL_NAND2X9_P16)
                                                         0.028 *    1.346 f
  core/fu_CMUL/fu_arch/U1768/Z (C8T28SOIDV_LL_PAO2X14_P16)
                                                         0.063 *    1.409 f
  core/fu_CMUL/fu_arch/U198/Z (C8T28SOI_LL_OAI21X7_P16)
                                                         0.019 *    1.428 r
  core/fu_CMUL/fu_arch/U267/Z (C8T28SOIDV_LL_NAND2X9_P16)
                                                         0.024 *    1.452 f
  core/fu_CMUL/fu_arch/U1078/Z (C8T28SOI_LL_NAND2X12_P16)
                                                         0.020 *    1.472 r
  core/fu_CMUL/fu_arch/U1771/Z (C8T28SOIDV_LL_NAND2X18_P16)
                                                         0.014 *    1.486 f
  core/fu_CMUL/fu_arch/U1772/Z (C8T28SOI_LL_OAI21X10_P16)
                                                         0.015 *    1.501 r
  core/fu_CMUL/fu_arch/U1773/Z (C8T28SOIDV_LL_NAND2X9_P16)
                                                         0.021 *    1.522 f
  core/fu_CMUL/fu_arch/U1071/Z (C8T28SOIDV_LL_NAND2AX9_P16)
                                                         0.018 *    1.540 r
  core/fu_CMUL/fu_arch/U249/Z (C8T28SOIDV_LL_NAND2X9_P16)
                                                         0.016 *    1.556 f
  core/fu_CMUL/fu_arch/U1777/Z (C8T28SOIDV_LL_PAO2X14_P16)
                                                         0.058 *    1.614 f
  core/fu_CMUL/fu_arch/U1080/Z (C8T28SOI_LL_AOI22X12_P16)
                                                         0.035 *    1.649 r
  core/fu_CMUL/fu_arch/U192/Z (C8T28SOI_LL_OAI22X8_P16)
                                                         0.032 *    1.682 f
  core/fu_CMUL/fu_arch/U1913/CO (C8T28SOIDV_LLS1_FA1X4_P16)
                                                         0.059 *    1.741 f
  core/fu_CMUL/fu_arch/U191/Z (C8T28SOI_LL_NAND2AX4_P16)
                                                         0.033 *    1.774 r
  core/fu_CMUL/fu_arch/U1070/Z (C8T28SOIDV_LL_NAND2AX9_P16)
                                                         0.021 *    1.795 f
  core/fu_CMUL/fu_arch/U1851/CO (C8T28SOIDV_LLS1_FA1X4_P16)
                                                         0.056 *    1.851 f
  core/fu_CMUL/fu_arch/U2026/CO (C8T28SOIDV_LLS1_FA1X4_P16)
                                                         0.069 *    1.919 f
  core/fu_CMUL/fu_arch/U1912/CO (C8T28SOIDV_LLS1_FA1X4_P16)
                                                         0.069 *    1.988 f
  core/fu_CMUL/fu_arch/U2025/CO (C8T28SOIDV_LLS1_FA1X4_P16)
                                                         0.070 *    2.058 f
  core/fu_CMUL/fu_arch/U1998/CO (C8T28SOIDV_LLS1_FA1X4_P16)
                                                         0.068 *    2.126 f
  core/fu_CMUL/fu_arch/U135/Z (C8T28SOI_LL_NAND2AX4_P16)
                                                         0.032 *    2.158 r
  core/fu_CMUL/fu_arch/U1065/Z (C8T28SOIDV_LL_NAND2AX9_P16)
                                                         0.021 *    2.179 f
  core/fu_CMUL/fu_arch/U1999/CO (C8T28SOIDV_LLS1_FA1X4_P16)
                                                         0.054 *    2.233 f
  core/fu_CMUL/fu_arch/U91/Z (C8T28SOI_LL_NAND2AX4_P16)
                                                         0.032 *    2.265 r
  core/fu_CMUL/fu_arch/U1066/Z (C8T28SOIDV_LL_NAND2AX9_P16)
                                                         0.021 *    2.286 f
  core/fu_CMUL/fu_arch/U2024/CO (C8T28SOIDV_LLS1_FA1X4_P16)
                                                         0.055 *    2.341 f
  core/fu_CMUL/fu_arch/U2038/CO (C8T28SOIDV_LLS1_FA1X4_P16)
                                                         0.066 *    2.407 f
  core/fu_CMUL/fu_arch/U26/Z (C8T28SOI_LL_NAND2AX4_P16)
                                                         0.032 *    2.439 r
  core/fu_CMUL/fu_arch/U1069/Z (C8T28SOIDV_LL_NAND2AX9_P16)
                                                         0.021 *    2.460 f
  core/fu_CMUL/fu_arch/U2045/CO (C8T28SOIDV_LLS1_FA1X4_P16)
                                                         0.054 *    2.514 f
  core/fu_CMUL/fu_arch/U2048/CO (C8T28SOIDV_LLS1_FA1X4_P16)
                                                         0.067 *    2.581 f
  core/fu_CMUL/fu_arch/U220/Z (C8T28SOI_LL_NAND2AX4_P16)
                                                         0.028 *    2.609 r
  core/fu_CMUL/fu_arch/U219/Z (C8T28SOI_LLBR0P8_NAND2X4_P10)
                                                         0.015 *    2.625 f
  core/fu_CMUL/fu_arch/DP_OP_25J13_122_449/clk_r_REG714_S21/D (C8T28SOIDV_LL_DFPSQX10_P16)
                                                         0.000 *    2.625 f
  data arrival time                                                 2.625

  clock clk (rise edge)                                  2.857      2.857
  clock network delay (ideal)                            0.010      2.867
  clock uncertainty                                     -0.010      2.857
  core/fu_CMUL/fu_arch/DP_OP_25J13_122_449/clk_r_REG714_S21/CP (C8T28SOIDV_LL_DFPSQX10_P16)
                                                         0.000      2.857 r
  library setup time                                    -0.054      2.803
  data required time                                                2.803
  --------------------------------------------------------------------------
  data required time                                                2.803
  data arrival time                                                -2.625
  --------------------------------------------------------------------------
  slack (MET)                                                       0.179


  Startpoint: core/fu_AG/fu_arch/clk_r_REG83_S14
              (rising edge-triggered flip-flop clocked by clk)
  Endpoint: core/ic/AG_o1/clk_r_REG1304_S34
            (rising edge-triggered flip-flop clocked by clk)
  Path Group: clk
  Path Type: max

  Point                                                   Incr       Path
  --------------------------------------------------------------------------
  clock clk (rise edge)                                  0.000      0.000
  clock network delay (ideal)                            0.010      0.010
  core/fu_AG/fu_arch/clk_r_REG83_S14/CP (C8T28SOIDV_LL_DFPRQX10_P16)
                                                         0.000      0.010 r
  core/fu_AG/fu_arch/clk_r_REG83_S14/Q (C8T28SOIDV_LL_DFPRQX10_P16)
                                                         0.128      0.138 r
  core/fu_AG/fu_arch/u0/nexp_i[3] (idx_stage_split_dataw32_nexpw4_stagew3_idxw16_0)
                                                         0.000      0.138 r
  core/fu_AG/fu_arch/u0/U6/Z (C8T28SOI_LL_IVX10_P16)     0.033 *    0.171 f
  core/fu_AG/fu_arch/u0/U8/Z (C8T28SOI_LL_NAND2X4_P16)
                                                         0.053 *    0.224 r
  core/fu_AG/fu_arch/u0/U25/Z (C8T28SOI_LL_OAI12X3_P16)
                                                         0.045 *    0.269 f
  core/fu_AG/fu_arch/u0/U27/Z (C8T28SOI_LL_OAI12X3_P16)
                                                         0.032 *    0.301 r
  core/fu_AG/fu_arch/u0/U28/Z (C8T28SOI_LL_NAND2X2_P16)
                                                         0.031 *    0.332 f
  core/fu_AG/fu_arch/u0/U38/Z (C8T28SOI_LL_NOR2X4_P16)
                                                         0.061 *    0.394 r
  core/fu_AG/fu_arch/u0/stage_o[0] (idx_stage_split_dataw32_nexpw4_stagew3_idxw16_0)
                                                         0.000      0.394 r
  core/fu_AG/fu_arch/U10/Z (C8T28SOI_LL_AND2X10_P16)     0.073 *    0.466 r
  core/fu_AG/fu_arch/U11/Z (C8T28SOI_LL_IVX5_P16)        0.018 *    0.484 f
  core/fu_AG/fu_arch/U12/Z (C8T28SOI_LL_OAI21X7_P16)     0.030 *    0.515 r
  core/fu_AG/fu_arch/U32/Z (C8T28SOI_LL_NAND2X4_P16)     0.100 *    0.615 f
  core/fu_AG/fu_arch/U18/Z (C8T28SOI_LL_IVX5_P16)        0.132 *    0.746 r
  core/fu_AG/fu_arch/U103/Z (C8T28SOI_LL_AOI22X2_P16)    0.054 *    0.800 f
  core/fu_AG/fu_arch/U104/Z (C8T28SOI_LL_NAND2X4_P16)    0.038 *    0.838 r
  core/fu_AG/fu_arch/U105/Z (C8T28SOI_LL_NAND2X2_P16)    0.030 *    0.868 f
  core/fu_AG/fu_arch/U106/Z (C8T28SOI_LL_NAND2X4_P16)    0.041 *    0.909 r
  core/fu_AG/fu_arch/U107/Z (C8T28SOI_LL_NAND2X4_P16)    0.025 *    0.934 f
  core/fu_AG/fu_arch/U112/Z (C8T28SOI_LL_OAI211X3_P16)
                                                         0.039 *    0.973 r
  core/fu_AG/fu_arch/U180/Z (C8T28SOI_LL_NAND2X2_P16)    0.054 *    1.027 f
  core/fu_AG/fu_arch/U183/Z (C8T28SOI_LL_NAND3X3_P16)    0.038 *    1.065 r
  core/fu_AG/fu_arch/U219/Z (C8T28SOI_LL_IVX5_P16)       0.025 *    1.091 f
  core/fu_AG/fu_arch/U244/Z (C8T28SOI_LL_NOR2X4_P16)     0.048 *    1.139 r
  core/fu_AG/fu_arch/U245/Z (C8T28SOI_LL_IVX5_P16)       0.029 *    1.168 f
  core/fu_AG/fu_arch/U63/Z (C8T28SOI_LL_AND2X5_P16)      0.046 *    1.214 f
  core/fu_AG/fu_arch/U248/Z (C8T28SOIDV_LLS_XNOR2X4_P16)
                                                         0.030 *    1.243 r
  core/fu_AG/fu_arch/U249/Z (C8T28SOI_LL_NAND2X4_P16)    0.022 *    1.265 f
  core/fu_AG/fu_arch/U250/Z (C8T28SOI_LL_OAI12X3_P16)    0.029 *    1.295 r
  core/fu_AG/fu_arch/U251/Z (C8T28SOI_LL_NAND2X4_P16)    0.053 *    1.348 f
  core/fu_AG/fu_arch/U267/Z (C8T28SOI_LL_OAI12X3_P16)    0.068 *    1.416 r
  core/fu_AG/fu_arch/U282/Z (C8T28SOI_LL_AOI12X3_P16)    0.040 *    1.456 f
  core/fu_AG/fu_arch/U283/Z (C8T28SOI_LL_IVX5_P16)       0.032 *    1.489 r
  core/fu_AG/fu_arch/U57/Z (C8T28SOI_LL_AO12X10_P16)     0.065 *    1.554 r
  core/fu_AG/fu_arch/U320/Z (C8T28SOI_LL_AOI21X6_P16)    0.040 *    1.594 f
  core/fu_AG/fu_arch/U333/Z (C8T28SOI_LL_OAI21X7_P16)    0.052 *    1.646 r
  core/fu_AG/fu_arch/U346/Z (C8T28SOI_LL_AOI12X3_P16)    0.033 *    1.679 f
  core/fu_AG/fu_arch/U347/Z (C8T28SOI_LL_IVX5_P16)       0.031 *    1.710 r
  core/fu_AG/fu_arch/U362/Z (C8T28SOI_LL_AOI12X3_P16)    0.029 *    1.739 f
  core/fu_AG/fu_arch/U363/Z (C8T28SOI_LL_IVX10_P16)      0.025 *    1.764 r
  core/fu_AG/fu_arch/U374/Z (C8T28SOI_LL_AOI21X6_P16)    0.028 *    1.792 f
  core/fu_AG/fu_arch/U382/Z (C8T28SOI_LL_OAI21X7_P16)    0.044 *    1.835 r
  core/fu_AG/fu_arch/U56/Z (C8T28SOI_LL_AO12X10_P16)     0.061 *    1.896 r
  core/fu_AG/fu_arch/U401/Z (C8T28SOI_LL_AOI12X3_P16)    0.033 *    1.929 f
  core/fu_AG/fu_arch/U409/Z (C8T28SOI_LL_OAI21X7_P16)    0.049 *    1.978 r
  core/fu_AG/fu_arch/U412/Z (C8T28SOI_LL_AOI12X3_P16)    0.041 *    2.019 f
  core/fu_AG/fu_arch/U413/Z (C8T28SOI_LL_NOR2X8_P16)     0.044 *    2.063 r
  core/fu_AG/fu_arch/U414/Z (C8T28SOI_LL_NAND2X8_P16)    0.032 *    2.095 f
  core/fu_AG/fu_arch/U415/Z (C8T28SOI_LL_NOR2X8_P16)     0.038 *    2.133 r
  core/fu_AG/fu_arch/U416/Z (C8T28SOIDV_LL_NAND2X9_P16)
                                                         0.031 *    2.164 f
  core/fu_AG/fu_arch/U417/Z (C8T28SOI_LL_NOR2X12_P16)    0.032 *    2.196 r
  core/fu_AG/fu_arch/U418/Z (C8T28SOIDV_LL_NAND2X9_P16)
                                                         0.027 *    2.223 f
  core/fu_AG/fu_arch/U419/Z (C8T28SOI_LL_NOR2X12_P16)    0.031 *    2.254 r
  core/fu_AG/fu_arch/U420/Z (C8T28SOIDV_LL_NAND2X9_P16)
                                                         0.025 *    2.279 f
  core/fu_AG/fu_arch/U421/Z (C8T28SOI_LL_NOR2X8_P16)     0.032 *    2.311 r
  core/fu_AG/fu_arch/U54/Z (C8T28SOI_LL_AND2X10_P16)     0.048 *    2.360 r
  core/fu_AG/fu_arch/U426/CO (C8T28SOI_LL_HA1X9_P16)     0.052 *    2.412 r
  core/fu_AG/fu_arch/U424/CO (C8T28SOIDV_LL_HA1X19_P16)
                                                         0.046 *    2.458 r
  core/fu_AG/fu_arch/U425/CO (C8T28SOIDV_LL_HA1X19_P16)
                                                         0.043 *    2.501 r
  core/fu_AG/fu_arch/U456/CO (C8T28SOIDV_LL_HA1X19_P16)
                                                         0.043 *    2.543 r
  core/fu_AG/fu_arch/U457/CO (C8T28SOIDV_LL_HA1X19_P16)
                                                         0.041 *    2.584 r
  core/fu_AG/fu_arch/U458/Z (C8T28SOIDV_LLS_XOR2X4_P16)
                                                         0.045 *    2.629 r
  core/fu_AG/fu_arch/addr_o[31] (ag_arith_dataw32_nexpw4_idxw16_stagew3_mau_shift2)
                                                         0.000      2.629 r
  core/fu_AG/r1data[31] (fu_ag_always_2_dataw32_busw32_nexpw4)
                                                         0.000      2.629 r
  core/ic/socket_AG_o1_data0[31] (tta0_interconn)        0.000      2.629 r
  core/ic/AG_o1/data0[31] (tta0_output_socket_cons_2_1_BUSW_032_BUSW_132_DATAW_032_1)
                                                         0.000      2.629 r
  core/ic/AG_o1/clk_r_REG1304_S34/D (C8T28SOIDV_LL_DFPRQX10_P16)
                                                         0.000 *    2.629 r
  data arrival time                                                 2.629

  clock clk (rise edge)                                  2.857      2.857
  clock network delay (ideal)                            0.010      2.867
  clock uncertainty                                     -0.010      2.857
  core/ic/AG_o1/clk_r_REG1304_S34/CP (C8T28SOIDV_LL_DFPRQX10_P16)
                                                         0.000      2.857 r
  library setup time                                    -0.039      2.818
  data required time                                                2.818
  --------------------------------------------------------------------------
  data required time                                                2.818
  data arrival time                                                -2.629
  --------------------------------------------------------------------------
  slack (MET)                                                       0.189


  Startpoint: core/fu_AG/fu_arch/clk_r_REG83_S14
              (rising edge-triggered flip-flop clocked by clk)
  Endpoint: core/ic/AG_o1/clk_r_REG1303_S34
            (rising edge-triggered flip-flop clocked by clk)
  Path Group: clk
  Path Type: max

  Point                                                   Incr       Path
  --------------------------------------------------------------------------
  clock clk (rise edge)                                  0.000      0.000
  clock network delay (ideal)                            0.010      0.010
  core/fu_AG/fu_arch/clk_r_REG83_S14/CP (C8T28SOIDV_LL_DFPRQX10_P16)
                                                         0.000      0.010 r
  core/fu_AG/fu_arch/clk_r_REG83_S14/Q (C8T28SOIDV_LL_DFPRQX10_P16)
                                                         0.128      0.138 r
  core/fu_AG/fu_arch/u0/nexp_i[3] (idx_stage_split_dataw32_nexpw4_stagew3_idxw16_0)
                                                         0.000      0.138 r
  core/fu_AG/fu_arch/u0/U6/Z (C8T28SOI_LL_IVX10_P16)     0.033 *    0.171 f
  core/fu_AG/fu_arch/u0/U8/Z (C8T28SOI_LL_NAND2X4_P16)
                                                         0.053 *    0.224 r
  core/fu_AG/fu_arch/u0/U25/Z (C8T28SOI_LL_OAI12X3_P16)
                                                         0.045 *    0.269 f
  core/fu_AG/fu_arch/u0/U27/Z (C8T28SOI_LL_OAI12X3_P16)
                                                         0.032 *    0.301 r
  core/fu_AG/fu_arch/u0/U28/Z (C8T28SOI_LL_NAND2X2_P16)
                                                         0.031 *    0.332 f
  core/fu_AG/fu_arch/u0/U38/Z (C8T28SOI_LL_NOR2X4_P16)
                                                         0.061 *    0.394 r
  core/fu_AG/fu_arch/u0/stage_o[0] (idx_stage_split_dataw32_nexpw4_stagew3_idxw16_0)
                                                         0.000      0.394 r
  core/fu_AG/fu_arch/U10/Z (C8T28SOI_LL_AND2X10_P16)     0.073 *    0.466 r
  core/fu_AG/fu_arch/U11/Z (C8T28SOI_LL_IVX5_P16)        0.018 *    0.484 f
  core/fu_AG/fu_arch/U12/Z (C8T28SOI_LL_OAI21X7_P16)     0.030 *    0.515 r
  core/fu_AG/fu_arch/U32/Z (C8T28SOI_LL_NAND2X4_P16)     0.100 *    0.615 f
  core/fu_AG/fu_arch/U18/Z (C8T28SOI_LL_IVX5_P16)        0.132 *    0.746 r
  core/fu_AG/fu_arch/U103/Z (C8T28SOI_LL_AOI22X2_P16)    0.054 *    0.800 f
  core/fu_AG/fu_arch/U104/Z (C8T28SOI_LL_NAND2X4_P16)    0.038 *    0.838 r
  core/fu_AG/fu_arch/U105/Z (C8T28SOI_LL_NAND2X2_P16)    0.030 *    0.868 f
  core/fu_AG/fu_arch/U106/Z (C8T28SOI_LL_NAND2X4_P16)    0.041 *    0.909 r
  core/fu_AG/fu_arch/U107/Z (C8T28SOI_LL_NAND2X4_P16)    0.025 *    0.934 f
  core/fu_AG/fu_arch/U112/Z (C8T28SOI_LL_OAI211X3_P16)
                                                         0.039 *    0.973 r
  core/fu_AG/fu_arch/U180/Z (C8T28SOI_LL_NAND2X2_P16)    0.054 *    1.027 f
  core/fu_AG/fu_arch/U183/Z (C8T28SOI_LL_NAND3X3_P16)    0.038 *    1.065 r
  core/fu_AG/fu_arch/U219/Z (C8T28SOI_LL_IVX5_P16)       0.025 *    1.091 f
  core/fu_AG/fu_arch/U244/Z (C8T28SOI_LL_NOR2X4_P16)     0.048 *    1.139 r
  core/fu_AG/fu_arch/U245/Z (C8T28SOI_LL_IVX5_P16)       0.029 *    1.168 f
  core/fu_AG/fu_arch/U63/Z (C8T28SOI_LL_AND2X5_P16)      0.046 *    1.214 f
  core/fu_AG/fu_arch/U248/Z (C8T28SOIDV_LLS_XNOR2X4_P16)
                                                         0.030 *    1.243 r
  core/fu_AG/fu_arch/U249/Z (C8T28SOI_LL_NAND2X4_P16)    0.022 *    1.265 f
  core/fu_AG/fu_arch/U250/Z (C8T28SOI_LL_OAI12X3_P16)    0.029 *    1.295 r
  core/fu_AG/fu_arch/U251/Z (C8T28SOI_LL_NAND2X4_P16)    0.053 *    1.348 f
  core/fu_AG/fu_arch/U267/Z (C8T28SOI_LL_OAI12X3_P16)    0.068 *    1.416 r
  core/fu_AG/fu_arch/U282/Z (C8T28SOI_LL_AOI12X3_P16)    0.040 *    1.456 f
  core/fu_AG/fu_arch/U283/Z (C8T28SOI_LL_IVX5_P16)       0.032 *    1.489 r
  core/fu_AG/fu_arch/U57/Z (C8T28SOI_LL_AO12X10_P16)     0.065 *    1.554 r
  core/fu_AG/fu_arch/U320/Z (C8T28SOI_LL_AOI21X6_P16)    0.040 *    1.594 f
  core/fu_AG/fu_arch/U333/Z (C8T28SOI_LL_OAI21X7_P16)    0.052 *    1.646 r
  core/fu_AG/fu_arch/U346/Z (C8T28SOI_LL_AOI12X3_P16)    0.033 *    1.679 f
  core/fu_AG/fu_arch/U347/Z (C8T28SOI_LL_IVX5_P16)       0.031 *    1.710 r
  core/fu_AG/fu_arch/U362/Z (C8T28SOI_LL_AOI12X3_P16)    0.029 *    1.739 f
  core/fu_AG/fu_arch/U363/Z (C8T28SOI_LL_IVX10_P16)      0.025 *    1.764 r
  core/fu_AG/fu_arch/U374/Z (C8T28SOI_LL_AOI21X6_P16)    0.028 *    1.792 f
  core/fu_AG/fu_arch/U382/Z (C8T28SOI_LL_OAI21X7_P16)    0.044 *    1.835 r
  core/fu_AG/fu_arch/U56/Z (C8T28SOI_LL_AO12X10_P16)     0.061 *    1.896 r
  core/fu_AG/fu_arch/U401/Z (C8T28SOI_LL_AOI12X3_P16)    0.033 *    1.929 f
  core/fu_AG/fu_arch/U409/Z (C8T28SOI_LL_OAI21X7_P16)    0.049 *    1.978 r
  core/fu_AG/fu_arch/U412/Z (C8T28SOI_LL_AOI12X3_P16)    0.041 *    2.019 f
  core/fu_AG/fu_arch/U413/Z (C8T28SOI_LL_NOR2X8_P16)     0.044 *    2.063 r
  core/fu_AG/fu_arch/U414/Z (C8T28SOI_LL_NAND2X8_P16)    0.032 *    2.095 f
  core/fu_AG/fu_arch/U415/Z (C8T28SOI_LL_NOR2X8_P16)     0.038 *    2.133 r
  core/fu_AG/fu_arch/U416/Z (C8T28SOIDV_LL_NAND2X9_P16)
                                                         0.031 *    2.164 f
  core/fu_AG/fu_arch/U417/Z (C8T28SOI_LL_NOR2X12_P16)    0.032 *    2.196 r
  core/fu_AG/fu_arch/U418/Z (C8T28SOIDV_LL_NAND2X9_P16)
                                                         0.027 *    2.223 f
  core/fu_AG/fu_arch/U419/Z (C8T28SOI_LL_NOR2X12_P16)    0.031 *    2.254 r
  core/fu_AG/fu_arch/U420/Z (C8T28SOIDV_LL_NAND2X9_P16)
                                                         0.025 *    2.279 f
  core/fu_AG/fu_arch/U421/Z (C8T28SOI_LL_NOR2X8_P16)     0.032 *    2.311 r
  core/fu_AG/fu_arch/U54/Z (C8T28SOI_LL_AND2X10_P16)     0.048 *    2.360 r
  core/fu_AG/fu_arch/U426/CO (C8T28SOI_LL_HA1X9_P16)     0.052 *    2.412 r
  core/fu_AG/fu_arch/U424/CO (C8T28SOIDV_LL_HA1X19_P16)
                                                         0.046 *    2.458 r
  core/fu_AG/fu_arch/U425/CO (C8T28SOIDV_LL_HA1X19_P16)
                                                         0.043 *    2.501 r
  core/fu_AG/fu_arch/U456/CO (C8T28SOIDV_LL_HA1X19_P16)
                                                         0.043 *    2.543 r
  core/fu_AG/fu_arch/U457/S0 (C8T28SOIDV_LL_HA1X19_P16)
                                                         0.073 *    2.616 f
  core/fu_AG/fu_arch/addr_o[30] (ag_arith_dataw32_nexpw4_idxw16_stagew3_mau_shift2)
                                                         0.000      2.616 f
  core/fu_AG/r1data[30] (fu_ag_always_2_dataw32_busw32_nexpw4)
                                                         0.000      2.616 f
  core/ic/socket_AG_o1_data0[30] (tta0_interconn)        0.000      2.616 f
  core/ic/AG_o1/data0[30] (tta0_output_socket_cons_2_1_BUSW_032_BUSW_132_DATAW_032_1)
                                                         0.000      2.616 f
  core/ic/AG_o1/clk_r_REG1303_S34/D (C8T28SOIDV_LL_DFPRQX10_P16)
                                                         0.000 *    2.616 f
  data arrival time                                                 2.616

  clock clk (rise edge)                                  2.857      2.857
  clock network delay (ideal)                            0.010      2.867
  clock uncertainty                                     -0.010      2.857
  core/ic/AG_o1/clk_r_REG1303_S34/CP (C8T28SOIDV_LL_DFPRQX10_P16)
                                                         0.000      2.857 r
  library setup time                                    -0.051      2.806
  data required time                                                2.806
  --------------------------------------------------------------------------
  data required time                                                2.806
  data arrival time                                                -2.616
  --------------------------------------------------------------------------
  slack (MET)                                                       0.190


  Startpoint: core/rf_rf_def/clk_r_REG1888_S38
              (rising edge-triggered flip-flop clocked by clk)
  Endpoint: core/ic/add_o1/clk_r_REG1013_S32
            (rising edge-triggered flip-flop clocked by clk)
  Path Group: clk
  Path Type: max

  Point                                                   Incr       Path
  --------------------------------------------------------------------------
  clock clk (rise edge)                                  0.000      0.000
  clock network delay (ideal)                            0.010      0.010
  core/rf_rf_def/clk_r_REG1888_S38/CP (C8T28SOIDV_LL_DFPRQX19_P10)
                                                         0.000      0.010 r
  core/rf_rf_def/clk_r_REG1888_S38/Q (C8T28SOIDV_LL_DFPRQX19_P10)
                                                         0.146      0.156 r
  core/rf_rf_def/U3/Z (C8T28SOIDV_LL_NOR2X39_P16)        0.061 *    0.216 f
  core/rf_rf_def/U12/Z (C8T28SOI_LL_AO222X10_P10)        0.105 *    0.322 f
  core/rf_rf_def/r1data[1] (rf_1wr_1rd_always_1_guarded_0_dataw32_rf_size3)
                                                         0.000      0.322 f
  core/ic/socket_rf_def_o1_data0[1] (tta0_interconn)     0.000      0.322 f
  core/ic/rf_def_o1/data0[1] (tta0_output_socket_cons_2_1_BUSW_032_BUSW_132_DATAW_032_0)
                                                         0.000      0.322 f
  core/ic/rf_def_o1/U1/Z (C8T28SOI_LL_AND2X10_P16)       0.039 *    0.361 f
  core/ic/rf_def_o1/databus0_alt[1] (tta0_output_socket_cons_2_1_BUSW_032_BUSW_132_DATAW_032_0)
                                                         0.000      0.361 f
  core/ic/U9/Z (C8T28SOI_LL_OR3X14_P16)                  0.067 *    0.429 f
  core/ic/CMUL_i2/databus0[1] (tta0_input_socket_cons_1_BUSW_032_DATAW32_9)
                                                         0.000      0.429 f
  core/ic/CMUL_i2/U30/Z (C8T28SOI_LL_BFX5_P16)           0.046 *    0.475 f
  core/ic/CMUL_i2/data[1] (tta0_input_socket_cons_1_BUSW_032_DATAW32_9)
                                                         0.000      0.475 f
  core/ic/AG_i2/databus0[1] (tta0_input_socket_cons_1_BUSW_032_DATAW4_1)
                                                         0.000      0.475 f
  core/ic/AG_i2/U2/Z (C8T28SOI_LL_BFX5_P16)              0.050 *    0.525 f
  core/ic/AG_i2/data[1] (tta0_input_socket_cons_1_BUSW_032_DATAW4_1)
                                                         0.000      0.525 f
  core/ic/socket_add_i2_data[1] (tta0_interconn)         0.000      0.525 f
  core/fu_add/o1data[1] (fu_add_sub_always_1_dataw32_busw32)
                                                         0.000      0.525 f
  core/fu_add/U8/Z (C8T28SOI_LL_AOI22X2_P16)             0.059 *    0.584 r
  core/fu_add/U9/Z (C8T28SOI_LL_IVX3_P16)                0.045 *    0.629 f
  core/fu_add/fu_arch/B[1] (add_sub_arith_dataw32)       0.000      0.629 f
  core/fu_add/fu_arch/U61/Z (C8T28SOIDV_LLS_XOR2X4_P16)
                                                         0.055 *    0.684 f
  core/fu_add/fu_arch/U64/Z (C8T28SOI_LL_NAND2X2_P16)    0.049 *    0.734 r
  core/fu_add/fu_arch/U65/Z (C8T28SOI_LL_IVX3_P16)       0.026 *    0.759 f
  core/fu_add/fu_arch/U66/Z (C8T28SOI_LL_AOI12X3_P16)    0.048 *    0.807 r
  core/fu_add/fu_arch/U68/Z (C8T28SOI_LL_OAI12X3_P16)    0.050 *    0.857 f
  core/fu_add/fu_arch/U71/Z (C8T28SOI_LL_AOI12X3_P16)    0.056 *    0.914 r
  core/fu_add/fu_arch/U73/Z (C8T28SOI_LL_OAI12X3_P16)    0.049 *    0.962 f
  core/fu_add/fu_arch/U76/Z (C8T28SOI_LL_AOI12X3_P16)    0.054 *    1.016 r
  core/fu_add/fu_arch/U78/Z (C8T28SOI_LL_OAI12X3_P16)    0.047 *    1.063 f
  core/fu_add/fu_arch/U81/Z (C8T28SOI_LL_AOI12X3_P16)    0.054 *    1.118 r
  core/fu_add/fu_arch/U83/Z (C8T28SOI_LL_OAI12X3_P16)    0.049 *    1.167 f
  core/fu_add/fu_arch/U86/Z (C8T28SOI_LL_AOI12X3_P16)    0.057 *    1.224 r
  core/fu_add/fu_arch/U88/Z (C8T28SOI_LL_OAI12X3_P16)    0.048 *    1.272 f
  core/fu_add/fu_arch/U91/Z (C8T28SOI_LL_AOI12X3_P16)    0.054 *    1.327 r
  core/fu_add/fu_arch/U93/Z (C8T28SOI_LL_OAI12X3_P16)    0.050 *    1.376 f
  core/fu_add/fu_arch/U96/Z (C8T28SOI_LL_AOI12X3_P16)    0.056 *    1.432 r
  core/fu_add/fu_arch/U98/Z (C8T28SOI_LL_OAI12X3_P16)    0.049 *    1.481 f
  core/fu_add/fu_arch/U101/Z (C8T28SOI_LL_AOI12X3_P16)
                                                         0.055 *    1.536 r
  core/fu_add/fu_arch/U103/Z (C8T28SOI_LL_OAI12X3_P16)
                                                         0.048 *    1.583 f
  core/fu_add/fu_arch/U106/Z (C8T28SOI_LL_AOI12X3_P16)
                                                         0.054 *    1.637 r
  core/fu_add/fu_arch/U108/Z (C8T28SOI_LL_OAI12X3_P16)
                                                         0.048 *    1.686 f
  core/fu_add/fu_arch/U111/Z (C8T28SOI_LL_AOI12X3_P16)
                                                         0.056 *    1.742 r
  core/fu_add/fu_arch/U113/Z (C8T28SOI_LL_OAI12X3_P16)
                                                         0.049 *    1.791 f
  core/fu_add/fu_arch/U116/Z (C8T28SOI_LL_AOI12X3_P16)
                                                         0.054 *    1.846 r
  core/fu_add/fu_arch/U118/Z (C8T28SOI_LL_OAI12X3_P16)
                                                         0.047 *    1.893 f
  core/fu_add/fu_arch/U121/CO (C8T28SOIDV_LL_FA1X5_P16)
                                                         0.096 *    1.989 f
  core/fu_add/fu_arch/U169/CO (C8T28SOIDV_LL_FA1X5_P16)
                                                         0.091 *    2.080 f
  core/fu_add/fu_arch/U124/CO (C8T28SOIDV_LL_FA1X5_P16)
                                                         0.091 *    2.171 f
  core/fu_add/fu_arch/U168/CO (C8T28SOIDV_LL_FA1X5_P16)
                                                         0.091 *    2.261 f
  core/fu_add/fu_arch/U161/CO (C8T28SOIDV_LL_FA1X5_P16)
                                                         0.090 *    2.351 f
  core/fu_add/fu_arch/U167/CO (C8T28SOIDV_LL_FA1X5_P16)
                                                         0.091 *    2.443 f
  core/fu_add/fu_arch/U166/CO (C8T28SOIDV_LL_FA1X5_P16)
                                                         0.092 *    2.535 f
  core/fu_add/fu_arch/U164/S0 (C8T28SOIDV_LLS1_FA1X4_P16)
                                                         0.071 *    2.606 f
  core/fu_add/fu_arch/S[30] (add_sub_arith_dataw32)      0.000      2.606 f
  core/fu_add/r1data[30] (fu_add_sub_always_1_dataw32_busw32)
                                                         0.000      2.606 f
  core/ic/socket_add_o1_data0[30] (tta0_interconn)       0.000      2.606 f
  core/ic/add_o1/data0[30] (tta0_output_socket_cons_3_1_BUSW_032_BUSW_132_BUSW_232_DATAW_032_1)
                                                         0.000      2.606 f
  core/ic/add_o1/clk_r_REG1013_S32/D (C8T28SOIDV_LL_DFPRQX10_P16)
                                                         0.000 *    2.606 f
  data arrival time                                                 2.606

  clock clk (rise edge)                                  2.857      2.857
  clock network delay (ideal)                            0.010      2.867
  clock uncertainty                                     -0.010      2.857
  core/ic/add_o1/clk_r_REG1013_S32/CP (C8T28SOIDV_LL_DFPRQX10_P16)
                                                         0.000      2.857 r
  library setup time                                    -0.053      2.804
  data required time                                                2.804
  --------------------------------------------------------------------------
  data required time                                                2.804
  data arrival time                                                -2.606
  --------------------------------------------------------------------------
  slack (MET)                                                       0.198


  Startpoint: core/inst_decoder/clk_r_REG1933_S38
              (rising edge-triggered flip-flop clocked by clk)
  Endpoint: core/fu_CMUL/fu_arch/DP_OP_26J13_123_449/clk_r_REG845_S21
            (rising edge-triggered flip-flop clocked by clk)
  Path Group: clk
  Path Type: max

  Point                                                   Incr       Path
  --------------------------------------------------------------------------
  clock clk (rise edge)                                  0.000      0.000
  clock network delay (ideal)                            0.010      0.010
  core/inst_decoder/clk_r_REG1933_S38/CP (C8T28SOIDV_LL_DFPRQX19_P16)
                                                         0.000      0.010 r
  core/inst_decoder/clk_r_REG1933_S38/Q (C8T28SOIDV_LL_DFPRQX19_P16)
                                                         0.161      0.171 r
  core/inst_decoder/socket_TFG_o1_bus_cntrl[0] (tta0_decoder)
                                                         0.000      0.171 r
  core/ic/socket_TFG_o1_bus_cntrl[0] (tta0_interconn)    0.000      0.171 r
  core/ic/TFG_o1/databus_cntrl[0] (tta0_output_socket_cons_1_1_BUSW_032_DATAW_032_2)
                                                         0.000      0.171 r
  core/ic/TFG_o1/U3/Z (C8T28SOI_LL_AND2X5_P16)           0.080 *    0.251 r
  core/ic/TFG_o1/databus0_alt[18] (tta0_output_socket_cons_1_1_BUSW_032_DATAW_032_2)
                                                         0.000      0.251 r
  core/ic/CMUL_i1/databus0[18] (tta0_input_socket_cons_1_BUSW_032_DATAW32_10)
                                                         0.000      0.251 r
  core/ic/CMUL_i1/U14/Z (C8T28SOI_LL_BFX5_P16)           0.106 *    0.357 r
  core/ic/CMUL_i1/data[18] (tta0_input_socket_cons_1_BUSW_032_DATAW32_10)
                                                         0.000      0.357 r
  core/ic/socket_CMUL_i1_data[18] (tta0_interconn)       0.000      0.357 r
  core/fu_CMUL/t1data[18] (fu_cmul_always_3_dataw32_busw32)
                                                         0.000      0.357 r
  core/fu_CMUL/fu_arch/A[18] (cmul_pipe_1_dataw32_halfw16)
                                                         0.000      0.357 r
  core/fu_CMUL/fu_arch/U239/Z (C8T28SOI_LL_IVX3_P16)     0.093 *    0.450 f
  core/fu_CMUL/fu_arch/U240/Z (C8T28SOI_LL_AOI22X12_P16)
                                                         0.101 *    0.551 r
  core/fu_CMUL/fu_arch/U246/Z (C8T28SOI_LL_OAI112X6_P16)
                                                         0.126 *    0.677 f
  core/fu_CMUL/fu_arch/U731/Z (C8T28SOI_LL_OAI22X6_P16)
                                                         0.097 *    0.774 r
  core/fu_CMUL/fu_arch/U746/S0 (C8T28SOIDV_LL_FA1X5_P16)
                                                         0.129 *    0.903 f
  core/fu_CMUL/fu_arch/U759/CO (C8T28SOIDV_LL_FA1X5_P16)
                                                         0.098 *    1.001 f
  core/fu_CMUL/fu_arch/U762/S0 (C8T28SOIDV_LLS1_FA1X4_P16)
                                                         0.084 *    1.085 f
  core/fu_CMUL/fu_arch/U1100/Z (C8T28SOI_LL_OAI12X10_P16)
                                                         0.033 *    1.119 r
  core/fu_CMUL/fu_arch/U766/Z (C8T28SOIDV_LL_NAND2X9_P16)
                                                         0.019 *    1.137 f
  core/fu_CMUL/fu_arch/U206/Z (C8T28SOI_LL_OAI12X3_P16)
                                                         0.027 *    1.164 r
  core/fu_CMUL/fu_arch/U767/Z (C8T28SOI_LL_NAND2X4_P16)
                                                         0.027 *    1.192 f
  core/fu_CMUL/fu_arch/U770/Z (C8T28SOI_LL_OAI12X3_P16)
                                                         0.033 *    1.225 r
  core/fu_CMUL/fu_arch/U771/Z (C8T28SOI_LL_NAND2X4_P16)
                                                         0.029 *    1.254 f
  core/fu_CMUL/fu_arch/U774/Z (C8T28SOI_LL_OAI12X3_P16)
                                                         0.034 *    1.288 r
  core/fu_CMUL/fu_arch/U775/Z (C8T28SOI_LL_NAND2X4_P16)
                                                         0.027 *    1.315 f
  core/fu_CMUL/fu_arch/U777/Z (C8T28SOIDV_LL_PAO2X10_P16)
                                                         0.070 *    1.386 f
  core/fu_CMUL/fu_arch/U193/Z (C8T28SOI_LL_OA12X5_P16)
                                                         0.042 *    1.428 f
  core/fu_CMUL/fu_arch/U264/Z (C8T28SOI_LL_OAI22X8_P16)
                                                         0.027 *    1.456 r
  core/fu_CMUL/fu_arch/U780/Z (C8T28SOIDV_LL_NAND2X9_P16)
                                                         0.028 *    1.484 f
  core/fu_CMUL/fu_arch/U781/Z (C8T28SOI_LL_OAI21X10_P16)
                                                         0.020 *    1.504 r
  core/fu_CMUL/fu_arch/U261/Z (C8T28SOIDV_LL_NAND2X9_P16)
                                                         0.024 *    1.528 f
  core/fu_CMUL/fu_arch/U258/Z (C8T28SOI_LL_OAI21X10_P16)
                                                         0.017 *    1.545 r
  core/fu_CMUL/fu_arch/U248/Z (C8T28SOIDV_LL_NAND2X9_P16)
                                                         0.023 *    1.569 f
  core/fu_CMUL/fu_arch/U785/Z (C8T28SOI_LL_OAI21X10_P16)
                                                         0.019 *    1.587 r
  core/fu_CMUL/fu_arch/U247/Z (C8T28SOIDV_LL_NAND2X9_P16)
                                                         0.023 *    1.611 f
  core/fu_CMUL/fu_arch/U242/Z (C8T28SOI_LL_OAI21X10_P16)
                                                         0.020 *    1.630 r
  core/fu_CMUL/fu_arch/U241/Z (C8T28SOIDV_LL_NAND2X18_P16)
                                                         0.023 *    1.654 f
  core/fu_CMUL/fu_arch/U2065/CO (C8T28SOIDV_LLS1_FA1X4_P16)
                                                         0.056 *    1.709 f
  core/fu_CMUL/fu_arch/U924/CO (C8T28SOIDV_LLS1_FA1X4_P16)
                                                         0.078 *    1.788 f
  core/fu_CMUL/fu_arch/U1084/Z (C8T28SOIDV_LL_NAND2AX9_P16)
                                                         0.036 *    1.824 r
  core/fu_CMUL/fu_arch/U1083/Z (C8T28SOIDV_LL_NAND2AX9_P16)
                                                         0.020 *    1.844 f
  core/fu_CMUL/fu_arch/U861/CO (C8T28SOIDV_LLS1_FA1X4_P16)
                                                         0.059 *    1.903 f
  core/fu_CMUL/fu_arch/U187/Z (C8T28SOI_LL_NAND2AX4_P16)
                                                         0.037 *    1.940 r
  core/fu_CMUL/fu_arch/U1089/Z (C8T28SOIDV_LL_NAND2AX9_P16)
                                                         0.022 *    1.962 f
  core/fu_CMUL/fu_arch/U923/CO (C8T28SOIDV_LLS1_FA1X4_P16)
                                                         0.055 *    2.017 f
  core/fu_CMUL/fu_arch/U2052/CO (C8T28SOIDV_LLS1_FA1X4_P16)
                                                         0.067 *    2.084 f
  core/fu_CMUL/fu_arch/U1011/CO (C8T28SOIDV_LLS1_FA1X4_P16)
                                                         0.070 *    2.154 f
  core/fu_CMUL/fu_arch/U39/Z (C8T28SOI_LL_NAND2AX4_P16)
                                                         0.036 *    2.190 r
  core/fu_CMUL/fu_arch/U1081/Z (C8T28SOIDV_LL_NAND2AX9_P16)
                                                         0.021 *    2.211 f
  core/fu_CMUL/fu_arch/U1012/CO (C8T28SOIDV_LLS1_FA1X4_P16)
                                                         0.054 *    2.264 f
  core/fu_CMUL/fu_arch/U35/Z (C8T28SOI_LL_NAND2AX4_P16)
                                                         0.033 *    2.298 r
  core/fu_CMUL/fu_arch/U224/Z (C8T28SOIDV_LL_NAND2X9_P16)
                                                         0.021 *    2.319 f
  core/fu_CMUL/fu_arch/U1037/CO (C8T28SOIDV_LLS1_FA1X4_P16)
                                                         0.054 *    2.373 f
  core/fu_CMUL/fu_arch/U2063/CO (C8T28SOIDV_LLS1_FA1X4_P16)
                                                         0.067 *    2.440 f
  core/fu_CMUL/fu_arch/U24/Z (C8T28SOI_LL_NAND2AX4_P16)
                                                         0.034 *    2.474 r
  core/fu_CMUL/fu_arch/U221/Z (C8T28SOIDV_LL_NAND2X9_P16)
                                                         0.021 *    2.495 f
  core/fu_CMUL/fu_arch/U2070/CO (C8T28SOIDV_LLS1_FA1X4_P16)
                                                         0.054 *    2.549 f
  core/fu_CMUL/fu_arch/U1093/Z (C8T28SOIDV_LLS_XNOR2X4_P16)
                                                         0.050 *    2.599 f
  core/fu_CMUL/fu_arch/DP_OP_26J13_123_449/clk_r_REG845_S21/D (C8T28SOIDV_LL_DFPRQX10_P16)
                                                         0.000 *    2.599 f
  data arrival time                                                 2.599

  clock clk (rise edge)                                  2.857      2.857
  clock network delay (ideal)                            0.010      2.867
  clock uncertainty                                     -0.010      2.857
  core/fu_CMUL/fu_arch/DP_OP_26J13_123_449/clk_r_REG845_S21/CP (C8T28SOIDV_LL_DFPRQX10_P16)
                                                         0.000      2.857 r
  library setup time                                    -0.054      2.803
  data required time                                                2.803
  --------------------------------------------------------------------------
  data required time                                                2.803
  data arrival time                                                -2.599
  --------------------------------------------------------------------------
  slack (MET)                                                       0.204


1
