********************************************************************************
                        Threshold Voltage Group Report                         

Vth Group                All                Blackbox           Non-blackbox
Name                    cells                cells                cells
********************************************************************************
undefined           16684 (100.00%)        118 (100.00%)      16566 (100.00%)   
********************************************************************************

Vth Group                All                Blackbox           Non-blackbox
Name                  cell area            cell area            cell area
********************************************************************************
undefined       109677.04 (100.00%)   96348.50 (100.00%)   13328.54 (100.00%)   
********************************************************************************
1
