Information: Updating design information... (UID-85)
 
****************************************
Report : timing
        -path full
        -delay max
        -max_paths 10
Design : proc
Version: M-2016.12-SP5-1
Date   : Sat Jul 28 21:55:30 2018
****************************************

 * Some/all delay information is back-annotated.

Operating Conditions: tt28_0.95V_0.00V_0.00V_0.00V_25C   Library: C28SOI_SC_8_CLK_LL
Wire Load Model Mode: Inactive.

  Startpoint: core/loopbuffer/clk_r_REG624_S42
              (rising edge-triggered flip-flop clocked by clk)
  Endpoint: datamem/dmem_2/cacti_mem_x_6/mem_1024x32
            (rising edge-triggered flip-flop clocked by clk)
  Path Group: clk
  Path Type: max

  Point                                                   Incr       Path
  --------------------------------------------------------------------------
  clock clk (rise edge)                                  0.000      0.000
  clock network delay (ideal)                            0.010      0.010
  core/loopbuffer/clk_r_REG624_S42/CP (C8T28SOIDV_LL_DFPRQX10_P16)
                                                         0.000      0.010 r
  core/loopbuffer/clk_r_REG624_S42/Q (C8T28SOIDV_LL_DFPRQX10_P16)
                                                         0.066      0.076 f
  core/loopbuffer/U31/Z (C8T28SOI_LL_NOR2X4_P16)         0.033 *    0.109 r
  core/loopbuffer/U32/Z (C8T28SOI_LL_IVX5_P16)           0.029 *    0.138 f
  core/loopbuffer/U36/Z (C8T28SOI_LL_AOI22X2_P16)        0.207 *    0.344 r
  core/loopbuffer/U19/Z (C8T28SOI_LL_BFX5_P16)           0.180 *    0.524 r
  core/loopbuffer/U608/Z (C8T28SOI_LL_OA22X5_P16)        0.090 *    0.614 r
  core/loopbuffer/glock_out (tta0_loopbuf_1_32_51_1_0)
                                                         0.000      0.614 r
  core/inst_decoder/lock (tta0_decoder)                  0.000      0.614 r
  core/inst_decoder/U63/Z (C8T28SOI_LL_NOR2X4_P16)       0.024 *    0.638 f
  core/inst_decoder/U64/Z (C8T28SOI_LL_NAND2AX2_P16)     0.033 *    0.671 r
  core/inst_decoder/glock[7] (tta0_decoder)              0.000      0.671 r
  U294/Z (C8T28SOI_LL_BFX9_P16)                          0.141 *    0.812 r
  core/fu_lsu_r/glock (fu_ldw_stw_always_4_dataw32_addrw16_1)
                                                         0.000      0.812 r
  core/fu_lsu_r/U128/Z (C8T28SOI_LL_OR2X5_P16)           0.100 *    0.911 r
  core/fu_lsu_r/mem_en_x[0] (fu_ldw_stw_always_4_dataw32_addrw16_1)
                                                         0.000      0.911 r
  U160/Z (C8T28SOI_LL_NOR2AX4_P16)                       0.339 *    1.250 r
  U300/Z (C8T28SOI_LL_IVX3_P16)                          0.261 *    1.512 f
  U242/Z (C8T28SOI_LL_AOI22X2_P16)                       0.091 *    1.603 r
  U243/Z (C8T28SOI_LL_IVX3_P16)                          0.029 *    1.632 f
  datamem/scheduler/lsu_addr_a[7] (par_mem_scheduler_dataw32_addrw14_ports2_rd_delay1)
                                                         0.000      1.632 f
  datamem/scheduler/addr_a_conv/data_in[7] (ser_par_conv_portw14_port_cnt2_1)
                                                         0.000      1.632 f
  datamem/scheduler/addr_a_conv/U24/Z (C8T28SOI_LL_IVX3_P16)
                                                         0.022 *    1.655 r
  datamem/scheduler/addr_a_conv/U25/Z (C8T28SOI_LL_IVX3_P16)
                                                         0.016 *    1.671 f
  datamem/scheduler/addr_a_conv/data_out[7] (ser_par_conv_portw14_port_cnt2_1)
                                                         0.000      1.671 f
  datamem/scheduler/U166/Z (C8T28SOI_LL_AOI22X2_P16)     0.045 *    1.716 r
  datamem/scheduler/U167/Z (C8T28SOI_LL_IVX3_P16)        0.043 *    1.758 f
  datamem/scheduler/addr[7] (par_mem_scheduler_dataw32_addrw14_ports2_rd_delay1)
                                                         0.000      1.758 f
  datamem/par_mem_logic_inst/addrs_from_lsus[7] (par_mem_logic_PORTS2_LSU_ADDRW14_CTRLW1_DATAW32_PM_FUNC2)
                                                         0.000      1.758 f
  datamem/par_mem_logic_inst/addr_crsbar_0/addrs_from_lsus[7] (addr_crsbar_PORTS2_LSU_ADDRW14_CTRLW1_PM_FUNC2)
                                                         0.000      1.758 f
  datamem/par_mem_logic_inst/addr_crsbar_0/U24/Z (C8T28SOI_LL_AOI22X2_P16)
                                                         0.067 *    1.825 r
  datamem/par_mem_logic_inst/addr_crsbar_0/U26/Z (C8T28SOIDV_LLS_XNOR2X4_P16)
                                                         0.057 *    1.882 r
  datamem/par_mem_logic_inst/addr_crsbar_0/U27/Z (C8T28SOI_LL_NAND2X2_P16)
                                                         0.024 *    1.906 f
  datamem/par_mem_logic_inst/addr_crsbar_0/U28/Z (C8T28SOI_LL_OAI12X3_P16)
                                                         0.029 *    1.935 r
  datamem/par_mem_logic_inst/addr_crsbar_0/U37/Z (C8T28SOIDV_LLS_XNOR2X4_P16)
                                                         0.038 *    1.974 r
  datamem/par_mem_logic_inst/addr_crsbar_0/U38/Z (C8T28SOI_LL_NAND2X2_P16)
                                                         0.021 *    1.995 f
  datamem/par_mem_logic_inst/addr_crsbar_0/U39/Z (C8T28SOI_LL_OAI12X3_P16)
                                                         0.028 *    2.023 r
  datamem/par_mem_logic_inst/addr_crsbar_0/U40/Z (C8T28SOIDV_LLS_XNOR2X4_P16)
                                                         0.040 *    2.063 r
  datamem/par_mem_logic_inst/addr_crsbar_0/U41/Z (C8T28SOI_LL_NAND2X2_P16)
                                                         0.022 *    2.085 f
  datamem/par_mem_logic_inst/addr_crsbar_0/U42/Z (C8T28SOI_LL_OAI12X3_P16)
                                                         0.029 *    2.114 r
  datamem/par_mem_logic_inst/addr_crsbar_0/U43/Z (C8T28SOIDV_LLS_XNOR2X4_P16)
                                                         0.022 *    2.136 f
  datamem/par_mem_logic_inst/addr_crsbar_0/U44/Z (C8T28SOI_LL_NAND2X2_P16)
                                                         0.022 *    2.158 r
  datamem/par_mem_logic_inst/addr_crsbar_0/U45/Z (C8T28SOI_LL_OAI12X3_P16)
                                                         0.039 *    2.196 f
  datamem/par_mem_logic_inst/addr_crsbar_0/module_nums[0] (addr_crsbar_PORTS2_LSU_ADDRW14_CTRLW1_PM_FUNC2)
                                                         0.000      2.196 f
  datamem/par_mem_logic_inst/ctrl_units_0/module_nums[0] (ctrl_units_PORTS2_CTRLW1)
                                                         0.000      2.196 f
  datamem/par_mem_logic_inst/ctrl_units_0/ctrl_uniti_0/module_num[0] (ctrl_unit_PORTS2_CTRLW1_1)
                                                         0.000      2.196 f
  datamem/par_mem_logic_inst/ctrl_units_0/ctrl_uniti_0/U15/Z (C8T28SOI_LL_NOR2AX4_P16)
                                                         0.045 *    2.241 r
  datamem/par_mem_logic_inst/ctrl_units_0/ctrl_uniti_0/U16/Z (C8T28SOI_LL_AOI22X2_P16)
                                                         0.029 *    2.270 f
  datamem/par_mem_logic_inst/ctrl_units_0/ctrl_uniti_0/U22/Z (C8T28SOI_LL_AND2X5_P16)
                                                         0.048 *    2.317 f
  datamem/par_mem_logic_inst/ctrl_units_0/ctrl_uniti_0/mem_en_x (ctrl_unit_PORTS2_CTRLW1_1)
                                                         0.000      2.317 f
  datamem/par_mem_logic_inst/ctrl_units_0/U18/Z (C8T28SOI_LL_NAND2AX2_P16)
                                                         0.076 *    2.393 f
  datamem/par_mem_logic_inst/ctrl_units_0/mem_en_xs[0] (ctrl_units_PORTS2_CTRLW1)
                                                         0.000      2.393 f
  datamem/par_mem_logic_inst/mem_en_xs[0] (par_mem_logic_PORTS2_LSU_ADDRW14_CTRLW1_DATAW32_PM_FUNC2)
                                                         0.000      2.393 f
  datamem/dmem_2/en_x (synch_singleport_mem_wrapper_DATAW32_ADDRW13_0)
                                                         0.000      2.393 f
  datamem/dmem_2/en_wr_arbiter/en (block_en_wr_arbiter_ADDRW13_NBLOCKS9_0)
                                                         0.000      2.393 f
  datamem/dmem_2/en_wr_arbiter/U6/Z (C8T28SOI_LL_IVX3_P16)
                                                         0.111 *    2.504 r
  datamem/dmem_2/en_wr_arbiter/U7/Z (C8T28SOI_LL_NAND2X2_P16)
                                                         0.098 *    2.602 f
  datamem/dmem_2/en_wr_arbiter/en_blocks[6] (block_en_wr_arbiter_ADDRW13_NBLOCKS9_0)
                                                         0.000      2.602 f
  datamem/dmem_2/cacti_mem_x_6/en_x (cacti_mem_wrapper_DATAW32_ADDRW10_0)
                                                         0.000      2.602 f
  datamem/dmem_2/cacti_mem_x_6/mem_1024x32/mem_en_x (ram_1024x32)
                                                         0.000 *    2.602 f
  data arrival time                                                 2.602

  clock clk (rise edge)                                  6.667      6.667
  clock network delay (ideal)                            0.010      6.677
  clock uncertainty                                     -0.010      6.667
  datamem/dmem_2/cacti_mem_x_6/mem_1024x32/clk (ram_1024x32)
                                                         0.000      6.667 r
  library setup time                                    -0.541      6.126
  data required time                                                6.126
  --------------------------------------------------------------------------
  data required time                                                6.126
  data arrival time                                                -2.602
  --------------------------------------------------------------------------
  slack (MET)                                                       3.524


  Startpoint: core/loopbuffer/clk_r_REG624_S42
              (rising edge-triggered flip-flop clocked by clk)
  Endpoint: datamem/dmem_2/cacti_mem_x_8/mem_4096x32
            (rising edge-triggered flip-flop clocked by clk)
  Path Group: clk
  Path Type: max

  Point                                                   Incr       Path
  --------------------------------------------------------------------------
  clock clk (rise edge)                                  0.000      0.000
  clock network delay (ideal)                            0.010      0.010
  core/loopbuffer/clk_r_REG624_S42/CP (C8T28SOIDV_LL_DFPRQX10_P16)
                                                         0.000      0.010 r
  core/loopbuffer/clk_r_REG624_S42/Q (C8T28SOIDV_LL_DFPRQX10_P16)
                                                         0.066      0.076 f
  core/loopbuffer/U31/Z (C8T28SOI_LL_NOR2X4_P16)         0.033 *    0.109 r
  core/loopbuffer/U32/Z (C8T28SOI_LL_IVX5_P16)           0.029 *    0.138 f
  core/loopbuffer/U36/Z (C8T28SOI_LL_AOI22X2_P16)        0.207 *    0.344 r
  core/loopbuffer/U19/Z (C8T28SOI_LL_BFX5_P16)           0.180 *    0.524 r
  core/loopbuffer/U608/Z (C8T28SOI_LL_OA22X5_P16)        0.090 *    0.614 r
  core/loopbuffer/glock_out (tta0_loopbuf_1_32_51_1_0)
                                                         0.000      0.614 r
  core/inst_decoder/lock (tta0_decoder)                  0.000      0.614 r
  core/inst_decoder/U63/Z (C8T28SOI_LL_NOR2X4_P16)       0.024 *    0.638 f
  core/inst_decoder/U64/Z (C8T28SOI_LL_NAND2AX2_P16)     0.033 *    0.671 r
  core/inst_decoder/glock[7] (tta0_decoder)              0.000      0.671 r
  U294/Z (C8T28SOI_LL_BFX9_P16)                          0.141 *    0.812 r
  core/fu_lsu_r/glock (fu_ldw_stw_always_4_dataw32_addrw16_1)
                                                         0.000      0.812 r
  core/fu_lsu_r/U128/Z (C8T28SOI_LL_OR2X5_P16)           0.100 *    0.911 r
  core/fu_lsu_r/mem_en_x[0] (fu_ldw_stw_always_4_dataw32_addrw16_1)
                                                         0.000      0.911 r
  U160/Z (C8T28SOI_LL_NOR2AX4_P16)                       0.339 *    1.250 r
  U300/Z (C8T28SOI_LL_IVX3_P16)                          0.261 *    1.512 f
  U242/Z (C8T28SOI_LL_AOI22X2_P16)                       0.091 *    1.603 r
  U243/Z (C8T28SOI_LL_IVX3_P16)                          0.029 *    1.632 f
  datamem/scheduler/lsu_addr_a[7] (par_mem_scheduler_dataw32_addrw14_ports2_rd_delay1)
                                                         0.000      1.632 f
  datamem/scheduler/addr_a_conv/data_in[7] (ser_par_conv_portw14_port_cnt2_1)
                                                         0.000      1.632 f
  datamem/scheduler/addr_a_conv/U24/Z (C8T28SOI_LL_IVX3_P16)
                                                         0.022 *    1.655 r
  datamem/scheduler/addr_a_conv/U25/Z (C8T28SOI_LL_IVX3_P16)
                                                         0.016 *    1.671 f
  datamem/scheduler/addr_a_conv/data_out[7] (ser_par_conv_portw14_port_cnt2_1)
                                                         0.000      1.671 f
  datamem/scheduler/U166/Z (C8T28SOI_LL_AOI22X2_P16)     0.045 *    1.716 r
  datamem/scheduler/U167/Z (C8T28SOI_LL_IVX3_P16)        0.043 *    1.758 f
  datamem/scheduler/addr[7] (par_mem_scheduler_dataw32_addrw14_ports2_rd_delay1)
                                                         0.000      1.758 f
  datamem/par_mem_logic_inst/addrs_from_lsus[7] (par_mem_logic_PORTS2_LSU_ADDRW14_CTRLW1_DATAW32_PM_FUNC2)
                                                         0.000      1.758 f
  datamem/par_mem_logic_inst/addr_crsbar_0/addrs_from_lsus[7] (addr_crsbar_PORTS2_LSU_ADDRW14_CTRLW1_PM_FUNC2)
                                                         0.000      1.758 f
  datamem/par_mem_logic_inst/addr_crsbar_0/U24/Z (C8T28SOI_LL_AOI22X2_P16)
                                                         0.067 *    1.825 r
  datamem/par_mem_logic_inst/addr_crsbar_0/U26/Z (C8T28SOIDV_LLS_XNOR2X4_P16)
                                                         0.057 *    1.882 r
  datamem/par_mem_logic_inst/addr_crsbar_0/U27/Z (C8T28SOI_LL_NAND2X2_P16)
                                                         0.024 *    1.906 f
  datamem/par_mem_logic_inst/addr_crsbar_0/U28/Z (C8T28SOI_LL_OAI12X3_P16)
                                                         0.029 *    1.935 r
  datamem/par_mem_logic_inst/addr_crsbar_0/U37/Z (C8T28SOIDV_LLS_XNOR2X4_P16)
                                                         0.038 *    1.974 r
  datamem/par_mem_logic_inst/addr_crsbar_0/U38/Z (C8T28SOI_LL_NAND2X2_P16)
                                                         0.021 *    1.995 f
  datamem/par_mem_logic_inst/addr_crsbar_0/U39/Z (C8T28SOI_LL_OAI12X3_P16)
                                                         0.028 *    2.023 r
  datamem/par_mem_logic_inst/addr_crsbar_0/U40/Z (C8T28SOIDV_LLS_XNOR2X4_P16)
                                                         0.040 *    2.063 r
  datamem/par_mem_logic_inst/addr_crsbar_0/U41/Z (C8T28SOI_LL_NAND2X2_P16)
                                                         0.022 *    2.085 f
  datamem/par_mem_logic_inst/addr_crsbar_0/U42/Z (C8T28SOI_LL_OAI12X3_P16)
                                                         0.029 *    2.114 r
  datamem/par_mem_logic_inst/addr_crsbar_0/U43/Z (C8T28SOIDV_LLS_XNOR2X4_P16)
                                                         0.022 *    2.136 f
  datamem/par_mem_logic_inst/addr_crsbar_0/U44/Z (C8T28SOI_LL_NAND2X2_P16)
                                                         0.022 *    2.158 r
  datamem/par_mem_logic_inst/addr_crsbar_0/U45/Z (C8T28SOI_LL_OAI12X3_P16)
                                                         0.039 *    2.196 f
  datamem/par_mem_logic_inst/addr_crsbar_0/module_nums[0] (addr_crsbar_PORTS2_LSU_ADDRW14_CTRLW1_PM_FUNC2)
                                                         0.000      2.196 f
  datamem/par_mem_logic_inst/ctrl_units_0/module_nums[0] (ctrl_units_PORTS2_CTRLW1)
                                                         0.000      2.196 f
  datamem/par_mem_logic_inst/ctrl_units_0/ctrl_uniti_0/module_num[0] (ctrl_unit_PORTS2_CTRLW1_1)
                                                         0.000      2.196 f
  datamem/par_mem_logic_inst/ctrl_units_0/ctrl_uniti_0/U15/Z (C8T28SOI_LL_NOR2AX4_P16)
                                                         0.045 *    2.241 r
  datamem/par_mem_logic_inst/ctrl_units_0/ctrl_uniti_0/U16/Z (C8T28SOI_LL_AOI22X2_P16)
                                                         0.029 *    2.270 f
  datamem/par_mem_logic_inst/ctrl_units_0/ctrl_uniti_0/U22/Z (C8T28SOI_LL_AND2X5_P16)
                                                         0.048 *    2.317 f
  datamem/par_mem_logic_inst/ctrl_units_0/ctrl_uniti_0/mem_en_x (ctrl_unit_PORTS2_CTRLW1_1)
                                                         0.000      2.317 f
  datamem/par_mem_logic_inst/ctrl_units_0/U18/Z (C8T28SOI_LL_NAND2AX2_P16)
                                                         0.076 *    2.393 f
  datamem/par_mem_logic_inst/ctrl_units_0/mem_en_xs[0] (ctrl_units_PORTS2_CTRLW1)
                                                         0.000      2.393 f
  datamem/par_mem_logic_inst/mem_en_xs[0] (par_mem_logic_PORTS2_LSU_ADDRW14_CTRLW1_DATAW32_PM_FUNC2)
                                                         0.000      2.393 f
  datamem/dmem_2/en_x (synch_singleport_mem_wrapper_DATAW32_ADDRW13_0)
                                                         0.000      2.393 f
  datamem/dmem_2/en_wr_arbiter/en (block_en_wr_arbiter_ADDRW13_NBLOCKS9_0)
                                                         0.000      2.393 f
  datamem/dmem_2/en_wr_arbiter/U6/Z (C8T28SOI_LL_IVX3_P16)
                                                         0.111 *    2.504 r
  datamem/dmem_2/en_wr_arbiter/U8/Z (C8T28SOI_LL_NAND2X2_P16)
                                                         0.092 *    2.596 f
  datamem/dmem_2/en_wr_arbiter/en_blocks[8] (block_en_wr_arbiter_ADDRW13_NBLOCKS9_0)
                                                         0.000      2.596 f
  datamem/dmem_2/cacti_mem_x_8/en_x (cacti_mem_wrapper_DATAW32_ADDRW12_0)
                                                         0.000      2.596 f
  datamem/dmem_2/cacti_mem_x_8/mem_4096x32/mem_en_x (ram_4096x32)
                                                         0.000 *    2.596 f
  data arrival time                                                 2.596

  clock clk (rise edge)                                  6.667      6.667
  clock network delay (ideal)                            0.010      6.677
  clock uncertainty                                     -0.010      6.667
  datamem/dmem_2/cacti_mem_x_8/mem_4096x32/clk (ram_4096x32)
                                                         0.000      6.667 r
  library setup time                                    -0.539      6.128
  data required time                                                6.128
  --------------------------------------------------------------------------
  data required time                                                6.128
  data arrival time                                                -2.596
  --------------------------------------------------------------------------
  slack (MET)                                                       3.532


  Startpoint: core/loopbuffer/clk_r_REG624_S42
              (rising edge-triggered flip-flop clocked by clk)
  Endpoint: datamem/dmem_2/cacti_mem_x_1/mem_32x32
            (rising edge-triggered flip-flop clocked by clk)
  Path Group: clk
  Path Type: max

  Point                                                   Incr       Path
  --------------------------------------------------------------------------
  clock clk (rise edge)                                  0.000      0.000
  clock network delay (ideal)                            0.010      0.010
  core/loopbuffer/clk_r_REG624_S42/CP (C8T28SOIDV_LL_DFPRQX10_P16)
                                                         0.000      0.010 r
  core/loopbuffer/clk_r_REG624_S42/Q (C8T28SOIDV_LL_DFPRQX10_P16)
                                                         0.066      0.076 f
  core/loopbuffer/U31/Z (C8T28SOI_LL_NOR2X4_P16)         0.033 *    0.109 r
  core/loopbuffer/U32/Z (C8T28SOI_LL_IVX5_P16)           0.029 *    0.138 f
  core/loopbuffer/U36/Z (C8T28SOI_LL_AOI22X2_P16)        0.207 *    0.344 r
  core/loopbuffer/U19/Z (C8T28SOI_LL_BFX5_P16)           0.180 *    0.524 r
  core/loopbuffer/U608/Z (C8T28SOI_LL_OA22X5_P16)        0.090 *    0.614 r
  core/loopbuffer/glock_out (tta0_loopbuf_1_32_51_1_0)
                                                         0.000      0.614 r
  core/inst_decoder/lock (tta0_decoder)                  0.000      0.614 r
  core/inst_decoder/U63/Z (C8T28SOI_LL_NOR2X4_P16)       0.024 *    0.638 f
  core/inst_decoder/U64/Z (C8T28SOI_LL_NAND2AX2_P16)     0.033 *    0.671 r
  core/inst_decoder/glock[7] (tta0_decoder)              0.000      0.671 r
  U294/Z (C8T28SOI_LL_BFX9_P16)                          0.141 *    0.812 r
  core/fu_lsu_r/glock (fu_ldw_stw_always_4_dataw32_addrw16_1)
                                                         0.000      0.812 r
  core/fu_lsu_r/U128/Z (C8T28SOI_LL_OR2X5_P16)           0.100 *    0.911 r
  core/fu_lsu_r/mem_en_x[0] (fu_ldw_stw_always_4_dataw32_addrw16_1)
                                                         0.000      0.911 r
  U160/Z (C8T28SOI_LL_NOR2AX4_P16)                       0.339 *    1.250 r
  U300/Z (C8T28SOI_LL_IVX3_P16)                          0.261 *    1.512 f
  U242/Z (C8T28SOI_LL_AOI22X2_P16)                       0.091 *    1.603 r
  U243/Z (C8T28SOI_LL_IVX3_P16)                          0.029 *    1.632 f
  datamem/scheduler/lsu_addr_a[7] (par_mem_scheduler_dataw32_addrw14_ports2_rd_delay1)
                                                         0.000      1.632 f
  datamem/scheduler/addr_a_conv/data_in[7] (ser_par_conv_portw14_port_cnt2_1)
                                                         0.000      1.632 f
  datamem/scheduler/addr_a_conv/U24/Z (C8T28SOI_LL_IVX3_P16)
                                                         0.022 *    1.655 r
  datamem/scheduler/addr_a_conv/U25/Z (C8T28SOI_LL_IVX3_P16)
                                                         0.016 *    1.671 f
  datamem/scheduler/addr_a_conv/data_out[7] (ser_par_conv_portw14_port_cnt2_1)
                                                         0.000      1.671 f
  datamem/scheduler/U166/Z (C8T28SOI_LL_AOI22X2_P16)     0.045 *    1.716 r
  datamem/scheduler/U167/Z (C8T28SOI_LL_IVX3_P16)        0.043 *    1.758 f
  datamem/scheduler/addr[7] (par_mem_scheduler_dataw32_addrw14_ports2_rd_delay1)
                                                         0.000      1.758 f
  datamem/par_mem_logic_inst/addrs_from_lsus[7] (par_mem_logic_PORTS2_LSU_ADDRW14_CTRLW1_DATAW32_PM_FUNC2)
                                                         0.000      1.758 f
  datamem/par_mem_logic_inst/addr_crsbar_0/addrs_from_lsus[7] (addr_crsbar_PORTS2_LSU_ADDRW14_CTRLW1_PM_FUNC2)
                                                         0.000      1.758 f
  datamem/par_mem_logic_inst/addr_crsbar_0/U24/Z (C8T28SOI_LL_AOI22X2_P16)
                                                         0.067 *    1.825 r
  datamem/par_mem_logic_inst/addr_crsbar_0/U26/Z (C8T28SOIDV_LLS_XNOR2X4_P16)
                                                         0.057 *    1.882 r
  datamem/par_mem_logic_inst/addr_crsbar_0/U27/Z (C8T28SOI_LL_NAND2X2_P16)
                                                         0.024 *    1.906 f
  datamem/par_mem_logic_inst/addr_crsbar_0/U28/Z (C8T28SOI_LL_OAI12X3_P16)
                                                         0.029 *    1.935 r
  datamem/par_mem_logic_inst/addr_crsbar_0/U37/Z (C8T28SOIDV_LLS_XNOR2X4_P16)
                                                         0.038 *    1.974 r
  datamem/par_mem_logic_inst/addr_crsbar_0/U38/Z (C8T28SOI_LL_NAND2X2_P16)
                                                         0.021 *    1.995 f
  datamem/par_mem_logic_inst/addr_crsbar_0/U39/Z (C8T28SOI_LL_OAI12X3_P16)
                                                         0.028 *    2.023 r
  datamem/par_mem_logic_inst/addr_crsbar_0/U40/Z (C8T28SOIDV_LLS_XNOR2X4_P16)
                                                         0.040 *    2.063 r
  datamem/par_mem_logic_inst/addr_crsbar_0/U41/Z (C8T28SOI_LL_NAND2X2_P16)
                                                         0.022 *    2.085 f
  datamem/par_mem_logic_inst/addr_crsbar_0/U42/Z (C8T28SOI_LL_OAI12X3_P16)
                                                         0.029 *    2.114 r
  datamem/par_mem_logic_inst/addr_crsbar_0/U43/Z (C8T28SOIDV_LLS_XNOR2X4_P16)
                                                         0.022 *    2.136 f
  datamem/par_mem_logic_inst/addr_crsbar_0/U44/Z (C8T28SOI_LL_NAND2X2_P16)
                                                         0.022 *    2.158 r
  datamem/par_mem_logic_inst/addr_crsbar_0/U45/Z (C8T28SOI_LL_OAI12X3_P16)
                                                         0.039 *    2.196 f
  datamem/par_mem_logic_inst/addr_crsbar_0/module_nums[0] (addr_crsbar_PORTS2_LSU_ADDRW14_CTRLW1_PM_FUNC2)
                                                         0.000      2.196 f
  datamem/par_mem_logic_inst/ctrl_units_0/module_nums[0] (ctrl_units_PORTS2_CTRLW1)
                                                         0.000      2.196 f
  datamem/par_mem_logic_inst/ctrl_units_0/ctrl_uniti_0/module_num[0] (ctrl_unit_PORTS2_CTRLW1_1)
                                                         0.000      2.196 f
  datamem/par_mem_logic_inst/ctrl_units_0/ctrl_uniti_0/U15/Z (C8T28SOI_LL_NOR2AX4_P16)
                                                         0.045 *    2.241 r
  datamem/par_mem_logic_inst/ctrl_units_0/ctrl_uniti_0/U16/Z (C8T28SOI_LL_AOI22X2_P16)
                                                         0.029 *    2.270 f
  datamem/par_mem_logic_inst/ctrl_units_0/ctrl_uniti_0/U22/Z (C8T28SOI_LL_AND2X5_P16)
                                                         0.048 *    2.317 f
  datamem/par_mem_logic_inst/ctrl_units_0/ctrl_uniti_0/mem_en_x (ctrl_unit_PORTS2_CTRLW1_1)
                                                         0.000      2.317 f
  datamem/par_mem_logic_inst/ctrl_units_0/U18/Z (C8T28SOI_LL_NAND2AX2_P16)
                                                         0.076 *    2.393 f
  datamem/par_mem_logic_inst/ctrl_units_0/mem_en_xs[0] (ctrl_units_PORTS2_CTRLW1)
                                                         0.000      2.393 f
  datamem/par_mem_logic_inst/mem_en_xs[0] (par_mem_logic_PORTS2_LSU_ADDRW14_CTRLW1_DATAW32_PM_FUNC2)
                                                         0.000      2.393 f
  datamem/dmem_2/en_x (synch_singleport_mem_wrapper_DATAW32_ADDRW13_0)
                                                         0.000      2.393 f
  datamem/dmem_2/en_wr_arbiter/en (block_en_wr_arbiter_ADDRW13_NBLOCKS9_0)
                                                         0.000      2.393 f
  datamem/dmem_2/en_wr_arbiter/U6/Z (C8T28SOI_LL_IVX3_P16)
                                                         0.111 *    2.504 r
  datamem/dmem_2/en_wr_arbiter/U24/Z (C8T28SOI_LL_NAND3X3_P16)
                                                         0.076 *    2.580 f
  datamem/dmem_2/en_wr_arbiter/en_blocks[1] (block_en_wr_arbiter_ADDRW13_NBLOCKS9_0)
                                                         0.000      2.580 f
  datamem/dmem_2/cacti_mem_x_1/en_x (cacti_mem_wrapper_DATAW32_ADDRW5_0)
                                                         0.000      2.580 f
  datamem/dmem_2/cacti_mem_x_1/mem_32x32/mem_en_x (ram_32x32)
                                                         0.000 *    2.580 f
  data arrival time                                                 2.580

  clock clk (rise edge)                                  6.667      6.667
  clock network delay (ideal)                            0.010      6.677
  clock uncertainty                                     -0.010      6.667
  datamem/dmem_2/cacti_mem_x_1/mem_32x32/clk (ram_32x32)
                                                         0.000      6.667 r
  library setup time                                    -0.539      6.128
  data required time                                                6.128
  --------------------------------------------------------------------------
  data required time                                                6.128
  data arrival time                                                -2.580
  --------------------------------------------------------------------------
  slack (MET)                                                       3.548


  Startpoint: core/loopbuffer/clk_r_REG624_S42
              (rising edge-triggered flip-flop clocked by clk)
  Endpoint: datamem/dmem_2/cacti_mem_x_7/mem_2048x32
            (rising edge-triggered flip-flop clocked by clk)
  Path Group: clk
  Path Type: max

  Point                                                   Incr       Path
  --------------------------------------------------------------------------
  clock clk (rise edge)                                  0.000      0.000
  clock network delay (ideal)                            0.010      0.010
  core/loopbuffer/clk_r_REG624_S42/CP (C8T28SOIDV_LL_DFPRQX10_P16)
                                                         0.000      0.010 r
  core/loopbuffer/clk_r_REG624_S42/Q (C8T28SOIDV_LL_DFPRQX10_P16)
                                                         0.066      0.076 f
  core/loopbuffer/U31/Z (C8T28SOI_LL_NOR2X4_P16)         0.033 *    0.109 r
  core/loopbuffer/U32/Z (C8T28SOI_LL_IVX5_P16)           0.029 *    0.138 f
  core/loopbuffer/U36/Z (C8T28SOI_LL_AOI22X2_P16)        0.207 *    0.344 r
  core/loopbuffer/U19/Z (C8T28SOI_LL_BFX5_P16)           0.180 *    0.524 r
  core/loopbuffer/U608/Z (C8T28SOI_LL_OA22X5_P16)        0.090 *    0.614 r
  core/loopbuffer/glock_out (tta0_loopbuf_1_32_51_1_0)
                                                         0.000      0.614 r
  core/inst_decoder/lock (tta0_decoder)                  0.000      0.614 r
  core/inst_decoder/U63/Z (C8T28SOI_LL_NOR2X4_P16)       0.024 *    0.638 f
  core/inst_decoder/U64/Z (C8T28SOI_LL_NAND2AX2_P16)     0.033 *    0.671 r
  core/inst_decoder/glock[7] (tta0_decoder)              0.000      0.671 r
  U294/Z (C8T28SOI_LL_BFX9_P16)                          0.141 *    0.812 r
  core/fu_lsu_r/glock (fu_ldw_stw_always_4_dataw32_addrw16_1)
                                                         0.000      0.812 r
  core/fu_lsu_r/U128/Z (C8T28SOI_LL_OR2X5_P16)           0.100 *    0.911 r
  core/fu_lsu_r/mem_en_x[0] (fu_ldw_stw_always_4_dataw32_addrw16_1)
                                                         0.000      0.911 r
  U160/Z (C8T28SOI_LL_NOR2AX4_P16)                       0.339 *    1.250 r
  U300/Z (C8T28SOI_LL_IVX3_P16)                          0.261 *    1.512 f
  U242/Z (C8T28SOI_LL_AOI22X2_P16)                       0.091 *    1.603 r
  U243/Z (C8T28SOI_LL_IVX3_P16)                          0.029 *    1.632 f
  datamem/scheduler/lsu_addr_a[7] (par_mem_scheduler_dataw32_addrw14_ports2_rd_delay1)
                                                         0.000      1.632 f
  datamem/scheduler/addr_a_conv/data_in[7] (ser_par_conv_portw14_port_cnt2_1)
                                                         0.000      1.632 f
  datamem/scheduler/addr_a_conv/U24/Z (C8T28SOI_LL_IVX3_P16)
                                                         0.022 *    1.655 r
  datamem/scheduler/addr_a_conv/U25/Z (C8T28SOI_LL_IVX3_P16)
                                                         0.016 *    1.671 f
  datamem/scheduler/addr_a_conv/data_out[7] (ser_par_conv_portw14_port_cnt2_1)
                                                         0.000      1.671 f
  datamem/scheduler/U166/Z (C8T28SOI_LL_AOI22X2_P16)     0.045 *    1.716 r
  datamem/scheduler/U167/Z (C8T28SOI_LL_IVX3_P16)        0.043 *    1.758 f
  datamem/scheduler/addr[7] (par_mem_scheduler_dataw32_addrw14_ports2_rd_delay1)
                                                         0.000      1.758 f
  datamem/par_mem_logic_inst/addrs_from_lsus[7] (par_mem_logic_PORTS2_LSU_ADDRW14_CTRLW1_DATAW32_PM_FUNC2)
                                                         0.000      1.758 f
  datamem/par_mem_logic_inst/addr_crsbar_0/addrs_from_lsus[7] (addr_crsbar_PORTS2_LSU_ADDRW14_CTRLW1_PM_FUNC2)
                                                         0.000      1.758 f
  datamem/par_mem_logic_inst/addr_crsbar_0/U24/Z (C8T28SOI_LL_AOI22X2_P16)
                                                         0.067 *    1.825 r
  datamem/par_mem_logic_inst/addr_crsbar_0/U26/Z (C8T28SOIDV_LLS_XNOR2X4_P16)
                                                         0.057 *    1.882 r
  datamem/par_mem_logic_inst/addr_crsbar_0/U27/Z (C8T28SOI_LL_NAND2X2_P16)
                                                         0.024 *    1.906 f
  datamem/par_mem_logic_inst/addr_crsbar_0/U28/Z (C8T28SOI_LL_OAI12X3_P16)
                                                         0.029 *    1.935 r
  datamem/par_mem_logic_inst/addr_crsbar_0/U37/Z (C8T28SOIDV_LLS_XNOR2X4_P16)
                                                         0.038 *    1.974 r
  datamem/par_mem_logic_inst/addr_crsbar_0/U38/Z (C8T28SOI_LL_NAND2X2_P16)
                                                         0.021 *    1.995 f
  datamem/par_mem_logic_inst/addr_crsbar_0/U39/Z (C8T28SOI_LL_OAI12X3_P16)
                                                         0.028 *    2.023 r
  datamem/par_mem_logic_inst/addr_crsbar_0/U40/Z (C8T28SOIDV_LLS_XNOR2X4_P16)
                                                         0.040 *    2.063 r
  datamem/par_mem_logic_inst/addr_crsbar_0/U41/Z (C8T28SOI_LL_NAND2X2_P16)
                                                         0.022 *    2.085 f
  datamem/par_mem_logic_inst/addr_crsbar_0/U42/Z (C8T28SOI_LL_OAI12X3_P16)
                                                         0.029 *    2.114 r
  datamem/par_mem_logic_inst/addr_crsbar_0/U43/Z (C8T28SOIDV_LLS_XNOR2X4_P16)
                                                         0.022 *    2.136 f
  datamem/par_mem_logic_inst/addr_crsbar_0/U44/Z (C8T28SOI_LL_NAND2X2_P16)
                                                         0.022 *    2.158 r
  datamem/par_mem_logic_inst/addr_crsbar_0/U45/Z (C8T28SOI_LL_OAI12X3_P16)
                                                         0.039 *    2.196 f
  datamem/par_mem_logic_inst/addr_crsbar_0/module_nums[0] (addr_crsbar_PORTS2_LSU_ADDRW14_CTRLW1_PM_FUNC2)
                                                         0.000      2.196 f
  datamem/par_mem_logic_inst/ctrl_units_0/module_nums[0] (ctrl_units_PORTS2_CTRLW1)
                                                         0.000      2.196 f
  datamem/par_mem_logic_inst/ctrl_units_0/ctrl_uniti_0/module_num[0] (ctrl_unit_PORTS2_CTRLW1_1)
                                                         0.000      2.196 f
  datamem/par_mem_logic_inst/ctrl_units_0/ctrl_uniti_0/U15/Z (C8T28SOI_LL_NOR2AX4_P16)
                                                         0.045 *    2.241 r
  datamem/par_mem_logic_inst/ctrl_units_0/ctrl_uniti_0/U16/Z (C8T28SOI_LL_AOI22X2_P16)
                                                         0.029 *    2.270 f
  datamem/par_mem_logic_inst/ctrl_units_0/ctrl_uniti_0/U22/Z (C8T28SOI_LL_AND2X5_P16)
                                                         0.048 *    2.317 f
  datamem/par_mem_logic_inst/ctrl_units_0/ctrl_uniti_0/mem_en_x (ctrl_unit_PORTS2_CTRLW1_1)
                                                         0.000      2.317 f
  datamem/par_mem_logic_inst/ctrl_units_0/U18/Z (C8T28SOI_LL_NAND2AX2_P16)
                                                         0.076 *    2.393 f
  datamem/par_mem_logic_inst/ctrl_units_0/mem_en_xs[0] (ctrl_units_PORTS2_CTRLW1)
                                                         0.000      2.393 f
  datamem/par_mem_logic_inst/mem_en_xs[0] (par_mem_logic_PORTS2_LSU_ADDRW14_CTRLW1_DATAW32_PM_FUNC2)
                                                         0.000      2.393 f
  datamem/dmem_2/en_x (synch_singleport_mem_wrapper_DATAW32_ADDRW13_0)
                                                         0.000      2.393 f
  datamem/dmem_2/en_wr_arbiter/en (block_en_wr_arbiter_ADDRW13_NBLOCKS9_0)
                                                         0.000      2.393 f
  datamem/dmem_2/en_wr_arbiter/U6/Z (C8T28SOI_LL_IVX3_P16)
                                                         0.111 *    2.504 r
  datamem/dmem_2/en_wr_arbiter/U29/Z (C8T28SOI_LL_NAND3X3_P16)
                                                         0.076 *    2.581 f
  datamem/dmem_2/en_wr_arbiter/en_blocks[7] (block_en_wr_arbiter_ADDRW13_NBLOCKS9_0)
                                                         0.000      2.581 f
  datamem/dmem_2/cacti_mem_x_7/en_x (cacti_mem_wrapper_DATAW32_ADDRW11_0)
                                                         0.000      2.581 f
  datamem/dmem_2/cacti_mem_x_7/mem_2048x32/mem_en_x (ram_2048x32)
                                                         0.000 *    2.581 f
  data arrival time                                                 2.581

  clock clk (rise edge)                                  6.667      6.667
  clock network delay (ideal)                            0.010      6.677
  clock uncertainty                                     -0.010      6.667
  datamem/dmem_2/cacti_mem_x_7/mem_2048x32/clk (ram_2048x32)
                                                         0.000      6.667 r
  library setup time                                    -0.529      6.138
  data required time                                                6.138
  --------------------------------------------------------------------------
  data required time                                                6.138
  data arrival time                                                -2.581
  --------------------------------------------------------------------------
  slack (MET)                                                       3.557


  Startpoint: core/loopbuffer/clk_r_REG624_S42
              (rising edge-triggered flip-flop clocked by clk)
  Endpoint: datamem/dmem_2/cacti_mem_x_5/mem_512x32
            (rising edge-triggered flip-flop clocked by clk)
  Path Group: clk
  Path Type: max

  Point                                                   Incr       Path
  --------------------------------------------------------------------------
  clock clk (rise edge)                                  0.000      0.000
  clock network delay (ideal)                            0.010      0.010
  core/loopbuffer/clk_r_REG624_S42/CP (C8T28SOIDV_LL_DFPRQX10_P16)
                                                         0.000      0.010 r
  core/loopbuffer/clk_r_REG624_S42/Q (C8T28SOIDV_LL_DFPRQX10_P16)
                                                         0.066      0.076 f
  core/loopbuffer/U31/Z (C8T28SOI_LL_NOR2X4_P16)         0.033 *    0.109 r
  core/loopbuffer/U32/Z (C8T28SOI_LL_IVX5_P16)           0.029 *    0.138 f
  core/loopbuffer/U36/Z (C8T28SOI_LL_AOI22X2_P16)        0.207 *    0.344 r
  core/loopbuffer/U19/Z (C8T28SOI_LL_BFX5_P16)           0.180 *    0.524 r
  core/loopbuffer/U608/Z (C8T28SOI_LL_OA22X5_P16)        0.090 *    0.614 r
  core/loopbuffer/glock_out (tta0_loopbuf_1_32_51_1_0)
                                                         0.000      0.614 r
  core/inst_decoder/lock (tta0_decoder)                  0.000      0.614 r
  core/inst_decoder/U63/Z (C8T28SOI_LL_NOR2X4_P16)       0.024 *    0.638 f
  core/inst_decoder/U64/Z (C8T28SOI_LL_NAND2AX2_P16)     0.033 *    0.671 r
  core/inst_decoder/glock[7] (tta0_decoder)              0.000      0.671 r
  U294/Z (C8T28SOI_LL_BFX9_P16)                          0.141 *    0.812 r
  core/fu_lsu_r/glock (fu_ldw_stw_always_4_dataw32_addrw16_1)
                                                         0.000      0.812 r
  core/fu_lsu_r/U128/Z (C8T28SOI_LL_OR2X5_P16)           0.100 *    0.911 r
  core/fu_lsu_r/mem_en_x[0] (fu_ldw_stw_always_4_dataw32_addrw16_1)
                                                         0.000      0.911 r
  U160/Z (C8T28SOI_LL_NOR2AX4_P16)                       0.339 *    1.250 r
  U300/Z (C8T28SOI_LL_IVX3_P16)                          0.261 *    1.512 f
  U242/Z (C8T28SOI_LL_AOI22X2_P16)                       0.091 *    1.603 r
  U243/Z (C8T28SOI_LL_IVX3_P16)                          0.029 *    1.632 f
  datamem/scheduler/lsu_addr_a[7] (par_mem_scheduler_dataw32_addrw14_ports2_rd_delay1)
                                                         0.000      1.632 f
  datamem/scheduler/addr_a_conv/data_in[7] (ser_par_conv_portw14_port_cnt2_1)
                                                         0.000      1.632 f
  datamem/scheduler/addr_a_conv/U24/Z (C8T28SOI_LL_IVX3_P16)
                                                         0.022 *    1.655 r
  datamem/scheduler/addr_a_conv/U25/Z (C8T28SOI_LL_IVX3_P16)
                                                         0.016 *    1.671 f
  datamem/scheduler/addr_a_conv/data_out[7] (ser_par_conv_portw14_port_cnt2_1)
                                                         0.000      1.671 f
  datamem/scheduler/U166/Z (C8T28SOI_LL_AOI22X2_P16)     0.045 *    1.716 r
  datamem/scheduler/U167/Z (C8T28SOI_LL_IVX3_P16)        0.043 *    1.758 f
  datamem/scheduler/addr[7] (par_mem_scheduler_dataw32_addrw14_ports2_rd_delay1)
                                                         0.000      1.758 f
  datamem/par_mem_logic_inst/addrs_from_lsus[7] (par_mem_logic_PORTS2_LSU_ADDRW14_CTRLW1_DATAW32_PM_FUNC2)
                                                         0.000      1.758 f
  datamem/par_mem_logic_inst/addr_crsbar_0/addrs_from_lsus[7] (addr_crsbar_PORTS2_LSU_ADDRW14_CTRLW1_PM_FUNC2)
                                                         0.000      1.758 f
  datamem/par_mem_logic_inst/addr_crsbar_0/U24/Z (C8T28SOI_LL_AOI22X2_P16)
                                                         0.067 *    1.825 r
  datamem/par_mem_logic_inst/addr_crsbar_0/U26/Z (C8T28SOIDV_LLS_XNOR2X4_P16)
                                                         0.057 *    1.882 r
  datamem/par_mem_logic_inst/addr_crsbar_0/U27/Z (C8T28SOI_LL_NAND2X2_P16)
                                                         0.024 *    1.906 f
  datamem/par_mem_logic_inst/addr_crsbar_0/U28/Z (C8T28SOI_LL_OAI12X3_P16)
                                                         0.029 *    1.935 r
  datamem/par_mem_logic_inst/addr_crsbar_0/U37/Z (C8T28SOIDV_LLS_XNOR2X4_P16)
                                                         0.038 *    1.974 r
  datamem/par_mem_logic_inst/addr_crsbar_0/U38/Z (C8T28SOI_LL_NAND2X2_P16)
                                                         0.021 *    1.995 f
  datamem/par_mem_logic_inst/addr_crsbar_0/U39/Z (C8T28SOI_LL_OAI12X3_P16)
                                                         0.028 *    2.023 r
  datamem/par_mem_logic_inst/addr_crsbar_0/U40/Z (C8T28SOIDV_LLS_XNOR2X4_P16)
                                                         0.040 *    2.063 r
  datamem/par_mem_logic_inst/addr_crsbar_0/U41/Z (C8T28SOI_LL_NAND2X2_P16)
                                                         0.022 *    2.085 f
  datamem/par_mem_logic_inst/addr_crsbar_0/U42/Z (C8T28SOI_LL_OAI12X3_P16)
                                                         0.029 *    2.114 r
  datamem/par_mem_logic_inst/addr_crsbar_0/U43/Z (C8T28SOIDV_LLS_XNOR2X4_P16)
                                                         0.022 *    2.136 f
  datamem/par_mem_logic_inst/addr_crsbar_0/U44/Z (C8T28SOI_LL_NAND2X2_P16)
                                                         0.022 *    2.158 r
  datamem/par_mem_logic_inst/addr_crsbar_0/U45/Z (C8T28SOI_LL_OAI12X3_P16)
                                                         0.039 *    2.196 f
  datamem/par_mem_logic_inst/addr_crsbar_0/module_nums[0] (addr_crsbar_PORTS2_LSU_ADDRW14_CTRLW1_PM_FUNC2)
                                                         0.000      2.196 f
  datamem/par_mem_logic_inst/ctrl_units_0/module_nums[0] (ctrl_units_PORTS2_CTRLW1)
                                                         0.000      2.196 f
  datamem/par_mem_logic_inst/ctrl_units_0/ctrl_uniti_0/module_num[0] (ctrl_unit_PORTS2_CTRLW1_1)
                                                         0.000      2.196 f
  datamem/par_mem_logic_inst/ctrl_units_0/ctrl_uniti_0/U15/Z (C8T28SOI_LL_NOR2AX4_P16)
                                                         0.045 *    2.241 r
  datamem/par_mem_logic_inst/ctrl_units_0/ctrl_uniti_0/U16/Z (C8T28SOI_LL_AOI22X2_P16)
                                                         0.029 *    2.270 f
  datamem/par_mem_logic_inst/ctrl_units_0/ctrl_uniti_0/U22/Z (C8T28SOI_LL_AND2X5_P16)
                                                         0.048 *    2.317 f
  datamem/par_mem_logic_inst/ctrl_units_0/ctrl_uniti_0/mem_en_x (ctrl_unit_PORTS2_CTRLW1_1)
                                                         0.000      2.317 f
  datamem/par_mem_logic_inst/ctrl_units_0/U18/Z (C8T28SOI_LL_NAND2AX2_P16)
                                                         0.076 *    2.393 f
  datamem/par_mem_logic_inst/ctrl_units_0/mem_en_xs[0] (ctrl_units_PORTS2_CTRLW1)
                                                         0.000      2.393 f
  datamem/par_mem_logic_inst/mem_en_xs[0] (par_mem_logic_PORTS2_LSU_ADDRW14_CTRLW1_DATAW32_PM_FUNC2)
                                                         0.000      2.393 f
  datamem/dmem_2/en_x (synch_singleport_mem_wrapper_DATAW32_ADDRW13_0)
                                                         0.000      2.393 f
  datamem/dmem_2/en_wr_arbiter/en (block_en_wr_arbiter_ADDRW13_NBLOCKS9_0)
                                                         0.000      2.393 f
  datamem/dmem_2/en_wr_arbiter/U6/Z (C8T28SOI_LL_IVX3_P16)
                                                         0.111 *    2.504 r
  datamem/dmem_2/en_wr_arbiter/U28/Z (C8T28SOI_LL_NAND3X3_P16)
                                                         0.073 *    2.577 f
  datamem/dmem_2/en_wr_arbiter/en_blocks[5] (block_en_wr_arbiter_ADDRW13_NBLOCKS9_0)
                                                         0.000      2.577 f
  datamem/dmem_2/cacti_mem_x_5/en_x (cacti_mem_wrapper_DATAW32_ADDRW9_0)
                                                         0.000      2.577 f
  datamem/dmem_2/cacti_mem_x_5/mem_512x32/mem_en_x (ram_512x32)
                                                         0.000 *    2.577 f
  data arrival time                                                 2.577

  clock clk (rise edge)                                  6.667      6.667
  clock network delay (ideal)                            0.010      6.677
  clock uncertainty                                     -0.010      6.667
  datamem/dmem_2/cacti_mem_x_5/mem_512x32/clk (ram_512x32)
                                                         0.000      6.667 r
  library setup time                                    -0.530      6.137
  data required time                                                6.137
  --------------------------------------------------------------------------
  data required time                                                6.137
  data arrival time                                                -2.577
  --------------------------------------------------------------------------
  slack (MET)                                                       3.559


  Startpoint: core/loopbuffer/clk_r_REG624_S42
              (rising edge-triggered flip-flop clocked by clk)
  Endpoint: datamem/dmem_2/cacti_mem_x_3/mem_128x32
            (rising edge-triggered flip-flop clocked by clk)
  Path Group: clk
  Path Type: max

  Point                                                   Incr       Path
  --------------------------------------------------------------------------
  clock clk (rise edge)                                  0.000      0.000
  clock network delay (ideal)                            0.010      0.010
  core/loopbuffer/clk_r_REG624_S42/CP (C8T28SOIDV_LL_DFPRQX10_P16)
                                                         0.000      0.010 r
  core/loopbuffer/clk_r_REG624_S42/Q (C8T28SOIDV_LL_DFPRQX10_P16)
                                                         0.066      0.076 f
  core/loopbuffer/U31/Z (C8T28SOI_LL_NOR2X4_P16)         0.033 *    0.109 r
  core/loopbuffer/U32/Z (C8T28SOI_LL_IVX5_P16)           0.029 *    0.138 f
  core/loopbuffer/U36/Z (C8T28SOI_LL_AOI22X2_P16)        0.207 *    0.344 r
  core/loopbuffer/U19/Z (C8T28SOI_LL_BFX5_P16)           0.180 *    0.524 r
  core/loopbuffer/U608/Z (C8T28SOI_LL_OA22X5_P16)        0.090 *    0.614 r
  core/loopbuffer/glock_out (tta0_loopbuf_1_32_51_1_0)
                                                         0.000      0.614 r
  core/inst_decoder/lock (tta0_decoder)                  0.000      0.614 r
  core/inst_decoder/U63/Z (C8T28SOI_LL_NOR2X4_P16)       0.024 *    0.638 f
  core/inst_decoder/U64/Z (C8T28SOI_LL_NAND2AX2_P16)     0.033 *    0.671 r
  core/inst_decoder/glock[7] (tta0_decoder)              0.000      0.671 r
  U294/Z (C8T28SOI_LL_BFX9_P16)                          0.141 *    0.812 r
  core/fu_lsu_r/glock (fu_ldw_stw_always_4_dataw32_addrw16_1)
                                                         0.000      0.812 r
  core/fu_lsu_r/U128/Z (C8T28SOI_LL_OR2X5_P16)           0.100 *    0.911 r
  core/fu_lsu_r/mem_en_x[0] (fu_ldw_stw_always_4_dataw32_addrw16_1)
                                                         0.000      0.911 r
  U160/Z (C8T28SOI_LL_NOR2AX4_P16)                       0.339 *    1.250 r
  U300/Z (C8T28SOI_LL_IVX3_P16)                          0.261 *    1.512 f
  U242/Z (C8T28SOI_LL_AOI22X2_P16)                       0.091 *    1.603 r
  U243/Z (C8T28SOI_LL_IVX3_P16)                          0.029 *    1.632 f
  datamem/scheduler/lsu_addr_a[7] (par_mem_scheduler_dataw32_addrw14_ports2_rd_delay1)
                                                         0.000      1.632 f
  datamem/scheduler/addr_a_conv/data_in[7] (ser_par_conv_portw14_port_cnt2_1)
                                                         0.000      1.632 f
  datamem/scheduler/addr_a_conv/U24/Z (C8T28SOI_LL_IVX3_P16)
                                                         0.022 *    1.655 r
  datamem/scheduler/addr_a_conv/U25/Z (C8T28SOI_LL_IVX3_P16)
                                                         0.016 *    1.671 f
  datamem/scheduler/addr_a_conv/data_out[7] (ser_par_conv_portw14_port_cnt2_1)
                                                         0.000      1.671 f
  datamem/scheduler/U166/Z (C8T28SOI_LL_AOI22X2_P16)     0.045 *    1.716 r
  datamem/scheduler/U167/Z (C8T28SOI_LL_IVX3_P16)        0.043 *    1.758 f
  datamem/scheduler/addr[7] (par_mem_scheduler_dataw32_addrw14_ports2_rd_delay1)
                                                         0.000      1.758 f
  datamem/par_mem_logic_inst/addrs_from_lsus[7] (par_mem_logic_PORTS2_LSU_ADDRW14_CTRLW1_DATAW32_PM_FUNC2)
                                                         0.000      1.758 f
  datamem/par_mem_logic_inst/addr_crsbar_0/addrs_from_lsus[7] (addr_crsbar_PORTS2_LSU_ADDRW14_CTRLW1_PM_FUNC2)
                                                         0.000      1.758 f
  datamem/par_mem_logic_inst/addr_crsbar_0/U24/Z (C8T28SOI_LL_AOI22X2_P16)
                                                         0.067 *    1.825 r
  datamem/par_mem_logic_inst/addr_crsbar_0/U26/Z (C8T28SOIDV_LLS_XNOR2X4_P16)
                                                         0.057 *    1.882 r
  datamem/par_mem_logic_inst/addr_crsbar_0/U27/Z (C8T28SOI_LL_NAND2X2_P16)
                                                         0.024 *    1.906 f
  datamem/par_mem_logic_inst/addr_crsbar_0/U28/Z (C8T28SOI_LL_OAI12X3_P16)
                                                         0.029 *    1.935 r
  datamem/par_mem_logic_inst/addr_crsbar_0/U37/Z (C8T28SOIDV_LLS_XNOR2X4_P16)
                                                         0.038 *    1.974 r
  datamem/par_mem_logic_inst/addr_crsbar_0/U38/Z (C8T28SOI_LL_NAND2X2_P16)
                                                         0.021 *    1.995 f
  datamem/par_mem_logic_inst/addr_crsbar_0/U39/Z (C8T28SOI_LL_OAI12X3_P16)
                                                         0.028 *    2.023 r
  datamem/par_mem_logic_inst/addr_crsbar_0/U40/Z (C8T28SOIDV_LLS_XNOR2X4_P16)
                                                         0.040 *    2.063 r
  datamem/par_mem_logic_inst/addr_crsbar_0/U41/Z (C8T28SOI_LL_NAND2X2_P16)
                                                         0.022 *    2.085 f
  datamem/par_mem_logic_inst/addr_crsbar_0/U42/Z (C8T28SOI_LL_OAI12X3_P16)
                                                         0.029 *    2.114 r
  datamem/par_mem_logic_inst/addr_crsbar_0/U43/Z (C8T28SOIDV_LLS_XNOR2X4_P16)
                                                         0.022 *    2.136 f
  datamem/par_mem_logic_inst/addr_crsbar_0/U44/Z (C8T28SOI_LL_NAND2X2_P16)
                                                         0.022 *    2.158 r
  datamem/par_mem_logic_inst/addr_crsbar_0/U45/Z (C8T28SOI_LL_OAI12X3_P16)
                                                         0.039 *    2.196 f
  datamem/par_mem_logic_inst/addr_crsbar_0/module_nums[0] (addr_crsbar_PORTS2_LSU_ADDRW14_CTRLW1_PM_FUNC2)
                                                         0.000      2.196 f
  datamem/par_mem_logic_inst/ctrl_units_0/module_nums[0] (ctrl_units_PORTS2_CTRLW1)
                                                         0.000      2.196 f
  datamem/par_mem_logic_inst/ctrl_units_0/ctrl_uniti_0/module_num[0] (ctrl_unit_PORTS2_CTRLW1_1)
                                                         0.000      2.196 f
  datamem/par_mem_logic_inst/ctrl_units_0/ctrl_uniti_0/U15/Z (C8T28SOI_LL_NOR2AX4_P16)
                                                         0.045 *    2.241 r
  datamem/par_mem_logic_inst/ctrl_units_0/ctrl_uniti_0/U16/Z (C8T28SOI_LL_AOI22X2_P16)
                                                         0.029 *    2.270 f
  datamem/par_mem_logic_inst/ctrl_units_0/ctrl_uniti_0/U22/Z (C8T28SOI_LL_AND2X5_P16)
                                                         0.048 *    2.317 f
  datamem/par_mem_logic_inst/ctrl_units_0/ctrl_uniti_0/mem_en_x (ctrl_unit_PORTS2_CTRLW1_1)
                                                         0.000      2.317 f
  datamem/par_mem_logic_inst/ctrl_units_0/U18/Z (C8T28SOI_LL_NAND2AX2_P16)
                                                         0.076 *    2.393 f
  datamem/par_mem_logic_inst/ctrl_units_0/mem_en_xs[0] (ctrl_units_PORTS2_CTRLW1)
                                                         0.000      2.393 f
  datamem/par_mem_logic_inst/mem_en_xs[0] (par_mem_logic_PORTS2_LSU_ADDRW14_CTRLW1_DATAW32_PM_FUNC2)
                                                         0.000      2.393 f
  datamem/dmem_2/en_x (synch_singleport_mem_wrapper_DATAW32_ADDRW13_0)
                                                         0.000      2.393 f
  datamem/dmem_2/en_wr_arbiter/en (block_en_wr_arbiter_ADDRW13_NBLOCKS9_0)
                                                         0.000      2.393 f
  datamem/dmem_2/en_wr_arbiter/U6/Z (C8T28SOI_LL_IVX3_P16)
                                                         0.111 *    2.504 r
  datamem/dmem_2/en_wr_arbiter/U26/Z (C8T28SOI_LL_NAND3X3_P16)
                                                         0.066 *    2.571 f
  datamem/dmem_2/en_wr_arbiter/en_blocks[3] (block_en_wr_arbiter_ADDRW13_NBLOCKS9_0)
                                                         0.000      2.571 f
  datamem/dmem_2/cacti_mem_x_3/en_x (cacti_mem_wrapper_DATAW32_ADDRW7_0)
                                                         0.000      2.571 f
  datamem/dmem_2/cacti_mem_x_3/mem_128x32/mem_en_x (ram_128x32)
                                                         0.000 *    2.571 f
  data arrival time                                                 2.571

  clock clk (rise edge)                                  6.667      6.667
  clock network delay (ideal)                            0.010      6.677
  clock uncertainty                                     -0.010      6.667
  datamem/dmem_2/cacti_mem_x_3/mem_128x32/clk (ram_128x32)
                                                         0.000      6.667 r
  library setup time                                    -0.529      6.138
  data required time                                                6.138
  --------------------------------------------------------------------------
  data required time                                                6.138
  data arrival time                                                -2.571
  --------------------------------------------------------------------------
  slack (MET)                                                       3.567


  Startpoint: core/loopbuffer/clk_r_REG624_S42
              (rising edge-triggered flip-flop clocked by clk)
  Endpoint: datamem/dmem_2/cacti_mem_x_2/mem_64x32
            (rising edge-triggered flip-flop clocked by clk)
  Path Group: clk
  Path Type: max

  Point                                                   Incr       Path
  --------------------------------------------------------------------------
  clock clk (rise edge)                                  0.000      0.000
  clock network delay (ideal)                            0.010      0.010
  core/loopbuffer/clk_r_REG624_S42/CP (C8T28SOIDV_LL_DFPRQX10_P16)
                                                         0.000      0.010 r
  core/loopbuffer/clk_r_REG624_S42/Q (C8T28SOIDV_LL_DFPRQX10_P16)
                                                         0.066      0.076 f
  core/loopbuffer/U31/Z (C8T28SOI_LL_NOR2X4_P16)         0.033 *    0.109 r
  core/loopbuffer/U32/Z (C8T28SOI_LL_IVX5_P16)           0.029 *    0.138 f
  core/loopbuffer/U36/Z (C8T28SOI_LL_AOI22X2_P16)        0.207 *    0.344 r
  core/loopbuffer/U19/Z (C8T28SOI_LL_BFX5_P16)           0.180 *    0.524 r
  core/loopbuffer/U608/Z (C8T28SOI_LL_OA22X5_P16)        0.090 *    0.614 r
  core/loopbuffer/glock_out (tta0_loopbuf_1_32_51_1_0)
                                                         0.000      0.614 r
  core/inst_decoder/lock (tta0_decoder)                  0.000      0.614 r
  core/inst_decoder/U63/Z (C8T28SOI_LL_NOR2X4_P16)       0.024 *    0.638 f
  core/inst_decoder/U64/Z (C8T28SOI_LL_NAND2AX2_P16)     0.033 *    0.671 r
  core/inst_decoder/glock[7] (tta0_decoder)              0.000      0.671 r
  U294/Z (C8T28SOI_LL_BFX9_P16)                          0.141 *    0.812 r
  core/fu_lsu_r/glock (fu_ldw_stw_always_4_dataw32_addrw16_1)
                                                         0.000      0.812 r
  core/fu_lsu_r/U128/Z (C8T28SOI_LL_OR2X5_P16)           0.100 *    0.911 r
  core/fu_lsu_r/mem_en_x[0] (fu_ldw_stw_always_4_dataw32_addrw16_1)
                                                         0.000      0.911 r
  U160/Z (C8T28SOI_LL_NOR2AX4_P16)                       0.339 *    1.250 r
  U300/Z (C8T28SOI_LL_IVX3_P16)                          0.261 *    1.512 f
  U242/Z (C8T28SOI_LL_AOI22X2_P16)                       0.091 *    1.603 r
  U243/Z (C8T28SOI_LL_IVX3_P16)                          0.029 *    1.632 f
  datamem/scheduler/lsu_addr_a[7] (par_mem_scheduler_dataw32_addrw14_ports2_rd_delay1)
                                                         0.000      1.632 f
  datamem/scheduler/addr_a_conv/data_in[7] (ser_par_conv_portw14_port_cnt2_1)
                                                         0.000      1.632 f
  datamem/scheduler/addr_a_conv/U24/Z (C8T28SOI_LL_IVX3_P16)
                                                         0.022 *    1.655 r
  datamem/scheduler/addr_a_conv/U25/Z (C8T28SOI_LL_IVX3_P16)
                                                         0.016 *    1.671 f
  datamem/scheduler/addr_a_conv/data_out[7] (ser_par_conv_portw14_port_cnt2_1)
                                                         0.000      1.671 f
  datamem/scheduler/U166/Z (C8T28SOI_LL_AOI22X2_P16)     0.045 *    1.716 r
  datamem/scheduler/U167/Z (C8T28SOI_LL_IVX3_P16)        0.043 *    1.758 f
  datamem/scheduler/addr[7] (par_mem_scheduler_dataw32_addrw14_ports2_rd_delay1)
                                                         0.000      1.758 f
  datamem/par_mem_logic_inst/addrs_from_lsus[7] (par_mem_logic_PORTS2_LSU_ADDRW14_CTRLW1_DATAW32_PM_FUNC2)
                                                         0.000      1.758 f
  datamem/par_mem_logic_inst/addr_crsbar_0/addrs_from_lsus[7] (addr_crsbar_PORTS2_LSU_ADDRW14_CTRLW1_PM_FUNC2)
                                                         0.000      1.758 f
  datamem/par_mem_logic_inst/addr_crsbar_0/U24/Z (C8T28SOI_LL_AOI22X2_P16)
                                                         0.067 *    1.825 r
  datamem/par_mem_logic_inst/addr_crsbar_0/U26/Z (C8T28SOIDV_LLS_XNOR2X4_P16)
                                                         0.057 *    1.882 r
  datamem/par_mem_logic_inst/addr_crsbar_0/U27/Z (C8T28SOI_LL_NAND2X2_P16)
                                                         0.024 *    1.906 f
  datamem/par_mem_logic_inst/addr_crsbar_0/U28/Z (C8T28SOI_LL_OAI12X3_P16)
                                                         0.029 *    1.935 r
  datamem/par_mem_logic_inst/addr_crsbar_0/U37/Z (C8T28SOIDV_LLS_XNOR2X4_P16)
                                                         0.038 *    1.974 r
  datamem/par_mem_logic_inst/addr_crsbar_0/U38/Z (C8T28SOI_LL_NAND2X2_P16)
                                                         0.021 *    1.995 f
  datamem/par_mem_logic_inst/addr_crsbar_0/U39/Z (C8T28SOI_LL_OAI12X3_P16)
                                                         0.028 *    2.023 r
  datamem/par_mem_logic_inst/addr_crsbar_0/U40/Z (C8T28SOIDV_LLS_XNOR2X4_P16)
                                                         0.040 *    2.063 r
  datamem/par_mem_logic_inst/addr_crsbar_0/U41/Z (C8T28SOI_LL_NAND2X2_P16)
                                                         0.022 *    2.085 f
  datamem/par_mem_logic_inst/addr_crsbar_0/U42/Z (C8T28SOI_LL_OAI12X3_P16)
                                                         0.029 *    2.114 r
  datamem/par_mem_logic_inst/addr_crsbar_0/U43/Z (C8T28SOIDV_LLS_XNOR2X4_P16)
                                                         0.022 *    2.136 f
  datamem/par_mem_logic_inst/addr_crsbar_0/U44/Z (C8T28SOI_LL_NAND2X2_P16)
                                                         0.022 *    2.158 r
  datamem/par_mem_logic_inst/addr_crsbar_0/U45/Z (C8T28SOI_LL_OAI12X3_P16)
                                                         0.039 *    2.196 f
  datamem/par_mem_logic_inst/addr_crsbar_0/module_nums[0] (addr_crsbar_PORTS2_LSU_ADDRW14_CTRLW1_PM_FUNC2)
                                                         0.000      2.196 f
  datamem/par_mem_logic_inst/ctrl_units_0/module_nums[0] (ctrl_units_PORTS2_CTRLW1)
                                                         0.000      2.196 f
  datamem/par_mem_logic_inst/ctrl_units_0/ctrl_uniti_0/module_num[0] (ctrl_unit_PORTS2_CTRLW1_1)
                                                         0.000      2.196 f
  datamem/par_mem_logic_inst/ctrl_units_0/ctrl_uniti_0/U15/Z (C8T28SOI_LL_NOR2AX4_P16)
                                                         0.045 *    2.241 r
  datamem/par_mem_logic_inst/ctrl_units_0/ctrl_uniti_0/U16/Z (C8T28SOI_LL_AOI22X2_P16)
                                                         0.029 *    2.270 f
  datamem/par_mem_logic_inst/ctrl_units_0/ctrl_uniti_0/U22/Z (C8T28SOI_LL_AND2X5_P16)
                                                         0.048 *    2.317 f
  datamem/par_mem_logic_inst/ctrl_units_0/ctrl_uniti_0/mem_en_x (ctrl_unit_PORTS2_CTRLW1_1)
                                                         0.000      2.317 f
  datamem/par_mem_logic_inst/ctrl_units_0/U18/Z (C8T28SOI_LL_NAND2AX2_P16)
                                                         0.076 *    2.393 f
  datamem/par_mem_logic_inst/ctrl_units_0/mem_en_xs[0] (ctrl_units_PORTS2_CTRLW1)
                                                         0.000      2.393 f
  datamem/par_mem_logic_inst/mem_en_xs[0] (par_mem_logic_PORTS2_LSU_ADDRW14_CTRLW1_DATAW32_PM_FUNC2)
                                                         0.000      2.393 f
  datamem/dmem_2/en_x (synch_singleport_mem_wrapper_DATAW32_ADDRW13_0)
                                                         0.000      2.393 f
  datamem/dmem_2/en_wr_arbiter/en (block_en_wr_arbiter_ADDRW13_NBLOCKS9_0)
                                                         0.000      2.393 f
  datamem/dmem_2/en_wr_arbiter/U6/Z (C8T28SOI_LL_IVX3_P16)
                                                         0.111 *    2.504 r
  datamem/dmem_2/en_wr_arbiter/U25/Z (C8T28SOI_LL_NAND3X3_P16)
                                                         0.065 *    2.570 f
  datamem/dmem_2/en_wr_arbiter/en_blocks[2] (block_en_wr_arbiter_ADDRW13_NBLOCKS9_0)
                                                         0.000      2.570 f
  datamem/dmem_2/cacti_mem_x_2/en_x (cacti_mem_wrapper_DATAW32_ADDRW6_0)
                                                         0.000      2.570 f
  datamem/dmem_2/cacti_mem_x_2/mem_64x32/mem_en_x (ram_64x32)
                                                         0.000 *    2.570 f
  data arrival time                                                 2.570

  clock clk (rise edge)                                  6.667      6.667
  clock network delay (ideal)                            0.010      6.677
  clock uncertainty                                     -0.010      6.667
  datamem/dmem_2/cacti_mem_x_2/mem_64x32/clk (ram_64x32)
                                                         0.000      6.667 r
  library setup time                                    -0.530      6.137
  data required time                                                6.137
  --------------------------------------------------------------------------
  data required time                                                6.137
  data arrival time                                                -2.570
  --------------------------------------------------------------------------
  slack (MET)                                                       3.567


  Startpoint: core/inst_decoder/clk_r_REG1856_S42
              (rising edge-triggered flip-flop clocked by clk)
  Endpoint: core/fu_CMUL/fu_arch/clk_r_REG504_S42
            (rising edge-triggered flip-flop clocked by clk)
  Path Group: clk
  Path Type: max

  Point                                                   Incr       Path
  --------------------------------------------------------------------------
  clock clk (rise edge)                                  0.000      0.000
  clock network delay (ideal)                            0.010      0.010
  core/inst_decoder/clk_r_REG1856_S42/CP (C8T28SOIDV_LL_DFPRQX10_P16)
                                                         0.000      0.010 r
  core/inst_decoder/clk_r_REG1856_S42/Q (C8T28SOIDV_LL_DFPRQX10_P16)
                                                         0.124      0.134 r
  core/inst_decoder/socket_TFG_o1_bus_cntrl[0] (tta0_decoder)
                                                         0.000      0.134 r
  core/ic/socket_TFG_o1_bus_cntrl[0] (tta0_interconn)    0.000      0.134 r
  core/ic/TFG_o1/databus_cntrl[0] (tta0_output_socket_cons_1_1_BUSW_032_DATAW_032_2)
                                                         0.000      0.134 r
  core/ic/TFG_o1/U6/Z (C8T28SOI_LL_AND2X5_P16)           0.064 *    0.198 r
  core/ic/TFG_o1/databus0_alt[1] (tta0_output_socket_cons_1_1_BUSW_032_DATAW_032_2)
                                                         0.000      0.198 r
  core/ic/CMUL_i1/databus0[1] (tta0_input_socket_cons_1_BUSW_032_DATAW32_10)
                                                         0.000      0.198 r
  core/ic/CMUL_i1/U27/Z (C8T28SOI_LL_BFX5_P16)           0.023 *    0.220 r
  core/ic/CMUL_i1/data[1] (tta0_input_socket_cons_1_BUSW_032_DATAW32_10)
                                                         0.000      0.220 r
  core/ic/socket_CMUL_i1_data[1] (tta0_interconn)        0.000      0.220 r
  U288/Z (C8T28SOI_LL_BFX5_P16)                          0.129 *    0.349 r
  core/fu_CMUL/t1data[1] (fu_cmul_always_3_dataw32_busw32)
                                                         0.000      0.349 r
  core/fu_CMUL/fu_arch/A[1] (cmul_pipe_1_dataw32_halfw16)
                                                         0.000      0.349 r
  core/fu_CMUL/fu_arch/U175/Z (C8T28SOI_LL_IVX5_P16)     0.129 *    0.478 f
  core/fu_CMUL/fu_arch/U152/Z (C8T28SOI_LL_OAI22X3_P16)
                                                         0.227 *    0.705 r
  core/fu_CMUL/fu_arch/U211/Z (C8T28SOI_LL_IVX3_P16)     0.144 *    0.849 f
  core/fu_CMUL/fu_arch/U300/Z (C8T28SOI_LL_NAND2X2_P16)
                                                         0.081 *    0.930 r
  core/fu_CMUL/fu_arch/U311/Z (C8T28SOI_LL_IVX3_P16)     0.093 *    1.023 f
  core/fu_CMUL/fu_arch/U1142/Z (C8T28SOI_LL_AOI22X2_P16)
                                                         0.097 *    1.121 r
  core/fu_CMUL/fu_arch/intadd_62/U4/S0 (C8T28SOIDV_LL_FA1X5_P16)
                                                         0.104 *    1.224 f
  core/fu_CMUL/fu_arch/intadd_63/U3/S0 (C8T28SOIDV_LL_FA1X5_P16)
                                                         0.084 *    1.308 r
  core/fu_CMUL/fu_arch/U630/Z (C8T28SOI_LL_IVX3_P16)     0.019 *    1.327 f
  core/fu_CMUL/fu_arch/intadd_69/U2/S0 (C8T28SOIDV_LL_FA1X5_P16)
                                                         0.082 *    1.409 r
  core/fu_CMUL/fu_arch/U900/Z (C8T28SOI_LL_IVX3_P16)     0.019 *    1.428 f
  core/fu_CMUL/fu_arch/U901/CO (C8T28SOIDV_LL_FA1X5_P16)
                                                         0.065 *    1.493 f
  core/fu_CMUL/fu_arch/U902/CO (C8T28SOIDV_LL_FA1X5_P16)
                                                         0.062 *    1.555 f
  core/fu_CMUL/fu_arch/U903/CO (C8T28SOIDV_LL_FA1X5_P16)
                                                         0.062 *    1.617 f
  core/fu_CMUL/fu_arch/U904/CO (C8T28SOIDV_LL_FA1X5_P16)
                                                         0.061 *    1.679 f
  core/fu_CMUL/fu_arch/U905/CO (C8T28SOIDV_LL_FA1X5_P16)
                                                         0.060 *    1.739 f
  core/fu_CMUL/fu_arch/U906/CO (C8T28SOIDV_LL_FA1X5_P16)
                                                         0.061 *    1.800 f
  core/fu_CMUL/fu_arch/U907/CO (C8T28SOIDV_LL_FA1X5_P16)
                                                         0.062 *    1.862 f
  core/fu_CMUL/fu_arch/U908/CO (C8T28SOIDV_LL_FA1X5_P16)
                                                         0.061 *    1.922 f
  core/fu_CMUL/fu_arch/U909/CO (C8T28SOIDV_LL_FA1X5_P16)
                                                         0.062 *    1.984 f
  core/fu_CMUL/fu_arch/U910/CO (C8T28SOIDV_LL_FA1X5_P16)
                                                         0.061 *    2.045 f
  core/fu_CMUL/fu_arch/intadd_3/U17/CO (C8T28SOIDV_LL_FA1X5_P16)
                                                         0.061 *    2.106 f
  core/fu_CMUL/fu_arch/intadd_3/U16/CO (C8T28SOIDV_LL_FA1X5_P16)
                                                         0.061 *    2.167 f
  core/fu_CMUL/fu_arch/intadd_3/U15/CO (C8T28SOIDV_LL_FA1X5_P16)
                                                         0.060 *    2.227 f
  core/fu_CMUL/fu_arch/intadd_3/U14/CO (C8T28SOIDV_LL_FA1X5_P16)
                                                         0.060 *    2.287 f
  core/fu_CMUL/fu_arch/intadd_3/U13/CO (C8T28SOIDV_LL_FA1X5_P16)
                                                         0.059 *    2.346 f
  core/fu_CMUL/fu_arch/intadd_3/U12/CO (C8T28SOIDV_LL_FA1X5_P16)
                                                         0.060 *    2.406 f
  core/fu_CMUL/fu_arch/intadd_3/U11/CO (C8T28SOIDV_LL_FA1X5_P16)
                                                         0.059 *    2.465 f
  core/fu_CMUL/fu_arch/intadd_3/U10/CO (C8T28SOIDV_LL_FA1X5_P16)
                                                         0.059 *    2.525 f
  core/fu_CMUL/fu_arch/intadd_3/U9/CO (C8T28SOIDV_LL_FA1X5_P16)
                                                         0.060 *    2.584 f
  core/fu_CMUL/fu_arch/intadd_3/U8/CO (C8T28SOIDV_LL_FA1X5_P16)
                                                         0.059 *    2.643 f
  core/fu_CMUL/fu_arch/intadd_3/U7/CO (C8T28SOIDV_LL_FA1X5_P16)
                                                         0.059 *    2.702 f
  core/fu_CMUL/fu_arch/intadd_3/U6/CO (C8T28SOIDV_LL_FA1X5_P16)
                                                         0.059 *    2.761 f
  core/fu_CMUL/fu_arch/intadd_3/U5/CO (C8T28SOIDV_LL_FA1X5_P16)
                                                         0.059 *    2.821 f
  core/fu_CMUL/fu_arch/intadd_3/U4/CO (C8T28SOIDV_LL_FA1X5_P16)
                                                         0.060 *    2.881 f
  core/fu_CMUL/fu_arch/intadd_3/U3/CO (C8T28SOIDV_LL_FA1X5_P16)
                                                         0.060 *    2.941 f
  core/fu_CMUL/fu_arch/intadd_3/U2/CO (C8T28SOIDV_LL_FA1X5_P16)
                                                         0.056 *    2.997 f
  core/fu_CMUL/fu_arch/U608/Z (C8T28SOI_LL_NAND2X2_P16)
                                                         0.023 *    3.020 r
  core/fu_CMUL/fu_arch/U611/Z (C8T28SOI_LL_OA112X4_P16)
                                                         0.050 *    3.070 r
  core/fu_CMUL/fu_arch/clk_r_REG504_S42/D (C8T28SOIDV_LL_DFPRQX10_P16)
                                                         0.000 *    3.070 r
  data arrival time                                                 3.070

  clock clk (rise edge)                                  6.667      6.667
  clock network delay (ideal)                            0.010      6.677
  clock uncertainty                                     -0.010      6.667
  core/fu_CMUL/fu_arch/clk_r_REG504_S42/CP (C8T28SOIDV_LL_DFPRQX10_P16)
                                                         0.000      6.667 r
  library setup time                                    -0.020      6.647
  data required time                                                6.647
  --------------------------------------------------------------------------
  data required time                                                6.647
  data arrival time                                                -3.070
  --------------------------------------------------------------------------
  slack (MET)                                                       3.576


  Startpoint: core/loopbuffer/clk_r_REG624_S42
              (rising edge-triggered flip-flop clocked by clk)
  Endpoint: datamem/dmem_2/cacti_mem_0/mem_32x32
            (rising edge-triggered flip-flop clocked by clk)
  Path Group: clk
  Path Type: max

  Point                                                   Incr       Path
  --------------------------------------------------------------------------
  clock clk (rise edge)                                  0.000      0.000
  clock network delay (ideal)                            0.010      0.010
  core/loopbuffer/clk_r_REG624_S42/CP (C8T28SOIDV_LL_DFPRQX10_P16)
                                                         0.000      0.010 r
  core/loopbuffer/clk_r_REG624_S42/Q (C8T28SOIDV_LL_DFPRQX10_P16)
                                                         0.066      0.076 f
  core/loopbuffer/U31/Z (C8T28SOI_LL_NOR2X4_P16)         0.033 *    0.109 r
  core/loopbuffer/U32/Z (C8T28SOI_LL_IVX5_P16)           0.029 *    0.138 f
  core/loopbuffer/U36/Z (C8T28SOI_LL_AOI22X2_P16)        0.207 *    0.344 r
  core/loopbuffer/U19/Z (C8T28SOI_LL_BFX5_P16)           0.180 *    0.524 r
  core/loopbuffer/U608/Z (C8T28SOI_LL_OA22X5_P16)        0.090 *    0.614 r
  core/loopbuffer/glock_out (tta0_loopbuf_1_32_51_1_0)
                                                         0.000      0.614 r
  core/inst_decoder/lock (tta0_decoder)                  0.000      0.614 r
  core/inst_decoder/U63/Z (C8T28SOI_LL_NOR2X4_P16)       0.024 *    0.638 f
  core/inst_decoder/U64/Z (C8T28SOI_LL_NAND2AX2_P16)     0.033 *    0.671 r
  core/inst_decoder/glock[7] (tta0_decoder)              0.000      0.671 r
  U294/Z (C8T28SOI_LL_BFX9_P16)                          0.141 *    0.812 r
  core/fu_lsu_r/glock (fu_ldw_stw_always_4_dataw32_addrw16_1)
                                                         0.000      0.812 r
  core/fu_lsu_r/U128/Z (C8T28SOI_LL_OR2X5_P16)           0.100 *    0.911 r
  core/fu_lsu_r/mem_en_x[0] (fu_ldw_stw_always_4_dataw32_addrw16_1)
                                                         0.000      0.911 r
  U160/Z (C8T28SOI_LL_NOR2AX4_P16)                       0.339 *    1.250 r
  U300/Z (C8T28SOI_LL_IVX3_P16)                          0.261 *    1.512 f
  U242/Z (C8T28SOI_LL_AOI22X2_P16)                       0.091 *    1.603 r
  U243/Z (C8T28SOI_LL_IVX3_P16)                          0.029 *    1.632 f
  datamem/scheduler/lsu_addr_a[7] (par_mem_scheduler_dataw32_addrw14_ports2_rd_delay1)
                                                         0.000      1.632 f
  datamem/scheduler/addr_a_conv/data_in[7] (ser_par_conv_portw14_port_cnt2_1)
                                                         0.000      1.632 f
  datamem/scheduler/addr_a_conv/U24/Z (C8T28SOI_LL_IVX3_P16)
                                                         0.022 *    1.655 r
  datamem/scheduler/addr_a_conv/U25/Z (C8T28SOI_LL_IVX3_P16)
                                                         0.016 *    1.671 f
  datamem/scheduler/addr_a_conv/data_out[7] (ser_par_conv_portw14_port_cnt2_1)
                                                         0.000      1.671 f
  datamem/scheduler/U166/Z (C8T28SOI_LL_AOI22X2_P16)     0.045 *    1.716 r
  datamem/scheduler/U167/Z (C8T28SOI_LL_IVX3_P16)        0.043 *    1.758 f
  datamem/scheduler/addr[7] (par_mem_scheduler_dataw32_addrw14_ports2_rd_delay1)
                                                         0.000      1.758 f
  datamem/par_mem_logic_inst/addrs_from_lsus[7] (par_mem_logic_PORTS2_LSU_ADDRW14_CTRLW1_DATAW32_PM_FUNC2)
                                                         0.000      1.758 f
  datamem/par_mem_logic_inst/addr_crsbar_0/addrs_from_lsus[7] (addr_crsbar_PORTS2_LSU_ADDRW14_CTRLW1_PM_FUNC2)
                                                         0.000      1.758 f
  datamem/par_mem_logic_inst/addr_crsbar_0/U24/Z (C8T28SOI_LL_AOI22X2_P16)
                                                         0.067 *    1.825 r
  datamem/par_mem_logic_inst/addr_crsbar_0/U26/Z (C8T28SOIDV_LLS_XNOR2X4_P16)
                                                         0.057 *    1.882 r
  datamem/par_mem_logic_inst/addr_crsbar_0/U27/Z (C8T28SOI_LL_NAND2X2_P16)
                                                         0.024 *    1.906 f
  datamem/par_mem_logic_inst/addr_crsbar_0/U28/Z (C8T28SOI_LL_OAI12X3_P16)
                                                         0.029 *    1.935 r
  datamem/par_mem_logic_inst/addr_crsbar_0/U37/Z (C8T28SOIDV_LLS_XNOR2X4_P16)
                                                         0.038 *    1.974 r
  datamem/par_mem_logic_inst/addr_crsbar_0/U38/Z (C8T28SOI_LL_NAND2X2_P16)
                                                         0.021 *    1.995 f
  datamem/par_mem_logic_inst/addr_crsbar_0/U39/Z (C8T28SOI_LL_OAI12X3_P16)
                                                         0.028 *    2.023 r
  datamem/par_mem_logic_inst/addr_crsbar_0/U40/Z (C8T28SOIDV_LLS_XNOR2X4_P16)
                                                         0.040 *    2.063 r
  datamem/par_mem_logic_inst/addr_crsbar_0/U41/Z (C8T28SOI_LL_NAND2X2_P16)
                                                         0.022 *    2.085 f
  datamem/par_mem_logic_inst/addr_crsbar_0/U42/Z (C8T28SOI_LL_OAI12X3_P16)
                                                         0.029 *    2.114 r
  datamem/par_mem_logic_inst/addr_crsbar_0/U43/Z (C8T28SOIDV_LLS_XNOR2X4_P16)
                                                         0.022 *    2.136 f
  datamem/par_mem_logic_inst/addr_crsbar_0/U44/Z (C8T28SOI_LL_NAND2X2_P16)
                                                         0.022 *    2.158 r
  datamem/par_mem_logic_inst/addr_crsbar_0/U45/Z (C8T28SOI_LL_OAI12X3_P16)
                                                         0.039 *    2.196 f
  datamem/par_mem_logic_inst/addr_crsbar_0/module_nums[0] (addr_crsbar_PORTS2_LSU_ADDRW14_CTRLW1_PM_FUNC2)
                                                         0.000      2.196 f
  datamem/par_mem_logic_inst/ctrl_units_0/module_nums[0] (ctrl_units_PORTS2_CTRLW1)
                                                         0.000      2.196 f
  datamem/par_mem_logic_inst/ctrl_units_0/ctrl_uniti_0/module_num[0] (ctrl_unit_PORTS2_CTRLW1_1)
                                                         0.000      2.196 f
  datamem/par_mem_logic_inst/ctrl_units_0/ctrl_uniti_0/U15/Z (C8T28SOI_LL_NOR2AX4_P16)
                                                         0.045 *    2.241 r
  datamem/par_mem_logic_inst/ctrl_units_0/ctrl_uniti_0/U16/Z (C8T28SOI_LL_AOI22X2_P16)
                                                         0.029 *    2.270 f
  datamem/par_mem_logic_inst/ctrl_units_0/ctrl_uniti_0/U22/Z (C8T28SOI_LL_AND2X5_P16)
                                                         0.048 *    2.317 f
  datamem/par_mem_logic_inst/ctrl_units_0/ctrl_uniti_0/mem_en_x (ctrl_unit_PORTS2_CTRLW1_1)
                                                         0.000      2.317 f
  datamem/par_mem_logic_inst/ctrl_units_0/U18/Z (C8T28SOI_LL_NAND2AX2_P16)
                                                         0.076 *    2.393 f
  datamem/par_mem_logic_inst/ctrl_units_0/mem_en_xs[0] (ctrl_units_PORTS2_CTRLW1)
                                                         0.000      2.393 f
  datamem/par_mem_logic_inst/mem_en_xs[0] (par_mem_logic_PORTS2_LSU_ADDRW14_CTRLW1_DATAW32_PM_FUNC2)
                                                         0.000      2.393 f
  datamem/dmem_2/en_x (synch_singleport_mem_wrapper_DATAW32_ADDRW13_0)
                                                         0.000      2.393 f
  datamem/dmem_2/en_wr_arbiter/en (block_en_wr_arbiter_ADDRW13_NBLOCKS9_0)
                                                         0.000      2.393 f
  datamem/dmem_2/en_wr_arbiter/U6/Z (C8T28SOI_LL_IVX3_P16)
                                                         0.111 *    2.504 r
  datamem/dmem_2/en_wr_arbiter/U23/Z (C8T28SOI_LL_NAND3X3_P16)
                                                         0.066 *    2.570 f
  datamem/dmem_2/en_wr_arbiter/en_blocks[0] (block_en_wr_arbiter_ADDRW13_NBLOCKS9_0)
                                                         0.000      2.570 f
  datamem/dmem_2/cacti_mem_0/en_x (cacti_mem_wrapper_DATAW32_ADDRW5_1)
                                                         0.000      2.570 f
  datamem/dmem_2/cacti_mem_0/mem_32x32/mem_en_x (ram_32x32)
                                                         0.000 *    2.570 f
  data arrival time                                                 2.570

  clock clk (rise edge)                                  6.667      6.667
  clock network delay (ideal)                            0.010      6.677
  clock uncertainty                                     -0.010      6.667
  datamem/dmem_2/cacti_mem_0/mem_32x32/clk (ram_32x32)
                                                         0.000      6.667 r
  library setup time                                    -0.520      6.147
  data required time                                                6.147
  --------------------------------------------------------------------------
  data required time                                                6.147
  data arrival time                                                -2.570
  --------------------------------------------------------------------------
  slack (MET)                                                       3.577


  Startpoint: core/loopbuffer/clk_r_REG624_S42
              (rising edge-triggered flip-flop clocked by clk)
  Endpoint: datamem/dmem_2/cacti_mem_x_4/mem_256x32
            (rising edge-triggered flip-flop clocked by clk)
  Path Group: clk
  Path Type: max

  Point                                                   Incr       Path
  --------------------------------------------------------------------------
  clock clk (rise edge)                                  0.000      0.000
  clock network delay (ideal)                            0.010      0.010
  core/loopbuffer/clk_r_REG624_S42/CP (C8T28SOIDV_LL_DFPRQX10_P16)
                                                         0.000      0.010 r
  core/loopbuffer/clk_r_REG624_S42/Q (C8T28SOIDV_LL_DFPRQX10_P16)
                                                         0.066      0.076 f
  core/loopbuffer/U31/Z (C8T28SOI_LL_NOR2X4_P16)         0.033 *    0.109 r
  core/loopbuffer/U32/Z (C8T28SOI_LL_IVX5_P16)           0.029 *    0.138 f
  core/loopbuffer/U36/Z (C8T28SOI_LL_AOI22X2_P16)        0.207 *    0.344 r
  core/loopbuffer/U19/Z (C8T28SOI_LL_BFX5_P16)           0.180 *    0.524 r
  core/loopbuffer/U608/Z (C8T28SOI_LL_OA22X5_P16)        0.090 *    0.614 r
  core/loopbuffer/glock_out (tta0_loopbuf_1_32_51_1_0)
                                                         0.000      0.614 r
  core/inst_decoder/lock (tta0_decoder)                  0.000      0.614 r
  core/inst_decoder/U63/Z (C8T28SOI_LL_NOR2X4_P16)       0.024 *    0.638 f
  core/inst_decoder/U64/Z (C8T28SOI_LL_NAND2AX2_P16)     0.033 *    0.671 r
  core/inst_decoder/glock[7] (tta0_decoder)              0.000      0.671 r
  U294/Z (C8T28SOI_LL_BFX9_P16)                          0.141 *    0.812 r
  core/fu_lsu_r/glock (fu_ldw_stw_always_4_dataw32_addrw16_1)
                                                         0.000      0.812 r
  core/fu_lsu_r/U128/Z (C8T28SOI_LL_OR2X5_P16)           0.100 *    0.911 r
  core/fu_lsu_r/mem_en_x[0] (fu_ldw_stw_always_4_dataw32_addrw16_1)
                                                         0.000      0.911 r
  U160/Z (C8T28SOI_LL_NOR2AX4_P16)                       0.339 *    1.250 r
  U300/Z (C8T28SOI_LL_IVX3_P16)                          0.261 *    1.512 f
  U242/Z (C8T28SOI_LL_AOI22X2_P16)                       0.091 *    1.603 r
  U243/Z (C8T28SOI_LL_IVX3_P16)                          0.029 *    1.632 f
  datamem/scheduler/lsu_addr_a[7] (par_mem_scheduler_dataw32_addrw14_ports2_rd_delay1)
                                                         0.000      1.632 f
  datamem/scheduler/addr_a_conv/data_in[7] (ser_par_conv_portw14_port_cnt2_1)
                                                         0.000      1.632 f
  datamem/scheduler/addr_a_conv/U24/Z (C8T28SOI_LL_IVX3_P16)
                                                         0.022 *    1.655 r
  datamem/scheduler/addr_a_conv/U25/Z (C8T28SOI_LL_IVX3_P16)
                                                         0.016 *    1.671 f
  datamem/scheduler/addr_a_conv/data_out[7] (ser_par_conv_portw14_port_cnt2_1)
                                                         0.000      1.671 f
  datamem/scheduler/U166/Z (C8T28SOI_LL_AOI22X2_P16)     0.045 *    1.716 r
  datamem/scheduler/U167/Z (C8T28SOI_LL_IVX3_P16)        0.043 *    1.758 f
  datamem/scheduler/addr[7] (par_mem_scheduler_dataw32_addrw14_ports2_rd_delay1)
                                                         0.000      1.758 f
  datamem/par_mem_logic_inst/addrs_from_lsus[7] (par_mem_logic_PORTS2_LSU_ADDRW14_CTRLW1_DATAW32_PM_FUNC2)
                                                         0.000      1.758 f
  datamem/par_mem_logic_inst/addr_crsbar_0/addrs_from_lsus[7] (addr_crsbar_PORTS2_LSU_ADDRW14_CTRLW1_PM_FUNC2)
                                                         0.000      1.758 f
  datamem/par_mem_logic_inst/addr_crsbar_0/U24/Z (C8T28SOI_LL_AOI22X2_P16)
                                                         0.067 *    1.825 r
  datamem/par_mem_logic_inst/addr_crsbar_0/U26/Z (C8T28SOIDV_LLS_XNOR2X4_P16)
                                                         0.057 *    1.882 r
  datamem/par_mem_logic_inst/addr_crsbar_0/U27/Z (C8T28SOI_LL_NAND2X2_P16)
                                                         0.024 *    1.906 f
  datamem/par_mem_logic_inst/addr_crsbar_0/U28/Z (C8T28SOI_LL_OAI12X3_P16)
                                                         0.029 *    1.935 r
  datamem/par_mem_logic_inst/addr_crsbar_0/U37/Z (C8T28SOIDV_LLS_XNOR2X4_P16)
                                                         0.038 *    1.974 r
  datamem/par_mem_logic_inst/addr_crsbar_0/U38/Z (C8T28SOI_LL_NAND2X2_P16)
                                                         0.021 *    1.995 f
  datamem/par_mem_logic_inst/addr_crsbar_0/U39/Z (C8T28SOI_LL_OAI12X3_P16)
                                                         0.028 *    2.023 r
  datamem/par_mem_logic_inst/addr_crsbar_0/U40/Z (C8T28SOIDV_LLS_XNOR2X4_P16)
                                                         0.040 *    2.063 r
  datamem/par_mem_logic_inst/addr_crsbar_0/U41/Z (C8T28SOI_LL_NAND2X2_P16)
                                                         0.022 *    2.085 f
  datamem/par_mem_logic_inst/addr_crsbar_0/U42/Z (C8T28SOI_LL_OAI12X3_P16)
                                                         0.029 *    2.114 r
  datamem/par_mem_logic_inst/addr_crsbar_0/U43/Z (C8T28SOIDV_LLS_XNOR2X4_P16)
                                                         0.022 *    2.136 f
  datamem/par_mem_logic_inst/addr_crsbar_0/U44/Z (C8T28SOI_LL_NAND2X2_P16)
                                                         0.022 *    2.158 r
  datamem/par_mem_logic_inst/addr_crsbar_0/U45/Z (C8T28SOI_LL_OAI12X3_P16)
                                                         0.039 *    2.196 f
  datamem/par_mem_logic_inst/addr_crsbar_0/module_nums[0] (addr_crsbar_PORTS2_LSU_ADDRW14_CTRLW1_PM_FUNC2)
                                                         0.000      2.196 f
  datamem/par_mem_logic_inst/ctrl_units_0/module_nums[0] (ctrl_units_PORTS2_CTRLW1)
                                                         0.000      2.196 f
  datamem/par_mem_logic_inst/ctrl_units_0/ctrl_uniti_0/module_num[0] (ctrl_unit_PORTS2_CTRLW1_1)
                                                         0.000      2.196 f
  datamem/par_mem_logic_inst/ctrl_units_0/ctrl_uniti_0/U15/Z (C8T28SOI_LL_NOR2AX4_P16)
                                                         0.045 *    2.241 r
  datamem/par_mem_logic_inst/ctrl_units_0/ctrl_uniti_0/U16/Z (C8T28SOI_LL_AOI22X2_P16)
                                                         0.029 *    2.270 f
  datamem/par_mem_logic_inst/ctrl_units_0/ctrl_uniti_0/U22/Z (C8T28SOI_LL_AND2X5_P16)
                                                         0.048 *    2.317 f
  datamem/par_mem_logic_inst/ctrl_units_0/ctrl_uniti_0/mem_en_x (ctrl_unit_PORTS2_CTRLW1_1)
                                                         0.000      2.317 f
  datamem/par_mem_logic_inst/ctrl_units_0/U18/Z (C8T28SOI_LL_NAND2AX2_P16)
                                                         0.076 *    2.393 f
  datamem/par_mem_logic_inst/ctrl_units_0/mem_en_xs[0] (ctrl_units_PORTS2_CTRLW1)
                                                         0.000      2.393 f
  datamem/par_mem_logic_inst/mem_en_xs[0] (par_mem_logic_PORTS2_LSU_ADDRW14_CTRLW1_DATAW32_PM_FUNC2)
                                                         0.000      2.393 f
  datamem/dmem_2/en_x (synch_singleport_mem_wrapper_DATAW32_ADDRW13_0)
                                                         0.000      2.393 f
  datamem/dmem_2/en_wr_arbiter/en (block_en_wr_arbiter_ADDRW13_NBLOCKS9_0)
                                                         0.000      2.393 f
  datamem/dmem_2/en_wr_arbiter/U6/Z (C8T28SOI_LL_IVX3_P16)
                                                         0.111 *    2.504 r
  datamem/dmem_2/en_wr_arbiter/U27/Z (C8T28SOI_LL_NAND3X3_P16)
                                                         0.060 *    2.564 f
  datamem/dmem_2/en_wr_arbiter/en_blocks[4] (block_en_wr_arbiter_ADDRW13_NBLOCKS9_0)
                                                         0.000      2.564 f
  datamem/dmem_2/cacti_mem_x_4/en_x (cacti_mem_wrapper_DATAW32_ADDRW8_0)
                                                         0.000      2.564 f
  datamem/dmem_2/cacti_mem_x_4/mem_256x32/mem_en_x (ram_256x32)
                                                         0.000 *    2.564 f
  data arrival time                                                 2.564

  clock clk (rise edge)                                  6.667      6.667
  clock network delay (ideal)                            0.010      6.677
  clock uncertainty                                     -0.010      6.667
  datamem/dmem_2/cacti_mem_x_4/mem_256x32/clk (ram_256x32)
                                                         0.000      6.667 r
  library setup time                                    -0.524      6.143
  data required time                                                6.143
  --------------------------------------------------------------------------
  data required time                                                6.143
  data arrival time                                                -2.564
  --------------------------------------------------------------------------
  slack (MET)                                                       3.579


1
