Information: Propagating switching activity (high effort zero delay simulation). (PWR-6)
Warning: Design has unannotated sequential cell outputs. (PWR-415)
Warning: Design has unannotated black box outputs. (PWR-428)
 
****************************************
Report : power
        -analysis_effort high
Design : proc
Version: M-2016.12-SP5-1
Date   : Sat Jul 28 19:38:19 2018
****************************************


Library(s) Used:

    C28SOI_SC_8_CLK_LL (File: /home/software/cmos28fdsoi_25f/C28SOI_SC_8_CLK_LL/3.2-00/libs/C28SOI_SC_8_CLK_LL_tt28_0.90V_0.00V_0.00V_0.00V_25C.db)
    C28SOI_SC_8_CORE_LL (File: /home/software/cmos28fdsoi_25f/C28SOI_SC_8_CORE_LL/3.3-00/libs/C28SOI_SC_8_CORE_LL_tt28_0.90V_0.00V_0.00V_0.00V_25C.db)
    C28SOI_SC_8_COREPBP16_LL (File: /home/software/cmos28fdsoi_25f/C28SOI_SC_8_COREPBP16_LL/3.3-00/libs/C28SOI_SC_8_COREPBP16_LL_tt28_0.90V_0.00V_0.00V_0.00V_25C.db)
    C28SOI_SC_8_COREPBP4_LL (File: /home/software/cmos28fdsoi_25f/C28SOI_SC_8_COREPBP4_LL/3.3-00/libs/C28SOI_SC_8_COREPBP4_LL_tt28_0.90V_0.00V_0.00V_0.00V_25C.db)
    C28SOI_SC_8_COREPBP10_LL (File: /home/software/cmos28fdsoi_25f/C28SOI_SC_8_COREPBP10_LL/3.3-00/libs/C28SOI_SC_8_COREPBP10_LL_tt28_0.90V_0.00V_0.00V_0.00V_25C.db)
    ram_64x51 (File: /home/zadnik/designs/fft_full_lbuf/vhdl/mem/cacti_mem/ram_300k_028nm_0_90v_64x51/ram_64x51.db)
    ram_4096x32 (File: /home/zadnik/designs/fft_full_lbuf/vhdl/mem/cacti_mem/ram_300k_028nm_0_90v_4096x32/ram_4096x32.db)
    ram_2048x32 (File: /home/zadnik/designs/fft_full_lbuf/vhdl/mem/cacti_mem/ram_300k_028nm_0_90v_2048x32/ram_2048x32.db)
    ram_1024x32 (File: /home/zadnik/designs/fft_full_lbuf/vhdl/mem/cacti_mem/ram_300k_028nm_0_90v_1024x32/ram_1024x32.db)
    ram_512x32 (File: /home/zadnik/designs/fft_full_lbuf/vhdl/mem/cacti_mem/ram_300k_028nm_0_90v_512x32/ram_512x32.db)
    ram_256x32 (File: /home/zadnik/designs/fft_full_lbuf/vhdl/mem/cacti_mem/ram_300k_028nm_0_90v_256x32/ram_256x32.db)
    ram_128x32 (File: /home/zadnik/designs/fft_full_lbuf/vhdl/mem/cacti_mem/ram_300k_028nm_0_90v_128x32/ram_128x32.db)
    ram_64x32 (File: /home/zadnik/designs/fft_full_lbuf/vhdl/mem/cacti_mem/ram_300k_028nm_0_90v_64x32/ram_64x32.db)
    ram_32x32 (File: /home/zadnik/designs/fft_full_lbuf/vhdl/mem/cacti_mem/ram_300k_028nm_0_90v_32x32/ram_32x32.db)


Operating Conditions: tt28_0.90V_0.00V_0.00V_0.00V_25C   Library: C28SOI_SC_8_CLK_LL
Wire Load Model Mode: Inactive.


Global Operating Voltage = 0.9  
Power-specific unit information :
    Voltage Units = 1V
    Capacitance Units = 1.000000pf
    Time Units = 1ns
    Dynamic Power Units = 1mW    (derived from V,C,T units)
    Leakage Power Units = 1mW

Warning: Cannot report correlated power unless power prediction mode is set. (PWR-727)
Power Breakdown
---------------

                             Cell        Driven Net  Tot Dynamic      Cell
                             Internal    Switching   Power (mW)       Leakage
Cell                         Power (mW)  Power (mW)  (% Cell/Tot)     Power (mW)
--------------------------------------------------------------------------------
Netlist Power                   7.2331      5.5738     12.8069 (56%)    13.9354
Estimated Clock Tree Power   N/A         N/A          (N/A)           N/A
--------------------------------------------------------------------------------

                 Internal         Switching           Leakage            Total
Power Group      Power            Power               Power              Power   (   %    )  Attrs
--------------------------------------------------------------------------------------------------
io_pad             0.0000            0.0000            0.0000            0.0000  (   0.00%)
memory             0.3139        2.7997e-02           13.9255           14.2674  (  53.35%)
black_box          0.0000            0.0000            0.0000            0.0000  (   0.00%)
clock_network      0.1506            0.8351        3.0542e-04            0.9860  (   3.69%)
register           3.7630            0.1708        2.6730e-03            3.9365  (  14.72%)
sequential         0.0000            0.0000            0.0000            0.0000  (   0.00%)
combinational      3.0056            4.5399        6.9267e-03            7.5524  (  28.24%)
--------------------------------------------------------------------------------------------------
Total              7.2331 mW         5.5738 mW        13.9354 mW        26.7423 mW
1
