Warning: There are 83 switching activity information conflicts. (PWR-19)
 
****************************************
Report : saif
Design : proc
Version: M-2016.12-SP5-1
Date   : Sat Jul 28 19:38:07 2018
****************************************

  

--------------------------------------------------------------------------------
              User              Default           Propagated
Object type   Annotated (%)     Activity (%)      Activity (%)       Total
--------------------------------------------------------------------------------
  
 Nets         270(60.40%)       0(0.00%)          177(39.60%)        447
 Ports        229(100.00%)      0(0.00%)          0(0.00%)           229
 Pins         223(35.12%)       0(0.00%)          412(64.88%)        635
--------------------------------------------------------------------------------
1
