Information: Updating design information... (UID-85)
 
****************************************
Report : timing
        -path full
        -delay max
        -max_paths 10
Design : proc
Version: M-2016.12-SP5-1
Date   : Sat Jul 28 20:20:50 2018
****************************************

 * Some/all delay information is back-annotated.

Operating Conditions: tt28_0.90V_0.00V_0.00V_0.00V_25C   Library: C28SOI_SC_8_CLK_LL
Wire Load Model Mode: Inactive.

  Startpoint: core/loopbuffer/clk_r_REG1989_S18
              (rising edge-triggered flip-flop clocked by clk)
  Endpoint: datamem/dmem_2/cacti_mem_x_7/mem_2048x32
            (rising edge-triggered flip-flop clocked by clk)
  Path Group: clk
  Path Type: max

  Point                                                   Incr       Path
  --------------------------------------------------------------------------
  clock clk (rise edge)                                  0.000      0.000
  clock network delay (ideal)                            0.010      0.010
  core/loopbuffer/clk_r_REG1989_S18/CP (C8T28SOIDV_LL_DFPRQX10_P0)
                                                         0.000      0.010 r
  core/loopbuffer/clk_r_REG1989_S18/Q (C8T28SOIDV_LL_DFPRQX10_P0)
                                                         0.050      0.060 f
  core/loopbuffer/U8/Z (C8T28SOI_LL_NOR2X8_P0)           0.028 *    0.088 r
  core/loopbuffer/U19/Z (C8T28SOI_LL_NOR2X8_P0)          0.015 *    0.103 f
  core/loopbuffer/U145/Z (C8T28SOI_LL_CNIVX9_P0)         0.008 *    0.112 r
  core/loopbuffer/U144/Z (C8T28SOIDV_LL_NAND2X9_P0)      0.008 *    0.119 f
  core/loopbuffer/lock_req_out (tta0_loopbuf_1_32_51_1_0)
                                                         0.000      0.119 f
  core/decomp/lock_r (tta0_decompressor)                 0.000      0.119 f
  core/decomp/U1/Z (C8T28SOI_LL_CNIVX9_P0)               0.009 *    0.128 r
  core/decomp/fetch_en (tta0_decompressor)               0.000      0.128 r
  core/inst_fetch/fetch_en (tta0_ifetch)                 0.000      0.128 r
  core/inst_fetch/U151/Z (C8T28SOIDV_LL_NAND2X9_P0)      0.010 *    0.138 f
  core/inst_fetch/glock (tta0_ifetch)                    0.000      0.138 f
  core/loopbuffer/glock_in (tta0_loopbuf_1_32_51_1_0)    0.000      0.138 f
  core/loopbuffer/U4/Z (C8T28SOIDV_LL_NAND2X9_P0)        0.014 *    0.152 r
  core/loopbuffer/U34/Z (C8T28SOIDV_LL_NAND2X18_P0)      0.013 *    0.165 f
  core/loopbuffer/glock_out (tta0_loopbuf_1_32_51_1_0)
                                                         0.000      0.165 f
  core/inst_decoder/lock (tta0_decoder)                  0.000      0.165 f
  core/inst_decoder/U7/Z (C8T28SOIDV_LL_CNIVX28_P4)      0.010 *    0.175 r
  core/inst_decoder/U3/Z (C8T28SOIDV_LL_NAND2X18_P0)     0.010 *    0.185 f
  core/inst_decoder/glock[7] (tta0_decoder)              0.000      0.185 f
  core/fu_lsu_r/glock (fu_ldw_stw_always_4_dataw32_addrw16_1)
                                                         0.000      0.185 f
  core/fu_lsu_r/U3/Z (C8T28SOIDV_LL_CNIVX37_P0)          0.011 *    0.195 r
  core/fu_lsu_r/U4/Z (C8T28SOIDV_LL_NAND2X36_P0)         0.014 *    0.209 f
  core/fu_lsu_r/mem_en_x[0] (fu_ldw_stw_always_4_dataw32_addrw16_1)
                                                         0.000      0.209 f
  U147/Z (C8T28SOIDV_LL_NAND2AX36_P0)                    0.020 *    0.229 r
  U152/Z (C8T28SOI_LL_MUXI21X9_P0)                       0.025 *    0.255 r
  datamem/scheduler/lsu_addr_a[13] (par_mem_scheduler_dataw32_addrw14_ports2_rd_delay1)
                                                         0.000      0.255 r
  datamem/scheduler/U27/Z (C8T28SOI_LL_NAND2X8_P0)       0.017 *    0.271 f
  datamem/scheduler/U28/Z (C8T28SOIDV_LL_NAND2X18_P16)
                                                         0.018 *    0.289 r
  datamem/scheduler/addr[13] (par_mem_scheduler_dataw32_addrw14_ports2_rd_delay1)
                                                         0.000      0.289 r
  datamem/par_mem_logic_inst/addrs_from_lsus[13] (par_mem_logic_PORTS2_LSU_ADDRW14_CTRLW1_DATAW32_PM_FUNC2)
                                                         0.000      0.289 r
  datamem/par_mem_logic_inst/addr_crsbar_0/addrs_from_lsus[13] (addr_crsbar_PORTS2_LSU_ADDRW14_CTRLW1_PM_FUNC2)
                                                         0.000      0.289 r
  datamem/par_mem_logic_inst/addr_crsbar_0/U81/Z (C8T28SOI_LL_AOI21X12_P0)
                                                         0.018 *    0.307 f
  datamem/par_mem_logic_inst/addr_crsbar_0/U84/Z (C8T28SOIDV_LLS_XOR2X4_P0)
                                                         0.026 *    0.333 f
  datamem/par_mem_logic_inst/addr_crsbar_0/U70/Z (C8T28SOI_LL_CNIVX4_P0)
                                                         0.011 *    0.344 r
  datamem/par_mem_logic_inst/addr_crsbar_0/U92/Z (C8T28SOIDV_LLS_XNOR2X4_P0)
                                                         0.023 *    0.367 r
  datamem/par_mem_logic_inst/addr_crsbar_0/U134/Z (C8T28SOIDV_LLS_XNOR2X4_P0)
                                                         0.032 *    0.399 r
  datamem/par_mem_logic_inst/addr_crsbar_0/U7/Z (C8T28SOIDV_LLS_XOR2X12_P0)
                                                         0.037 *    0.437 r
  datamem/par_mem_logic_inst/addr_crsbar_0/U6/Z (C8T28SOIDV_LL_CNIVX18_P0)
                                                         0.014 *    0.450 f
  datamem/par_mem_logic_inst/addr_crsbar_0/module_nums[0] (addr_crsbar_PORTS2_LSU_ADDRW14_CTRLW1_PM_FUNC2)
                                                         0.000      0.450 f
  datamem/par_mem_logic_inst/ctrl_units_0/module_nums[0] (ctrl_units_PORTS2_CTRLW1)
                                                         0.000      0.450 f
  datamem/par_mem_logic_inst/ctrl_units_0/ctrl_uniti_0/module_num[0] (ctrl_unit_PORTS2_CTRLW1_1)
                                                         0.000      0.450 f
  datamem/par_mem_logic_inst/ctrl_units_0/ctrl_uniti_0/U11/Z (C8T28SOI_LL_CNIVX9_P0)
                                                         0.007 *    0.458 r
  datamem/par_mem_logic_inst/ctrl_units_0/ctrl_uniti_0/U4/Z (C8T28SOI_LL_AOI12X3_P0)
                                                         0.010 *    0.468 f
  datamem/par_mem_logic_inst/ctrl_units_0/ctrl_uniti_0/mem_en_x (ctrl_unit_PORTS2_CTRLW1_1)
                                                         0.000      0.468 f
  datamem/par_mem_logic_inst/ctrl_units_0/U3/Z (C8T28SOIDV_LL_NAND2AX9_P0)
                                                         0.026 *    0.494 f
  datamem/par_mem_logic_inst/ctrl_units_0/mem_en_xs[0] (ctrl_units_PORTS2_CTRLW1)
                                                         0.000      0.494 f
  datamem/par_mem_logic_inst/mem_en_xs[0] (par_mem_logic_PORTS2_LSU_ADDRW14_CTRLW1_DATAW32_PM_FUNC2)
                                                         0.000      0.494 f
  datamem/dmem_2/en_x (synch_singleport_mem_wrapper_DATAW32_ADDRW13_0)
                                                         0.000      0.494 f
  datamem/dmem_2/en_wr_arbiter/en (block_en_wr_arbiter_ADDRW13_NBLOCKS9_0)
                                                         0.000      0.494 f
  datamem/dmem_2/en_wr_arbiter/U2/Z (C8T28SOIDV_LL_CNIVX37_P0)
                                                         0.017 *    0.511 r
  datamem/dmem_2/en_wr_arbiter/U35/Z (C8T28SOI_LLBR0P6_NAND3X7_P0)
                                                         0.017 *    0.528 f
  datamem/dmem_2/en_wr_arbiter/en_blocks[7] (block_en_wr_arbiter_ADDRW13_NBLOCKS9_0)
                                                         0.000      0.528 f
  datamem/dmem_2/cacti_mem_x_7/en_x (cacti_mem_wrapper_DATAW32_ADDRW11_0)
                                                         0.000      0.528 f
  datamem/dmem_2/cacti_mem_x_7/mem_2048x32/mem_en_x (ram_2048x32)
                                                         0.000 *    0.528 f
  data arrival time                                                 0.528

  clock clk (rise edge)                                  1.053      1.053
  clock network delay (ideal)                            0.010      1.063
  clock uncertainty                                     -0.010      1.053
  datamem/dmem_2/cacti_mem_x_7/mem_2048x32/clk (ram_2048x32)
                                                         0.000      1.053 r
  library setup time                                    -0.508      0.545
  data required time                                                0.545
  --------------------------------------------------------------------------
  data required time                                                0.545
  data arrival time                                                -0.528
  --------------------------------------------------------------------------
  slack (MET)                                                       0.017


  Startpoint: core/loopbuffer/clk_r_REG1989_S18
              (rising edge-triggered flip-flop clocked by clk)
  Endpoint: datamem/dmem_2/cacti_mem_0/mem_32x32
            (rising edge-triggered flip-flop clocked by clk)
  Path Group: clk
  Path Type: max

  Point                                                   Incr       Path
  --------------------------------------------------------------------------
  clock clk (rise edge)                                  0.000      0.000
  clock network delay (ideal)                            0.010      0.010
  core/loopbuffer/clk_r_REG1989_S18/CP (C8T28SOIDV_LL_DFPRQX10_P0)
                                                         0.000      0.010 r
  core/loopbuffer/clk_r_REG1989_S18/Q (C8T28SOIDV_LL_DFPRQX10_P0)
                                                         0.050      0.060 f
  core/loopbuffer/U8/Z (C8T28SOI_LL_NOR2X8_P0)           0.028 *    0.088 r
  core/loopbuffer/U19/Z (C8T28SOI_LL_NOR2X8_P0)          0.015 *    0.103 f
  core/loopbuffer/U145/Z (C8T28SOI_LL_CNIVX9_P0)         0.008 *    0.112 r
  core/loopbuffer/U144/Z (C8T28SOIDV_LL_NAND2X9_P0)      0.008 *    0.119 f
  core/loopbuffer/lock_req_out (tta0_loopbuf_1_32_51_1_0)
                                                         0.000      0.119 f
  core/decomp/lock_r (tta0_decompressor)                 0.000      0.119 f
  core/decomp/U1/Z (C8T28SOI_LL_CNIVX9_P0)               0.009 *    0.128 r
  core/decomp/fetch_en (tta0_decompressor)               0.000      0.128 r
  core/inst_fetch/fetch_en (tta0_ifetch)                 0.000      0.128 r
  core/inst_fetch/U151/Z (C8T28SOIDV_LL_NAND2X9_P0)      0.010 *    0.138 f
  core/inst_fetch/glock (tta0_ifetch)                    0.000      0.138 f
  core/loopbuffer/glock_in (tta0_loopbuf_1_32_51_1_0)    0.000      0.138 f
  core/loopbuffer/U4/Z (C8T28SOIDV_LL_NAND2X9_P0)        0.014 *    0.152 r
  core/loopbuffer/U34/Z (C8T28SOIDV_LL_NAND2X18_P0)      0.013 *    0.165 f
  core/loopbuffer/glock_out (tta0_loopbuf_1_32_51_1_0)
                                                         0.000      0.165 f
  core/inst_decoder/lock (tta0_decoder)                  0.000      0.165 f
  core/inst_decoder/U7/Z (C8T28SOIDV_LL_CNIVX28_P4)      0.010 *    0.175 r
  core/inst_decoder/U3/Z (C8T28SOIDV_LL_NAND2X18_P0)     0.010 *    0.185 f
  core/inst_decoder/glock[7] (tta0_decoder)              0.000      0.185 f
  core/fu_lsu_r/glock (fu_ldw_stw_always_4_dataw32_addrw16_1)
                                                         0.000      0.185 f
  core/fu_lsu_r/U3/Z (C8T28SOIDV_LL_CNIVX37_P0)          0.011 *    0.195 r
  core/fu_lsu_r/U4/Z (C8T28SOIDV_LL_NAND2X36_P0)         0.014 *    0.209 f
  core/fu_lsu_r/mem_en_x[0] (fu_ldw_stw_always_4_dataw32_addrw16_1)
                                                         0.000      0.209 f
  U147/Z (C8T28SOIDV_LL_NAND2AX36_P0)                    0.020 *    0.229 r
  U152/Z (C8T28SOI_LL_MUXI21X9_P0)                       0.025 *    0.255 r
  datamem/scheduler/lsu_addr_a[13] (par_mem_scheduler_dataw32_addrw14_ports2_rd_delay1)
                                                         0.000      0.255 r
  datamem/scheduler/U27/Z (C8T28SOI_LL_NAND2X8_P0)       0.017 *    0.271 f
  datamem/scheduler/U28/Z (C8T28SOIDV_LL_NAND2X18_P16)
                                                         0.018 *    0.289 r
  datamem/scheduler/addr[13] (par_mem_scheduler_dataw32_addrw14_ports2_rd_delay1)
                                                         0.000      0.289 r
  datamem/par_mem_logic_inst/addrs_from_lsus[13] (par_mem_logic_PORTS2_LSU_ADDRW14_CTRLW1_DATAW32_PM_FUNC2)
                                                         0.000      0.289 r
  datamem/par_mem_logic_inst/addr_crsbar_0/addrs_from_lsus[13] (addr_crsbar_PORTS2_LSU_ADDRW14_CTRLW1_PM_FUNC2)
                                                         0.000      0.289 r
  datamem/par_mem_logic_inst/addr_crsbar_0/U81/Z (C8T28SOI_LL_AOI21X12_P0)
                                                         0.018 *    0.307 f
  datamem/par_mem_logic_inst/addr_crsbar_0/U84/Z (C8T28SOIDV_LLS_XOR2X4_P0)
                                                         0.026 *    0.333 f
  datamem/par_mem_logic_inst/addr_crsbar_0/U70/Z (C8T28SOI_LL_CNIVX4_P0)
                                                         0.011 *    0.344 r
  datamem/par_mem_logic_inst/addr_crsbar_0/U92/Z (C8T28SOIDV_LLS_XNOR2X4_P0)
                                                         0.023 *    0.367 r
  datamem/par_mem_logic_inst/addr_crsbar_0/U134/Z (C8T28SOIDV_LLS_XNOR2X4_P0)
                                                         0.032 *    0.399 r
  datamem/par_mem_logic_inst/addr_crsbar_0/U7/Z (C8T28SOIDV_LLS_XOR2X12_P0)
                                                         0.037 *    0.437 r
  datamem/par_mem_logic_inst/addr_crsbar_0/U6/Z (C8T28SOIDV_LL_CNIVX18_P0)
                                                         0.014 *    0.450 f
  datamem/par_mem_logic_inst/addr_crsbar_0/module_nums[0] (addr_crsbar_PORTS2_LSU_ADDRW14_CTRLW1_PM_FUNC2)
                                                         0.000      0.450 f
  datamem/par_mem_logic_inst/ctrl_units_0/module_nums[0] (ctrl_units_PORTS2_CTRLW1)
                                                         0.000      0.450 f
  datamem/par_mem_logic_inst/ctrl_units_0/ctrl_uniti_0/module_num[0] (ctrl_unit_PORTS2_CTRLW1_1)
                                                         0.000      0.450 f
  datamem/par_mem_logic_inst/ctrl_units_0/ctrl_uniti_0/U11/Z (C8T28SOI_LL_CNIVX9_P0)
                                                         0.007 *    0.458 r
  datamem/par_mem_logic_inst/ctrl_units_0/ctrl_uniti_0/U4/Z (C8T28SOI_LL_AOI12X3_P0)
                                                         0.010 *    0.468 f
  datamem/par_mem_logic_inst/ctrl_units_0/ctrl_uniti_0/mem_en_x (ctrl_unit_PORTS2_CTRLW1_1)
                                                         0.000      0.468 f
  datamem/par_mem_logic_inst/ctrl_units_0/U3/Z (C8T28SOIDV_LL_NAND2AX9_P0)
                                                         0.026 *    0.494 f
  datamem/par_mem_logic_inst/ctrl_units_0/mem_en_xs[0] (ctrl_units_PORTS2_CTRLW1)
                                                         0.000      0.494 f
  datamem/par_mem_logic_inst/mem_en_xs[0] (par_mem_logic_PORTS2_LSU_ADDRW14_CTRLW1_DATAW32_PM_FUNC2)
                                                         0.000      0.494 f
  datamem/dmem_2/en_x (synch_singleport_mem_wrapper_DATAW32_ADDRW13_0)
                                                         0.000      0.494 f
  datamem/dmem_2/en_wr_arbiter/en (block_en_wr_arbiter_ADDRW13_NBLOCKS9_0)
                                                         0.000      0.494 f
  datamem/dmem_2/en_wr_arbiter/U2/Z (C8T28SOIDV_LL_CNIVX37_P0)
                                                         0.017 *    0.511 r
  datamem/dmem_2/en_wr_arbiter/U24/Z (C8T28SOI_LL_NAND3ABX8_P0)
                                                         0.014 *    0.525 f
  datamem/dmem_2/en_wr_arbiter/en_blocks[0] (block_en_wr_arbiter_ADDRW13_NBLOCKS9_0)
                                                         0.000      0.525 f
  datamem/dmem_2/cacti_mem_0/en_x (cacti_mem_wrapper_DATAW32_ADDRW5_1)
                                                         0.000      0.525 f
  datamem/dmem_2/cacti_mem_0/mem_32x32/mem_en_x (ram_32x32)
                                                         0.000 *    0.525 f
  data arrival time                                                 0.525

  clock clk (rise edge)                                  1.053      1.053
  clock network delay (ideal)                            0.010      1.063
  clock uncertainty                                     -0.010      1.053
  datamem/dmem_2/cacti_mem_0/mem_32x32/clk (ram_32x32)
                                                         0.000      1.053 r
  library setup time                                    -0.506      0.547
  data required time                                                0.547
  --------------------------------------------------------------------------
  data required time                                                0.547
  data arrival time                                                -0.525
  --------------------------------------------------------------------------
  slack (MET)                                                       0.022


  Startpoint: core/loopbuffer/clk_r_REG1989_S18
              (rising edge-triggered flip-flop clocked by clk)
  Endpoint: datamem/dmem_2/cacti_mem_x_1/mem_32x32
            (rising edge-triggered flip-flop clocked by clk)
  Path Group: clk
  Path Type: max

  Point                                                   Incr       Path
  --------------------------------------------------------------------------
  clock clk (rise edge)                                  0.000      0.000
  clock network delay (ideal)                            0.010      0.010
  core/loopbuffer/clk_r_REG1989_S18/CP (C8T28SOIDV_LL_DFPRQX10_P0)
                                                         0.000      0.010 r
  core/loopbuffer/clk_r_REG1989_S18/Q (C8T28SOIDV_LL_DFPRQX10_P0)
                                                         0.050      0.060 f
  core/loopbuffer/U8/Z (C8T28SOI_LL_NOR2X8_P0)           0.028 *    0.088 r
  core/loopbuffer/U19/Z (C8T28SOI_LL_NOR2X8_P0)          0.015 *    0.103 f
  core/loopbuffer/U145/Z (C8T28SOI_LL_CNIVX9_P0)         0.008 *    0.112 r
  core/loopbuffer/U144/Z (C8T28SOIDV_LL_NAND2X9_P0)      0.008 *    0.119 f
  core/loopbuffer/lock_req_out (tta0_loopbuf_1_32_51_1_0)
                                                         0.000      0.119 f
  core/decomp/lock_r (tta0_decompressor)                 0.000      0.119 f
  core/decomp/U1/Z (C8T28SOI_LL_CNIVX9_P0)               0.009 *    0.128 r
  core/decomp/fetch_en (tta0_decompressor)               0.000      0.128 r
  core/inst_fetch/fetch_en (tta0_ifetch)                 0.000      0.128 r
  core/inst_fetch/U151/Z (C8T28SOIDV_LL_NAND2X9_P0)      0.010 *    0.138 f
  core/inst_fetch/glock (tta0_ifetch)                    0.000      0.138 f
  core/loopbuffer/glock_in (tta0_loopbuf_1_32_51_1_0)    0.000      0.138 f
  core/loopbuffer/U4/Z (C8T28SOIDV_LL_NAND2X9_P0)        0.014 *    0.152 r
  core/loopbuffer/U34/Z (C8T28SOIDV_LL_NAND2X18_P0)      0.013 *    0.165 f
  core/loopbuffer/glock_out (tta0_loopbuf_1_32_51_1_0)
                                                         0.000      0.165 f
  core/inst_decoder/lock (tta0_decoder)                  0.000      0.165 f
  core/inst_decoder/U7/Z (C8T28SOIDV_LL_CNIVX28_P4)      0.010 *    0.175 r
  core/inst_decoder/U3/Z (C8T28SOIDV_LL_NAND2X18_P0)     0.010 *    0.185 f
  core/inst_decoder/glock[7] (tta0_decoder)              0.000      0.185 f
  core/fu_lsu_r/glock (fu_ldw_stw_always_4_dataw32_addrw16_1)
                                                         0.000      0.185 f
  core/fu_lsu_r/U3/Z (C8T28SOIDV_LL_CNIVX37_P0)          0.011 *    0.195 r
  core/fu_lsu_r/U4/Z (C8T28SOIDV_LL_NAND2X36_P0)         0.014 *    0.209 f
  core/fu_lsu_r/mem_en_x[0] (fu_ldw_stw_always_4_dataw32_addrw16_1)
                                                         0.000      0.209 f
  U147/Z (C8T28SOIDV_LL_NAND2AX36_P0)                    0.020 *    0.229 r
  U152/Z (C8T28SOI_LL_MUXI21X9_P0)                       0.025 *    0.255 r
  datamem/scheduler/lsu_addr_a[13] (par_mem_scheduler_dataw32_addrw14_ports2_rd_delay1)
                                                         0.000      0.255 r
  datamem/scheduler/U27/Z (C8T28SOI_LL_NAND2X8_P0)       0.017 *    0.271 f
  datamem/scheduler/U28/Z (C8T28SOIDV_LL_NAND2X18_P16)
                                                         0.018 *    0.289 r
  datamem/scheduler/addr[13] (par_mem_scheduler_dataw32_addrw14_ports2_rd_delay1)
                                                         0.000      0.289 r
  datamem/par_mem_logic_inst/addrs_from_lsus[13] (par_mem_logic_PORTS2_LSU_ADDRW14_CTRLW1_DATAW32_PM_FUNC2)
                                                         0.000      0.289 r
  datamem/par_mem_logic_inst/addr_crsbar_0/addrs_from_lsus[13] (addr_crsbar_PORTS2_LSU_ADDRW14_CTRLW1_PM_FUNC2)
                                                         0.000      0.289 r
  datamem/par_mem_logic_inst/addr_crsbar_0/U81/Z (C8T28SOI_LL_AOI21X12_P0)
                                                         0.018 *    0.307 f
  datamem/par_mem_logic_inst/addr_crsbar_0/U84/Z (C8T28SOIDV_LLS_XOR2X4_P0)
                                                         0.026 *    0.333 f
  datamem/par_mem_logic_inst/addr_crsbar_0/U70/Z (C8T28SOI_LL_CNIVX4_P0)
                                                         0.011 *    0.344 r
  datamem/par_mem_logic_inst/addr_crsbar_0/U92/Z (C8T28SOIDV_LLS_XNOR2X4_P0)
                                                         0.023 *    0.367 r
  datamem/par_mem_logic_inst/addr_crsbar_0/U134/Z (C8T28SOIDV_LLS_XNOR2X4_P0)
                                                         0.032 *    0.399 r
  datamem/par_mem_logic_inst/addr_crsbar_0/U7/Z (C8T28SOIDV_LLS_XOR2X12_P0)
                                                         0.037 *    0.437 r
  datamem/par_mem_logic_inst/addr_crsbar_0/U6/Z (C8T28SOIDV_LL_CNIVX18_P0)
                                                         0.014 *    0.450 f
  datamem/par_mem_logic_inst/addr_crsbar_0/module_nums[0] (addr_crsbar_PORTS2_LSU_ADDRW14_CTRLW1_PM_FUNC2)
                                                         0.000      0.450 f
  datamem/par_mem_logic_inst/ctrl_units_0/module_nums[0] (ctrl_units_PORTS2_CTRLW1)
                                                         0.000      0.450 f
  datamem/par_mem_logic_inst/ctrl_units_0/ctrl_uniti_0/module_num[0] (ctrl_unit_PORTS2_CTRLW1_1)
                                                         0.000      0.450 f
  datamem/par_mem_logic_inst/ctrl_units_0/ctrl_uniti_0/U11/Z (C8T28SOI_LL_CNIVX9_P0)
                                                         0.007 *    0.458 r
  datamem/par_mem_logic_inst/ctrl_units_0/ctrl_uniti_0/U4/Z (C8T28SOI_LL_AOI12X3_P0)
                                                         0.010 *    0.468 f
  datamem/par_mem_logic_inst/ctrl_units_0/ctrl_uniti_0/mem_en_x (ctrl_unit_PORTS2_CTRLW1_1)
                                                         0.000      0.468 f
  datamem/par_mem_logic_inst/ctrl_units_0/U3/Z (C8T28SOIDV_LL_NAND2AX9_P0)
                                                         0.026 *    0.494 f
  datamem/par_mem_logic_inst/ctrl_units_0/mem_en_xs[0] (ctrl_units_PORTS2_CTRLW1)
                                                         0.000      0.494 f
  datamem/par_mem_logic_inst/mem_en_xs[0] (par_mem_logic_PORTS2_LSU_ADDRW14_CTRLW1_DATAW32_PM_FUNC2)
                                                         0.000      0.494 f
  datamem/dmem_2/en_x (synch_singleport_mem_wrapper_DATAW32_ADDRW13_0)
                                                         0.000      0.494 f
  datamem/dmem_2/en_wr_arbiter/en (block_en_wr_arbiter_ADDRW13_NBLOCKS9_0)
                                                         0.000      0.494 f
  datamem/dmem_2/en_wr_arbiter/U2/Z (C8T28SOIDV_LL_CNIVX37_P0)
                                                         0.017 *    0.511 r
  datamem/dmem_2/en_wr_arbiter/U6/Z (C8T28SOIDV_LL_NAND2X9_P0)
                                                         0.014 *    0.525 f
  datamem/dmem_2/en_wr_arbiter/en_blocks[1] (block_en_wr_arbiter_ADDRW13_NBLOCKS9_0)
                                                         0.000      0.525 f
  datamem/dmem_2/cacti_mem_x_1/en_x (cacti_mem_wrapper_DATAW32_ADDRW5_0)
                                                         0.000      0.525 f
  datamem/dmem_2/cacti_mem_x_1/mem_32x32/mem_en_x (ram_32x32)
                                                         0.000 *    0.525 f
  data arrival time                                                 0.525

  clock clk (rise edge)                                  1.053      1.053
  clock network delay (ideal)                            0.010      1.063
  clock uncertainty                                     -0.010      1.053
  datamem/dmem_2/cacti_mem_x_1/mem_32x32/clk (ram_32x32)
                                                         0.000      1.053 r
  library setup time                                    -0.506      0.547
  data required time                                                0.547
  --------------------------------------------------------------------------
  data required time                                                0.547
  data arrival time                                                -0.525
  --------------------------------------------------------------------------
  slack (MET)                                                       0.022


  Startpoint: core/loopbuffer/clk_r_REG1989_S18
              (rising edge-triggered flip-flop clocked by clk)
  Endpoint: datamem/dmem_2/cacti_mem_x_8/mem_4096x32
            (rising edge-triggered flip-flop clocked by clk)
  Path Group: clk
  Path Type: max

  Point                                                   Incr       Path
  --------------------------------------------------------------------------
  clock clk (rise edge)                                  0.000      0.000
  clock network delay (ideal)                            0.010      0.010
  core/loopbuffer/clk_r_REG1989_S18/CP (C8T28SOIDV_LL_DFPRQX10_P0)
                                                         0.000      0.010 r
  core/loopbuffer/clk_r_REG1989_S18/Q (C8T28SOIDV_LL_DFPRQX10_P0)
                                                         0.050      0.060 f
  core/loopbuffer/U8/Z (C8T28SOI_LL_NOR2X8_P0)           0.028 *    0.088 r
  core/loopbuffer/U19/Z (C8T28SOI_LL_NOR2X8_P0)          0.015 *    0.103 f
  core/loopbuffer/U145/Z (C8T28SOI_LL_CNIVX9_P0)         0.008 *    0.112 r
  core/loopbuffer/U144/Z (C8T28SOIDV_LL_NAND2X9_P0)      0.008 *    0.119 f
  core/loopbuffer/lock_req_out (tta0_loopbuf_1_32_51_1_0)
                                                         0.000      0.119 f
  core/decomp/lock_r (tta0_decompressor)                 0.000      0.119 f
  core/decomp/U1/Z (C8T28SOI_LL_CNIVX9_P0)               0.009 *    0.128 r
  core/decomp/fetch_en (tta0_decompressor)               0.000      0.128 r
  core/inst_fetch/fetch_en (tta0_ifetch)                 0.000      0.128 r
  core/inst_fetch/U151/Z (C8T28SOIDV_LL_NAND2X9_P0)      0.010 *    0.138 f
  core/inst_fetch/glock (tta0_ifetch)                    0.000      0.138 f
  core/loopbuffer/glock_in (tta0_loopbuf_1_32_51_1_0)    0.000      0.138 f
  core/loopbuffer/U4/Z (C8T28SOIDV_LL_NAND2X9_P0)        0.014 *    0.152 r
  core/loopbuffer/U34/Z (C8T28SOIDV_LL_NAND2X18_P0)      0.013 *    0.165 f
  core/loopbuffer/glock_out (tta0_loopbuf_1_32_51_1_0)
                                                         0.000      0.165 f
  core/inst_decoder/lock (tta0_decoder)                  0.000      0.165 f
  core/inst_decoder/U7/Z (C8T28SOIDV_LL_CNIVX28_P4)      0.010 *    0.175 r
  core/inst_decoder/U3/Z (C8T28SOIDV_LL_NAND2X18_P0)     0.010 *    0.185 f
  core/inst_decoder/glock[7] (tta0_decoder)              0.000      0.185 f
  core/fu_lsu_r/glock (fu_ldw_stw_always_4_dataw32_addrw16_1)
                                                         0.000      0.185 f
  core/fu_lsu_r/U3/Z (C8T28SOIDV_LL_CNIVX37_P0)          0.011 *    0.195 r
  core/fu_lsu_r/U4/Z (C8T28SOIDV_LL_NAND2X36_P0)         0.014 *    0.209 f
  core/fu_lsu_r/mem_en_x[0] (fu_ldw_stw_always_4_dataw32_addrw16_1)
                                                         0.000      0.209 f
  U147/Z (C8T28SOIDV_LL_NAND2AX36_P0)                    0.020 *    0.229 r
  U152/Z (C8T28SOI_LL_MUXI21X9_P0)                       0.025 *    0.255 r
  datamem/scheduler/lsu_addr_a[13] (par_mem_scheduler_dataw32_addrw14_ports2_rd_delay1)
                                                         0.000      0.255 r
  datamem/scheduler/U27/Z (C8T28SOI_LL_NAND2X8_P0)       0.017 *    0.271 f
  datamem/scheduler/U28/Z (C8T28SOIDV_LL_NAND2X18_P16)
                                                         0.018 *    0.289 r
  datamem/scheduler/addr[13] (par_mem_scheduler_dataw32_addrw14_ports2_rd_delay1)
                                                         0.000      0.289 r
  datamem/par_mem_logic_inst/addrs_from_lsus[13] (par_mem_logic_PORTS2_LSU_ADDRW14_CTRLW1_DATAW32_PM_FUNC2)
                                                         0.000      0.289 r
  datamem/par_mem_logic_inst/addr_crsbar_0/addrs_from_lsus[13] (addr_crsbar_PORTS2_LSU_ADDRW14_CTRLW1_PM_FUNC2)
                                                         0.000      0.289 r
  datamem/par_mem_logic_inst/addr_crsbar_0/U81/Z (C8T28SOI_LL_AOI21X12_P0)
                                                         0.018 *    0.307 f
  datamem/par_mem_logic_inst/addr_crsbar_0/U84/Z (C8T28SOIDV_LLS_XOR2X4_P0)
                                                         0.026 *    0.333 f
  datamem/par_mem_logic_inst/addr_crsbar_0/U70/Z (C8T28SOI_LL_CNIVX4_P0)
                                                         0.011 *    0.344 r
  datamem/par_mem_logic_inst/addr_crsbar_0/U92/Z (C8T28SOIDV_LLS_XNOR2X4_P0)
                                                         0.023 *    0.367 r
  datamem/par_mem_logic_inst/addr_crsbar_0/U134/Z (C8T28SOIDV_LLS_XNOR2X4_P0)
                                                         0.032 *    0.399 r
  datamem/par_mem_logic_inst/addr_crsbar_0/U7/Z (C8T28SOIDV_LLS_XOR2X12_P0)
                                                         0.037 *    0.437 r
  datamem/par_mem_logic_inst/addr_crsbar_0/U6/Z (C8T28SOIDV_LL_CNIVX18_P0)
                                                         0.014 *    0.450 f
  datamem/par_mem_logic_inst/addr_crsbar_0/module_nums[0] (addr_crsbar_PORTS2_LSU_ADDRW14_CTRLW1_PM_FUNC2)
                                                         0.000      0.450 f
  datamem/par_mem_logic_inst/ctrl_units_0/module_nums[0] (ctrl_units_PORTS2_CTRLW1)
                                                         0.000      0.450 f
  datamem/par_mem_logic_inst/ctrl_units_0/ctrl_uniti_0/module_num[0] (ctrl_unit_PORTS2_CTRLW1_1)
                                                         0.000      0.450 f
  datamem/par_mem_logic_inst/ctrl_units_0/ctrl_uniti_0/U11/Z (C8T28SOI_LL_CNIVX9_P0)
                                                         0.007 *    0.458 r
  datamem/par_mem_logic_inst/ctrl_units_0/ctrl_uniti_0/U4/Z (C8T28SOI_LL_AOI12X3_P0)
                                                         0.010 *    0.468 f
  datamem/par_mem_logic_inst/ctrl_units_0/ctrl_uniti_0/mem_en_x (ctrl_unit_PORTS2_CTRLW1_1)
                                                         0.000      0.468 f
  datamem/par_mem_logic_inst/ctrl_units_0/U3/Z (C8T28SOIDV_LL_NAND2AX9_P0)
                                                         0.026 *    0.494 f
  datamem/par_mem_logic_inst/ctrl_units_0/mem_en_xs[0] (ctrl_units_PORTS2_CTRLW1)
                                                         0.000      0.494 f
  datamem/par_mem_logic_inst/mem_en_xs[0] (par_mem_logic_PORTS2_LSU_ADDRW14_CTRLW1_DATAW32_PM_FUNC2)
                                                         0.000      0.494 f
  datamem/dmem_2/en_x (synch_singleport_mem_wrapper_DATAW32_ADDRW13_0)
                                                         0.000      0.494 f
  datamem/dmem_2/en_wr_arbiter/en (block_en_wr_arbiter_ADDRW13_NBLOCKS9_0)
                                                         0.000      0.494 f
  datamem/dmem_2/en_wr_arbiter/U2/Z (C8T28SOIDV_LL_CNIVX37_P0)
                                                         0.017 *    0.511 r
  datamem/dmem_2/en_wr_arbiter/U27/Z (C8T28SOIDV_LL_NAND2X9_P0)
                                                         0.012 *    0.523 f
  datamem/dmem_2/en_wr_arbiter/en_blocks[8] (block_en_wr_arbiter_ADDRW13_NBLOCKS9_0)
                                                         0.000      0.523 f
  datamem/dmem_2/cacti_mem_x_8/en_x (cacti_mem_wrapper_DATAW32_ADDRW12_0)
                                                         0.000      0.523 f
  datamem/dmem_2/cacti_mem_x_8/mem_4096x32/mem_en_x (ram_4096x32)
                                                         0.000 *    0.523 f
  data arrival time                                                 0.523

  clock clk (rise edge)                                  1.053      1.053
  clock network delay (ideal)                            0.010      1.063
  clock uncertainty                                     -0.010      1.053
  datamem/dmem_2/cacti_mem_x_8/mem_4096x32/clk (ram_4096x32)
                                                         0.000      1.053 r
  library setup time                                    -0.507      0.546
  data required time                                                0.546
  --------------------------------------------------------------------------
  data required time                                                0.546
  data arrival time                                                -0.523
  --------------------------------------------------------------------------
  slack (MET)                                                       0.023


  Startpoint: core/loopbuffer/clk_r_REG1989_S18
              (rising edge-triggered flip-flop clocked by clk)
  Endpoint: datamem/dmem_2/cacti_mem_x_5/mem_512x32
            (rising edge-triggered flip-flop clocked by clk)
  Path Group: clk
  Path Type: max

  Point                                                   Incr       Path
  --------------------------------------------------------------------------
  clock clk (rise edge)                                  0.000      0.000
  clock network delay (ideal)                            0.010      0.010
  core/loopbuffer/clk_r_REG1989_S18/CP (C8T28SOIDV_LL_DFPRQX10_P0)
                                                         0.000      0.010 r
  core/loopbuffer/clk_r_REG1989_S18/Q (C8T28SOIDV_LL_DFPRQX10_P0)
                                                         0.050      0.060 f
  core/loopbuffer/U8/Z (C8T28SOI_LL_NOR2X8_P0)           0.028 *    0.088 r
  core/loopbuffer/U19/Z (C8T28SOI_LL_NOR2X8_P0)          0.015 *    0.103 f
  core/loopbuffer/U145/Z (C8T28SOI_LL_CNIVX9_P0)         0.008 *    0.112 r
  core/loopbuffer/U144/Z (C8T28SOIDV_LL_NAND2X9_P0)      0.008 *    0.119 f
  core/loopbuffer/lock_req_out (tta0_loopbuf_1_32_51_1_0)
                                                         0.000      0.119 f
  core/decomp/lock_r (tta0_decompressor)                 0.000      0.119 f
  core/decomp/U1/Z (C8T28SOI_LL_CNIVX9_P0)               0.009 *    0.128 r
  core/decomp/fetch_en (tta0_decompressor)               0.000      0.128 r
  core/inst_fetch/fetch_en (tta0_ifetch)                 0.000      0.128 r
  core/inst_fetch/U151/Z (C8T28SOIDV_LL_NAND2X9_P0)      0.010 *    0.138 f
  core/inst_fetch/glock (tta0_ifetch)                    0.000      0.138 f
  core/loopbuffer/glock_in (tta0_loopbuf_1_32_51_1_0)    0.000      0.138 f
  core/loopbuffer/U4/Z (C8T28SOIDV_LL_NAND2X9_P0)        0.014 *    0.152 r
  core/loopbuffer/U34/Z (C8T28SOIDV_LL_NAND2X18_P0)      0.013 *    0.165 f
  core/loopbuffer/glock_out (tta0_loopbuf_1_32_51_1_0)
                                                         0.000      0.165 f
  core/inst_decoder/lock (tta0_decoder)                  0.000      0.165 f
  core/inst_decoder/U7/Z (C8T28SOIDV_LL_CNIVX28_P4)      0.010 *    0.175 r
  core/inst_decoder/U3/Z (C8T28SOIDV_LL_NAND2X18_P0)     0.010 *    0.185 f
  core/inst_decoder/glock[7] (tta0_decoder)              0.000      0.185 f
  core/fu_lsu_r/glock (fu_ldw_stw_always_4_dataw32_addrw16_1)
                                                         0.000      0.185 f
  core/fu_lsu_r/U3/Z (C8T28SOIDV_LL_CNIVX37_P0)          0.011 *    0.195 r
  core/fu_lsu_r/U4/Z (C8T28SOIDV_LL_NAND2X36_P0)         0.014 *    0.209 f
  core/fu_lsu_r/mem_en_x[0] (fu_ldw_stw_always_4_dataw32_addrw16_1)
                                                         0.000      0.209 f
  U147/Z (C8T28SOIDV_LL_NAND2AX36_P0)                    0.020 *    0.229 r
  U152/Z (C8T28SOI_LL_MUXI21X9_P0)                       0.025 *    0.255 r
  datamem/scheduler/lsu_addr_a[13] (par_mem_scheduler_dataw32_addrw14_ports2_rd_delay1)
                                                         0.000      0.255 r
  datamem/scheduler/U27/Z (C8T28SOI_LL_NAND2X8_P0)       0.017 *    0.271 f
  datamem/scheduler/U28/Z (C8T28SOIDV_LL_NAND2X18_P16)
                                                         0.018 *    0.289 r
  datamem/scheduler/addr[13] (par_mem_scheduler_dataw32_addrw14_ports2_rd_delay1)
                                                         0.000      0.289 r
  datamem/par_mem_logic_inst/addrs_from_lsus[13] (par_mem_logic_PORTS2_LSU_ADDRW14_CTRLW1_DATAW32_PM_FUNC2)
                                                         0.000      0.289 r
  datamem/par_mem_logic_inst/addr_crsbar_0/addrs_from_lsus[13] (addr_crsbar_PORTS2_LSU_ADDRW14_CTRLW1_PM_FUNC2)
                                                         0.000      0.289 r
  datamem/par_mem_logic_inst/addr_crsbar_0/U81/Z (C8T28SOI_LL_AOI21X12_P0)
                                                         0.018 *    0.307 f
  datamem/par_mem_logic_inst/addr_crsbar_0/U84/Z (C8T28SOIDV_LLS_XOR2X4_P0)
                                                         0.026 *    0.333 f
  datamem/par_mem_logic_inst/addr_crsbar_0/U70/Z (C8T28SOI_LL_CNIVX4_P0)
                                                         0.011 *    0.344 r
  datamem/par_mem_logic_inst/addr_crsbar_0/U92/Z (C8T28SOIDV_LLS_XNOR2X4_P0)
                                                         0.023 *    0.367 r
  datamem/par_mem_logic_inst/addr_crsbar_0/U134/Z (C8T28SOIDV_LLS_XNOR2X4_P0)
                                                         0.032 *    0.399 r
  datamem/par_mem_logic_inst/addr_crsbar_0/U7/Z (C8T28SOIDV_LLS_XOR2X12_P0)
                                                         0.037 *    0.437 r
  datamem/par_mem_logic_inst/addr_crsbar_0/U6/Z (C8T28SOIDV_LL_CNIVX18_P0)
                                                         0.014 *    0.450 f
  datamem/par_mem_logic_inst/addr_crsbar_0/module_nums[0] (addr_crsbar_PORTS2_LSU_ADDRW14_CTRLW1_PM_FUNC2)
                                                         0.000      0.450 f
  datamem/par_mem_logic_inst/ctrl_units_0/module_nums[0] (ctrl_units_PORTS2_CTRLW1)
                                                         0.000      0.450 f
  datamem/par_mem_logic_inst/ctrl_units_0/ctrl_uniti_0/module_num[0] (ctrl_unit_PORTS2_CTRLW1_1)
                                                         0.000      0.450 f
  datamem/par_mem_logic_inst/ctrl_units_0/ctrl_uniti_0/U11/Z (C8T28SOI_LL_CNIVX9_P0)
                                                         0.007 *    0.458 r
  datamem/par_mem_logic_inst/ctrl_units_0/ctrl_uniti_0/U4/Z (C8T28SOI_LL_AOI12X3_P0)
                                                         0.010 *    0.468 f
  datamem/par_mem_logic_inst/ctrl_units_0/ctrl_uniti_0/mem_en_x (ctrl_unit_PORTS2_CTRLW1_1)
                                                         0.000      0.468 f
  datamem/par_mem_logic_inst/ctrl_units_0/U3/Z (C8T28SOIDV_LL_NAND2AX9_P0)
                                                         0.026 *    0.494 f
  datamem/par_mem_logic_inst/ctrl_units_0/mem_en_xs[0] (ctrl_units_PORTS2_CTRLW1)
                                                         0.000      0.494 f
  datamem/par_mem_logic_inst/mem_en_xs[0] (par_mem_logic_PORTS2_LSU_ADDRW14_CTRLW1_DATAW32_PM_FUNC2)
                                                         0.000      0.494 f
  datamem/dmem_2/en_x (synch_singleport_mem_wrapper_DATAW32_ADDRW13_0)
                                                         0.000      0.494 f
  datamem/dmem_2/en_wr_arbiter/en (block_en_wr_arbiter_ADDRW13_NBLOCKS9_0)
                                                         0.000      0.494 f
  datamem/dmem_2/en_wr_arbiter/U2/Z (C8T28SOIDV_LL_CNIVX37_P0)
                                                         0.017 *    0.511 r
  datamem/dmem_2/en_wr_arbiter/U15/Z (C8T28SOIDV_LL_NAND2X9_P0)
                                                         0.014 *    0.525 f
  datamem/dmem_2/en_wr_arbiter/en_blocks[5] (block_en_wr_arbiter_ADDRW13_NBLOCKS9_0)
                                                         0.000      0.525 f
  datamem/dmem_2/cacti_mem_x_5/en_x (cacti_mem_wrapper_DATAW32_ADDRW9_0)
                                                         0.000      0.525 f
  datamem/dmem_2/cacti_mem_x_5/mem_512x32/mem_en_x (ram_512x32)
                                                         0.000 *    0.525 f
  data arrival time                                                 0.525

  clock clk (rise edge)                                  1.053      1.053
  clock network delay (ideal)                            0.010      1.063
  clock uncertainty                                     -0.010      1.053
  datamem/dmem_2/cacti_mem_x_5/mem_512x32/clk (ram_512x32)
                                                         0.000      1.053 r
  library setup time                                    -0.505      0.548
  data required time                                                0.548
  --------------------------------------------------------------------------
  data required time                                                0.548
  data arrival time                                                -0.525
  --------------------------------------------------------------------------
  slack (MET)                                                       0.023


  Startpoint: core/loopbuffer/clk_r_REG1989_S18
              (rising edge-triggered flip-flop clocked by clk)
  Endpoint: datamem/dmem_2/cacti_mem_x_3/mem_128x32
            (rising edge-triggered flip-flop clocked by clk)
  Path Group: clk
  Path Type: max

  Point                                                   Incr       Path
  --------------------------------------------------------------------------
  clock clk (rise edge)                                  0.000      0.000
  clock network delay (ideal)                            0.010      0.010
  core/loopbuffer/clk_r_REG1989_S18/CP (C8T28SOIDV_LL_DFPRQX10_P0)
                                                         0.000      0.010 r
  core/loopbuffer/clk_r_REG1989_S18/Q (C8T28SOIDV_LL_DFPRQX10_P0)
                                                         0.050      0.060 f
  core/loopbuffer/U8/Z (C8T28SOI_LL_NOR2X8_P0)           0.028 *    0.088 r
  core/loopbuffer/U19/Z (C8T28SOI_LL_NOR2X8_P0)          0.015 *    0.103 f
  core/loopbuffer/U145/Z (C8T28SOI_LL_CNIVX9_P0)         0.008 *    0.112 r
  core/loopbuffer/U144/Z (C8T28SOIDV_LL_NAND2X9_P0)      0.008 *    0.119 f
  core/loopbuffer/lock_req_out (tta0_loopbuf_1_32_51_1_0)
                                                         0.000      0.119 f
  core/decomp/lock_r (tta0_decompressor)                 0.000      0.119 f
  core/decomp/U1/Z (C8T28SOI_LL_CNIVX9_P0)               0.009 *    0.128 r
  core/decomp/fetch_en (tta0_decompressor)               0.000      0.128 r
  core/inst_fetch/fetch_en (tta0_ifetch)                 0.000      0.128 r
  core/inst_fetch/U151/Z (C8T28SOIDV_LL_NAND2X9_P0)      0.010 *    0.138 f
  core/inst_fetch/glock (tta0_ifetch)                    0.000      0.138 f
  core/loopbuffer/glock_in (tta0_loopbuf_1_32_51_1_0)    0.000      0.138 f
  core/loopbuffer/U4/Z (C8T28SOIDV_LL_NAND2X9_P0)        0.014 *    0.152 r
  core/loopbuffer/U34/Z (C8T28SOIDV_LL_NAND2X18_P0)      0.013 *    0.165 f
  core/loopbuffer/glock_out (tta0_loopbuf_1_32_51_1_0)
                                                         0.000      0.165 f
  core/inst_decoder/lock (tta0_decoder)                  0.000      0.165 f
  core/inst_decoder/U7/Z (C8T28SOIDV_LL_CNIVX28_P4)      0.010 *    0.175 r
  core/inst_decoder/U3/Z (C8T28SOIDV_LL_NAND2X18_P0)     0.010 *    0.185 f
  core/inst_decoder/glock[7] (tta0_decoder)              0.000      0.185 f
  core/fu_lsu_r/glock (fu_ldw_stw_always_4_dataw32_addrw16_1)
                                                         0.000      0.185 f
  core/fu_lsu_r/U3/Z (C8T28SOIDV_LL_CNIVX37_P0)          0.011 *    0.195 r
  core/fu_lsu_r/U4/Z (C8T28SOIDV_LL_NAND2X36_P0)         0.014 *    0.209 f
  core/fu_lsu_r/mem_en_x[0] (fu_ldw_stw_always_4_dataw32_addrw16_1)
                                                         0.000      0.209 f
  U147/Z (C8T28SOIDV_LL_NAND2AX36_P0)                    0.020 *    0.229 r
  U152/Z (C8T28SOI_LL_MUXI21X9_P0)                       0.025 *    0.255 r
  datamem/scheduler/lsu_addr_a[13] (par_mem_scheduler_dataw32_addrw14_ports2_rd_delay1)
                                                         0.000      0.255 r
  datamem/scheduler/U27/Z (C8T28SOI_LL_NAND2X8_P0)       0.017 *    0.271 f
  datamem/scheduler/U28/Z (C8T28SOIDV_LL_NAND2X18_P16)
                                                         0.018 *    0.289 r
  datamem/scheduler/addr[13] (par_mem_scheduler_dataw32_addrw14_ports2_rd_delay1)
                                                         0.000      0.289 r
  datamem/par_mem_logic_inst/addrs_from_lsus[13] (par_mem_logic_PORTS2_LSU_ADDRW14_CTRLW1_DATAW32_PM_FUNC2)
                                                         0.000      0.289 r
  datamem/par_mem_logic_inst/addr_crsbar_0/addrs_from_lsus[13] (addr_crsbar_PORTS2_LSU_ADDRW14_CTRLW1_PM_FUNC2)
                                                         0.000      0.289 r
  datamem/par_mem_logic_inst/addr_crsbar_0/U81/Z (C8T28SOI_LL_AOI21X12_P0)
                                                         0.018 *    0.307 f
  datamem/par_mem_logic_inst/addr_crsbar_0/U84/Z (C8T28SOIDV_LLS_XOR2X4_P0)
                                                         0.026 *    0.333 f
  datamem/par_mem_logic_inst/addr_crsbar_0/U70/Z (C8T28SOI_LL_CNIVX4_P0)
                                                         0.011 *    0.344 r
  datamem/par_mem_logic_inst/addr_crsbar_0/U92/Z (C8T28SOIDV_LLS_XNOR2X4_P0)
                                                         0.023 *    0.367 r
  datamem/par_mem_logic_inst/addr_crsbar_0/U134/Z (C8T28SOIDV_LLS_XNOR2X4_P0)
                                                         0.032 *    0.399 r
  datamem/par_mem_logic_inst/addr_crsbar_0/U7/Z (C8T28SOIDV_LLS_XOR2X12_P0)
                                                         0.037 *    0.437 r
  datamem/par_mem_logic_inst/addr_crsbar_0/U6/Z (C8T28SOIDV_LL_CNIVX18_P0)
                                                         0.014 *    0.450 f
  datamem/par_mem_logic_inst/addr_crsbar_0/module_nums[0] (addr_crsbar_PORTS2_LSU_ADDRW14_CTRLW1_PM_FUNC2)
                                                         0.000      0.450 f
  datamem/par_mem_logic_inst/ctrl_units_0/module_nums[0] (ctrl_units_PORTS2_CTRLW1)
                                                         0.000      0.450 f
  datamem/par_mem_logic_inst/ctrl_units_0/ctrl_uniti_0/module_num[0] (ctrl_unit_PORTS2_CTRLW1_1)
                                                         0.000      0.450 f
  datamem/par_mem_logic_inst/ctrl_units_0/ctrl_uniti_0/U11/Z (C8T28SOI_LL_CNIVX9_P0)
                                                         0.007 *    0.458 r
  datamem/par_mem_logic_inst/ctrl_units_0/ctrl_uniti_0/U4/Z (C8T28SOI_LL_AOI12X3_P0)
                                                         0.010 *    0.468 f
  datamem/par_mem_logic_inst/ctrl_units_0/ctrl_uniti_0/mem_en_x (ctrl_unit_PORTS2_CTRLW1_1)
                                                         0.000      0.468 f
  datamem/par_mem_logic_inst/ctrl_units_0/U3/Z (C8T28SOIDV_LL_NAND2AX9_P0)
                                                         0.026 *    0.494 f
  datamem/par_mem_logic_inst/ctrl_units_0/mem_en_xs[0] (ctrl_units_PORTS2_CTRLW1)
                                                         0.000      0.494 f
  datamem/par_mem_logic_inst/mem_en_xs[0] (par_mem_logic_PORTS2_LSU_ADDRW14_CTRLW1_DATAW32_PM_FUNC2)
                                                         0.000      0.494 f
  datamem/dmem_2/en_x (synch_singleport_mem_wrapper_DATAW32_ADDRW13_0)
                                                         0.000      0.494 f
  datamem/dmem_2/en_wr_arbiter/en (block_en_wr_arbiter_ADDRW13_NBLOCKS9_0)
                                                         0.000      0.494 f
  datamem/dmem_2/en_wr_arbiter/U2/Z (C8T28SOIDV_LL_CNIVX37_P0)
                                                         0.017 *    0.511 r
  datamem/dmem_2/en_wr_arbiter/U23/Z (C8T28SOIDV_LL_NAND2X9_P0)
                                                         0.013 *    0.524 f
  datamem/dmem_2/en_wr_arbiter/en_blocks[3] (block_en_wr_arbiter_ADDRW13_NBLOCKS9_0)
                                                         0.000      0.524 f
  datamem/dmem_2/cacti_mem_x_3/en_x (cacti_mem_wrapper_DATAW32_ADDRW7_0)
                                                         0.000      0.524 f
  datamem/dmem_2/cacti_mem_x_3/mem_128x32/mem_en_x (ram_128x32)
                                                         0.000 *    0.525 f
  data arrival time                                                 0.525

  clock clk (rise edge)                                  1.053      1.053
  clock network delay (ideal)                            0.010      1.063
  clock uncertainty                                     -0.010      1.053
  datamem/dmem_2/cacti_mem_x_3/mem_128x32/clk (ram_128x32)
                                                         0.000      1.053 r
  library setup time                                    -0.505      0.548
  data required time                                                0.548
  --------------------------------------------------------------------------
  data required time                                                0.548
  data arrival time                                                -0.525
  --------------------------------------------------------------------------
  slack (MET)                                                       0.023


  Startpoint: core/loopbuffer/clk_r_REG1989_S18
              (rising edge-triggered flip-flop clocked by clk)
  Endpoint: datamem/dmem_2/cacti_mem_x_2/mem_64x32
            (rising edge-triggered flip-flop clocked by clk)
  Path Group: clk
  Path Type: max

  Point                                                   Incr       Path
  --------------------------------------------------------------------------
  clock clk (rise edge)                                  0.000      0.000
  clock network delay (ideal)                            0.010      0.010
  core/loopbuffer/clk_r_REG1989_S18/CP (C8T28SOIDV_LL_DFPRQX10_P0)
                                                         0.000      0.010 r
  core/loopbuffer/clk_r_REG1989_S18/Q (C8T28SOIDV_LL_DFPRQX10_P0)
                                                         0.050      0.060 f
  core/loopbuffer/U8/Z (C8T28SOI_LL_NOR2X8_P0)           0.028 *    0.088 r
  core/loopbuffer/U19/Z (C8T28SOI_LL_NOR2X8_P0)          0.015 *    0.103 f
  core/loopbuffer/U145/Z (C8T28SOI_LL_CNIVX9_P0)         0.008 *    0.112 r
  core/loopbuffer/U144/Z (C8T28SOIDV_LL_NAND2X9_P0)      0.008 *    0.119 f
  core/loopbuffer/lock_req_out (tta0_loopbuf_1_32_51_1_0)
                                                         0.000      0.119 f
  core/decomp/lock_r (tta0_decompressor)                 0.000      0.119 f
  core/decomp/U1/Z (C8T28SOI_LL_CNIVX9_P0)               0.009 *    0.128 r
  core/decomp/fetch_en (tta0_decompressor)               0.000      0.128 r
  core/inst_fetch/fetch_en (tta0_ifetch)                 0.000      0.128 r
  core/inst_fetch/U151/Z (C8T28SOIDV_LL_NAND2X9_P0)      0.010 *    0.138 f
  core/inst_fetch/glock (tta0_ifetch)                    0.000      0.138 f
  core/loopbuffer/glock_in (tta0_loopbuf_1_32_51_1_0)    0.000      0.138 f
  core/loopbuffer/U4/Z (C8T28SOIDV_LL_NAND2X9_P0)        0.014 *    0.152 r
  core/loopbuffer/U34/Z (C8T28SOIDV_LL_NAND2X18_P0)      0.013 *    0.165 f
  core/loopbuffer/glock_out (tta0_loopbuf_1_32_51_1_0)
                                                         0.000      0.165 f
  core/inst_decoder/lock (tta0_decoder)                  0.000      0.165 f
  core/inst_decoder/U7/Z (C8T28SOIDV_LL_CNIVX28_P4)      0.010 *    0.175 r
  core/inst_decoder/U3/Z (C8T28SOIDV_LL_NAND2X18_P0)     0.010 *    0.185 f
  core/inst_decoder/glock[7] (tta0_decoder)              0.000      0.185 f
  core/fu_lsu_r/glock (fu_ldw_stw_always_4_dataw32_addrw16_1)
                                                         0.000      0.185 f
  core/fu_lsu_r/U3/Z (C8T28SOIDV_LL_CNIVX37_P0)          0.011 *    0.195 r
  core/fu_lsu_r/U4/Z (C8T28SOIDV_LL_NAND2X36_P0)         0.014 *    0.209 f
  core/fu_lsu_r/mem_en_x[0] (fu_ldw_stw_always_4_dataw32_addrw16_1)
                                                         0.000      0.209 f
  U147/Z (C8T28SOIDV_LL_NAND2AX36_P0)                    0.020 *    0.229 r
  U152/Z (C8T28SOI_LL_MUXI21X9_P0)                       0.025 *    0.255 r
  datamem/scheduler/lsu_addr_a[13] (par_mem_scheduler_dataw32_addrw14_ports2_rd_delay1)
                                                         0.000      0.255 r
  datamem/scheduler/U27/Z (C8T28SOI_LL_NAND2X8_P0)       0.017 *    0.271 f
  datamem/scheduler/U28/Z (C8T28SOIDV_LL_NAND2X18_P16)
                                                         0.018 *    0.289 r
  datamem/scheduler/addr[13] (par_mem_scheduler_dataw32_addrw14_ports2_rd_delay1)
                                                         0.000      0.289 r
  datamem/par_mem_logic_inst/addrs_from_lsus[13] (par_mem_logic_PORTS2_LSU_ADDRW14_CTRLW1_DATAW32_PM_FUNC2)
                                                         0.000      0.289 r
  datamem/par_mem_logic_inst/addr_crsbar_0/addrs_from_lsus[13] (addr_crsbar_PORTS2_LSU_ADDRW14_CTRLW1_PM_FUNC2)
                                                         0.000      0.289 r
  datamem/par_mem_logic_inst/addr_crsbar_0/U81/Z (C8T28SOI_LL_AOI21X12_P0)
                                                         0.018 *    0.307 f
  datamem/par_mem_logic_inst/addr_crsbar_0/U84/Z (C8T28SOIDV_LLS_XOR2X4_P0)
                                                         0.026 *    0.333 f
  datamem/par_mem_logic_inst/addr_crsbar_0/U70/Z (C8T28SOI_LL_CNIVX4_P0)
                                                         0.011 *    0.344 r
  datamem/par_mem_logic_inst/addr_crsbar_0/U92/Z (C8T28SOIDV_LLS_XNOR2X4_P0)
                                                         0.023 *    0.367 r
  datamem/par_mem_logic_inst/addr_crsbar_0/U134/Z (C8T28SOIDV_LLS_XNOR2X4_P0)
                                                         0.032 *    0.399 r
  datamem/par_mem_logic_inst/addr_crsbar_0/U7/Z (C8T28SOIDV_LLS_XOR2X12_P0)
                                                         0.037 *    0.437 r
  datamem/par_mem_logic_inst/addr_crsbar_0/U6/Z (C8T28SOIDV_LL_CNIVX18_P0)
                                                         0.014 *    0.450 f
  datamem/par_mem_logic_inst/addr_crsbar_0/module_nums[0] (addr_crsbar_PORTS2_LSU_ADDRW14_CTRLW1_PM_FUNC2)
                                                         0.000      0.450 f
  datamem/par_mem_logic_inst/ctrl_units_0/module_nums[0] (ctrl_units_PORTS2_CTRLW1)
                                                         0.000      0.450 f
  datamem/par_mem_logic_inst/ctrl_units_0/ctrl_uniti_0/module_num[0] (ctrl_unit_PORTS2_CTRLW1_1)
                                                         0.000      0.450 f
  datamem/par_mem_logic_inst/ctrl_units_0/ctrl_uniti_0/U11/Z (C8T28SOI_LL_CNIVX9_P0)
                                                         0.007 *    0.458 r
  datamem/par_mem_logic_inst/ctrl_units_0/ctrl_uniti_0/U4/Z (C8T28SOI_LL_AOI12X3_P0)
                                                         0.010 *    0.468 f
  datamem/par_mem_logic_inst/ctrl_units_0/ctrl_uniti_0/mem_en_x (ctrl_unit_PORTS2_CTRLW1_1)
                                                         0.000      0.468 f
  datamem/par_mem_logic_inst/ctrl_units_0/U3/Z (C8T28SOIDV_LL_NAND2AX9_P0)
                                                         0.026 *    0.494 f
  datamem/par_mem_logic_inst/ctrl_units_0/mem_en_xs[0] (ctrl_units_PORTS2_CTRLW1)
                                                         0.000      0.494 f
  datamem/par_mem_logic_inst/mem_en_xs[0] (par_mem_logic_PORTS2_LSU_ADDRW14_CTRLW1_DATAW32_PM_FUNC2)
                                                         0.000      0.494 f
  datamem/dmem_2/en_x (synch_singleport_mem_wrapper_DATAW32_ADDRW13_0)
                                                         0.000      0.494 f
  datamem/dmem_2/en_wr_arbiter/en (block_en_wr_arbiter_ADDRW13_NBLOCKS9_0)
                                                         0.000      0.494 f
  datamem/dmem_2/en_wr_arbiter/U2/Z (C8T28SOIDV_LL_CNIVX37_P0)
                                                         0.017 *    0.511 r
  datamem/dmem_2/en_wr_arbiter/U19/Z (C8T28SOI_LL_CNNAND2X8_P0)
                                                         0.013 *    0.524 f
  datamem/dmem_2/en_wr_arbiter/en_blocks[2] (block_en_wr_arbiter_ADDRW13_NBLOCKS9_0)
                                                         0.000      0.524 f
  datamem/dmem_2/cacti_mem_x_2/en_x (cacti_mem_wrapper_DATAW32_ADDRW6_0)
                                                         0.000      0.524 f
  datamem/dmem_2/cacti_mem_x_2/mem_64x32/mem_en_x (ram_64x32)
                                                         0.000 *    0.524 f
  data arrival time                                                 0.524

  clock clk (rise edge)                                  1.053      1.053
  clock network delay (ideal)                            0.010      1.063
  clock uncertainty                                     -0.010      1.053
  datamem/dmem_2/cacti_mem_x_2/mem_64x32/clk (ram_64x32)
                                                         0.000      1.053 r
  library setup time                                    -0.505      0.548
  data required time                                                0.548
  --------------------------------------------------------------------------
  data required time                                                0.548
  data arrival time                                                -0.524
  --------------------------------------------------------------------------
  slack (MET)                                                       0.024


  Startpoint: core/loopbuffer/clk_r_REG1989_S18
              (rising edge-triggered flip-flop clocked by clk)
  Endpoint: datamem/dmem_2/cacti_mem_x_6/mem_1024x32
            (rising edge-triggered flip-flop clocked by clk)
  Path Group: clk
  Path Type: max

  Point                                                   Incr       Path
  --------------------------------------------------------------------------
  clock clk (rise edge)                                  0.000      0.000
  clock network delay (ideal)                            0.010      0.010
  core/loopbuffer/clk_r_REG1989_S18/CP (C8T28SOIDV_LL_DFPRQX10_P0)
                                                         0.000      0.010 r
  core/loopbuffer/clk_r_REG1989_S18/Q (C8T28SOIDV_LL_DFPRQX10_P0)
                                                         0.050      0.060 f
  core/loopbuffer/U8/Z (C8T28SOI_LL_NOR2X8_P0)           0.028 *    0.088 r
  core/loopbuffer/U19/Z (C8T28SOI_LL_NOR2X8_P0)          0.015 *    0.103 f
  core/loopbuffer/U145/Z (C8T28SOI_LL_CNIVX9_P0)         0.008 *    0.112 r
  core/loopbuffer/U144/Z (C8T28SOIDV_LL_NAND2X9_P0)      0.008 *    0.119 f
  core/loopbuffer/lock_req_out (tta0_loopbuf_1_32_51_1_0)
                                                         0.000      0.119 f
  core/decomp/lock_r (tta0_decompressor)                 0.000      0.119 f
  core/decomp/U1/Z (C8T28SOI_LL_CNIVX9_P0)               0.009 *    0.128 r
  core/decomp/fetch_en (tta0_decompressor)               0.000      0.128 r
  core/inst_fetch/fetch_en (tta0_ifetch)                 0.000      0.128 r
  core/inst_fetch/U151/Z (C8T28SOIDV_LL_NAND2X9_P0)      0.010 *    0.138 f
  core/inst_fetch/glock (tta0_ifetch)                    0.000      0.138 f
  core/loopbuffer/glock_in (tta0_loopbuf_1_32_51_1_0)    0.000      0.138 f
  core/loopbuffer/U4/Z (C8T28SOIDV_LL_NAND2X9_P0)        0.014 *    0.152 r
  core/loopbuffer/U34/Z (C8T28SOIDV_LL_NAND2X18_P0)      0.013 *    0.165 f
  core/loopbuffer/glock_out (tta0_loopbuf_1_32_51_1_0)
                                                         0.000      0.165 f
  core/inst_decoder/lock (tta0_decoder)                  0.000      0.165 f
  core/inst_decoder/U7/Z (C8T28SOIDV_LL_CNIVX28_P4)      0.010 *    0.175 r
  core/inst_decoder/U3/Z (C8T28SOIDV_LL_NAND2X18_P0)     0.010 *    0.185 f
  core/inst_decoder/glock[7] (tta0_decoder)              0.000      0.185 f
  core/fu_lsu_r/glock (fu_ldw_stw_always_4_dataw32_addrw16_1)
                                                         0.000      0.185 f
  core/fu_lsu_r/U3/Z (C8T28SOIDV_LL_CNIVX37_P0)          0.011 *    0.195 r
  core/fu_lsu_r/U4/Z (C8T28SOIDV_LL_NAND2X36_P0)         0.014 *    0.209 f
  core/fu_lsu_r/mem_en_x[0] (fu_ldw_stw_always_4_dataw32_addrw16_1)
                                                         0.000      0.209 f
  U147/Z (C8T28SOIDV_LL_NAND2AX36_P0)                    0.020 *    0.229 r
  U152/Z (C8T28SOI_LL_MUXI21X9_P0)                       0.025 *    0.255 r
  datamem/scheduler/lsu_addr_a[13] (par_mem_scheduler_dataw32_addrw14_ports2_rd_delay1)
                                                         0.000      0.255 r
  datamem/scheduler/U27/Z (C8T28SOI_LL_NAND2X8_P0)       0.017 *    0.271 f
  datamem/scheduler/U28/Z (C8T28SOIDV_LL_NAND2X18_P16)
                                                         0.018 *    0.289 r
  datamem/scheduler/addr[13] (par_mem_scheduler_dataw32_addrw14_ports2_rd_delay1)
                                                         0.000      0.289 r
  datamem/par_mem_logic_inst/addrs_from_lsus[13] (par_mem_logic_PORTS2_LSU_ADDRW14_CTRLW1_DATAW32_PM_FUNC2)
                                                         0.000      0.289 r
  datamem/par_mem_logic_inst/addr_crsbar_0/addrs_from_lsus[13] (addr_crsbar_PORTS2_LSU_ADDRW14_CTRLW1_PM_FUNC2)
                                                         0.000      0.289 r
  datamem/par_mem_logic_inst/addr_crsbar_0/U81/Z (C8T28SOI_LL_AOI21X12_P0)
                                                         0.018 *    0.307 f
  datamem/par_mem_logic_inst/addr_crsbar_0/U84/Z (C8T28SOIDV_LLS_XOR2X4_P0)
                                                         0.026 *    0.333 f
  datamem/par_mem_logic_inst/addr_crsbar_0/U70/Z (C8T28SOI_LL_CNIVX4_P0)
                                                         0.011 *    0.344 r
  datamem/par_mem_logic_inst/addr_crsbar_0/U92/Z (C8T28SOIDV_LLS_XNOR2X4_P0)
                                                         0.023 *    0.367 r
  datamem/par_mem_logic_inst/addr_crsbar_0/U134/Z (C8T28SOIDV_LLS_XNOR2X4_P0)
                                                         0.032 *    0.399 r
  datamem/par_mem_logic_inst/addr_crsbar_0/U7/Z (C8T28SOIDV_LLS_XOR2X12_P0)
                                                         0.037 *    0.437 r
  datamem/par_mem_logic_inst/addr_crsbar_0/U6/Z (C8T28SOIDV_LL_CNIVX18_P0)
                                                         0.014 *    0.450 f
  datamem/par_mem_logic_inst/addr_crsbar_0/module_nums[0] (addr_crsbar_PORTS2_LSU_ADDRW14_CTRLW1_PM_FUNC2)
                                                         0.000      0.450 f
  datamem/par_mem_logic_inst/ctrl_units_0/module_nums[0] (ctrl_units_PORTS2_CTRLW1)
                                                         0.000      0.450 f
  datamem/par_mem_logic_inst/ctrl_units_0/ctrl_uniti_0/module_num[0] (ctrl_unit_PORTS2_CTRLW1_1)
                                                         0.000      0.450 f
  datamem/par_mem_logic_inst/ctrl_units_0/ctrl_uniti_0/U11/Z (C8T28SOI_LL_CNIVX9_P0)
                                                         0.007 *    0.458 r
  datamem/par_mem_logic_inst/ctrl_units_0/ctrl_uniti_0/U4/Z (C8T28SOI_LL_AOI12X3_P0)
                                                         0.010 *    0.468 f
  datamem/par_mem_logic_inst/ctrl_units_0/ctrl_uniti_0/mem_en_x (ctrl_unit_PORTS2_CTRLW1_1)
                                                         0.000      0.468 f
  datamem/par_mem_logic_inst/ctrl_units_0/U3/Z (C8T28SOIDV_LL_NAND2AX9_P0)
                                                         0.026 *    0.494 f
  datamem/par_mem_logic_inst/ctrl_units_0/mem_en_xs[0] (ctrl_units_PORTS2_CTRLW1)
                                                         0.000      0.494 f
  datamem/par_mem_logic_inst/mem_en_xs[0] (par_mem_logic_PORTS2_LSU_ADDRW14_CTRLW1_DATAW32_PM_FUNC2)
                                                         0.000      0.494 f
  datamem/dmem_2/en_x (synch_singleport_mem_wrapper_DATAW32_ADDRW13_0)
                                                         0.000      0.494 f
  datamem/dmem_2/en_wr_arbiter/en (block_en_wr_arbiter_ADDRW13_NBLOCKS9_0)
                                                         0.000      0.494 f
  datamem/dmem_2/en_wr_arbiter/U2/Z (C8T28SOIDV_LL_CNIVX37_P0)
                                                         0.017 *    0.511 r
  datamem/dmem_2/en_wr_arbiter/U26/Z (C8T28SOIDV_LL_NAND2X18_P4)
                                                         0.013 *    0.524 f
  datamem/dmem_2/en_wr_arbiter/en_blocks[6] (block_en_wr_arbiter_ADDRW13_NBLOCKS9_0)
                                                         0.000      0.524 f
  datamem/dmem_2/cacti_mem_x_6/en_x (cacti_mem_wrapper_DATAW32_ADDRW10_0)
                                                         0.000      0.524 f
  datamem/dmem_2/cacti_mem_x_6/mem_1024x32/mem_en_x (ram_1024x32)
                                                         0.000 *    0.524 f
  data arrival time                                                 0.524

  clock clk (rise edge)                                  1.053      1.053
  clock network delay (ideal)                            0.010      1.063
  clock uncertainty                                     -0.010      1.053
  datamem/dmem_2/cacti_mem_x_6/mem_1024x32/clk (ram_1024x32)
                                                         0.000      1.053 r
  library setup time                                    -0.505      0.548
  data required time                                                0.548
  --------------------------------------------------------------------------
  data required time                                                0.548
  data arrival time                                                -0.524
  --------------------------------------------------------------------------
  slack (MET)                                                       0.024


  Startpoint: core/loopbuffer/clk_r_REG1989_S18
              (rising edge-triggered flip-flop clocked by clk)
  Endpoint: datamem/dmem_2/cacti_mem_x_4/mem_256x32
            (rising edge-triggered flip-flop clocked by clk)
  Path Group: clk
  Path Type: max

  Point                                                   Incr       Path
  --------------------------------------------------------------------------
  clock clk (rise edge)                                  0.000      0.000
  clock network delay (ideal)                            0.010      0.010
  core/loopbuffer/clk_r_REG1989_S18/CP (C8T28SOIDV_LL_DFPRQX10_P0)
                                                         0.000      0.010 r
  core/loopbuffer/clk_r_REG1989_S18/Q (C8T28SOIDV_LL_DFPRQX10_P0)
                                                         0.050      0.060 f
  core/loopbuffer/U8/Z (C8T28SOI_LL_NOR2X8_P0)           0.028 *    0.088 r
  core/loopbuffer/U19/Z (C8T28SOI_LL_NOR2X8_P0)          0.015 *    0.103 f
  core/loopbuffer/U145/Z (C8T28SOI_LL_CNIVX9_P0)         0.008 *    0.112 r
  core/loopbuffer/U144/Z (C8T28SOIDV_LL_NAND2X9_P0)      0.008 *    0.119 f
  core/loopbuffer/lock_req_out (tta0_loopbuf_1_32_51_1_0)
                                                         0.000      0.119 f
  core/decomp/lock_r (tta0_decompressor)                 0.000      0.119 f
  core/decomp/U1/Z (C8T28SOI_LL_CNIVX9_P0)               0.009 *    0.128 r
  core/decomp/fetch_en (tta0_decompressor)               0.000      0.128 r
  core/inst_fetch/fetch_en (tta0_ifetch)                 0.000      0.128 r
  core/inst_fetch/U151/Z (C8T28SOIDV_LL_NAND2X9_P0)      0.010 *    0.138 f
  core/inst_fetch/glock (tta0_ifetch)                    0.000      0.138 f
  core/loopbuffer/glock_in (tta0_loopbuf_1_32_51_1_0)    0.000      0.138 f
  core/loopbuffer/U4/Z (C8T28SOIDV_LL_NAND2X9_P0)        0.014 *    0.152 r
  core/loopbuffer/U34/Z (C8T28SOIDV_LL_NAND2X18_P0)      0.013 *    0.165 f
  core/loopbuffer/glock_out (tta0_loopbuf_1_32_51_1_0)
                                                         0.000      0.165 f
  core/inst_decoder/lock (tta0_decoder)                  0.000      0.165 f
  core/inst_decoder/U7/Z (C8T28SOIDV_LL_CNIVX28_P4)      0.010 *    0.175 r
  core/inst_decoder/U3/Z (C8T28SOIDV_LL_NAND2X18_P0)     0.010 *    0.185 f
  core/inst_decoder/glock[7] (tta0_decoder)              0.000      0.185 f
  core/fu_lsu_r/glock (fu_ldw_stw_always_4_dataw32_addrw16_1)
                                                         0.000      0.185 f
  core/fu_lsu_r/U3/Z (C8T28SOIDV_LL_CNIVX37_P0)          0.011 *    0.195 r
  core/fu_lsu_r/U4/Z (C8T28SOIDV_LL_NAND2X36_P0)         0.014 *    0.209 f
  core/fu_lsu_r/mem_en_x[0] (fu_ldw_stw_always_4_dataw32_addrw16_1)
                                                         0.000      0.209 f
  U147/Z (C8T28SOIDV_LL_NAND2AX36_P0)                    0.020 *    0.229 r
  U152/Z (C8T28SOI_LL_MUXI21X9_P0)                       0.025 *    0.255 r
  datamem/scheduler/lsu_addr_a[13] (par_mem_scheduler_dataw32_addrw14_ports2_rd_delay1)
                                                         0.000      0.255 r
  datamem/scheduler/U27/Z (C8T28SOI_LL_NAND2X8_P0)       0.017 *    0.271 f
  datamem/scheduler/U28/Z (C8T28SOIDV_LL_NAND2X18_P16)
                                                         0.018 *    0.289 r
  datamem/scheduler/addr[13] (par_mem_scheduler_dataw32_addrw14_ports2_rd_delay1)
                                                         0.000      0.289 r
  datamem/par_mem_logic_inst/addrs_from_lsus[13] (par_mem_logic_PORTS2_LSU_ADDRW14_CTRLW1_DATAW32_PM_FUNC2)
                                                         0.000      0.289 r
  datamem/par_mem_logic_inst/addr_crsbar_0/addrs_from_lsus[13] (addr_crsbar_PORTS2_LSU_ADDRW14_CTRLW1_PM_FUNC2)
                                                         0.000      0.289 r
  datamem/par_mem_logic_inst/addr_crsbar_0/U81/Z (C8T28SOI_LL_AOI21X12_P0)
                                                         0.018 *    0.307 f
  datamem/par_mem_logic_inst/addr_crsbar_0/U84/Z (C8T28SOIDV_LLS_XOR2X4_P0)
                                                         0.026 *    0.333 f
  datamem/par_mem_logic_inst/addr_crsbar_0/U70/Z (C8T28SOI_LL_CNIVX4_P0)
                                                         0.011 *    0.344 r
  datamem/par_mem_logic_inst/addr_crsbar_0/U92/Z (C8T28SOIDV_LLS_XNOR2X4_P0)
                                                         0.023 *    0.367 r
  datamem/par_mem_logic_inst/addr_crsbar_0/U134/Z (C8T28SOIDV_LLS_XNOR2X4_P0)
                                                         0.032 *    0.399 r
  datamem/par_mem_logic_inst/addr_crsbar_0/U7/Z (C8T28SOIDV_LLS_XOR2X12_P0)
                                                         0.037 *    0.437 r
  datamem/par_mem_logic_inst/addr_crsbar_0/U6/Z (C8T28SOIDV_LL_CNIVX18_P0)
                                                         0.014 *    0.450 f
  datamem/par_mem_logic_inst/addr_crsbar_0/module_nums[0] (addr_crsbar_PORTS2_LSU_ADDRW14_CTRLW1_PM_FUNC2)
                                                         0.000      0.450 f
  datamem/par_mem_logic_inst/ctrl_units_0/module_nums[0] (ctrl_units_PORTS2_CTRLW1)
                                                         0.000      0.450 f
  datamem/par_mem_logic_inst/ctrl_units_0/ctrl_uniti_0/module_num[0] (ctrl_unit_PORTS2_CTRLW1_1)
                                                         0.000      0.450 f
  datamem/par_mem_logic_inst/ctrl_units_0/ctrl_uniti_0/U11/Z (C8T28SOI_LL_CNIVX9_P0)
                                                         0.007 *    0.458 r
  datamem/par_mem_logic_inst/ctrl_units_0/ctrl_uniti_0/U4/Z (C8T28SOI_LL_AOI12X3_P0)
                                                         0.010 *    0.468 f
  datamem/par_mem_logic_inst/ctrl_units_0/ctrl_uniti_0/mem_en_x (ctrl_unit_PORTS2_CTRLW1_1)
                                                         0.000      0.468 f
  datamem/par_mem_logic_inst/ctrl_units_0/U3/Z (C8T28SOIDV_LL_NAND2AX9_P0)
                                                         0.026 *    0.494 f
  datamem/par_mem_logic_inst/ctrl_units_0/mem_en_xs[0] (ctrl_units_PORTS2_CTRLW1)
                                                         0.000      0.494 f
  datamem/par_mem_logic_inst/mem_en_xs[0] (par_mem_logic_PORTS2_LSU_ADDRW14_CTRLW1_DATAW32_PM_FUNC2)
                                                         0.000      0.494 f
  datamem/dmem_2/en_x (synch_singleport_mem_wrapper_DATAW32_ADDRW13_0)
                                                         0.000      0.494 f
  datamem/dmem_2/en_wr_arbiter/en (block_en_wr_arbiter_ADDRW13_NBLOCKS9_0)
                                                         0.000      0.494 f
  datamem/dmem_2/en_wr_arbiter/U2/Z (C8T28SOIDV_LL_CNIVX37_P0)
                                                         0.017 *    0.511 r
  datamem/dmem_2/en_wr_arbiter/U31/Z (C8T28SOIDV_LL_NAND2X9_P0)
                                                         0.013 *    0.524 f
  datamem/dmem_2/en_wr_arbiter/en_blocks[4] (block_en_wr_arbiter_ADDRW13_NBLOCKS9_0)
                                                         0.000      0.524 f
  datamem/dmem_2/cacti_mem_x_4/en_x (cacti_mem_wrapper_DATAW32_ADDRW8_0)
                                                         0.000      0.524 f
  datamem/dmem_2/cacti_mem_x_4/mem_256x32/mem_en_x (ram_256x32)
                                                         0.000 *    0.524 f
  data arrival time                                                 0.524

  clock clk (rise edge)                                  1.053      1.053
  clock network delay (ideal)                            0.010      1.063
  clock uncertainty                                     -0.010      1.053
  datamem/dmem_2/cacti_mem_x_4/mem_256x32/clk (ram_256x32)
                                                         0.000      1.053 r
  library setup time                                    -0.504      0.549
  data required time                                                0.549
  --------------------------------------------------------------------------
  data required time                                                0.549
  data arrival time                                                -0.524
  --------------------------------------------------------------------------
  slack (MET)                                                       0.025


  Startpoint: core/loopbuffer/clk_r_REG1989_S18
              (rising edge-triggered flip-flop clocked by clk)
  Endpoint: datamem/dmem_1/cacti_mem_0/mem_32x32
            (rising edge-triggered flip-flop clocked by clk)
  Path Group: clk
  Path Type: max

  Point                                                   Incr       Path
  --------------------------------------------------------------------------
  clock clk (rise edge)                                  0.000      0.000
  clock network delay (ideal)                            0.010      0.010
  core/loopbuffer/clk_r_REG1989_S18/CP (C8T28SOIDV_LL_DFPRQX10_P0)
                                                         0.000      0.010 r
  core/loopbuffer/clk_r_REG1989_S18/Q (C8T28SOIDV_LL_DFPRQX10_P0)
                                                         0.050      0.060 f
  core/loopbuffer/U8/Z (C8T28SOI_LL_NOR2X8_P0)           0.028 *    0.088 r
  core/loopbuffer/U19/Z (C8T28SOI_LL_NOR2X8_P0)          0.015 *    0.103 f
  core/loopbuffer/U145/Z (C8T28SOI_LL_CNIVX9_P0)         0.008 *    0.112 r
  core/loopbuffer/U144/Z (C8T28SOIDV_LL_NAND2X9_P0)      0.008 *    0.119 f
  core/loopbuffer/lock_req_out (tta0_loopbuf_1_32_51_1_0)
                                                         0.000      0.119 f
  core/decomp/lock_r (tta0_decompressor)                 0.000      0.119 f
  core/decomp/U1/Z (C8T28SOI_LL_CNIVX9_P0)               0.009 *    0.128 r
  core/decomp/fetch_en (tta0_decompressor)               0.000      0.128 r
  core/inst_fetch/fetch_en (tta0_ifetch)                 0.000      0.128 r
  core/inst_fetch/U151/Z (C8T28SOIDV_LL_NAND2X9_P0)      0.010 *    0.138 f
  core/inst_fetch/glock (tta0_ifetch)                    0.000      0.138 f
  core/loopbuffer/glock_in (tta0_loopbuf_1_32_51_1_0)    0.000      0.138 f
  core/loopbuffer/U4/Z (C8T28SOIDV_LL_NAND2X9_P0)        0.014 *    0.152 r
  core/loopbuffer/U34/Z (C8T28SOIDV_LL_NAND2X18_P0)      0.013 *    0.165 f
  core/loopbuffer/glock_out (tta0_loopbuf_1_32_51_1_0)
                                                         0.000      0.165 f
  core/inst_decoder/lock (tta0_decoder)                  0.000      0.165 f
  core/inst_decoder/U7/Z (C8T28SOIDV_LL_CNIVX28_P4)      0.010 *    0.175 r
  core/inst_decoder/U3/Z (C8T28SOIDV_LL_NAND2X18_P0)     0.010 *    0.185 f
  core/inst_decoder/glock[7] (tta0_decoder)              0.000      0.185 f
  core/fu_lsu_r/glock (fu_ldw_stw_always_4_dataw32_addrw16_1)
                                                         0.000      0.185 f
  core/fu_lsu_r/U3/Z (C8T28SOIDV_LL_CNIVX37_P0)          0.011 *    0.195 r
  core/fu_lsu_r/U4/Z (C8T28SOIDV_LL_NAND2X36_P0)         0.014 *    0.209 f
  core/fu_lsu_r/mem_en_x[0] (fu_ldw_stw_always_4_dataw32_addrw16_1)
                                                         0.000      0.209 f
  U173/Z (C8T28SOIDV_LL_NAND2X36_P0)                     0.016 *    0.225 r
  U129/Z (C8T28SOIDV_LL_BFX34_P0)                        0.021 *    0.246 r
  U142/Z (C8T28SOI_LL_MUXI21X9_P0)                       0.023 *    0.269 r
  datamem/scheduler/lsu_addr_a[12] (par_mem_scheduler_dataw32_addrw14_ports2_rd_delay1)
                                                         0.000      0.269 r
  datamem/scheduler/U24/Z (C8T28SOIDV_LL_NAND2X9_P4)     0.013 *    0.282 f
  datamem/scheduler/U53/Z (C8T28SOIDV_LL_NAND2X9_P0)     0.013 *    0.296 r
  datamem/scheduler/addr[12] (par_mem_scheduler_dataw32_addrw14_ports2_rd_delay1)
                                                         0.000      0.296 r
  datamem/par_mem_logic_inst/addrs_from_lsus[12] (par_mem_logic_PORTS2_LSU_ADDRW14_CTRLW1_DATAW32_PM_FUNC2)
                                                         0.000      0.296 r
  datamem/par_mem_logic_inst/addr_crsbar_0/addrs_from_lsus[12] (addr_crsbar_PORTS2_LSU_ADDRW14_CTRLW1_PM_FUNC2)
                                                         0.000      0.296 r
  datamem/par_mem_logic_inst/addr_crsbar_0/U31/Z (C8T28SOIDV_LL_NAND2X18_P0)
                                                         0.011 *    0.306 f
  datamem/par_mem_logic_inst/addr_crsbar_0/U82/Z (C8T28SOIDV_LL_NAND2AX9_P0)
                                                         0.009 *    0.316 r
  datamem/par_mem_logic_inst/addr_crsbar_0/U84/Z (C8T28SOIDV_LLS_XOR2X4_P0)
                                                         0.021 *    0.337 r
  datamem/par_mem_logic_inst/addr_crsbar_0/U70/Z (C8T28SOI_LL_CNIVX4_P0)
                                                         0.011 *    0.348 f
  datamem/par_mem_logic_inst/addr_crsbar_0/U92/Z (C8T28SOIDV_LLS_XNOR2X4_P0)
                                                         0.020 *    0.368 f
  datamem/par_mem_logic_inst/addr_crsbar_0/U134/Z (C8T28SOIDV_LLS_XNOR2X4_P0)
                                                         0.026 *    0.394 f
  datamem/par_mem_logic_inst/addr_crsbar_0/U7/Z (C8T28SOIDV_LLS_XOR2X12_P0)
                                                         0.032 *    0.426 f
  datamem/par_mem_logic_inst/addr_crsbar_0/U6/Z (C8T28SOIDV_LL_CNIVX18_P0)
                                                         0.013 *    0.438 r
  datamem/par_mem_logic_inst/addr_crsbar_0/module_nums[0] (addr_crsbar_PORTS2_LSU_ADDRW14_CTRLW1_PM_FUNC2)
                                                         0.000      0.438 r
  datamem/par_mem_logic_inst/ctrl_units_0/module_nums[0] (ctrl_units_PORTS2_CTRLW1)
                                                         0.000      0.438 r
  datamem/par_mem_logic_inst/ctrl_units_0/ctrl_uniti_0/module_num[0] (ctrl_unit_PORTS2_CTRLW1_1)
                                                         0.000      0.438 r
  datamem/par_mem_logic_inst/ctrl_units_0/ctrl_uniti_0/U12/Z (C8T28SOI_LL_CNAND2X14_P0)
                                                         0.021 *    0.459 r
  datamem/par_mem_logic_inst/ctrl_units_0/ctrl_uniti_0/ctrl_matrix_row_out[1] (ctrl_unit_PORTS2_CTRLW1_1)
                                                         0.000      0.459 r
  datamem/par_mem_logic_inst/ctrl_units_0/ctrl_uniti_1/t_ctrl_matrix_row_in[0] (ctrl_unit_PORTS2_CTRLW1_0)
                                                         0.000      0.459 r
  datamem/par_mem_logic_inst/ctrl_units_0/ctrl_uniti_1/U15/Z (C8T28SOIDV_LL_NAND2AX17_P0)
                                                         0.009 *    0.468 f
  datamem/par_mem_logic_inst/ctrl_units_0/ctrl_uniti_1/U16/Z (C8T28SOIDV_LL_CNIVX18_P0)
                                                         0.007 *    0.475 r
  datamem/par_mem_logic_inst/ctrl_units_0/ctrl_uniti_1/U12/Z (C8T28SOIDV_LL_NOR2X9_P0)
                                                         0.006 *    0.482 f
  datamem/par_mem_logic_inst/ctrl_units_0/ctrl_uniti_1/mem_en_x (ctrl_unit_PORTS2_CTRLW1_0)
                                                         0.000      0.482 f
  datamem/par_mem_logic_inst/ctrl_units_0/U9/Z (C8T28SOIDV_LL_CNIVX18_P0)
                                                         0.007 *    0.488 r
  datamem/par_mem_logic_inst/ctrl_units_0/U5/Z (C8T28SOIDV_LL_NAND2X18_P0)
                                                         0.010 *    0.499 f
  datamem/par_mem_logic_inst/ctrl_units_0/mem_en_xs[1] (ctrl_units_PORTS2_CTRLW1)
                                                         0.000      0.499 f
  datamem/par_mem_logic_inst/mem_en_xs[1] (par_mem_logic_PORTS2_LSU_ADDRW14_CTRLW1_DATAW32_PM_FUNC2)
                                                         0.000      0.499 f
  datamem/dmem_1/en_x (synch_singleport_mem_wrapper_DATAW32_ADDRW13_1)
                                                         0.000      0.499 f
  datamem/dmem_1/en_wr_arbiter/en (block_en_wr_arbiter_ADDRW13_NBLOCKS9_1)
                                                         0.000      0.499 f
  datamem/dmem_1/en_wr_arbiter/U14/Z (C8T28SOIDV_LL_CNIVX55_P0)
                                                         0.012 *    0.511 r
  datamem/dmem_1/en_wr_arbiter/U26/Z (C8T28SOIDV_LL_NAND2X9_P0)
                                                         0.012 *    0.523 f
  datamem/dmem_1/en_wr_arbiter/en_blocks[0] (block_en_wr_arbiter_ADDRW13_NBLOCKS9_1)
                                                         0.000      0.523 f
  datamem/dmem_1/cacti_mem_0/en_x (cacti_mem_wrapper_DATAW32_ADDRW5_3)
                                                         0.000      0.523 f
  datamem/dmem_1/cacti_mem_0/mem_32x32/mem_en_x (ram_32x32)
                                                         0.000 *    0.523 f
  data arrival time                                                 0.523

  clock clk (rise edge)                                  1.053      1.053
  clock network delay (ideal)                            0.010      1.063
  clock uncertainty                                     -0.010      1.053
  datamem/dmem_1/cacti_mem_0/mem_32x32/clk (ram_32x32)
                                                         0.000      1.053 r
  library setup time                                    -0.505      0.548
  data required time                                                0.548
  --------------------------------------------------------------------------
  data required time                                                0.548
  data arrival time                                                -0.523
  --------------------------------------------------------------------------
  slack (MET)                                                       0.025


1
