Warning: There are 98 switching activity information conflicts. (PWR-19)
 
****************************************
Report : saif
Design : proc
Version: M-2016.12-SP5-1
Date   : Fri Jul 27 19:35:22 2018
****************************************

  

--------------------------------------------------------------------------------
              User              Default           Propagated
Object type   Annotated (%)     Activity (%)      Activity (%)       Total
--------------------------------------------------------------------------------
  
 Nets         269(75.56%)       0(0.00%)          87(24.44%)         356
 Ports        229(100.00%)      0(0.00%)          0(0.00%)           229
 Pins         201(39.41%)       0(0.00%)          309(60.59%)        510
--------------------------------------------------------------------------------
1
