Warning: There are 91 switching activity information conflicts. (PWR-19)
 
****************************************
Report : saif
Design : proc
Version: M-2016.12-SP5-1
Date   : Sun Jul 29 05:01:32 2018
****************************************

  

--------------------------------------------------------------------------------
              User              Default           Propagated
Object type   Annotated (%)     Activity (%)      Activity (%)       Total
--------------------------------------------------------------------------------
  
 Nets         287(65.53%)       0(0.00%)          151(34.47%)        438
 Ports        229(100.00%)      0(0.00%)          0(0.00%)           229
 Pins         254(36.65%)       0(0.00%)          439(63.35%)        693
--------------------------------------------------------------------------------
1
