Warning: There are 114 switching activity information conflicts. (PWR-19)
 
****************************************
Report : saif
Design : proc
Version: M-2016.12-SP5-1
Date   : Sat Jul 28 12:39:12 2018
****************************************

  

--------------------------------------------------------------------------------
              User              Default           Propagated
Object type   Annotated (%)     Activity (%)      Activity (%)       Total
--------------------------------------------------------------------------------
  
 Nets         254(63.50%)       0(0.00%)          146(36.50%)        400
 Ports        229(100.00%)      0(0.00%)          0(0.00%)           229
 Pins         224(36.60%)       0(0.00%)          388(63.40%)        612
--------------------------------------------------------------------------------
1
