Warning: There are 104 switching activity information conflicts. (PWR-19)
 
****************************************
Report : saif
Design : proc
Version: M-2016.12-SP5-1
Date   : Fri Jul 27 18:59:42 2018
****************************************

  

--------------------------------------------------------------------------------
              User              Default           Propagated
Object type   Annotated (%)     Activity (%)      Activity (%)       Total
--------------------------------------------------------------------------------
  
 Nets         268(76.14%)       0(0.00%)          84(23.86%)         352
 Ports        229(100.00%)      0(0.00%)          0(0.00%)           229
 Pins         200(39.76%)       0(0.00%)          303(60.24%)        503
--------------------------------------------------------------------------------
1
