Loading db file '/home/software/synopsys-new/installation/syn/M-2016.12-SP5-1/libraries/syn/gtech.db'
Loading db file '/home/software/synopsys-new/installation/syn/M-2016.12-SP5-1/libraries/syn/standard.sldb'
  Loading link library 'C28SOI_SC_8_CLK_LL'
  Loading link library 'C28SOI_SC_8_CORE_LL'
  Loading link library 'C28SOI_SC_8_COREPBP4_LL'
  Loading link library 'C28SOI_SC_8_COREPBP10_LL'
  Loading link library 'C28SOI_SC_8_COREPBP16_LL'
  Loading link library 'ram_64x51'
  Loading link library 'ram_32x32'
  Loading link library 'ram_64x32'
  Loading link library 'ram_128x32'
  Loading link library 'ram_256x32'
  Loading link library 'ram_512x32'
  Loading link library 'ram_1024x32'
  Loading link library 'ram_2048x32'
  Loading link library 'ram_4096x32'
  Loading link library 'ram_8192x32'
  Loading link library 'gtech'
Running PRESTO HDLC
Presto compilation completed successfully.
Elaborated 1 design.
Current design is now 'proc'.
Information: Building the design 'tta0' instantiated from design 'proc' with
	the parameters "core_id=0". (HDL-193)
Presto compilation completed successfully.
Information: Building the design 'control_arbiter'. (HDL-193)
Presto compilation completed successfully.
Information: Building the design 'synch_dualport_mem_wrapper' instantiated from design 'proc' with
	the parameters "DATAW=32,ADDRW=14". (HDL-193)

Inferred memory devices in process
	in routine synch_dualport_mem_wrapper_DATAW32_ADDRW14 line 255 in file
		'./vhdl/mem/synch_dualport_mem_wrapper.vhd'.
===============================================================================
|    Register Name    |   Type    | Width | Bus | MB | AR | AS | SR | SS | ST |
===============================================================================
|   lockrq_reg_reg    | Flip-flop |   1   |  N  | N  | Y  | N  | N  | N  | N  |
===============================================================================
Presto compilation completed successfully.
Information: Building the design 'mem_arbiter' instantiated from design 'proc' with
	the parameters "PORTW=32,ADDRWIDTH=14". (HDL-193)

Statistics for case statements in always block at line 59 in file
	'./vhdl/mem/mem_arbiter.vhd'
===============================================
|           Line           |  full/ parallel  |
===============================================
|            65            |    auto/auto     |
===============================================
Presto compilation completed successfully.
Information: Building the design 'synch_singleport_mem_wrapper' instantiated from design 'proc' with
	the parameters "DATAW=51,ADDRW=6". (HDL-193)
Presto compilation completed successfully.
Information: Building the design 'imem_arbiter' instantiated from design 'proc' with
	the parameters "PORTW=51,ADDRWIDTH=6". (HDL-193)

Statistics for case statements in always block at line 57 in file
	'./vhdl/mem/imem_arbiter.vhd'
===============================================
|           Line           |  full/ parallel  |
===============================================
|            63            |    auto/auto     |
===============================================
Presto compilation completed successfully.
Information: Building the design 'tta0_ifetch'. (HDL-193)

Inferred memory devices in process
	in routine tta0_ifetch line 134 in file
		'./vhdl/gcu_ic/ifetch.vhdl'.
===============================================================================
|    Register Name    |   Type    | Width | Bus | MB | AR | AS | SR | SS | ST |
===============================================================================
|   pc_prev_reg_reg   | Flip-flop |   6   |  Y  | N  | Y  | N  | N  | N  | N  |
|     pc_reg_reg      | Flip-flop |   6   |  Y  | N  | Y  | N  | N  | N  | N  |
===============================================================================

Inferred memory devices in process
	in routine tta0_ifetch line 167 in file
		'./vhdl/gcu_ic/ifetch.vhdl'.
===============================================================================
|    Register Name    |   Type    | Width | Bus | MB | AR | AS | SR | SS | ST |
===============================================================================
| return_addr_reg_reg | Flip-flop |   6   |  Y  | N  | Y  | N  | N  | N  | N  |
===============================================================================

Inferred memory devices in process
	in routine tta0_ifetch line 191 in file
		'./vhdl/gcu_ic/ifetch.vhdl'.
===============================================================================
|    Register Name    |   Type    | Width | Bus | MB | AR | AS | SR | SS | ST |
===============================================================================
|  mem_en_lock_r_reg  | Flip-flop |   1   |  N  | N  | N  | Y  | N  | N  | N  |
===============================================================================

Inferred memory devices in process
	in routine tta0_ifetch line 214 in file
		'./vhdl/gcu_ic/ifetch.vhdl'.
===============================================================================
|    Register Name    |   Type    | Width | Bus | MB | AR | AS | SR | SS | ST |
===============================================================================
|   reset_lock_reg    | Flip-flop |   1   |  N  | N  | N  | Y  | N  | N  | N  |
| instruction_reg_reg | Flip-flop |  51   |  Y  | N  | Y  | N  | N  | N  | N  |
|   reset_cntr_reg    | Flip-flop |   1   |  N  | N  | Y  | N  | N  | N  | N  |
===============================================================================

Inferred memory devices in process
	in routine tta0_ifetch line 271 in file
		'./vhdl/gcu_ic/ifetch.vhdl'.
==================================================================================
|     Register Name      |   Type    | Width | Bus | MB | AR | AS | SR | SS | ST |
==================================================================================
| loop_iter_temp_reg_reg | Flip-flop |  32   |  Y  | N  | Y  | N  | N  | N  | N  |
|  start_looping_r_reg   | Flip-flop |   3   |  Y  | N  | Y  | N  | N  | N  | N  |
|  loop_length_reg_reg   | Flip-flop |   1   |  N  | N  | Y  | N  | N  | N  | N  |
|   loop_iter_reg_reg    | Flip-flop |  32   |  Y  | N  | Y  | N  | N  | N  | N  |
==================================================================================
Presto compilation completed successfully.
Information: Building the design 'tta0_decompressor'. (HDL-193)
Presto compilation completed successfully.
Information: Building the design 'tta0_decoder'. (HDL-193)

Inferred memory devices in process
	in routine tta0_decoder line 426 in file
		'./vhdl/gcu_ic/decoder.vhdl'.
==============================================================================================
|           Register Name            |   Type    | Width | Bus | MB | AR | AS | SR | SS | ST |
==============================================================================================
|      rf_rf_def_wr_opc_reg_reg      | Flip-flop |   2   |  Y  | N  | Y  | N  | N  | N  | N  |
|  socket_gcu_i1_bus_cntrl_reg_reg   | Flip-flop |   1   |  N  | N  | Y  | N  | N  | N  | N  |
|  socket_gcu_i2_bus_cntrl_reg_reg   | Flip-flop |   2   |  Y  | N  | Y  | N  | N  | N  | N  |
|  socket_gcu_o1_bus_cntrl_reg_reg   | Flip-flop |   1   |  N  | N  | Y  | N  | N  | N  | N  |
|   socket_AG_o1_bus_cntrl_reg_reg   | Flip-flop |   2   |  Y  | N  | Y  | N  | N  | N  | N  |
|  socket_CMUL_o1_bus_cntrl_reg_reg  | Flip-flop |   1   |  N  | N  | Y  | N  | N  | N  | N  |
|  socket_TFG_o1_bus_cntrl_reg_reg   | Flip-flop |   1   |  N  | N  | Y  | N  | N  | N  | N  |
|  socket_add_o1_bus_cntrl_reg_reg   | Flip-flop |   3   |  Y  | N  | Y  | N  | N  | N  | N  |
| socket_rf_def_o1_bus_cntrl_reg_reg | Flip-flop |   2   |  Y  | N  | Y  | N  | N  | N  | N  |
|  socket_TFG_o2_bus_cntrl_reg_reg   | Flip-flop |   1   |  N  | N  | Y  | N  | N  | N  | N  |
| socket_CADD1_o1_bus_cntrl_reg_reg  | Flip-flop |   1   |  N  | N  | Y  | N  | N  | N  | N  |
| socket_DLY10_o1_bus_cntrl_reg_reg  | Flip-flop |   1   |  N  | N  | Y  | N  | N  | N  | N  |
|   socket_sh_o1_bus_cntrl_reg_reg   | Flip-flop |   3   |  Y  | N  | Y  | N  | N  | N  | N  |
| socket_lsu_r_o1_bus_cntrl_reg_reg  | Flip-flop |   1   |  N  | N  | Y  | N  | N  | N  | N  |
| socket_lsu_w_o1_bus_cntrl_reg_reg  | Flip-flop |   1   |  N  | N  | Y  | N  | N  | N  | N  |
|       simm_cntrl_B1_reg_reg        | Flip-flop |   1   |  N  | N  | Y  | N  | N  | N  | N  |
|          simm_B1_reg_reg           | Flip-flop |   4   |  Y  | N  | Y  | N  | N  | N  | N  |
|       simm_cntrl_B2_reg_reg        | Flip-flop |   1   |  N  | N  | Y  | N  | N  | N  | N  |
|          simm_B2_reg_reg           | Flip-flop |   4   |  Y  | N  | Y  | N  | N  | N  | N  |
|       simm_cntrl_B4_reg_reg        | Flip-flop |   1   |  N  | N  | Y  | N  | N  | N  | N  |
|          simm_B4_reg_reg           | Flip-flop |   4   |  Y  | N  | Y  | N  | N  | N  | N  |
|       simm_cntrl_B5_reg_reg        | Flip-flop |   1   |  N  | N  | Y  | N  | N  | N  | N  |
|          simm_B5_reg_reg           | Flip-flop |   4   |  Y  | N  | Y  | N  | N  | N  | N  |
|       simm_cntrl_B6_reg_reg        | Flip-flop |   1   |  N  | N  | Y  | N  | N  | N  | N  |
|          simm_B6_reg_reg           | Flip-flop |   4   |  Y  | N  | Y  | N  | N  | N  | N  |
|       simm_cntrl_B8_reg_reg        | Flip-flop |   1   |  N  | N  | Y  | N  | N  | N  | N  |
|          simm_B8_reg_reg           | Flip-flop |   1   |  N  | N  | Y  | N  | N  | N  | N  |
|       simm_cntrl_B10_reg_reg       | Flip-flop |   1   |  N  | N  | Y  | N  | N  | N  | N  |
|          simm_B10_reg_reg          | Flip-flop |   1   |  N  | N  | Y  | N  | N  | N  | N  |
|        fu_AG_t_load_reg_reg        | Flip-flop |   1   |  N  | N  | Y  | N  | N  | N  | N  |
|      fu_AG_Nexp_load_reg_reg       | Flip-flop |   1   |  N  | N  | Y  | N  | N  | N  | N  |
|      fu_AG_base_load_reg_reg       | Flip-flop |   1   |  N  | N  | Y  | N  | N  | N  | N  |
|       fu_CMUL_t_load_reg_reg       | Flip-flop |   1   |  N  | N  | Y  | N  | N  | N  | N  |
|       fu_CMUL_o_load_reg_reg       | Flip-flop |   1   |  N  | N  | Y  | N  | N  | N  | N  |
|       fu_TFG_t_load_reg_reg        | Flip-flop |   1   |  N  | N  | Y  | N  | N  | N  | N  |
|      fu_TFG_Nexp_load_reg_reg      | Flip-flop |   1   |  N  | N  | Y  | N  | N  | N  | N  |
|         fu_add_opc_reg_reg         | Flip-flop |   1   |  N  | N  | Y  | N  | N  | N  | N  |
|       fu_add_t_load_reg_reg        | Flip-flop |   1   |  N  | N  | Y  | N  | N  | N  | N  |
|       fu_add_o_load_reg_reg        | Flip-flop |   1   |  N  | N  | Y  | N  | N  | N  | N  |
|      fu_CADD1_t_load_reg_reg       | Flip-flop |   1   |  N  | N  | Y  | N  | N  | N  | N  |
|     fu_CADD1_rx2_load_reg_reg      | Flip-flop |   1   |  N  | N  | Y  | N  | N  | N  | N  |
|      fu_DLY11_t_load_reg_reg       | Flip-flop |   1   |  N  | N  | Y  | N  | N  | N  | N  |
|         fu_sh_opc_reg_reg          | Flip-flop |   1   |  N  | N  | Y  | N  | N  | N  | N  |
|        fu_sh_t_load_reg_reg        | Flip-flop |   1   |  N  | N  | Y  | N  | N  | N  | N  |
|        fu_sh_o_load_reg_reg        | Flip-flop |   1   |  N  | N  | Y  | N  | N  | N  | N  |
|        fu_lsu_r_opc_reg_reg        | Flip-flop |   1   |  N  | N  | Y  | N  | N  | N  | N  |
|      fu_lsu_r_t_load_reg_reg       | Flip-flop |   1   |  N  | N  | Y  | N  | N  | N  | N  |
|      fu_lsu_r_o_load_reg_reg       | Flip-flop |   1   |  N  | N  | Y  | N  | N  | N  | N  |
|        fu_lsu_w_opc_reg_reg        | Flip-flop |   1   |  N  | N  | Y  | N  | N  | N  | N  |
|      fu_lsu_w_t_load_reg_reg       | Flip-flop |   1   |  N  | N  | Y  | N  | N  | N  | N  |
|      fu_lsu_w_o_load_reg_reg       | Flip-flop |   1   |  N  | N  | Y  | N  | N  | N  | N  |
|         fu_gcu_opc_reg_reg         | Flip-flop |   2   |  Y  | N  | Y  | N  | N  | N  | N  |
|       fu_gcu_pc_load_reg_reg       | Flip-flop |   1   |  N  | N  | Y  | N  | N  | N  | N  |
|      fu_gcu_iter_load_reg_reg      | Flip-flop |   1   |  N  | N  | Y  | N  | N  | N  | N  |
|       fu_gcu_ra_load_reg_reg       | Flip-flop |   1   |  N  | N  | Y  | N  | N  | N  | N  |
|     rf_rf_def_rd_load_reg_reg      | Flip-flop |   1   |  N  | N  | Y  | N  | N  | N  | N  |
|      rf_rf_def_rd_opc_reg_reg      | Flip-flop |   2   |  Y  | N  | Y  | N  | N  | N  | N  |
|     rf_rf_def_wr_load_reg_reg      | Flip-flop |   1   |  N  | N  | Y  | N  | N  | N  | N  |
==============================================================================================

Inferred memory devices in process
	in routine tta0_decoder line 783 in file
		'./vhdl/gcu_ic/decoder.vhdl'.
==========================================================================================
|         Register Name          |   Type    | Width | Bus | MB | AR | AS | SR | SS | ST |
==========================================================================================
| post_decode_merged_glock_r_reg | Flip-flop |   1   |  N  | N  | N  | Y  | N  | N  | N  |
==========================================================================================

Inferred memory devices in process
	in routine tta0_decoder line 809 in file
		'./vhdl/gcu_ic/decoder.vhdl'.
====================================================================================
|      Register Name       |   Type    | Width | Bus | MB | AR | AS | SR | SS | ST |
====================================================================================
| decode_fill_lock_reg_reg | Flip-flop |   1   |  N  | N  | N  | Y  | N  | N  | N  |
====================================================================================
Presto compilation completed successfully.
Information: Building the design 'fu_cadd_always_1' instantiated from design 'tta0_core_id0' with
	the parameters "dataw=32,busw=32". (HDL-193)

Statistics for case statements in always block at line 86 in file
	'./vhdl/vhdl/fu_cadd_always_1.vhd'
===============================================
|           Line           |  full/ parallel  |
===============================================
|            94            |    auto/auto     |
===============================================
Presto compilation completed successfully.
Information: Building the design 'fu_cmul_always_3' instantiated from design 'tta0_core_id0' with
	the parameters "dataw=32,busw=32". (HDL-193)

Statistics for case statements in always block at line 83 in file
	'./vhdl/vhdl/fu_cmul_always_3.vhd'
===============================================
|           Line           |  full/ parallel  |
===============================================
|            94            |    auto/auto     |
===============================================

Inferred memory devices in process
	in routine fu_cmul_always_3_dataw32_busw32 line 83 in file
		'./vhdl/vhdl/fu_cmul_always_3.vhd'.
===============================================================================
|    Register Name    |   Type    | Width | Bus | MB | AR | AS | SR | SS | ST |
===============================================================================
|  result_en_reg_reg  | Flip-flop |   2   |  Y  | N  | Y  | N  | N  | N  | N  |
|      t1reg_reg      | Flip-flop |  32   |  Y  | N  | Y  | N  | N  | N  | N  |
|      o1reg_reg      | Flip-flop |  32   |  Y  | N  | Y  | N  | N  | N  | N  |
|      o1tmp_reg      | Flip-flop |  32   |  Y  | N  | Y  | N  | N  | N  | N  |
|      r1reg_reg      | Flip-flop |  32   |  Y  | N  | Y  | N  | N  | N  | N  |
===============================================================================
Presto compilation completed successfully.
Information: Building the design 'fu_tfg_always_6' instantiated from design 'tta0_core_id0' with
	the parameters "dataw=32,busw=32,nexpw=4". (HDL-193)

Statistics for case statements in always block at line 96 in file
	'./vhdl/vhdl/fu_tfg_always_6.vhd'
===============================================
|           Line           |  full/ parallel  |
===============================================
|           108            |    auto/auto     |
===============================================

Inferred memory devices in process
	in routine fu_tfg_always_6_dataw32_busw32_nexpw4 line 96 in file
		'./vhdl/vhdl/fu_tfg_always_6.vhd'.
===============================================================================
|    Register Name    |   Type    | Width | Bus | MB | AR | AS | SR | SS | ST |
===============================================================================
|  result_en_reg_reg  | Flip-flop |   5   |  Y  | N  | Y  | N  | N  | N  | N  |
|      t1reg_reg      | Flip-flop |  32   |  Y  | N  | Y  | N  | N  | N  | N  |
|      o1reg_reg      | Flip-flop |   4   |  Y  | N  | Y  | N  | N  | N  | N  |
|      o1tmp_reg      | Flip-flop |   4   |  Y  | N  | Y  | N  | N  | N  | N  |
|      r1reg_reg      | Flip-flop |  32   |  Y  | N  | Y  | N  | N  | N  | N  |
|      r2reg_reg      | Flip-flop |   1   |  N  | N  | Y  | N  | N  | N  | N  |
===============================================================================
Presto compilation completed successfully.
Information: Building the design 'fu_ag_always_2' instantiated from design 'tta0_core_id0' with
	the parameters "dataw=32,busw=32,nexpw=4". (HDL-193)

Statistics for case statements in always block at line 87 in file
	'./vhdl/vhdl/fu_ag_always_2.vhd'
===============================================
|           Line           |  full/ parallel  |
===============================================
|            99            |    auto/auto     |
===============================================

Inferred memory devices in process
	in routine fu_ag_always_2_dataw32_busw32_nexpw4 line 87 in file
		'./vhdl/vhdl/fu_ag_always_2.vhd'.
===============================================================================
|    Register Name    |   Type    | Width | Bus | MB | AR | AS | SR | SS | ST |
===============================================================================
|  result_en_reg_reg  | Flip-flop |   1   |  N  | N  | Y  | N  | N  | N  | N  |
|      t1reg_reg      | Flip-flop |  32   |  Y  | N  | Y  | N  | N  | N  | N  |
|      o1reg_reg      | Flip-flop |   4   |  Y  | N  | Y  | N  | N  | N  | N  |
|      o2reg_reg      | Flip-flop |  32   |  Y  | N  | Y  | N  | N  | N  | N  |
|      o1tmp_reg      | Flip-flop |   4   |  Y  | N  | Y  | N  | N  | N  | N  |
|      o2tmp_reg      | Flip-flop |  32   |  Y  | N  | Y  | N  | N  | N  | N  |
|      r1reg_reg      | Flip-flop |  32   |  Y  | N  | Y  | N  | N  | N  | N  |
===============================================================================
Presto compilation completed successfully.
Information: Building the design 'fu_rotreg_always_11' instantiated from design 'tta0_core_id0' with
	the parameters "dataw=32,busw=32". (HDL-193)

Inferred memory devices in process
	in routine fu_rotreg_always_11_dataw32_busw32 line 78 in file
		'./vhdl/vhdl/fu_rotreg_always_11.vhd'.
===============================================================================
|    Register Name    |   Type    | Width | Bus | MB | AR | AS | SR | SS | ST |
===============================================================================
|  result_en_reg_reg  | Flip-flop |  10   |  Y  | N  | Y  | N  | N  | N  | N  |
|      r1reg_reg      | Flip-flop |  32   |  Y  | N  | Y  | N  | N  | N  | N  |
===============================================================================
Presto compilation completed successfully.
Information: Building the design 'fu_ldw_stw_always_4' instantiated from design 'tta0_core_id0' with
	the parameters "dataw=32,addrw=16". (HDL-193)

Statistics for case statements in always block at line 109 in file
	'./vhdl/vhdl/fu_ldw_stw_always_4.vhd'
===============================================
|           Line           |  full/ parallel  |
===============================================
|           129            |    auto/auto     |
===============================================

Inferred memory devices in process
	in routine fu_ldw_stw_always_4_dataw32_addrw16 line 109 in file
		'./vhdl/vhdl/fu_ldw_stw_always_4.vhd'.
===============================================================================
|    Register Name    |   Type    | Width | Bus | MB | AR | AS | SR | SS | ST |
===============================================================================
|     r1_reg_reg      | Flip-flop |  32   |  Y  | N  | Y  | N  | N  | N  | N  |
|    addr_reg_reg     | Flip-flop |  14   |  Y  | N  | Y  | N  | N  | N  | N  |
|  data_out_reg_reg   | Flip-flop |  32   |  Y  | N  | Y  | N  | N  | N  | N  |
|   wr_en_x_reg_reg   | Flip-flop |   1   |  N  | N  | N  | Y  | N  | N  | N  |
|  mem_en_x_reg_reg   | Flip-flop |   1   |  N  | N  | N  | Y  | N  | N  | N  |
|   action_reg_reg    | Flip-flop |   6   |  Y  | N  | Y  | N  | N  | N  | N  |
|  o1shadow_reg_reg   | Flip-flop |  32   |  Y  | N  | Y  | N  | N  | N  | N  |
===============================================================================
Presto compilation completed successfully.
Information: Building the design 'fu_add_sub_always_1' instantiated from design 'tta0_core_id0' with
	the parameters "dataw=32,busw=32". (HDL-193)

Statistics for case statements in always block at line 146 in file
	'./vhdl/vhdl/add_sub.vhdl'
===============================================
|           Line           |  full/ parallel  |
===============================================
|           157            |    auto/auto     |
===============================================

Inferred memory devices in process
	in routine fu_add_sub_always_1_dataw32_busw32 line 146 in file
		'./vhdl/vhdl/add_sub.vhdl'.
===============================================================================
|    Register Name    |   Type    | Width | Bus | MB | AR | AS | SR | SS | ST |
===============================================================================
|     o1temp_reg      | Flip-flop |  32   |  Y  | N  | Y  | N  | N  | N  | N  |
|      t1reg_reg      | Flip-flop |  32   |  Y  | N  | Y  | N  | N  | N  | N  |
|    t1opc_reg_reg    | Flip-flop |   1   |  N  | N  | Y  | N  | N  | N  | N  |
|      o1reg_reg      | Flip-flop |  32   |  Y  | N  | Y  | N  | N  | N  | N  |
===============================================================================
Presto compilation completed successfully.
Information: Building the design 'fu_shl_shr_always_1' instantiated from design 'tta0_core_id0' with
	the parameters "dataw=32,shiftw=5". (HDL-193)

Statistics for case statements in always block at line 226 in file
	'./vhdl/vhdl/shl_shr.vhdl'
===============================================
|           Line           |  full/ parallel  |
===============================================
|           237            |    auto/auto     |
===============================================

Inferred memory devices in process
	in routine fu_shl_shr_always_1_dataw32_shiftw5 line 226 in file
		'./vhdl/vhdl/shl_shr.vhdl'.
===============================================================================
|    Register Name    |   Type    | Width | Bus | MB | AR | AS | SR | SS | ST |
===============================================================================
|     opc1reg_reg     | Flip-flop |   1   |  N  | N  | Y  | N  | N  | N  | N  |
|      t1reg_reg      | Flip-flop |   5   |  Y  | N  | Y  | N  | N  | N  | N  |
|      o1reg_reg      | Flip-flop |  32   |  Y  | N  | Y  | N  | N  | N  | N  |
|     o1temp_reg      | Flip-flop |  32   |  Y  | N  | Y  | N  | N  | N  | N  |
===============================================================================
Presto compilation completed successfully.
Information: Building the design 'rf_1wr_1rd_always_1_guarded_0' instantiated from design 'tta0_core_id0' with
	the parameters "dataw=32,rf_size=3". (HDL-193)

Inferred memory devices in process
	in routine rf_1wr_1rd_always_1_guarded_0_dataw32_rf_size3 line 98 in file
		'./vhdl/vhdl/rf_1wr_1rd_always_1_guarded_0.vhd'.
===============================================================================
|    Register Name    |   Type    | Width | Bus | MB | AR | AS | SR | SS | ST |
===============================================================================
|       reg_reg       | Flip-flop |  96   |  Y  | N  | Y  | N  | N  | N  | N  |
===============================================================================
Presto compilation completed successfully.
Information: Building the design 'tta0_interconn'. (HDL-193)
Presto compilation completed successfully.
Information: Building the design 'tta0_loopbuf' instantiated from design 'tta0_core_id0' with
	the parameters "depth=1,instw=51,core_id=0,enable_usage_trace=1'h1,iterw=32". (HDL-193)
'report' output: FSM reached unknown state.

Statistics for case statements in always block at line 155 in file
	'./vhdl/gcu_ic/loopbuffer.vhdl'
===============================================
|           Line           |  full/ parallel  |
===============================================
|           160            |    auto/auto     |
===============================================

Statistics for case statements in always block at line 234 in file
	'./vhdl/gcu_ic/loopbuffer.vhdl'
===============================================
|           Line           |  full/ parallel  |
===============================================
|           256            |    auto/auto     |
===============================================

Statistics for case statements in always block at line 309 in file
	'./vhdl/gcu_ic/loopbuffer.vhdl'
===============================================
|           Line           |  full/ parallel  |
===============================================
|           311            |    auto/auto     |
===============================================

Inferred memory devices in process
	in routine tta0_loopbuf_1_32_51_1_0 line 234 in file
		'./vhdl/gcu_ic/loopbuffer.vhdl'.
===============================================================================
|    Register Name    |   Type    | Width | Bus | MB | AR | AS | SR | SS | ST |
===============================================================================
|     state_r_reg     | Flip-flop |   3   |  Y  | N  | Y  | N  | N  | N  | N  |
|   len_cntr_r_reg    | Flip-flop |  32   |  Y  | N  | Y  | N  | N  | N  | N  |
|   iter_cntr_r_reg   | Flip-flop |  32   |  Y  | N  | Y  | N  | N  | N  | N  |
|   loop_len_r_reg    | Flip-flop |  32   |  Y  | N  | Y  | N  | N  | N  | N  |
|   loop_iter_r_reg   | Flip-flop |  32   |  Y  | N  | Y  | N  | N  | N  | N  |
|  loop_buffer_r_reg  | Flip-flop |  51   |  Y  | N  | Y  | N  | N  | N  | N  |
| buffer_filled_r_reg | Flip-flop |   1   |  N  | N  | Y  | N  | N  | N  | N  |
| loop_finished_r_reg | Flip-flop |   1   |  N  | N  | Y  | N  | N  | N  | N  |
===============================================================================
Presto compilation completed successfully.
Information: Building the design 'par_mem_scheduler' instantiated from design 'synch_dualport_mem_wrapper_DATAW32_ADDRW14' with
	the parameters "dataw=32,addrw=14,ports=2,rd_delay=1". (HDL-193)

Inferred memory devices in process
	in routine par_mem_scheduler_dataw32_addrw14_ports2_rd_delay1 line 233 in file
		'./vhdl/mem/par_mem_scheduler.vhd'.
===============================================================================
|    Register Name    |   Type    | Width | Bus | MB | AR | AS | SR | SS | ST |
===============================================================================
|   rd_load_reg_reg   | Flip-flop |   1   |  N  | N  | N  | Y  | N  | N  | N  |
===============================================================================
Presto compilation completed successfully.
Information: Building the design 'par_mem_logic' instantiated from design 'synch_dualport_mem_wrapper_DATAW32_ADDRW14' with
	the parameters "PORTS=2,LSU_ADDRW=14,CTRLW=1,DATAW=32,PM_FUNC=2". (HDL-193)
Presto compilation completed successfully.
Information: Building the design 'synch_singleport_mem_wrapper' instantiated from design 'synch_dualport_mem_wrapper_DATAW32_ADDRW14' with
	the parameters "DATAW=32,ADDRW=13". (HDL-193)
Presto compilation completed successfully.
Information: Building the design 'cacti_mem_wrapper' instantiated from design 'synch_singleport_mem_wrapper_DATAW51_ADDRW6' with
	the parameters "DATAW=51,ADDRW=6". (HDL-193)
Presto compilation completed successfully.
Information: Building the design 'cadd_full' instantiated from design 'fu_cadd_always_1_dataw32_busw32' with
	the parameters "dataw=32,halfw=16". (HDL-193)
Presto compilation completed successfully.
Information: Building the design 'cmul_pipe_1' instantiated from design 'fu_cmul_always_3_dataw32_busw32' with
	the parameters "dataw=32,halfw=16". (HDL-193)

Inferred memory devices in process
	in routine cmul_pipe_1_dataw32_halfw16 line 205 in file
		'./vhdl/vhdl/cmul.vhd'.
===============================================================================
|    Register Name    |   Type    | Width | Bus | MB | AR | AS | SR | SS | ST |
===============================================================================
|     out_reg_reg     | Flip-flop |  32   |  Y  | N  | Y  | N  | N  | N  | N  |
===============================================================================
Presto compilation completed successfully.
Information: Building the design 'tfg_pipe_4' instantiated from design 'fu_tfg_always_6_dataw32_busw32_nexpw4' with
	the parameters "dataw=32,halfw=16,nexpw=4,idxw=16,lut_addrw=12,stagew=3". (HDL-193)

Inferred memory devices in process
	in routine tfg_pipe_4_dataw32_halfw16_nexpw4_idxw16_lut_addrw12_stagew3 line 282 in file
		'./vhdl/vhdl/tfg_pipe_4.vhd'.
===============================================================================
|    Register Name    |   Type    | Width | Bus | MB | AR | AS | SR | SS | ST |
===============================================================================
|     rx2_reg_reg     | Flip-flop |   4   |  Y  | N  | Y  | N  | N  | N  | N  |
|     idx_reg_reg     | Flip-flop |  16   |  Y  | N  | Y  | N  | N  | N  | N  |
|    stage_reg_reg    | Flip-flop |   3   |  Y  | N  | Y  | N  | N  | N  | N  |
|      w_reg_reg      | Flip-flop |  16   |  Y  | N  | Y  | N  | N  | N  | N  |
|      k_reg_reg      | Flip-flop |  16   |  Y  | N  | Y  | N  | N  | N  | N  |
|  lut_addr_reg_reg   | Flip-flop |  12   |  Y  | N  | Y  | N  | N  | N  | N  |
|     opc_reg_reg     | Flip-flop |   6   |  Y  | N  | Y  | N  | N  | N  | N  |
===============================================================================
Presto compilation completed successfully.
Information: Building the design 'ag_arith' instantiated from design 'fu_ag_always_2_dataw32_busw32_nexpw4' with
	the parameters "dataw=32,nexpw=4,idxw=16,stagew=3,mau_shift=2". (HDL-193)
Presto compilation completed successfully.
Information: Building the design 'rotreg' instantiated from design 'fu_rotreg_always_11_dataw32_busw32' with
	the parameters "dataw=32,reg_count=10". (HDL-193)

Inferred memory devices in process
	in routine rotreg_dataw32_reg_count10 line 39 in file
		'./vhdl/vhdl/rotreg.vhd'.
===============================================================================
|    Register Name    |   Type    | Width | Bus | MB | AR | AS | SR | SS | ST |
===============================================================================
|     cnt_wr_reg      | Flip-flop |   4   |  Y  | N  | Y  | N  | N  | N  | N  |
|     cnt_rd_reg      | Flip-flop |  30   |  Y  | N  | Y  | N  | N  | N  | N  |
|     cnt_rd_reg      | Flip-flop |   1   |  N  | N  | N  | Y  | N  | N  | N  |
===============================================================================

Inferred memory devices in process
	in routine rotreg_dataw32_reg_count10 line 62 in file
		'./vhdl/vhdl/rotreg.vhd'.
===============================================================================
|    Register Name    |   Type    | Width | Bus | MB | AR | AS | SR | SS | ST |
===============================================================================
|       reg_reg       | Flip-flop |  320  |  Y  | N  | Y  | N  | N  | N  | N  |
|       set_reg       | Flip-flop |  10   |  Y  | N  | Y  | N  | N  | N  | N  |
|       q_o_reg       | Flip-flop |  32   |  Y  | N  | N  | N  | N  | N  | N  |
===============================================================================
Presto compilation completed successfully.
Information: Building the design 'add_sub_arith' instantiated from design 'fu_add_sub_always_1_dataw32_busw32' with
	the parameters "dataw=32". (HDL-193)
Presto compilation completed successfully.
Information: Building the design 'shl_shr_arith' instantiated from design 'fu_shl_shr_always_1_dataw32_shiftw5' with
	the parameters "dataw=32,shiftw=5". (HDL-193)
Presto compilation completed successfully.
Information: Building the design 'tta0_input_socket_cons_1' instantiated from design 'tta0_interconn' with
	the parameters "BUSW_0=32,DATAW=32". (HDL-193)
Presto compilation completed successfully.
Information: Building the design 'tta0_input_socket_cons_1' instantiated from design 'tta0_interconn' with
	the parameters "BUSW_0=32,DATAW=4". (HDL-193)
Presto compilation completed successfully.
Information: Building the design 'tta0_output_socket_cons_2_1' instantiated from design 'tta0_interconn' with
	the parameters "BUSW_0=32,BUSW_1=32,DATAW_0=32". (HDL-193)
Presto compilation completed successfully.
Information: Building the design 'tta0_input_socket_cons_1' instantiated from design 'tta0_interconn' with
	the parameters "BUSW_0=1,DATAW=1". (HDL-193)
Presto compilation completed successfully.
Information: Building the design 'tta0_output_socket_cons_1_1' instantiated from design 'tta0_interconn' with
	the parameters "BUSW_0=32,DATAW_0=32". (HDL-193)
Presto compilation completed successfully.
Information: Building the design 'tta0_output_socket_cons_1_1' instantiated from design 'tta0_interconn' with
	the parameters "BUSW_0=1,DATAW_0=1". (HDL-193)
Presto compilation completed successfully.
Information: Building the design 'tta0_output_socket_cons_3_1' instantiated from design 'tta0_interconn' with
	the parameters "BUSW_0=32,BUSW_1=32,BUSW_2=32,DATAW_0=32". (HDL-193)
Presto compilation completed successfully.
Information: Building the design 'tta0_input_socket_cons_2' instantiated from design 'tta0_interconn' with
	the parameters "BUSW_0=32,BUSW_1=32,DATAW=6". (HDL-193)

Statistics for case statements in always block at line 28 in file
	'./vhdl/gcu_ic/input_socket_2.vhdl'
===============================================
|           Line           |  full/ parallel  |
===============================================
|            31            |    auto/auto     |
===============================================
Presto compilation completed successfully.
Information: Building the design 'tta0_output_socket_cons_2_1' instantiated from design 'tta0_interconn' with
	the parameters "BUSW_0=8,BUSW_1=8,DATAW_0=6". (HDL-193)
Presto compilation completed successfully.
Information: Building the design 'tta0_input_socket_cons_1' instantiated from design 'tta0_interconn' with
	the parameters "BUSW_0=32,DATAW=16". (HDL-193)
Presto compilation completed successfully.
Information: Building the design 'tta0_input_socket_cons_1' instantiated from design 'tta0_interconn' with
	the parameters "BUSW_0=32,DATAW=5". (HDL-193)
Presto compilation completed successfully.
Information: Building the design 'tta0_output_socket_cons_1_1' instantiated from design 'tta0_interconn' with
	the parameters "BUSW_0=4,DATAW_0=4". (HDL-193)
Presto compilation completed successfully.
Information: Building the design 'ser_par_conv' instantiated from design 'par_mem_scheduler_dataw32_addrw14_ports2_rd_delay1' with
	the parameters "portw=14,port_cnt=2". (HDL-193)

Inferred memory devices in process
	in routine ser_par_conv_portw14_port_cnt2 line 42 in file
		'./vhdl/mem/ser_par_conv.vhd'.
===============================================================================
|    Register Name    |   Type    | Width | Bus | MB | AR | AS | SR | SS | ST |
===============================================================================
|       cnt_reg       | Flip-flop |   1   |  N  | N  | Y  | N  | N  | N  | N  |
===============================================================================

Inferred memory devices in process
	in routine ser_par_conv_portw14_port_cnt2 line 59 in file
		'./vhdl/mem/ser_par_conv.vhd'.
===============================================================================
|    Register Name    |   Type    | Width | Bus | MB | AR | AS | SR | SS | ST |
===============================================================================
|    inp_regs_reg     | Flip-flop |  14   |  Y  | N  | Y  | N  | N  | N  | N  |
===============================================================================
Presto compilation completed successfully.
Information: Building the design 'ser_par_conv' instantiated from design 'par_mem_scheduler_dataw32_addrw14_ports2_rd_delay1' with
	the parameters "portw=32,port_cnt=2". (HDL-193)

Inferred memory devices in process
	in routine ser_par_conv_portw32_port_cnt2 line 42 in file
		'./vhdl/mem/ser_par_conv.vhd'.
===============================================================================
|    Register Name    |   Type    | Width | Bus | MB | AR | AS | SR | SS | ST |
===============================================================================
|       cnt_reg       | Flip-flop |   1   |  N  | N  | Y  | N  | N  | N  | N  |
===============================================================================

Inferred memory devices in process
	in routine ser_par_conv_portw32_port_cnt2 line 59 in file
		'./vhdl/mem/ser_par_conv.vhd'.
===============================================================================
|    Register Name    |   Type    | Width | Bus | MB | AR | AS | SR | SS | ST |
===============================================================================
|    inp_regs_reg     | Flip-flop |  32   |  Y  | N  | Y  | N  | N  | N  | N  |
===============================================================================
Presto compilation completed successfully.
Information: Building the design 'par_ser_conv' instantiated from design 'par_mem_scheduler_dataw32_addrw14_ports2_rd_delay1' with
	the parameters "portw=32,port_cnt=2". (HDL-193)

Inferred memory devices in process
	in routine par_ser_conv_portw32_port_cnt2 line 40 in file
		'./vhdl/mem/par_ser_conv.vhd'.
===============================================================================
|    Register Name    |   Type    | Width | Bus | MB | AR | AS | SR | SS | ST |
===============================================================================
|       cnt_reg       | Flip-flop |   1   |  N  | N  | Y  | N  | N  | N  | N  |
===============================================================================

Inferred memory devices in process
	in routine par_ser_conv_portw32_port_cnt2 line 57 in file
		'./vhdl/mem/par_ser_conv.vhd'.
===============================================================================
|    Register Name    |   Type    | Width | Bus | MB | AR | AS | SR | SS | ST |
===============================================================================
|     en_reg_reg      | Flip-flop |   1   |  N  | N  | N  | Y  | N  | N  | N  |
|     inp_reg_reg     | Flip-flop |  32   |  Y  | N  | Y  | N  | N  | N  | N  |
===============================================================================
Presto compilation completed successfully.
Information: Building the design 'ctrl_units' instantiated from design 'par_mem_logic_PORTS2_LSU_ADDRW14_CTRLW1_DATAW32_PM_FUNC2' with
	the parameters "PORTS=2,CTRLW=1". (HDL-193)
Warning:  ./vhdl/mem/par_mem_logic_reg.vhd:1237: DEFAULT branch of CASE statement cannot be reached. (ELAB-311)

Statistics for case statements in always block at line 1235 in file
	'./vhdl/mem/par_mem_logic_reg.vhd'
===============================================
|           Line           |  full/ parallel  |
===============================================
|           1237           |    auto/auto     |
===============================================

Inferred memory devices in process
	in routine ctrl_units_PORTS2_CTRLW1 line 1262 in file
		'./vhdl/mem/par_mem_logic_reg.vhd'.
===============================================================================
|    Register Name    |   Type    | Width | Bus | MB | AR | AS | SR | SS | ST |
===============================================================================
|     curr_st_reg     | Flip-flop |   1   |  N  | N  | Y  | N  | N  | N  | N  |
===============================================================================

Inferred memory devices in process
	in routine ctrl_units_PORTS2_CTRLW1 line 1278 in file
		'./vhdl/mem/par_mem_logic_reg.vhd'.
===============================================================================
|    Register Name    |   Type    | Width | Bus | MB | AR | AS | SR | SS | ST |
===============================================================================
| lockrq_reg_sig_reg  | Flip-flop |   1   |  N  | N  | Y  | N  | N  | N  | N  |
===============================================================================
Presto compilation completed successfully.
Information: Building the design 'addr_crsbar' instantiated from design 'par_mem_logic_PORTS2_LSU_ADDRW14_CTRLW1_DATAW32_PM_FUNC2' with
	the parameters "PORTS=2,LSU_ADDRW=14,CTRLW=1,PM_FUNC=2". (HDL-193)
Warning:  ./vhdl/mem/par_mem_logic_reg.vhd:131: DEFAULT branch of CASE statement cannot be reached. (ELAB-311)
Warning:  ./vhdl/mem/par_mem_logic_reg.vhd:177: DEFAULT branch of CASE statement cannot be reached. (ELAB-311)

Statistics for case statements in always block at line 489 in file
	'./vhdl/mem/par_mem_logic_reg.vhd'
===============================================
|           Line           |  full/ parallel  |
===============================================
|           501            |    auto/auto     |
===============================================

Inferred memory devices in process
	in routine addr_crsbar_PORTS2_LSU_ADDRW14_CTRLW1_PM_FUNC2 line 538 in file
		'./vhdl/mem/par_mem_logic_reg.vhd'.
===============================================================================
|    Register Name    |   Type    | Width | Bus | MB | AR | AS | SR | SS | ST |
===============================================================================
| lsu_wr_xs_latch_reg | Flip-flop |   2   |  Y  | N  | N  | Y  | N  | N  | N  |
|   addrs_latch_reg   | Flip-flop |  28   |  Y  | N  | Y  | N  | N  | N  | N  |
===============================================================================
Presto compilation completed successfully.
Information: Building the design 'wr_crsbar' instantiated from design 'par_mem_logic_PORTS2_LSU_ADDRW14_CTRLW1_DATAW32_PM_FUNC2' with
	the parameters "PORTS=2,DATAW=32,CTRLW=1". (HDL-193)

Statistics for case statements in always block at line 628 in file
	'./vhdl/mem/par_mem_logic_reg.vhd'
===============================================
|           Line           |  full/ parallel  |
===============================================
|           633            |    auto/auto     |
===============================================

Inferred memory devices in process
	in routine wr_crsbar_PORTS2_DATAW32_CTRLW1 line 653 in file
		'./vhdl/mem/par_mem_logic_reg.vhd'.
===============================================================================
|    Register Name    |   Type    | Width | Bus | MB | AR | AS | SR | SS | ST |
===============================================================================
|  st_data_latch_reg  | Flip-flop |  64   |  Y  | N  | Y  | N  | N  | N  | N  |
===============================================================================
Presto compilation completed successfully.
Information: Building the design 'rd_crsbar' instantiated from design 'par_mem_logic_PORTS2_LSU_ADDRW14_CTRLW1_DATAW32_PM_FUNC2' with
	the parameters "PORTS=2,DATAW=32,CTRLW=1". (HDL-193)

Statistics for case statements in always block at line 737 in file
	'./vhdl/mem/par_mem_logic_reg.vhd'
===============================================
|           Line           |  full/ parallel  |
===============================================
|           750            |    auto/auto     |
===============================================

Inferred memory devices in process
	in routine rd_crsbar_PORTS2_DATAW32_CTRLW1 line 763 in file
		'./vhdl/mem/par_mem_logic_reg.vhd'.
================================================================================
|    Register Name     |   Type    | Width | Bus | MB | AR | AS | SR | SS | ST |
================================================================================
| crsbar_out_latch_reg | Flip-flop |  64   |  Y  | N  | Y  | N  | N  | N  | N  |
================================================================================
Presto compilation completed successfully.
Information: Building the design 'block_en_wr_arbiter' instantiated from design 'synch_singleport_mem_wrapper_DATAW32_ADDRW13' with
	the parameters "ADDRW=13,NBLOCKS=9". (HDL-193)
Presto compilation completed successfully.
Information: Building the design 'cacti_mem_wrapper' instantiated from design 'synch_singleport_mem_wrapper_DATAW32_ADDRW13' with
	the parameters "DATAW=32,ADDRW=5". (HDL-193)
Presto compilation completed successfully.
Information: Building the design 'cacti_mem_wrapper' instantiated from design 'synch_singleport_mem_wrapper_DATAW32_ADDRW13' with
	the parameters "DATAW=32,ADDRW=6". (HDL-193)
Presto compilation completed successfully.
Information: Building the design 'cacti_mem_wrapper' instantiated from design 'synch_singleport_mem_wrapper_DATAW32_ADDRW13' with
	the parameters "DATAW=32,ADDRW=7". (HDL-193)
Presto compilation completed successfully.
Information: Building the design 'cacti_mem_wrapper' instantiated from design 'synch_singleport_mem_wrapper_DATAW32_ADDRW13' with
	the parameters "DATAW=32,ADDRW=8". (HDL-193)
Presto compilation completed successfully.
Information: Building the design 'cacti_mem_wrapper' instantiated from design 'synch_singleport_mem_wrapper_DATAW32_ADDRW13' with
	the parameters "DATAW=32,ADDRW=9". (HDL-193)
Presto compilation completed successfully.
Information: Building the design 'cacti_mem_wrapper' instantiated from design 'synch_singleport_mem_wrapper_DATAW32_ADDRW13' with
	the parameters "DATAW=32,ADDRW=10". (HDL-193)
Presto compilation completed successfully.
Information: Building the design 'cacti_mem_wrapper' instantiated from design 'synch_singleport_mem_wrapper_DATAW32_ADDRW13' with
	the parameters "DATAW=32,ADDRW=11". (HDL-193)
Presto compilation completed successfully.
Information: Building the design 'cacti_mem_wrapper' instantiated from design 'synch_singleport_mem_wrapper_DATAW32_ADDRW13' with
	the parameters "DATAW=32,ADDRW=12". (HDL-193)
Presto compilation completed successfully.
Information: Building the design 'block_mem_output_sel' instantiated from design 'synch_singleport_mem_wrapper_DATAW32_ADDRW13' with
	the parameters "DATAW=32,NBLOCKS=9". (HDL-193)

Inferred memory devices in process
	in routine block_mem_output_sel_DATAW32_NBLOCKS9 line 52 in file
		'./vhdl/mem/block_mem_output_sel.vhd'.
===============================================================================
|    Register Name    |   Type    | Width | Bus | MB | AR | AS | SR | SS | ST |
===============================================================================
|  en_blocks_reg_reg  | Flip-flop |   9   |  Y  | N  | N  | Y  | N  | N  | N  |
===============================================================================
Presto compilation completed successfully.
Information: Building the design 'cadd_reg' instantiated from design 'cadd_full_dataw32_halfw16' with
	the parameters "dataw=32". (HDL-193)
Warning:  ./vhdl/vhdl/cadd.vhd:110: DEFAULT branch of CASE statement cannot be reached. (ELAB-311)

Statistics for case statements in always block at line 100 in file
	'./vhdl/vhdl/cadd.vhd'
===============================================
|           Line           |  full/ parallel  |
===============================================
|           110            |    auto/auto     |
===============================================

Inferred memory devices in process
	in routine cadd_reg_dataw32 line 87 in file
		'./vhdl/vhdl/cadd.vhd'.
===============================================================================
|    Register Name    |   Type    | Width | Bus | MB | AR | AS | SR | SS | ST |
===============================================================================
|       cnt_reg       | Flip-flop |   2   |  Y  | N  | Y  | N  | N  | N  | N  |
===============================================================================

Inferred memory devices in process
	in routine cadd_reg_dataw32 line 100 in file
		'./vhdl/vhdl/cadd.vhd'.
===============================================================================
|    Register Name    |   Type    | Width | Bus | MB | AR | AS | SR | SS | ST |
===============================================================================
|     rx2_reg_reg     | Flip-flop |   1   |  N  | N  | Y  | N  | N  | N  | N  |
|      a_reg_reg      | Flip-flop |  32   |  Y  | N  | Y  | N  | N  | N  | N  |
|      b_reg_reg      | Flip-flop |  32   |  Y  | N  | Y  | N  | N  | N  | N  |
|      c_reg_reg      | Flip-flop |  32   |  Y  | N  | Y  | N  | N  | N  | N  |
|        d_reg        | Flip-flop |  32   |  Y  | N  | N  | N  | N  | N  | N  |
|       rx2_reg       | Flip-flop |   1   |  N  | N  | N  | N  | N  | N  | N  |
|        a_reg        | Flip-flop |  32   |  Y  | N  | N  | N  | N  | N  | N  |
|        b_reg        | Flip-flop |  32   |  Y  | N  | N  | N  | N  | N  | N  |
|        c_reg        | Flip-flop |  32   |  Y  | N  | N  | N  | N  | N  | N  |
===============================================================================
Presto compilation completed successfully.
Information: Building the design 'cadd_arith' instantiated from design 'cadd_full_dataw32_halfw16' with
	the parameters "dataw=32,halfw=16". (HDL-193)
Warning:  ./vhdl/vhdl/cadd.vhd:221: DEFAULT branch of CASE statement cannot be reached. (ELAB-311)
Warning:  ./vhdl/vhdl/cadd.vhd:254: DEFAULT branch of CASE statement cannot be reached. (ELAB-311)
Warning:  ./vhdl/vhdl/cadd.vhd:219: DEFAULT branch of CASE statement cannot be reached. (ELAB-311)

Statistics for case statements in always block at line 213 in file
	'./vhdl/vhdl/cadd.vhd'
===============================================
|           Line           |  full/ parallel  |
===============================================
|           219            |    auto/auto     |
|           221            |    auto/auto     |
|           254            |    auto/auto     |
===============================================
Presto compilation completed successfully.
Information: Building the design 'idx_stage_split' instantiated from design 'tfg_pipe_4_dataw32_halfw16_nexpw4_idxw16_lut_addrw12_stagew3' with
	the parameters "dataw=32,nexpw=4,stagew=3,idxw=16". (HDL-193)
Statistics for MUX_OPs
======================================================================================
|                 block name/line                  | Inputs | Outputs | # sel inputs |
======================================================================================
| idx_stage_split_dataw32_nexpw4_stagew3_idxw16/39 |   32   |    1    |      5       |
======================================================================================
Presto compilation completed successfully.
Information: Building the design 'radix_2' instantiated from design 'tfg_pipe_4_dataw32_halfw16_nexpw4_idxw16_lut_addrw12_stagew3' with
	the parameters "stagew=3,nexpw=4". (HDL-193)
Presto compilation completed successfully.
Information: Building the design 'weight' instantiated from design 'tfg_pipe_4_dataw32_halfw16_nexpw4_idxw16_lut_addrw12_stagew3' with
	the parameters "idxw=16,stagew=3,nexpw=4,lut_addrw=12". (HDL-193)
Presto compilation completed successfully.
Information: Building the design 'scale_k' instantiated from design 'tfg_pipe_4_dataw32_halfw16_nexpw4_idxw16_lut_addrw12_stagew3' with
	the parameters "idxw=16,stagew=3". (HDL-193)

Statistics for case statements in always block at line 51 in file
	'./vhdl/vhdl/scale_k.vhd'
===============================================
|           Line           |  full/ parallel  |
===============================================
|            53            |    auto/auto     |
===============================================
Presto compilation completed successfully.
Information: Building the design 'lut_addr' instantiated from design 'tfg_pipe_4_dataw32_halfw16_nexpw4_idxw16_lut_addrw12_stagew3' with
	the parameters "idxw=16,lut_addrw=12". (HDL-193)
Warning:  ./vhdl/vhdl/lut_addr.vhd:57: implicit truncation caused by range overflow. (ELAB-931)
Presto compilation completed successfully.
Information: Building the design 'tf_lut_synch' instantiated from design 'tfg_pipe_4_dataw32_halfw16_nexpw4_idxw16_lut_addrw12_stagew3' with
	the parameters "dataw=32,lut_addrw=12". (HDL-193)
Presto compilation completed successfully.
Information: Building the design 'twiddle_twist' instantiated from design 'tfg_pipe_4_dataw32_halfw16_nexpw4_idxw16_lut_addrw12_stagew3' with
	the parameters "dataw=32,halfw=16". (HDL-193)
Presto compilation completed successfully.
Information: Building the design 'ctrl_unit' instantiated from design 'ctrl_units_PORTS2_CTRLW1' with
	the parameters "PORTS=2,CTRLW=1". (HDL-193)
Warning:  ./vhdl/mem/par_mem_logic_reg.vhd:980: DEFAULT branch of CASE statement cannot be reached. (ELAB-311)
Warning:  ./vhdl/mem/par_mem_logic_reg.vhd:1025: DEFAULT branch of CASE statement cannot be reached. (ELAB-311)

Statistics for case statements in always block at line 883 in file
	'./vhdl/mem/par_mem_logic_reg.vhd'
===============================================
|           Line           |  full/ parallel  |
===============================================
|           890            |    auto/auto     |
|           901            |    auto/auto     |
|           915            |    auto/auto     |
===============================================

Statistics for case statements in always block at line 975 in file
	'./vhdl/mem/par_mem_logic_reg.vhd'
===============================================
|           Line           |  full/ parallel  |
===============================================
|           980            |    auto/auto     |
===============================================

Statistics for case statements in always block at line 1017 in file
	'./vhdl/mem/par_mem_logic_reg.vhd'
===============================================
|           Line           |  full/ parallel  |
===============================================
|           1025           |    auto/auto     |
===============================================

Inferred memory devices in process
	in routine ctrl_unit_PORTS2_CTRLW1 line 941 in file
		'./vhdl/mem/par_mem_logic_reg.vhd'.
=========================================================================================
|         Register Name         |   Type    | Width | Bus | MB | AR | AS | SR | SS | ST |
=========================================================================================
|      lsu_wr_x_in_reg_reg      | Flip-flop |   1   |  N  | N  | N  | Y  | N  | N  | N  |
|      lsu_en_x_latch_reg       | Flip-flop |   1   |  N  | N  | N  | Y  | N  | N  | N  |
| new_t_ctrl_matrix_row_reg_reg | Flip-flop |   2   |  Y  | N  | Y  | N  | N  | N  | N  |
|   rd_mux_ctrl_latch_reg_reg   | Flip-flop |   1   |  N  | N  | Y  | N  | N  | N  | N  |
|    curr_lsu_en_bit_reg_reg    | Flip-flop |   1   |  N  | N  | Y  | N  | N  | N  | N  |
=========================================================================================

Inferred memory devices in process
	in routine ctrl_unit_PORTS2_CTRLW1 line 1001 in file
		'./vhdl/mem/par_mem_logic_reg.vhd'.
===============================================================================
|    Register Name    |   Type    | Width | Bus | MB | AR | AS | SR | SS | ST |
===============================================================================
|     curr_st_reg     | Flip-flop |   1   |  N  | N  | Y  | N  | N  | N  | N  |
===============================================================================

Inferred memory devices in process
	in routine ctrl_unit_PORTS2_CTRLW1 line 1050 in file
		'./vhdl/mem/par_mem_logic_reg.vhd'.
===============================================================================
|    Register Name    |   Type    | Width | Bus | MB | AR | AS | SR | SS | ST |
===============================================================================
| curr_st_rd_mux_reg  | Flip-flop |   1   |  N  | N  | Y  | N  | N  | N  | N  |
===============================================================================
Presto compilation completed successfully.
Information: Building the design 'distr_2049x32_synch' instantiated from design 'tf_lut_synch_dataw32_lut_addrw12' with
	the parameters "dataw=32,lut_addrw=12". (HDL-193)

Inferred memory devices in process
	in routine distr_2049x32_synch_dataw32_lut_addrw12 line 2082 in file
		'./vhdl/vhdl/distr_2049x32_synch.vhd'.
===============================================================================
|    Register Name    |   Type    | Width | Bus | MB | AR | AS | SR | SS | ST |
===============================================================================
|       tf_reg        | Flip-flop |  32   |  Y  | N  | Y  | N  | N  | N  | N  |
===============================================================================
Presto compilation completed successfully.
1
