********************************************************************************
                        Threshold Voltage Group Report                         

Vth Group                All                Blackbox           Non-blackbox
Name                    cells                cells                cells
********************************************************************************
undefined           16688 (100.00%)        118 (100.00%)      16570 (100.00%)   
********************************************************************************

Vth Group                All                Blackbox           Non-blackbox
Name                  cell area            cell area            cell area
********************************************************************************
undefined       109703.33 (100.00%)   96330.51 (100.00%)   13372.83 (100.00%)   
********************************************************************************
1
