Warning: There are 90 switching activity information conflicts. (PWR-19)
 
****************************************
Report : saif
Design : proc
Version: M-2016.12-SP5-1
Date   : Sat Jul 28 20:42:16 2018
****************************************

  

--------------------------------------------------------------------------------
              User              Default           Propagated
Object type   Annotated (%)     Activity (%)      Activity (%)       Total
--------------------------------------------------------------------------------
  
 Nets         302(57.41%)       0(0.00%)          224(42.59%)        526
 Ports        229(100.00%)      0(0.00%)          0(0.00%)           229
 Pins         268(32.21%)       0(0.00%)          564(67.79%)        832
--------------------------------------------------------------------------------
1
