Warning: There are 106 switching activity information conflicts. (PWR-19)
 
****************************************
Report : saif
Design : proc
Version: M-2016.12-SP5-1
Date   : Fri Jul 27 20:12:53 2018
****************************************

  

--------------------------------------------------------------------------------
              User              Default           Propagated
Object type   Annotated (%)     Activity (%)      Activity (%)       Total
--------------------------------------------------------------------------------
  
 Nets         269(77.75%)       0(0.00%)          77(22.25%)         346
 Ports        229(100.00%)      0(0.00%)          0(0.00%)           229
 Pins         208(42.36%)       0(0.00%)          283(57.64%)        491
--------------------------------------------------------------------------------
1
