********************************************************************************
                        Threshold Voltage Group Report                         

Vth Group                All                Blackbox           Non-blackbox
Name                    cells                cells                cells
********************************************************************************
undefined           21338 (100.00%)        124 (100.00%)      21214 (100.00%)   
********************************************************************************

Vth Group                All                Blackbox           Non-blackbox
Name                  cell area            cell area            cell area
********************************************************************************
undefined       127923.59 (100.00%)  110633.86 (100.00%)   17289.73 (100.00%)   
********************************************************************************
1
