Warning: There are 114 switching activity information conflicts. (PWR-19)
 
****************************************
Report : saif
Design : proc
Version: M-2016.12-SP5-1
Date   : Sat Jul 28 05:54:14 2018
****************************************

  

--------------------------------------------------------------------------------
              User              Default           Propagated
Object type   Annotated (%)     Activity (%)      Activity (%)       Total
--------------------------------------------------------------------------------
  
 Nets         269(64.98%)       0(0.00%)          145(35.02%)        414
 Ports        229(100.00%)      0(0.00%)          0(0.00%)           229
 Pins         223(34.90%)       0(0.00%)          416(65.10%)        639
--------------------------------------------------------------------------------
1
