********************************************************************************
                        Threshold Voltage Group Report                         

Vth Group                All                Blackbox           Non-blackbox
Name                    cells                cells                cells
********************************************************************************
undefined           19512 (100.00%)        120 (100.00%)      19392 (100.00%)   
********************************************************************************

Vth Group                All                Blackbox           Non-blackbox
Name                  cell area            cell area            cell area
********************************************************************************
undefined       112892.75 (100.00%)   97281.80 (100.00%)   15610.95 (100.00%)   
********************************************************************************
1
