Information: Updating design information... (UID-85)
 
****************************************
Report : timing
        -path full
        -delay max
        -max_paths 10
Design : proc
Version: M-2016.12-SP5-1
Date   : Sat Jul 28 09:43:12 2018
****************************************

 * Some/all delay information is back-annotated.

Operating Conditions: tt28_0.85V_0.00V_0.00V_0.00V_25C   Library: C28SOI_SC_8_CLK_LL
Wire Load Model Mode: Inactive.

  Startpoint: core/fu_AG/fu_arch/clk_r_REG83_S14
              (rising edge-triggered flip-flop clocked by clk)
  Endpoint: core/ic/AG_o1/clk_r_REG1611_S26
            (rising edge-triggered flip-flop clocked by clk)
  Path Group: clk
  Path Type: max

  Point                                                   Incr       Path
  --------------------------------------------------------------------------
  clock clk (rise edge)                                  0.000      0.000
  clock network delay (ideal)                            0.010      0.010
  core/fu_AG/fu_arch/clk_r_REG83_S14/CP (C8T28SOIDV_LL_DFPRQX10_P16)
                                                         0.000      0.010 r
  core/fu_AG/fu_arch/clk_r_REG83_S14/Q (C8T28SOIDV_LL_DFPRQX10_P16)
                                                         0.088      0.098 f
  core/fu_AG/fu_arch/u0/nexp_i[3] (idx_stage_split_dataw32_nexpw4_stagew3_idxw16_0)
                                                         0.000      0.098 f
  core/fu_AG/fu_arch/u0/U4/Z (C8T28SOI_LL_IVX3_P16)      0.061 *    0.159 r
  core/fu_AG/fu_arch/u0/U5/Z (C8T28SOI_LL_NAND2X4_P16)
                                                         0.062 *    0.221 f
  core/fu_AG/fu_arch/u0/U6/Z (C8T28SOI_LL_IVX3_P16)      0.060 *    0.281 r
  core/fu_AG/fu_arch/u0/U10/Z (C8T28SOI_LL_NAND2X2_P16)
                                                         0.052 *    0.333 f
  core/fu_AG/fu_arch/u0/U53/Z (C8T28SOI_LL_OAI22X3_P16)
                                                         0.055 *    0.388 r
  core/fu_AG/fu_arch/u0/U54/Z (C8T28SOI_LL_CBI4I6X3_P16)
                                                         0.027 *    0.415 f
  core/fu_AG/fu_arch/u0/U60/Z (C8T28SOI_LL_OA112X4_P16)
                                                         0.065 *    0.480 f
  core/fu_AG/fu_arch/u0/stage_o[0] (idx_stage_split_dataw32_nexpw4_stagew3_idxw16_0)
                                                         0.000      0.480 f
  core/fu_AG/fu_arch/U18/Z (C8T28SOI_LL_NAND2X2_P16)     0.029 *    0.508 r
  core/fu_AG/fu_arch/U53/Z (C8T28SOI_LL_IVX3_P16)        0.028 *    0.536 f
  core/fu_AG/fu_arch/U55/CO (C8T28SOIDV_LL_FA1X5_P16)    0.068 *    0.605 f
  core/fu_AG/fu_arch/U56/Z (C8T28SOI_LL_BFX5_P16)        0.039 *    0.644 f
  core/fu_AG/fu_arch/U61/Z (C8T28SOI_LL_OAI12X3_P16)     0.044 *    0.688 r
  core/fu_AG/fu_arch/U71/Z (C8T28SOI_LL_NOR2AX4_P16)     0.076 *    0.764 r
  core/fu_AG/fu_arch/U72/Z (C8T28SOI_LL_IVX3_P16)        0.041 *    0.806 f
  core/fu_AG/fu_arch/U73/Z (C8T28SOI_LL_NOR2X4_P16)      0.110 *    0.916 r
  core/fu_AG/fu_arch/U44/Z (C8T28SOI_LL_IVX3_P16)        0.113 *    1.029 f
  core/fu_AG/fu_arch/U128/Z (C8T28SOI_LL_AOI13X3_P16)    0.067 *    1.096 r
  core/fu_AG/fu_arch/U132/Z (C8T28SOI_LL_AOI112X3_P16)
                                                         0.041 *    1.137 f
  core/fu_AG/fu_arch/U140/Z (C8T28SOI_LL_AO212X5_P16)    0.131 *    1.268 f
  core/fu_AG/fu_arch/U194/Z (C8T28SOI_LL_NAND2AX2_P16)
                                                         0.051 *    1.319 f
  core/fu_AG/fu_arch/U214/Z (C8T28SOI_LL_NOR2X2_P16)     0.045 *    1.364 r
  core/fu_AG/fu_arch/U216/Z (C8T28SOI_LL_NOR2X4_P16)     0.030 *    1.395 f
  core/fu_AG/fu_arch/U281/CO (C8T28SOIDV_LL_FA1X5_P16)
                                                         0.075 *    1.469 f
  core/fu_AG/fu_arch/U278/CO (C8T28SOIDV_LL_FA1X5_P16)
                                                         0.078 *    1.547 f
  core/fu_AG/fu_arch/U275/CO (C8T28SOIDV_LL_FA1X5_P16)
                                                         0.079 *    1.626 f
  core/fu_AG/fu_arch/U271/CO (C8T28SOIDV_LL_FA1X5_P16)
                                                         0.078 *    1.704 f
  core/fu_AG/fu_arch/U264/CO (C8T28SOIDV_LL_FA1X5_P16)
                                                         0.078 *    1.782 f
  core/fu_AG/fu_arch/U261/CO (C8T28SOIDV_LL_FA1X5_P16)
                                                         0.077 *    1.859 f
  core/fu_AG/fu_arch/U257/CO (C8T28SOIDV_LL_FA1X5_P16)
                                                         0.077 *    1.936 f
  core/fu_AG/fu_arch/U253/CO (C8T28SOIDV_LL_FA1X5_P16)
                                                         0.076 *    2.012 f
  core/fu_AG/fu_arch/U246/CO (C8T28SOIDV_LL_FA1X5_P16)
                                                         0.076 *    2.089 f
  core/fu_AG/fu_arch/U242/CO (C8T28SOIDV_LL_FA1X5_P16)
                                                         0.077 *    2.165 f
  core/fu_AG/fu_arch/U238/CO (C8T28SOIDV_LL_FA1X5_P16)
                                                         0.077 *    2.242 f
  core/fu_AG/fu_arch/U233/CO (C8T28SOIDV_LL_FA1X5_P16)
                                                         0.077 *    2.319 f
  core/fu_AG/fu_arch/U223/S0 (C8T28SOIDV_LL_FA1X5_P16)
                                                         0.103 *    2.422 r
  core/fu_AG/fu_arch/U228/Z (C8T28SOI_LL_NOR3X3_P16)     0.014 *    2.435 f
  core/fu_AG/fu_arch/U229/Z (C8T28SOI_LL_AOI22X2_P16)    0.062 *    2.497 r
  core/fu_AG/fu_arch/U287/CO (C8T28SOIDV_LL_FA1X5_P16)
                                                         0.096 *    2.593 r
  core/fu_AG/fu_arch/U286/CO (C8T28SOIDV_LL_FA1X5_P16)
                                                         0.056 *    2.649 r
  core/fu_AG/fu_arch/U285/CO (C8T28SOI_LL_HA1X5_P16)     0.054 *    2.703 r
  core/fu_AG/fu_arch/U284/S0 (C8T28SOI_LL_HA1X5_P16)     0.081 *    2.784 f
  core/fu_AG/fu_arch/addr_o[17] (ag_arith_dataw32_nexpw4_idxw16_stagew3_mau_shift2)
                                                         0.000      2.784 f
  core/fu_AG/r1data[17] (fu_ag_always_2_dataw32_busw32_nexpw4)
                                                         0.000      2.784 f
  core/ic/socket_AG_o1_data0[17] (tta0_interconn)        0.000      2.784 f
  core/ic/AG_o1/data0[17] (tta0_output_socket_cons_2_1_BUSW_032_BUSW_132_DATAW_032_1)
                                                         0.000      2.784 f
  core/ic/AG_o1/clk_r_REG1611_S26/D (C8T28SOIDV_LL_DFPRQX10_P16)
                                                         0.000 *    2.784 f
  data arrival time                                                 2.784

  clock clk (rise edge)                                  2.857      2.857
  clock network delay (ideal)                            0.010      2.867
  clock uncertainty                                     -0.010      2.857
  core/ic/AG_o1/clk_r_REG1611_S26/CP (C8T28SOIDV_LL_DFPRQX10_P16)
                                                         0.000      2.857 r
  library setup time                                    -0.043      2.814
  data required time                                                2.814
  --------------------------------------------------------------------------
  data required time                                                2.814
  data arrival time                                                -2.784
  --------------------------------------------------------------------------
  slack (MET)                                                       0.030


  Startpoint: core/inst_decoder/clk_r_REG1962_S30
              (rising edge-triggered flip-flop clocked by clk)
  Endpoint: core/fu_CMUL/fu_arch/clk_r_REG934_S14
            (rising edge-triggered flip-flop clocked by clk)
  Path Group: clk
  Path Type: max

  Point                                                   Incr       Path
  --------------------------------------------------------------------------
  clock clk (rise edge)                                  0.000      0.000
  clock network delay (ideal)                            0.010      0.010
  core/inst_decoder/clk_r_REG1962_S30/CP (C8T28SOIDV_LL_DFPRQX19_P0)
                                                         0.000      0.010 r
  core/inst_decoder/clk_r_REG1962_S30/Q (C8T28SOIDV_LL_DFPRQX19_P0)
                                                         0.092      0.102 r
  core/inst_decoder/socket_TFG_o1_bus_cntrl[0] (tta0_decoder)
                                                         0.000      0.102 r
  core/ic/socket_TFG_o1_bus_cntrl[0] (tta0_interconn)    0.000      0.102 r
  core/ic/TFG_o1/databus_cntrl[0] (tta0_output_socket_cons_1_1_BUSW_032_DATAW_032_2)
                                                         0.000      0.102 r
  core/ic/TFG_o1/U4/Z (C8T28SOI_LL_AND2X5_P16)           0.056 *    0.158 r
  core/ic/TFG_o1/databus0_alt[17] (tta0_output_socket_cons_1_1_BUSW_032_DATAW_032_2)
                                                         0.000      0.158 r
  core/ic/CMUL_i1/databus0[17] (tta0_input_socket_cons_1_BUSW_032_DATAW32_10)
                                                         0.000      0.158 r
  core/ic/CMUL_i1/U32/Z (C8T28SOI_LL_BFX5_P16)           0.028 *    0.186 r
  core/ic/CMUL_i1/data[17] (tta0_input_socket_cons_1_BUSW_032_DATAW32_10)
                                                         0.000      0.186 r
  core/ic/socket_CMUL_i1_data[17] (tta0_interconn)       0.000      0.186 r
  U288/Z (C8T28SOI_LL_BFX5_P16)                          0.037 *    0.222 r
  core/fu_CMUL/t1data[17] (fu_cmul_always_3_dataw32_busw32)
                                                         0.000      0.222 r
  core/fu_CMUL/fu_arch/A[17] (cmul_pipe_1_dataw32_halfw16)
                                                         0.000      0.222 r
  core/fu_CMUL/fu_arch/U110/Z (C8T28SOI_LL_BFX13_P16)    0.061 *    0.284 r
  core/fu_CMUL/fu_arch/U111/Z (C8T28SOI_LL_IVX14_P16)    0.045 *    0.329 f
  core/fu_CMUL/fu_arch/U1124/Z (C8T28SOI_LL_AOI22X2_P16)
                                                         0.259 *    0.588 r
  core/fu_CMUL/fu_arch/U1132/Z (C8T28SOI_LL_OAI211X9_P16)
                                                         0.205 *    0.793 f
  core/fu_CMUL/fu_arch/U1787/Z (C8T28SOI_LL_OAI22X3_P16)
                                                         0.100 *    0.893 r
  core/fu_CMUL/fu_arch/U1804/S0 (C8T28SOIDV_LL_FA1X5_P16)
                                                         0.126 *    1.019 f
  core/fu_CMUL/fu_arch/U1818/CO (C8T28SOIDV_LLS1_FA1X4_P16)
                                                         0.058 *    1.077 f
  core/fu_CMUL/fu_arch/U1805/S0 (C8T28SOIDV_LLS1_FA1X4_P16)
                                                         0.115 *    1.192 f
  core/fu_CMUL/fu_arch/U1820/Z (C8T28SOIDV_LL_PAO2X10_P16)
                                                         0.064 *    1.256 f
  core/fu_CMUL/fu_arch/U1821/Z (C8T28SOIDV_LL_PAO2X10_P16)
                                                         0.063 *    1.318 f
  core/fu_CMUL/fu_arch/U1822/Z (C8T28SOIDV_LL_PAO2X14_P16)
                                                         0.049 *    1.367 f
  core/fu_CMUL/fu_arch/U1823/Z (C8T28SOIDV_LL_PAO2X10_P16)
                                                         0.055 *    1.422 f
  core/fu_CMUL/fu_arch/U1824/Z (C8T28SOIDV_LL_PAO2X10_P16)
                                                         0.055 *    1.478 f
  core/fu_CMUL/fu_arch/U1825/Z (C8T28SOIDV_LL_PAO2X10_P16)
                                                         0.058 *    1.536 f
  core/fu_CMUL/fu_arch/U1826/Z (C8T28SOIDV_LL_PAO2X14_P16)
                                                         0.051 *    1.587 f
  core/fu_CMUL/fu_arch/U1827/Z (C8T28SOIDV_LL_PAO2X14_P16)
                                                         0.050 *    1.637 f
  core/fu_CMUL/fu_arch/U1828/Z (C8T28SOIDV_LL_PAO2X14_P16)
                                                         0.048 *    1.686 f
  core/fu_CMUL/fu_arch/U1829/Z (C8T28SOIDV_LL_PAO2X10_P16)
                                                         0.058 *    1.743 f
  core/fu_CMUL/fu_arch/U1830/Z (C8T28SOIDV_LL_PAO2X14_P16)
                                                         0.051 *    1.794 f
  core/fu_CMUL/fu_arch/U2049/CO (C8T28SOIDV_LLS1_FA1X4_P16)
                                                         0.049 *    1.843 f
  core/fu_CMUL/fu_arch/U1831/CO (C8T28SOIDV_LLS1_FA1X4_P16)
                                                         0.058 *    1.901 f
  core/fu_CMUL/fu_arch/U2027/CO (C8T28SOIDV_LLS1_FA1X4_P16)
                                                         0.057 *    1.958 f
  core/fu_CMUL/fu_arch/U1832/CO (C8T28SOIDV_LLS1_FA1X4_P16)
                                                         0.056 *    2.014 f
  core/fu_CMUL/fu_arch/U2024/CO (C8T28SOIDV_LLS1_FA1X4_P16)
                                                         0.056 *    2.071 f
  core/fu_CMUL/fu_arch/U1896/CO (C8T28SOIDV_LLS1_FA1X4_P16)
                                                         0.056 *    2.127 f
  core/fu_CMUL/fu_arch/U2025/CO (C8T28SOIDV_LLS1_FA1X4_P16)
                                                         0.056 *    2.183 f
  core/fu_CMUL/fu_arch/U1997/CO (C8T28SOIDV_LLS1_FA1X4_P16)
                                                         0.057 *    2.240 f
  core/fu_CMUL/fu_arch/U2039/CO (C8T28SOIDV_LLS1_FA1X4_P16)
                                                         0.057 *    2.297 f
  core/fu_CMUL/fu_arch/U1998/CO (C8T28SOIDV_LLS1_FA1X4_P16)
                                                         0.056 *    2.353 f
  core/fu_CMUL/fu_arch/U2053/CO (C8T28SOIDV_LLS1_FA1X4_P16)
                                                         0.057 *    2.410 f
  core/fu_CMUL/fu_arch/U2026/CO (C8T28SOIDV_LLS1_FA1X4_P16)
                                                         0.057 *    2.467 f
  core/fu_CMUL/fu_arch/U2038/CO (C8T28SOIDV_LLS1_FA1X4_P16)
                                                         0.056 *    2.524 f
  core/fu_CMUL/fu_arch/U2048/CO (C8T28SOIDV_LLS1_FA1X4_P16)
                                                         0.057 *    2.580 f
  core/fu_CMUL/fu_arch/U2070/CO (C8T28SOIDV_LLS1_FA1X4_P16)
                                                         0.057 *    2.637 f
  core/fu_CMUL/fu_arch/U2075/S0 (C8T28SOIDV_LLS1_FA1X4_P16)
                                                         0.076 *    2.713 r
  core/fu_CMUL/fu_arch/U2072/S0 (C8T28SOI_LL_HA1X9_P16)
                                                         0.072 *    2.785 f
  core/fu_CMUL/fu_arch/clk_r_REG934_S14/D (C8T28SOIDV_LL_DFPRQX10_P16)
                                                         0.000 *    2.785 f
  data arrival time                                                 2.785

  clock clk (rise edge)                                  2.857      2.857
  clock network delay (ideal)                            0.010      2.867
  clock uncertainty                                     -0.010      2.857
  core/fu_CMUL/fu_arch/clk_r_REG934_S14/CP (C8T28SOIDV_LL_DFPRQX10_P16)
                                                         0.000      2.857 r
  library setup time                                    -0.041      2.816
  data required time                                                2.816
  --------------------------------------------------------------------------
  data required time                                                2.816
  data arrival time                                                -2.785
  --------------------------------------------------------------------------
  slack (MET)                                                       0.031


  Startpoint: core/inst_decoder/clk_r_REG1962_S30
              (rising edge-triggered flip-flop clocked by clk)
  Endpoint: core/fu_CMUL/fu_arch/clk_r_REG944_S14
            (rising edge-triggered flip-flop clocked by clk)
  Path Group: clk
  Path Type: max

  Point                                                   Incr       Path
  --------------------------------------------------------------------------
  clock clk (rise edge)                                  0.000      0.000
  clock network delay (ideal)                            0.010      0.010
  core/inst_decoder/clk_r_REG1962_S30/CP (C8T28SOIDV_LL_DFPRQX19_P0)
                                                         0.000      0.010 r
  core/inst_decoder/clk_r_REG1962_S30/Q (C8T28SOIDV_LL_DFPRQX19_P0)
                                                         0.092      0.102 r
  core/inst_decoder/socket_TFG_o1_bus_cntrl[0] (tta0_decoder)
                                                         0.000      0.102 r
  core/ic/socket_TFG_o1_bus_cntrl[0] (tta0_interconn)    0.000      0.102 r
  core/ic/TFG_o1/databus_cntrl[0] (tta0_output_socket_cons_1_1_BUSW_032_DATAW_032_2)
                                                         0.000      0.102 r
  core/ic/TFG_o1/U4/Z (C8T28SOI_LL_AND2X5_P16)           0.056 *    0.158 r
  core/ic/TFG_o1/databus0_alt[17] (tta0_output_socket_cons_1_1_BUSW_032_DATAW_032_2)
                                                         0.000      0.158 r
  core/ic/CMUL_i1/databus0[17] (tta0_input_socket_cons_1_BUSW_032_DATAW32_10)
                                                         0.000      0.158 r
  core/ic/CMUL_i1/U32/Z (C8T28SOI_LL_BFX5_P16)           0.028 *    0.186 r
  core/ic/CMUL_i1/data[17] (tta0_input_socket_cons_1_BUSW_032_DATAW32_10)
                                                         0.000      0.186 r
  core/ic/socket_CMUL_i1_data[17] (tta0_interconn)       0.000      0.186 r
  U288/Z (C8T28SOI_LL_BFX5_P16)                          0.037 *    0.222 r
  core/fu_CMUL/t1data[17] (fu_cmul_always_3_dataw32_busw32)
                                                         0.000      0.222 r
  core/fu_CMUL/fu_arch/A[17] (cmul_pipe_1_dataw32_halfw16)
                                                         0.000      0.222 r
  core/fu_CMUL/fu_arch/U110/Z (C8T28SOI_LL_BFX13_P16)    0.061 *    0.284 r
  core/fu_CMUL/fu_arch/U111/Z (C8T28SOI_LL_IVX14_P16)    0.045 *    0.329 f
  core/fu_CMUL/fu_arch/U1124/Z (C8T28SOI_LL_AOI22X2_P16)
                                                         0.259 *    0.588 r
  core/fu_CMUL/fu_arch/U1132/Z (C8T28SOI_LL_OAI211X9_P16)
                                                         0.205 *    0.793 f
  core/fu_CMUL/fu_arch/U1787/Z (C8T28SOI_LL_OAI22X3_P16)
                                                         0.100 *    0.893 r
  core/fu_CMUL/fu_arch/U1804/S0 (C8T28SOIDV_LL_FA1X5_P16)
                                                         0.126 *    1.019 f
  core/fu_CMUL/fu_arch/U1818/CO (C8T28SOIDV_LLS1_FA1X4_P16)
                                                         0.058 *    1.077 f
  core/fu_CMUL/fu_arch/U1805/S0 (C8T28SOIDV_LLS1_FA1X4_P16)
                                                         0.115 *    1.192 f
  core/fu_CMUL/fu_arch/U1820/Z (C8T28SOIDV_LL_PAO2X10_P16)
                                                         0.064 *    1.256 f
  core/fu_CMUL/fu_arch/U1821/Z (C8T28SOIDV_LL_PAO2X10_P16)
                                                         0.063 *    1.318 f
  core/fu_CMUL/fu_arch/U1822/Z (C8T28SOIDV_LL_PAO2X14_P16)
                                                         0.049 *    1.367 f
  core/fu_CMUL/fu_arch/U1823/Z (C8T28SOIDV_LL_PAO2X10_P16)
                                                         0.055 *    1.422 f
  core/fu_CMUL/fu_arch/U1824/Z (C8T28SOIDV_LL_PAO2X10_P16)
                                                         0.055 *    1.478 f
  core/fu_CMUL/fu_arch/U1825/Z (C8T28SOIDV_LL_PAO2X10_P16)
                                                         0.058 *    1.536 f
  core/fu_CMUL/fu_arch/U1826/Z (C8T28SOIDV_LL_PAO2X14_P16)
                                                         0.051 *    1.587 f
  core/fu_CMUL/fu_arch/U1827/Z (C8T28SOIDV_LL_PAO2X14_P16)
                                                         0.050 *    1.637 f
  core/fu_CMUL/fu_arch/U1828/Z (C8T28SOIDV_LL_PAO2X14_P16)
                                                         0.048 *    1.686 f
  core/fu_CMUL/fu_arch/U1829/Z (C8T28SOIDV_LL_PAO2X10_P16)
                                                         0.058 *    1.743 f
  core/fu_CMUL/fu_arch/U1830/Z (C8T28SOIDV_LL_PAO2X14_P16)
                                                         0.051 *    1.794 f
  core/fu_CMUL/fu_arch/U2049/CO (C8T28SOIDV_LLS1_FA1X4_P16)
                                                         0.049 *    1.843 f
  core/fu_CMUL/fu_arch/U1831/CO (C8T28SOIDV_LLS1_FA1X4_P16)
                                                         0.058 *    1.901 f
  core/fu_CMUL/fu_arch/U2027/CO (C8T28SOIDV_LLS1_FA1X4_P16)
                                                         0.057 *    1.958 f
  core/fu_CMUL/fu_arch/U1832/CO (C8T28SOIDV_LLS1_FA1X4_P16)
                                                         0.056 *    2.014 f
  core/fu_CMUL/fu_arch/U2024/CO (C8T28SOIDV_LLS1_FA1X4_P16)
                                                         0.056 *    2.071 f
  core/fu_CMUL/fu_arch/U1896/CO (C8T28SOIDV_LLS1_FA1X4_P16)
                                                         0.056 *    2.127 f
  core/fu_CMUL/fu_arch/U2025/CO (C8T28SOIDV_LLS1_FA1X4_P16)
                                                         0.056 *    2.183 f
  core/fu_CMUL/fu_arch/U1997/CO (C8T28SOIDV_LLS1_FA1X4_P16)
                                                         0.057 *    2.240 f
  core/fu_CMUL/fu_arch/U2039/CO (C8T28SOIDV_LLS1_FA1X4_P16)
                                                         0.057 *    2.297 f
  core/fu_CMUL/fu_arch/U1998/CO (C8T28SOIDV_LLS1_FA1X4_P16)
                                                         0.056 *    2.353 f
  core/fu_CMUL/fu_arch/U2053/CO (C8T28SOIDV_LLS1_FA1X4_P16)
                                                         0.057 *    2.410 f
  core/fu_CMUL/fu_arch/U2026/CO (C8T28SOIDV_LLS1_FA1X4_P16)
                                                         0.057 *    2.467 f
  core/fu_CMUL/fu_arch/U2038/CO (C8T28SOIDV_LLS1_FA1X4_P16)
                                                         0.056 *    2.524 f
  core/fu_CMUL/fu_arch/U2048/CO (C8T28SOIDV_LLS1_FA1X4_P16)
                                                         0.057 *    2.580 f
  core/fu_CMUL/fu_arch/U2070/CO (C8T28SOIDV_LLS1_FA1X4_P16)
                                                         0.057 *    2.637 f
  core/fu_CMUL/fu_arch/U2075/CO (C8T28SOIDV_LLS1_FA1X4_P16)
                                                         0.057 *    2.694 f
  core/fu_CMUL/fu_arch/U2076/S0 (C8T28SOIDV_LLS1_FA1X4_P16)
                                                         0.066 *    2.760 r
  core/fu_CMUL/fu_arch/U2077/Z (C8T28SOI_LL_AOI12X3_P16)
                                                         0.017 *    2.777 f
  core/fu_CMUL/fu_arch/clk_r_REG944_S14/D (C8T28SOIDV_LL_DFPRQX10_P16)
                                                         0.000 *    2.777 f
  data arrival time                                                 2.777

  clock clk (rise edge)                                  2.857      2.857
  clock network delay (ideal)                            0.010      2.867
  clock uncertainty                                     -0.010      2.857
  core/fu_CMUL/fu_arch/clk_r_REG944_S14/CP (C8T28SOIDV_LL_DFPRQX10_P16)
                                                         0.000      2.857 r
  library setup time                                    -0.042      2.815
  data required time                                                2.815
  --------------------------------------------------------------------------
  data required time                                                2.815
  data arrival time                                                -2.777
  --------------------------------------------------------------------------
  slack (MET)                                                       0.038


  Startpoint: core/fu_AG/fu_arch/clk_r_REG83_S14
              (rising edge-triggered flip-flop clocked by clk)
  Endpoint: core/fu_AG/fu_arch/add_x_5/clk_r_REG1610_S26
            (rising edge-triggered flip-flop clocked by clk)
  Path Group: clk
  Path Type: max

  Point                                                   Incr       Path
  --------------------------------------------------------------------------
  clock clk (rise edge)                                  0.000      0.000
  clock network delay (ideal)                            0.010      0.010
  core/fu_AG/fu_arch/clk_r_REG83_S14/CP (C8T28SOIDV_LL_DFPRQX10_P16)
                                                         0.000      0.010 r
  core/fu_AG/fu_arch/clk_r_REG83_S14/Q (C8T28SOIDV_LL_DFPRQX10_P16)
                                                         0.088      0.098 f
  core/fu_AG/fu_arch/u0/nexp_i[3] (idx_stage_split_dataw32_nexpw4_stagew3_idxw16_0)
                                                         0.000      0.098 f
  core/fu_AG/fu_arch/u0/U4/Z (C8T28SOI_LL_IVX3_P16)      0.061 *    0.159 r
  core/fu_AG/fu_arch/u0/U5/Z (C8T28SOI_LL_NAND2X4_P16)
                                                         0.062 *    0.221 f
  core/fu_AG/fu_arch/u0/U6/Z (C8T28SOI_LL_IVX3_P16)      0.060 *    0.281 r
  core/fu_AG/fu_arch/u0/U10/Z (C8T28SOI_LL_NAND2X2_P16)
                                                         0.052 *    0.333 f
  core/fu_AG/fu_arch/u0/U53/Z (C8T28SOI_LL_OAI22X3_P16)
                                                         0.055 *    0.388 r
  core/fu_AG/fu_arch/u0/U54/Z (C8T28SOI_LL_CBI4I6X3_P16)
                                                         0.027 *    0.415 f
  core/fu_AG/fu_arch/u0/U60/Z (C8T28SOI_LL_OA112X4_P16)
                                                         0.065 *    0.480 f
  core/fu_AG/fu_arch/u0/stage_o[0] (idx_stage_split_dataw32_nexpw4_stagew3_idxw16_0)
                                                         0.000      0.480 f
  core/fu_AG/fu_arch/U18/Z (C8T28SOI_LL_NAND2X2_P16)     0.029 *    0.508 r
  core/fu_AG/fu_arch/U53/Z (C8T28SOI_LL_IVX3_P16)        0.028 *    0.536 f
  core/fu_AG/fu_arch/U55/CO (C8T28SOIDV_LL_FA1X5_P16)    0.068 *    0.605 f
  core/fu_AG/fu_arch/U56/Z (C8T28SOI_LL_BFX5_P16)        0.039 *    0.644 f
  core/fu_AG/fu_arch/U61/Z (C8T28SOI_LL_OAI12X3_P16)     0.044 *    0.688 r
  core/fu_AG/fu_arch/U71/Z (C8T28SOI_LL_NOR2AX4_P16)     0.076 *    0.764 r
  core/fu_AG/fu_arch/U72/Z (C8T28SOI_LL_IVX3_P16)        0.041 *    0.806 f
  core/fu_AG/fu_arch/U73/Z (C8T28SOI_LL_NOR2X4_P16)      0.110 *    0.916 r
  core/fu_AG/fu_arch/U44/Z (C8T28SOI_LL_IVX3_P16)        0.113 *    1.029 f
  core/fu_AG/fu_arch/U128/Z (C8T28SOI_LL_AOI13X3_P16)    0.067 *    1.096 r
  core/fu_AG/fu_arch/U132/Z (C8T28SOI_LL_AOI112X3_P16)
                                                         0.041 *    1.137 f
  core/fu_AG/fu_arch/U140/Z (C8T28SOI_LL_AO212X5_P16)    0.131 *    1.268 f
  core/fu_AG/fu_arch/U194/Z (C8T28SOI_LL_NAND2AX2_P16)
                                                         0.051 *    1.319 f
  core/fu_AG/fu_arch/U214/Z (C8T28SOI_LL_NOR2X2_P16)     0.045 *    1.364 r
  core/fu_AG/fu_arch/U216/Z (C8T28SOI_LL_NOR2X4_P16)     0.030 *    1.395 f
  core/fu_AG/fu_arch/U281/CO (C8T28SOIDV_LL_FA1X5_P16)
                                                         0.075 *    1.469 f
  core/fu_AG/fu_arch/U278/CO (C8T28SOIDV_LL_FA1X5_P16)
                                                         0.078 *    1.547 f
  core/fu_AG/fu_arch/U275/CO (C8T28SOIDV_LL_FA1X5_P16)
                                                         0.079 *    1.626 f
  core/fu_AG/fu_arch/U271/CO (C8T28SOIDV_LL_FA1X5_P16)
                                                         0.078 *    1.704 f
  core/fu_AG/fu_arch/U264/CO (C8T28SOIDV_LL_FA1X5_P16)
                                                         0.078 *    1.782 f
  core/fu_AG/fu_arch/U261/S0 (C8T28SOIDV_LL_FA1X5_P16)
                                                         0.075 *    1.857 f
  core/fu_AG/fu_arch/U262/Z (C8T28SOI_LL_AOI112X3_P16)
                                                         0.052 *    1.909 r
  core/fu_AG/fu_arch/U263/Z (C8T28SOI_LL_AOI22X2_P16)    0.048 *    1.958 f
  core/fu_AG/fu_arch/U294/CO (C8T28SOIDV_LL_FA1X5_P16)
                                                         0.104 *    2.062 f
  core/fu_AG/fu_arch/U293/CO (C8T28SOIDV_LL_FA1X5_P16)
                                                         0.077 *    2.139 f
  core/fu_AG/fu_arch/U292/CO (C8T28SOIDV_LL_FA1X5_P16)
                                                         0.077 *    2.216 f
  core/fu_AG/fu_arch/U291/CO (C8T28SOIDV_LL_FA1X5_P16)
                                                         0.077 *    2.293 f
  core/fu_AG/fu_arch/U290/CO (C8T28SOIDV_LL_FA1X5_P16)
                                                         0.077 *    2.369 f
  core/fu_AG/fu_arch/U289/CO (C8T28SOIDV_LL_FA1X5_P16)
                                                         0.076 *    2.446 f
  core/fu_AG/fu_arch/U288/CO (C8T28SOIDV_LL_FA1X5_P16)
                                                         0.076 *    2.522 f
  core/fu_AG/fu_arch/U287/CO (C8T28SOIDV_LL_FA1X5_P16)
                                                         0.077 *    2.599 f
  core/fu_AG/fu_arch/U286/CO (C8T28SOIDV_LL_FA1X5_P16)
                                                         0.073 *    2.672 f
  core/fu_AG/fu_arch/U285/CO (C8T28SOI_LL_HA1X5_P16)     0.049 *    2.720 f
  core/fu_AG/fu_arch/U284/CO (C8T28SOI_LL_HA1X5_P16)     0.044 *    2.764 f
  core/fu_AG/fu_arch/add_x_5/clk_r_REG1610_S26/D (C8T28SOIDV_LL_DFPRQX10_P16)
                                                         0.000 *    2.764 f
  data arrival time                                                 2.764

  clock clk (rise edge)                                  2.857      2.857
  clock network delay (ideal)                            0.010      2.867
  clock uncertainty                                     -0.010      2.857
  core/fu_AG/fu_arch/add_x_5/clk_r_REG1610_S26/CP (C8T28SOIDV_LL_DFPRQX10_P16)
                                                         0.000      2.857 r
  library setup time                                    -0.042      2.815
  data required time                                                2.815
  --------------------------------------------------------------------------
  data required time                                                2.815
  data arrival time                                                -2.764
  --------------------------------------------------------------------------
  slack (MET)                                                       0.051


  Startpoint: core/inst_decoder/clk_r_REG1962_S30
              (rising edge-triggered flip-flop clocked by clk)
  Endpoint: core/fu_CMUL/fu_arch/clk_r_REG947_S14
            (rising edge-triggered flip-flop clocked by clk)
  Path Group: clk
  Path Type: max

  Point                                                   Incr       Path
  --------------------------------------------------------------------------
  clock clk (rise edge)                                  0.000      0.000
  clock network delay (ideal)                            0.010      0.010
  core/inst_decoder/clk_r_REG1962_S30/CP (C8T28SOIDV_LL_DFPRQX19_P0)
                                                         0.000      0.010 r
  core/inst_decoder/clk_r_REG1962_S30/Q (C8T28SOIDV_LL_DFPRQX19_P0)
                                                         0.092      0.102 r
  core/inst_decoder/socket_TFG_o1_bus_cntrl[0] (tta0_decoder)
                                                         0.000      0.102 r
  core/ic/socket_TFG_o1_bus_cntrl[0] (tta0_interconn)    0.000      0.102 r
  core/ic/TFG_o1/databus_cntrl[0] (tta0_output_socket_cons_1_1_BUSW_032_DATAW_032_2)
                                                         0.000      0.102 r
  core/ic/TFG_o1/U4/Z (C8T28SOI_LL_AND2X5_P16)           0.056 *    0.158 r
  core/ic/TFG_o1/databus0_alt[17] (tta0_output_socket_cons_1_1_BUSW_032_DATAW_032_2)
                                                         0.000      0.158 r
  core/ic/CMUL_i1/databus0[17] (tta0_input_socket_cons_1_BUSW_032_DATAW32_10)
                                                         0.000      0.158 r
  core/ic/CMUL_i1/U32/Z (C8T28SOI_LL_BFX5_P16)           0.028 *    0.186 r
  core/ic/CMUL_i1/data[17] (tta0_input_socket_cons_1_BUSW_032_DATAW32_10)
                                                         0.000      0.186 r
  core/ic/socket_CMUL_i1_data[17] (tta0_interconn)       0.000      0.186 r
  U288/Z (C8T28SOI_LL_BFX5_P16)                          0.037 *    0.222 r
  core/fu_CMUL/t1data[17] (fu_cmul_always_3_dataw32_busw32)
                                                         0.000      0.222 r
  core/fu_CMUL/fu_arch/A[17] (cmul_pipe_1_dataw32_halfw16)
                                                         0.000      0.222 r
  core/fu_CMUL/fu_arch/U110/Z (C8T28SOI_LL_BFX13_P16)    0.061 *    0.284 r
  core/fu_CMUL/fu_arch/U111/Z (C8T28SOI_LL_IVX14_P16)    0.045 *    0.329 f
  core/fu_CMUL/fu_arch/U1124/Z (C8T28SOI_LL_AOI22X2_P16)
                                                         0.259 *    0.588 r
  core/fu_CMUL/fu_arch/U1132/Z (C8T28SOI_LL_OAI211X9_P16)
                                                         0.205 *    0.793 f
  core/fu_CMUL/fu_arch/U1787/Z (C8T28SOI_LL_OAI22X3_P16)
                                                         0.100 *    0.893 r
  core/fu_CMUL/fu_arch/U1804/S0 (C8T28SOIDV_LL_FA1X5_P16)
                                                         0.126 *    1.019 f
  core/fu_CMUL/fu_arch/U1818/CO (C8T28SOIDV_LLS1_FA1X4_P16)
                                                         0.058 *    1.077 f
  core/fu_CMUL/fu_arch/U1805/S0 (C8T28SOIDV_LLS1_FA1X4_P16)
                                                         0.115 *    1.192 f
  core/fu_CMUL/fu_arch/U1820/Z (C8T28SOIDV_LL_PAO2X10_P16)
                                                         0.064 *    1.256 f
  core/fu_CMUL/fu_arch/U1821/Z (C8T28SOIDV_LL_PAO2X10_P16)
                                                         0.063 *    1.318 f
  core/fu_CMUL/fu_arch/U1822/Z (C8T28SOIDV_LL_PAO2X14_P16)
                                                         0.049 *    1.367 f
  core/fu_CMUL/fu_arch/U1823/Z (C8T28SOIDV_LL_PAO2X10_P16)
                                                         0.055 *    1.422 f
  core/fu_CMUL/fu_arch/U1824/Z (C8T28SOIDV_LL_PAO2X10_P16)
                                                         0.055 *    1.478 f
  core/fu_CMUL/fu_arch/U1825/Z (C8T28SOIDV_LL_PAO2X10_P16)
                                                         0.058 *    1.536 f
  core/fu_CMUL/fu_arch/U1826/Z (C8T28SOIDV_LL_PAO2X14_P16)
                                                         0.051 *    1.587 f
  core/fu_CMUL/fu_arch/U1827/Z (C8T28SOIDV_LL_PAO2X14_P16)
                                                         0.050 *    1.637 f
  core/fu_CMUL/fu_arch/U1828/Z (C8T28SOIDV_LL_PAO2X14_P16)
                                                         0.048 *    1.686 f
  core/fu_CMUL/fu_arch/U1829/Z (C8T28SOIDV_LL_PAO2X10_P16)
                                                         0.058 *    1.743 f
  core/fu_CMUL/fu_arch/U1830/Z (C8T28SOIDV_LL_PAO2X14_P16)
                                                         0.051 *    1.794 f
  core/fu_CMUL/fu_arch/U2049/CO (C8T28SOIDV_LLS1_FA1X4_P16)
                                                         0.049 *    1.843 f
  core/fu_CMUL/fu_arch/U1831/CO (C8T28SOIDV_LLS1_FA1X4_P16)
                                                         0.058 *    1.901 f
  core/fu_CMUL/fu_arch/U2027/CO (C8T28SOIDV_LLS1_FA1X4_P16)
                                                         0.057 *    1.958 f
  core/fu_CMUL/fu_arch/U1832/CO (C8T28SOIDV_LLS1_FA1X4_P16)
                                                         0.056 *    2.014 f
  core/fu_CMUL/fu_arch/U2024/CO (C8T28SOIDV_LLS1_FA1X4_P16)
                                                         0.056 *    2.071 f
  core/fu_CMUL/fu_arch/U1896/CO (C8T28SOIDV_LLS1_FA1X4_P16)
                                                         0.056 *    2.127 f
  core/fu_CMUL/fu_arch/U2025/CO (C8T28SOIDV_LLS1_FA1X4_P16)
                                                         0.056 *    2.183 f
  core/fu_CMUL/fu_arch/U1997/CO (C8T28SOIDV_LLS1_FA1X4_P16)
                                                         0.057 *    2.240 f
  core/fu_CMUL/fu_arch/U2039/CO (C8T28SOIDV_LLS1_FA1X4_P16)
                                                         0.057 *    2.297 f
  core/fu_CMUL/fu_arch/U1998/CO (C8T28SOIDV_LLS1_FA1X4_P16)
                                                         0.056 *    2.353 f
  core/fu_CMUL/fu_arch/U2053/CO (C8T28SOIDV_LLS1_FA1X4_P16)
                                                         0.057 *    2.410 f
  core/fu_CMUL/fu_arch/U2026/CO (C8T28SOIDV_LLS1_FA1X4_P16)
                                                         0.057 *    2.467 f
  core/fu_CMUL/fu_arch/U2038/CO (C8T28SOIDV_LLS1_FA1X4_P16)
                                                         0.056 *    2.524 f
  core/fu_CMUL/fu_arch/U2048/CO (C8T28SOIDV_LLS1_FA1X4_P16)
                                                         0.057 *    2.580 f
  core/fu_CMUL/fu_arch/U2070/CO (C8T28SOIDV_LLS1_FA1X4_P16)
                                                         0.057 *    2.637 f
  core/fu_CMUL/fu_arch/U2075/CO (C8T28SOIDV_LLS1_FA1X4_P16)
                                                         0.057 *    2.694 f
  core/fu_CMUL/fu_arch/U2076/CO (C8T28SOIDV_LLS1_FA1X4_P16)
                                                         0.051 *    2.745 f
  core/fu_CMUL/fu_arch/U2078/Z (C8T28SOI_LL_IVX3_P16)    0.026 *    2.772 r
  core/fu_CMUL/fu_arch/clk_r_REG947_S14/D (C8T28SOIDV_LL_DFPRQX10_P16)
                                                         0.000 *    2.772 r
  data arrival time                                                 2.772

  clock clk (rise edge)                                  2.857      2.857
  clock network delay (ideal)                            0.010      2.867
  clock uncertainty                                     -0.010      2.857
  core/fu_CMUL/fu_arch/clk_r_REG947_S14/CP (C8T28SOIDV_LL_DFPRQX10_P16)
                                                         0.000      2.857 r
  library setup time                                    -0.029      2.828
  data required time                                                2.828
  --------------------------------------------------------------------------
  data required time                                                2.828
  data arrival time                                                -2.772
  --------------------------------------------------------------------------
  slack (MET)                                                       0.056


  Startpoint: datamem/scheduler/addr_b_conv/clk_r_REG2154_S1
              (rising edge-triggered flip-flop clocked by clk)
  Endpoint: datamem/dmem_1/cacti_mem_x_1/mem_32x32
            (rising edge-triggered flip-flop clocked by clk)
  Path Group: clk
  Path Type: max

  Point                                                   Incr       Path
  --------------------------------------------------------------------------
  clock clk (rise edge)                                  0.000      0.000
  clock network delay (ideal)                            0.010      0.010
  datamem/scheduler/addr_b_conv/clk_r_REG2154_S1/CP (C8T28SOIDV_LL_DFPRQX10_P16)
                                                         0.000      0.010 r
  datamem/scheduler/addr_b_conv/clk_r_REG2154_S1/Q (C8T28SOIDV_LL_DFPRQX10_P16)
                                                         0.089      0.099 r
  datamem/scheduler/addr_b_conv/en_out[1]_BAR (ser_par_conv_portw14_port_cnt2_0)
                                                         0.000      0.099 r
  datamem/scheduler/U2/Z (C8T28SOI_LL_NOR2AX4_P16)       0.121 *    0.220 r
  datamem/scheduler/U18/Z (C8T28SOI_LL_BFX5_P16)         0.145 *    0.365 r
  datamem/scheduler/U19/Z (C8T28SOI_LL_IVX5_P16)         0.095 *    0.460 f
  datamem/scheduler/U198/Z (C8T28SOI_LL_AOI22X2_P16)     0.108 *    0.568 r
  datamem/scheduler/U199/Z (C8T28SOI_LL_IVX3_P16)        0.069 *    0.636 f
  datamem/scheduler/addr[20] (par_mem_scheduler_dataw32_addrw14_ports2_rd_delay1)
                                                         0.000      0.636 f
  datamem/par_mem_logic_inst/addrs_from_lsus[20] (par_mem_logic_PORTS2_LSU_ADDRW14_CTRLW1_DATAW32_PM_FUNC2)
                                                         0.000      0.636 f
  datamem/par_mem_logic_inst/addr_crsbar_0/addrs_from_lsus[20] (addr_crsbar_PORTS2_LSU_ADDRW14_CTRLW1_PM_FUNC2)
                                                         0.000      0.636 f
  datamem/par_mem_logic_inst/addr_crsbar_0/U25/Z (C8T28SOI_LL_AOI22X2_P16)
                                                         0.102 *    0.738 r
  datamem/par_mem_logic_inst/addr_crsbar_0/U26/Z (C8T28SOIDV_LLS_XNOR2X4_P16)
                                                         0.082 *    0.820 r
  datamem/par_mem_logic_inst/addr_crsbar_0/U27/Z (C8T28SOI_LL_NAND2X2_P16)
                                                         0.031 *    0.851 f
  datamem/par_mem_logic_inst/addr_crsbar_0/U28/Z (C8T28SOI_LL_OAI12X3_P16)
                                                         0.034 *    0.885 r
  datamem/par_mem_logic_inst/addr_crsbar_0/U37/Z (C8T28SOIDV_LLS_XNOR2X4_P16)
                                                         0.052 *    0.937 r
  datamem/par_mem_logic_inst/addr_crsbar_0/U38/Z (C8T28SOI_LL_NAND2X2_P16)
                                                         0.029 *    0.966 f
  datamem/par_mem_logic_inst/addr_crsbar_0/U39/Z (C8T28SOI_LL_OAI12X3_P16)
                                                         0.034 *    1.000 r
  datamem/par_mem_logic_inst/addr_crsbar_0/U40/Z (C8T28SOIDV_LLS_XNOR2X4_P16)
                                                         0.053 *    1.053 r
  datamem/par_mem_logic_inst/addr_crsbar_0/U41/Z (C8T28SOI_LL_NAND2X2_P16)
                                                         0.033 *    1.086 f
  datamem/par_mem_logic_inst/addr_crsbar_0/U42/Z (C8T28SOI_LL_OAI12X3_P16)
                                                         0.034 *    1.121 r
  datamem/par_mem_logic_inst/addr_crsbar_0/U43/Z (C8T28SOIDV_LLS_XNOR2X4_P16)
                                                         0.054 *    1.175 r
  datamem/par_mem_logic_inst/addr_crsbar_0/U44/Z (C8T28SOI_LL_NAND2X2_P16)
                                                         0.035 *    1.210 f
  datamem/par_mem_logic_inst/addr_crsbar_0/U45/Z (C8T28SOI_LL_OAI12X3_P16)
                                                         0.045 *    1.255 r
  datamem/par_mem_logic_inst/addr_crsbar_0/module_nums[1] (addr_crsbar_PORTS2_LSU_ADDRW14_CTRLW1_PM_FUNC2)
                                                         0.000      1.255 r
  datamem/par_mem_logic_inst/ctrl_units_0/module_nums[1] (ctrl_units_PORTS2_CTRLW1)
                                                         0.000      1.255 r
  datamem/par_mem_logic_inst/ctrl_units_0/ctrl_uniti_1/module_num[0] (ctrl_unit_PORTS2_CTRLW1_0)
                                                         0.000      1.255 r
  datamem/par_mem_logic_inst/ctrl_units_0/ctrl_uniti_1/U4/Z (C8T28SOI_LL_IVX3_P16)
                                                         0.046 *    1.301 f
  datamem/par_mem_logic_inst/ctrl_units_0/ctrl_uniti_1/U5/Z (C8T28SOI_LL_NOR3X7_P16)
                                                         0.180 *    1.481 r
  datamem/par_mem_logic_inst/ctrl_units_0/ctrl_uniti_1/addr_mux_ctrl[0] (ctrl_unit_PORTS2_CTRLW1_0)
                                                         0.000      1.481 r
  datamem/par_mem_logic_inst/ctrl_units_0/addr_mux_ctrls[1] (ctrl_units_PORTS2_CTRLW1)
                                                         0.000      1.481 r
  datamem/par_mem_logic_inst/addr_crsbar_0/ctrl[1] (addr_crsbar_PORTS2_LSU_ADDRW14_CTRLW1_PM_FUNC2)
                                                         0.000      1.481 r
  datamem/par_mem_logic_inst/addr_crsbar_0/U114/Z (C8T28SOI_LL_AOI22X2_P16)
                                                         0.187 *    1.668 f
  datamem/par_mem_logic_inst/addr_crsbar_0/mem_addrs_out[24] (addr_crsbar_PORTS2_LSU_ADDRW14_CTRLW1_PM_FUNC2)
                                                         0.000      1.668 f
  datamem/par_mem_logic_inst/addrs_to_mems[24] (par_mem_logic_PORTS2_LSU_ADDRW14_CTRLW1_DATAW32_PM_FUNC2)
                                                         0.000      1.668 f
  datamem/dmem_1/addr[11] (synch_singleport_mem_wrapper_DATAW32_ADDRW13_1)
                                                         0.000      1.668 f
  datamem/dmem_1/en_wr_arbiter/addr[11] (block_en_wr_arbiter_ADDRW13_NBLOCKS9_1)
                                                         0.000      1.668 f
  datamem/dmem_1/en_wr_arbiter/U9/Z (C8T28SOI_LL_NOR3X3_P16)
                                                         0.138 *    1.807 r
  datamem/dmem_1/en_wr_arbiter/U10/Z (C8T28SOI_LL_NOR2AX4_P16)
                                                         0.112 *    1.919 r
  datamem/dmem_1/en_wr_arbiter/U11/Z (C8T28SOI_LL_NOR2AX4_P16)
                                                         0.097 *    2.015 r
  datamem/dmem_1/en_wr_arbiter/U12/Z (C8T28SOI_LL_NOR2AX4_P16)
                                                         0.094 *    2.110 r
  datamem/dmem_1/en_wr_arbiter/U13/Z (C8T28SOI_LL_NOR2AX4_P16)
                                                         0.104 *    2.214 r
  datamem/dmem_1/en_wr_arbiter/U24/Z (C8T28SOI_LL_NAND3X3_P16)
                                                         0.064 *    2.278 f
  datamem/dmem_1/en_wr_arbiter/en_blocks[1] (block_en_wr_arbiter_ADDRW13_NBLOCKS9_1)
                                                         0.000      2.278 f
  datamem/dmem_1/cacti_mem_x_1/en_x (cacti_mem_wrapper_DATAW32_ADDRW5_2)
                                                         0.000      2.278 f
  datamem/dmem_1/cacti_mem_x_1/mem_32x32/mem_en_x (ram_32x32)
                                                         0.000 *    2.278 f
  data arrival time                                                 2.278

  clock clk (rise edge)                                  2.857      2.857
  clock network delay (ideal)                            0.010      2.867
  clock uncertainty                                     -0.010      2.857
  datamem/dmem_1/cacti_mem_x_1/mem_32x32/clk (ram_32x32)
                                                         0.000      2.857 r
  library setup time                                    -0.519      2.338
  data required time                                                2.338
  --------------------------------------------------------------------------
  data required time                                                2.338
  data arrival time                                                -2.278
  --------------------------------------------------------------------------
  slack (MET)                                                       0.060


  Startpoint: datamem/scheduler/addr_b_conv/clk_r_REG2154_S1
              (rising edge-triggered flip-flop clocked by clk)
  Endpoint: datamem/dmem_1/cacti_mem_0/mem_32x32
            (rising edge-triggered flip-flop clocked by clk)
  Path Group: clk
  Path Type: max

  Point                                                   Incr       Path
  --------------------------------------------------------------------------
  clock clk (rise edge)                                  0.000      0.000
  clock network delay (ideal)                            0.010      0.010
  datamem/scheduler/addr_b_conv/clk_r_REG2154_S1/CP (C8T28SOIDV_LL_DFPRQX10_P16)
                                                         0.000      0.010 r
  datamem/scheduler/addr_b_conv/clk_r_REG2154_S1/Q (C8T28SOIDV_LL_DFPRQX10_P16)
                                                         0.089      0.099 r
  datamem/scheduler/addr_b_conv/en_out[1]_BAR (ser_par_conv_portw14_port_cnt2_0)
                                                         0.000      0.099 r
  datamem/scheduler/U2/Z (C8T28SOI_LL_NOR2AX4_P16)       0.121 *    0.220 r
  datamem/scheduler/U18/Z (C8T28SOI_LL_BFX5_P16)         0.145 *    0.365 r
  datamem/scheduler/U19/Z (C8T28SOI_LL_IVX5_P16)         0.095 *    0.460 f
  datamem/scheduler/U198/Z (C8T28SOI_LL_AOI22X2_P16)     0.108 *    0.568 r
  datamem/scheduler/U199/Z (C8T28SOI_LL_IVX3_P16)        0.069 *    0.636 f
  datamem/scheduler/addr[20] (par_mem_scheduler_dataw32_addrw14_ports2_rd_delay1)
                                                         0.000      0.636 f
  datamem/par_mem_logic_inst/addrs_from_lsus[20] (par_mem_logic_PORTS2_LSU_ADDRW14_CTRLW1_DATAW32_PM_FUNC2)
                                                         0.000      0.636 f
  datamem/par_mem_logic_inst/addr_crsbar_0/addrs_from_lsus[20] (addr_crsbar_PORTS2_LSU_ADDRW14_CTRLW1_PM_FUNC2)
                                                         0.000      0.636 f
  datamem/par_mem_logic_inst/addr_crsbar_0/U25/Z (C8T28SOI_LL_AOI22X2_P16)
                                                         0.102 *    0.738 r
  datamem/par_mem_logic_inst/addr_crsbar_0/U26/Z (C8T28SOIDV_LLS_XNOR2X4_P16)
                                                         0.082 *    0.820 r
  datamem/par_mem_logic_inst/addr_crsbar_0/U27/Z (C8T28SOI_LL_NAND2X2_P16)
                                                         0.031 *    0.851 f
  datamem/par_mem_logic_inst/addr_crsbar_0/U28/Z (C8T28SOI_LL_OAI12X3_P16)
                                                         0.034 *    0.885 r
  datamem/par_mem_logic_inst/addr_crsbar_0/U37/Z (C8T28SOIDV_LLS_XNOR2X4_P16)
                                                         0.052 *    0.937 r
  datamem/par_mem_logic_inst/addr_crsbar_0/U38/Z (C8T28SOI_LL_NAND2X2_P16)
                                                         0.029 *    0.966 f
  datamem/par_mem_logic_inst/addr_crsbar_0/U39/Z (C8T28SOI_LL_OAI12X3_P16)
                                                         0.034 *    1.000 r
  datamem/par_mem_logic_inst/addr_crsbar_0/U40/Z (C8T28SOIDV_LLS_XNOR2X4_P16)
                                                         0.053 *    1.053 r
  datamem/par_mem_logic_inst/addr_crsbar_0/U41/Z (C8T28SOI_LL_NAND2X2_P16)
                                                         0.033 *    1.086 f
  datamem/par_mem_logic_inst/addr_crsbar_0/U42/Z (C8T28SOI_LL_OAI12X3_P16)
                                                         0.034 *    1.121 r
  datamem/par_mem_logic_inst/addr_crsbar_0/U43/Z (C8T28SOIDV_LLS_XNOR2X4_P16)
                                                         0.054 *    1.175 r
  datamem/par_mem_logic_inst/addr_crsbar_0/U44/Z (C8T28SOI_LL_NAND2X2_P16)
                                                         0.035 *    1.210 f
  datamem/par_mem_logic_inst/addr_crsbar_0/U45/Z (C8T28SOI_LL_OAI12X3_P16)
                                                         0.045 *    1.255 r
  datamem/par_mem_logic_inst/addr_crsbar_0/module_nums[1] (addr_crsbar_PORTS2_LSU_ADDRW14_CTRLW1_PM_FUNC2)
                                                         0.000      1.255 r
  datamem/par_mem_logic_inst/ctrl_units_0/module_nums[1] (ctrl_units_PORTS2_CTRLW1)
                                                         0.000      1.255 r
  datamem/par_mem_logic_inst/ctrl_units_0/ctrl_uniti_1/module_num[0] (ctrl_unit_PORTS2_CTRLW1_0)
                                                         0.000      1.255 r
  datamem/par_mem_logic_inst/ctrl_units_0/ctrl_uniti_1/U4/Z (C8T28SOI_LL_IVX3_P16)
                                                         0.046 *    1.301 f
  datamem/par_mem_logic_inst/ctrl_units_0/ctrl_uniti_1/U5/Z (C8T28SOI_LL_NOR3X7_P16)
                                                         0.180 *    1.481 r
  datamem/par_mem_logic_inst/ctrl_units_0/ctrl_uniti_1/addr_mux_ctrl[0] (ctrl_unit_PORTS2_CTRLW1_0)
                                                         0.000      1.481 r
  datamem/par_mem_logic_inst/ctrl_units_0/addr_mux_ctrls[1] (ctrl_units_PORTS2_CTRLW1)
                                                         0.000      1.481 r
  datamem/par_mem_logic_inst/addr_crsbar_0/ctrl[1] (addr_crsbar_PORTS2_LSU_ADDRW14_CTRLW1_PM_FUNC2)
                                                         0.000      1.481 r
  datamem/par_mem_logic_inst/addr_crsbar_0/U114/Z (C8T28SOI_LL_AOI22X2_P16)
                                                         0.187 *    1.668 f
  datamem/par_mem_logic_inst/addr_crsbar_0/mem_addrs_out[24] (addr_crsbar_PORTS2_LSU_ADDRW14_CTRLW1_PM_FUNC2)
                                                         0.000      1.668 f
  datamem/par_mem_logic_inst/addrs_to_mems[24] (par_mem_logic_PORTS2_LSU_ADDRW14_CTRLW1_DATAW32_PM_FUNC2)
                                                         0.000      1.668 f
  datamem/dmem_1/addr[11] (synch_singleport_mem_wrapper_DATAW32_ADDRW13_1)
                                                         0.000      1.668 f
  datamem/dmem_1/en_wr_arbiter/addr[11] (block_en_wr_arbiter_ADDRW13_NBLOCKS9_1)
                                                         0.000      1.668 f
  datamem/dmem_1/en_wr_arbiter/U9/Z (C8T28SOI_LL_NOR3X3_P16)
                                                         0.138 *    1.807 r
  datamem/dmem_1/en_wr_arbiter/U10/Z (C8T28SOI_LL_NOR2AX4_P16)
                                                         0.112 *    1.919 r
  datamem/dmem_1/en_wr_arbiter/U11/Z (C8T28SOI_LL_NOR2AX4_P16)
                                                         0.097 *    2.015 r
  datamem/dmem_1/en_wr_arbiter/U12/Z (C8T28SOI_LL_NOR2AX4_P16)
                                                         0.094 *    2.110 r
  datamem/dmem_1/en_wr_arbiter/U13/Z (C8T28SOI_LL_NOR2AX4_P16)
                                                         0.104 *    2.214 r
  datamem/dmem_1/en_wr_arbiter/U23/Z (C8T28SOI_LL_NAND3X3_P16)
                                                         0.064 *    2.278 f
  datamem/dmem_1/en_wr_arbiter/en_blocks[0] (block_en_wr_arbiter_ADDRW13_NBLOCKS9_1)
                                                         0.000      2.278 f
  datamem/dmem_1/cacti_mem_0/en_x (cacti_mem_wrapper_DATAW32_ADDRW5_3)
                                                         0.000      2.278 f
  datamem/dmem_1/cacti_mem_0/mem_32x32/mem_en_x (ram_32x32)
                                                         0.000 *    2.278 f
  data arrival time                                                 2.278

  clock clk (rise edge)                                  2.857      2.857
  clock network delay (ideal)                            0.010      2.867
  clock uncertainty                                     -0.010      2.857
  datamem/dmem_1/cacti_mem_0/mem_32x32/clk (ram_32x32)
                                                         0.000      2.857 r
  library setup time                                    -0.518      2.339
  data required time                                                2.339
  --------------------------------------------------------------------------
  data required time                                                2.339
  data arrival time                                                -2.278
  --------------------------------------------------------------------------
  slack (MET)                                                       0.061


  Startpoint: datamem/scheduler/addr_b_conv/clk_r_REG2154_S1
              (rising edge-triggered flip-flop clocked by clk)
  Endpoint: datamem/dmem_1/cacti_mem_x_1/mem_32x32
            (rising edge-triggered flip-flop clocked by clk)
  Path Group: clk
  Path Type: max

  Point                                                   Incr       Path
  --------------------------------------------------------------------------
  clock clk (rise edge)                                  0.000      0.000
  clock network delay (ideal)                            0.010      0.010
  datamem/scheduler/addr_b_conv/clk_r_REG2154_S1/CP (C8T28SOIDV_LL_DFPRQX10_P16)
                                                         0.000      0.010 r
  datamem/scheduler/addr_b_conv/clk_r_REG2154_S1/Q (C8T28SOIDV_LL_DFPRQX10_P16)
                                                         0.089      0.099 r
  datamem/scheduler/addr_b_conv/en_out[1]_BAR (ser_par_conv_portw14_port_cnt2_0)
                                                         0.000      0.099 r
  datamem/scheduler/U2/Z (C8T28SOI_LL_NOR2AX4_P16)       0.121 *    0.220 r
  datamem/scheduler/U18/Z (C8T28SOI_LL_BFX5_P16)         0.145 *    0.365 r
  datamem/scheduler/U19/Z (C8T28SOI_LL_IVX5_P16)         0.095 *    0.460 f
  datamem/scheduler/U198/Z (C8T28SOI_LL_AOI22X2_P16)     0.108 *    0.568 r
  datamem/scheduler/U199/Z (C8T28SOI_LL_IVX3_P16)        0.069 *    0.636 f
  datamem/scheduler/addr[20] (par_mem_scheduler_dataw32_addrw14_ports2_rd_delay1)
                                                         0.000      0.636 f
  datamem/par_mem_logic_inst/addrs_from_lsus[20] (par_mem_logic_PORTS2_LSU_ADDRW14_CTRLW1_DATAW32_PM_FUNC2)
                                                         0.000      0.636 f
  datamem/par_mem_logic_inst/addr_crsbar_0/addrs_from_lsus[20] (addr_crsbar_PORTS2_LSU_ADDRW14_CTRLW1_PM_FUNC2)
                                                         0.000      0.636 f
  datamem/par_mem_logic_inst/addr_crsbar_0/U25/Z (C8T28SOI_LL_AOI22X2_P16)
                                                         0.102 *    0.738 r
  datamem/par_mem_logic_inst/addr_crsbar_0/U26/Z (C8T28SOIDV_LLS_XNOR2X4_P16)
                                                         0.082 *    0.820 r
  datamem/par_mem_logic_inst/addr_crsbar_0/U27/Z (C8T28SOI_LL_NAND2X2_P16)
                                                         0.031 *    0.851 f
  datamem/par_mem_logic_inst/addr_crsbar_0/U28/Z (C8T28SOI_LL_OAI12X3_P16)
                                                         0.034 *    0.885 r
  datamem/par_mem_logic_inst/addr_crsbar_0/U37/Z (C8T28SOIDV_LLS_XNOR2X4_P16)
                                                         0.052 *    0.937 r
  datamem/par_mem_logic_inst/addr_crsbar_0/U38/Z (C8T28SOI_LL_NAND2X2_P16)
                                                         0.029 *    0.966 f
  datamem/par_mem_logic_inst/addr_crsbar_0/U39/Z (C8T28SOI_LL_OAI12X3_P16)
                                                         0.034 *    1.000 r
  datamem/par_mem_logic_inst/addr_crsbar_0/U40/Z (C8T28SOIDV_LLS_XNOR2X4_P16)
                                                         0.053 *    1.053 r
  datamem/par_mem_logic_inst/addr_crsbar_0/U41/Z (C8T28SOI_LL_NAND2X2_P16)
                                                         0.033 *    1.086 f
  datamem/par_mem_logic_inst/addr_crsbar_0/U42/Z (C8T28SOI_LL_OAI12X3_P16)
                                                         0.034 *    1.121 r
  datamem/par_mem_logic_inst/addr_crsbar_0/U43/Z (C8T28SOIDV_LLS_XNOR2X4_P16)
                                                         0.054 *    1.175 r
  datamem/par_mem_logic_inst/addr_crsbar_0/U44/Z (C8T28SOI_LL_NAND2X2_P16)
                                                         0.035 *    1.210 f
  datamem/par_mem_logic_inst/addr_crsbar_0/U45/Z (C8T28SOI_LL_OAI12X3_P16)
                                                         0.045 *    1.255 r
  datamem/par_mem_logic_inst/addr_crsbar_0/module_nums[1] (addr_crsbar_PORTS2_LSU_ADDRW14_CTRLW1_PM_FUNC2)
                                                         0.000      1.255 r
  datamem/par_mem_logic_inst/ctrl_units_0/module_nums[1] (ctrl_units_PORTS2_CTRLW1)
                                                         0.000      1.255 r
  datamem/par_mem_logic_inst/ctrl_units_0/ctrl_uniti_1/module_num[0] (ctrl_unit_PORTS2_CTRLW1_0)
                                                         0.000      1.255 r
  datamem/par_mem_logic_inst/ctrl_units_0/ctrl_uniti_1/U4/Z (C8T28SOI_LL_IVX3_P16)
                                                         0.046 *    1.301 f
  datamem/par_mem_logic_inst/ctrl_units_0/ctrl_uniti_1/U5/Z (C8T28SOI_LL_NOR3X7_P16)
                                                         0.180 *    1.481 r
  datamem/par_mem_logic_inst/ctrl_units_0/ctrl_uniti_1/addr_mux_ctrl[0] (ctrl_unit_PORTS2_CTRLW1_0)
                                                         0.000      1.481 r
  datamem/par_mem_logic_inst/ctrl_units_0/addr_mux_ctrls[1] (ctrl_units_PORTS2_CTRLW1)
                                                         0.000      1.481 r
  datamem/par_mem_logic_inst/addr_crsbar_0/ctrl[1] (addr_crsbar_PORTS2_LSU_ADDRW14_CTRLW1_PM_FUNC2)
                                                         0.000      1.481 r
  datamem/par_mem_logic_inst/addr_crsbar_0/U114/Z (C8T28SOI_LL_AOI22X2_P16)
                                                         0.187 *    1.668 f
  datamem/par_mem_logic_inst/addr_crsbar_0/mem_addrs_out[24] (addr_crsbar_PORTS2_LSU_ADDRW14_CTRLW1_PM_FUNC2)
                                                         0.000      1.668 f
  datamem/par_mem_logic_inst/addrs_to_mems[24] (par_mem_logic_PORTS2_LSU_ADDRW14_CTRLW1_DATAW32_PM_FUNC2)
                                                         0.000      1.668 f
  datamem/dmem_1/addr[11] (synch_singleport_mem_wrapper_DATAW32_ADDRW13_1)
                                                         0.000      1.668 f
  datamem/dmem_1/en_wr_arbiter/addr[11] (block_en_wr_arbiter_ADDRW13_NBLOCKS9_1)
                                                         0.000      1.668 f
  datamem/dmem_1/en_wr_arbiter/U9/Z (C8T28SOI_LL_NOR3X3_P16)
                                                         0.138 *    1.807 r
  datamem/dmem_1/en_wr_arbiter/U10/Z (C8T28SOI_LL_NOR2AX4_P16)
                                                         0.112 *    1.919 r
  datamem/dmem_1/en_wr_arbiter/U11/Z (C8T28SOI_LL_NOR2AX4_P16)
                                                         0.097 *    2.015 r
  datamem/dmem_1/en_wr_arbiter/U12/Z (C8T28SOI_LL_NOR2AX4_P16)
                                                         0.094 *    2.110 r
  datamem/dmem_1/en_wr_arbiter/U13/Z (C8T28SOI_LL_NOR2AX4_P16)
                                                         0.104 *    2.214 r
  datamem/dmem_1/en_wr_arbiter/U16/Z (C8T28SOI_LL_NAND3X3_P16)
                                                         0.054 *    2.268 f
  datamem/dmem_1/en_wr_arbiter/wr_blocks[1] (block_en_wr_arbiter_ADDRW13_NBLOCKS9_1)
                                                         0.000      2.268 f
  datamem/dmem_1/cacti_mem_x_1/wr_x (cacti_mem_wrapper_DATAW32_ADDRW5_2)
                                                         0.000      2.268 f
  datamem/dmem_1/cacti_mem_x_1/mem_32x32/wr_en_x (ram_32x32)
                                                         0.000 *    2.268 f
  data arrival time                                                 2.268

  clock clk (rise edge)                                  2.857      2.857
  clock network delay (ideal)                            0.010      2.867
  clock uncertainty                                     -0.010      2.857
  datamem/dmem_1/cacti_mem_x_1/mem_32x32/clk (ram_32x32)
                                                         0.000      2.857 r
  library setup time                                    -0.517      2.340
  data required time                                                2.340
  --------------------------------------------------------------------------
  data required time                                                2.340
  data arrival time                                                -2.268
  --------------------------------------------------------------------------
  slack (MET)                                                       0.072


  Startpoint: datamem/scheduler/addr_b_conv/clk_r_REG2154_S1
              (rising edge-triggered flip-flop clocked by clk)
  Endpoint: datamem/dmem_1/cacti_mem_0/mem_32x32
            (rising edge-triggered flip-flop clocked by clk)
  Path Group: clk
  Path Type: max

  Point                                                   Incr       Path
  --------------------------------------------------------------------------
  clock clk (rise edge)                                  0.000      0.000
  clock network delay (ideal)                            0.010      0.010
  datamem/scheduler/addr_b_conv/clk_r_REG2154_S1/CP (C8T28SOIDV_LL_DFPRQX10_P16)
                                                         0.000      0.010 r
  datamem/scheduler/addr_b_conv/clk_r_REG2154_S1/Q (C8T28SOIDV_LL_DFPRQX10_P16)
                                                         0.089      0.099 r
  datamem/scheduler/addr_b_conv/en_out[1]_BAR (ser_par_conv_portw14_port_cnt2_0)
                                                         0.000      0.099 r
  datamem/scheduler/U2/Z (C8T28SOI_LL_NOR2AX4_P16)       0.121 *    0.220 r
  datamem/scheduler/U18/Z (C8T28SOI_LL_BFX5_P16)         0.145 *    0.365 r
  datamem/scheduler/U19/Z (C8T28SOI_LL_IVX5_P16)         0.095 *    0.460 f
  datamem/scheduler/U198/Z (C8T28SOI_LL_AOI22X2_P16)     0.108 *    0.568 r
  datamem/scheduler/U199/Z (C8T28SOI_LL_IVX3_P16)        0.069 *    0.636 f
  datamem/scheduler/addr[20] (par_mem_scheduler_dataw32_addrw14_ports2_rd_delay1)
                                                         0.000      0.636 f
  datamem/par_mem_logic_inst/addrs_from_lsus[20] (par_mem_logic_PORTS2_LSU_ADDRW14_CTRLW1_DATAW32_PM_FUNC2)
                                                         0.000      0.636 f
  datamem/par_mem_logic_inst/addr_crsbar_0/addrs_from_lsus[20] (addr_crsbar_PORTS2_LSU_ADDRW14_CTRLW1_PM_FUNC2)
                                                         0.000      0.636 f
  datamem/par_mem_logic_inst/addr_crsbar_0/U25/Z (C8T28SOI_LL_AOI22X2_P16)
                                                         0.102 *    0.738 r
  datamem/par_mem_logic_inst/addr_crsbar_0/U26/Z (C8T28SOIDV_LLS_XNOR2X4_P16)
                                                         0.082 *    0.820 r
  datamem/par_mem_logic_inst/addr_crsbar_0/U27/Z (C8T28SOI_LL_NAND2X2_P16)
                                                         0.031 *    0.851 f
  datamem/par_mem_logic_inst/addr_crsbar_0/U28/Z (C8T28SOI_LL_OAI12X3_P16)
                                                         0.034 *    0.885 r
  datamem/par_mem_logic_inst/addr_crsbar_0/U37/Z (C8T28SOIDV_LLS_XNOR2X4_P16)
                                                         0.052 *    0.937 r
  datamem/par_mem_logic_inst/addr_crsbar_0/U38/Z (C8T28SOI_LL_NAND2X2_P16)
                                                         0.029 *    0.966 f
  datamem/par_mem_logic_inst/addr_crsbar_0/U39/Z (C8T28SOI_LL_OAI12X3_P16)
                                                         0.034 *    1.000 r
  datamem/par_mem_logic_inst/addr_crsbar_0/U40/Z (C8T28SOIDV_LLS_XNOR2X4_P16)
                                                         0.053 *    1.053 r
  datamem/par_mem_logic_inst/addr_crsbar_0/U41/Z (C8T28SOI_LL_NAND2X2_P16)
                                                         0.033 *    1.086 f
  datamem/par_mem_logic_inst/addr_crsbar_0/U42/Z (C8T28SOI_LL_OAI12X3_P16)
                                                         0.034 *    1.121 r
  datamem/par_mem_logic_inst/addr_crsbar_0/U43/Z (C8T28SOIDV_LLS_XNOR2X4_P16)
                                                         0.054 *    1.175 r
  datamem/par_mem_logic_inst/addr_crsbar_0/U44/Z (C8T28SOI_LL_NAND2X2_P16)
                                                         0.035 *    1.210 f
  datamem/par_mem_logic_inst/addr_crsbar_0/U45/Z (C8T28SOI_LL_OAI12X3_P16)
                                                         0.045 *    1.255 r
  datamem/par_mem_logic_inst/addr_crsbar_0/module_nums[1] (addr_crsbar_PORTS2_LSU_ADDRW14_CTRLW1_PM_FUNC2)
                                                         0.000      1.255 r
  datamem/par_mem_logic_inst/ctrl_units_0/module_nums[1] (ctrl_units_PORTS2_CTRLW1)
                                                         0.000      1.255 r
  datamem/par_mem_logic_inst/ctrl_units_0/ctrl_uniti_1/module_num[0] (ctrl_unit_PORTS2_CTRLW1_0)
                                                         0.000      1.255 r
  datamem/par_mem_logic_inst/ctrl_units_0/ctrl_uniti_1/U4/Z (C8T28SOI_LL_IVX3_P16)
                                                         0.046 *    1.301 f
  datamem/par_mem_logic_inst/ctrl_units_0/ctrl_uniti_1/U5/Z (C8T28SOI_LL_NOR3X7_P16)
                                                         0.180 *    1.481 r
  datamem/par_mem_logic_inst/ctrl_units_0/ctrl_uniti_1/addr_mux_ctrl[0] (ctrl_unit_PORTS2_CTRLW1_0)
                                                         0.000      1.481 r
  datamem/par_mem_logic_inst/ctrl_units_0/addr_mux_ctrls[1] (ctrl_units_PORTS2_CTRLW1)
                                                         0.000      1.481 r
  datamem/par_mem_logic_inst/addr_crsbar_0/ctrl[1] (addr_crsbar_PORTS2_LSU_ADDRW14_CTRLW1_PM_FUNC2)
                                                         0.000      1.481 r
  datamem/par_mem_logic_inst/addr_crsbar_0/U114/Z (C8T28SOI_LL_AOI22X2_P16)
                                                         0.187 *    1.668 f
  datamem/par_mem_logic_inst/addr_crsbar_0/mem_addrs_out[24] (addr_crsbar_PORTS2_LSU_ADDRW14_CTRLW1_PM_FUNC2)
                                                         0.000      1.668 f
  datamem/par_mem_logic_inst/addrs_to_mems[24] (par_mem_logic_PORTS2_LSU_ADDRW14_CTRLW1_DATAW32_PM_FUNC2)
                                                         0.000      1.668 f
  datamem/dmem_1/addr[11] (synch_singleport_mem_wrapper_DATAW32_ADDRW13_1)
                                                         0.000      1.668 f
  datamem/dmem_1/en_wr_arbiter/addr[11] (block_en_wr_arbiter_ADDRW13_NBLOCKS9_1)
                                                         0.000      1.668 f
  datamem/dmem_1/en_wr_arbiter/U9/Z (C8T28SOI_LL_NOR3X3_P16)
                                                         0.138 *    1.807 r
  datamem/dmem_1/en_wr_arbiter/U10/Z (C8T28SOI_LL_NOR2AX4_P16)
                                                         0.112 *    1.919 r
  datamem/dmem_1/en_wr_arbiter/U11/Z (C8T28SOI_LL_NOR2AX4_P16)
                                                         0.097 *    2.015 r
  datamem/dmem_1/en_wr_arbiter/U12/Z (C8T28SOI_LL_NOR2AX4_P16)
                                                         0.094 *    2.110 r
  datamem/dmem_1/en_wr_arbiter/U13/Z (C8T28SOI_LL_NOR2AX4_P16)
                                                         0.104 *    2.214 r
  datamem/dmem_1/en_wr_arbiter/U15/Z (C8T28SOI_LL_NAND3X3_P16)
                                                         0.053 *    2.267 f
  datamem/dmem_1/en_wr_arbiter/wr_blocks[0] (block_en_wr_arbiter_ADDRW13_NBLOCKS9_1)
                                                         0.000      2.267 f
  datamem/dmem_1/cacti_mem_0/wr_x (cacti_mem_wrapper_DATAW32_ADDRW5_3)
                                                         0.000      2.267 f
  datamem/dmem_1/cacti_mem_0/mem_32x32/wr_en_x (ram_32x32)
                                                         0.000 *    2.267 f
  data arrival time                                                 2.267

  clock clk (rise edge)                                  2.857      2.857
  clock network delay (ideal)                            0.010      2.867
  clock uncertainty                                     -0.010      2.857
  datamem/dmem_1/cacti_mem_0/mem_32x32/clk (ram_32x32)
                                                         0.000      2.857 r
  library setup time                                    -0.517      2.340
  data required time                                                2.340
  --------------------------------------------------------------------------
  data required time                                                2.340
  data arrival time                                                -2.267
  --------------------------------------------------------------------------
  slack (MET)                                                       0.073


  Startpoint: core/loopbuffer/clk_r_REG245_S27
              (rising edge-triggered flip-flop clocked by clk)
  Endpoint: core/loopbuffer/clk_r_REG1314_S30
            (rising edge-triggered flip-flop clocked by clk)
  Path Group: clk
  Path Type: max

  Point                                                   Incr       Path
  --------------------------------------------------------------------------
  clock clk (rise edge)                                  0.000      0.000
  clock network delay (ideal)                            0.010      0.010
  core/loopbuffer/clk_r_REG245_S27/CP (C8T28SOIDV_LL_DFPRQX10_P16)
                                                         0.000      0.010 r
  core/loopbuffer/clk_r_REG245_S27/Q (C8T28SOIDV_LL_DFPRQX10_P16)
                                                         0.123      0.133 r
  core/loopbuffer/U349/Z (C8T28SOI_LL_BFX5_P16)          0.087 *    0.220 r
  core/loopbuffer/U355/Z (C8T28SOI_LL_IVX3_P16)          0.059 *    0.279 f
  core/loopbuffer/U65/Z (C8T28SOI_LL_AOI22X2_P16)        0.060 *    0.339 r
  core/loopbuffer/U66/Z (C8T28SOI_LL_IVX3_P16)           0.043 *    0.382 f
  core/loopbuffer/U67/Z (C8T28SOI_LL_NOR3X3_P16)         0.061 *    0.443 r
  core/loopbuffer/U70/Z (C8T28SOI_LL_NOR2AX4_P16)        0.080 *    0.523 r
  core/loopbuffer/U73/Z (C8T28SOI_LL_NOR2AX4_P16)        0.072 *    0.595 r
  core/loopbuffer/U76/Z (C8T28SOI_LL_NOR2AX4_P16)        0.072 *    0.668 r
  core/loopbuffer/U79/Z (C8T28SOI_LL_NOR2AX4_P16)        0.074 *    0.742 r
  core/loopbuffer/U82/Z (C8T28SOI_LL_NOR2AX4_P16)        0.075 *    0.817 r
  core/loopbuffer/U85/Z (C8T28SOI_LL_NOR2AX4_P16)        0.073 *    0.891 r
  core/loopbuffer/U88/Z (C8T28SOI_LL_NOR2AX4_P16)        0.072 *    0.963 r
  core/loopbuffer/U91/Z (C8T28SOI_LL_NOR2AX4_P16)        0.072 *    1.034 r
  core/loopbuffer/U94/Z (C8T28SOI_LL_NOR2AX4_P16)        0.072 *    1.106 r
  core/loopbuffer/U97/Z (C8T28SOI_LL_NOR2AX4_P16)        0.073 *    1.179 r
  core/loopbuffer/U100/Z (C8T28SOI_LL_NOR2AX4_P16)       0.073 *    1.252 r
  core/loopbuffer/U103/Z (C8T28SOI_LL_NOR2AX4_P16)       0.073 *    1.325 r
  core/loopbuffer/U106/Z (C8T28SOI_LL_NOR2AX4_P16)       0.072 *    1.398 r
  core/loopbuffer/U109/Z (C8T28SOI_LL_NOR2AX4_P16)       0.073 *    1.470 r
  core/loopbuffer/U112/Z (C8T28SOI_LL_NOR2AX4_P16)       0.073 *    1.543 r
  core/loopbuffer/U115/Z (C8T28SOI_LL_NOR2AX4_P16)       0.073 *    1.616 r
  core/loopbuffer/U118/Z (C8T28SOI_LL_NOR2AX4_P16)       0.073 *    1.689 r
  core/loopbuffer/U121/Z (C8T28SOI_LL_NOR2AX4_P16)       0.074 *    1.763 r
  core/loopbuffer/U124/Z (C8T28SOI_LL_NOR2AX4_P16)       0.073 *    1.836 r
  core/loopbuffer/U127/Z (C8T28SOI_LL_NOR2AX4_P16)       0.072 *    1.909 r
  core/loopbuffer/U130/Z (C8T28SOI_LL_NOR2AX4_P16)       0.073 *    1.982 r
  core/loopbuffer/U133/Z (C8T28SOI_LL_NOR2AX4_P16)       0.073 *    2.055 r
  core/loopbuffer/U136/Z (C8T28SOI_LL_NOR2AX4_P16)       0.072 *    2.127 r
  core/loopbuffer/U139/Z (C8T28SOI_LL_NOR2AX4_P16)       0.074 *    2.201 r
  core/loopbuffer/U142/Z (C8T28SOI_LL_NOR2AX4_P16)       0.072 *    2.273 r
  core/loopbuffer/U143/Z (C8T28SOI_LL_NAND2AX2_P16)      0.056 *    2.329 f
  core/loopbuffer/U227/Z (C8T28SOI_LL_NOR2X4_P16)        0.057 *    2.386 r
  core/loopbuffer/U235/Z (C8T28SOI_LL_CBI4I6X3_P16)      0.037 *    2.423 f
  core/loopbuffer/U236/Z (C8T28SOI_LL_AOI112X3_P16)      0.055 *    2.478 r
  core/loopbuffer/U237/Z (C8T28SOI_LL_OAI211X3_P16)      0.039 *    2.517 f
  core/loopbuffer/U238/Z (C8T28SOI_LL_AOI21X3_P16)       0.034 *    2.551 r
  core/loopbuffer/U3/Z (C8T28SOI_LL_OAI211X3_P16)        0.038 *    2.589 f
  core/loopbuffer/U347/Z (C8T28SOI_LL_CBI4I6X3_P16)      0.066 *    2.654 r
  core/loopbuffer/U352/Z (C8T28SOI_LL_IVX3_P16)          0.030 *    2.684 f
  core/loopbuffer/U353/Z (C8T28SOI_LL_AOI22X2_P16)       0.030 *    2.714 r
  core/loopbuffer/U354/Z (C8T28SOI_LL_IVX3_P16)          0.026 *    2.740 f
  core/loopbuffer/clk_r_REG1314_S30/D (C8T28SOIDV_LL_DFPRQX10_P16)
                                                         0.000 *    2.740 f
  data arrival time                                                 2.740

  clock clk (rise edge)                                  2.857      2.857
  clock network delay (ideal)                            0.010      2.867
  clock uncertainty                                     -0.010      2.857
  core/loopbuffer/clk_r_REG1314_S30/CP (C8T28SOIDV_LL_DFPRQX10_P16)
                                                         0.000      2.857 r
  library setup time                                    -0.043      2.814
  data required time                                                2.814
  --------------------------------------------------------------------------
  data required time                                                2.814
  data arrival time                                                -2.740
  --------------------------------------------------------------------------
  slack (MET)                                                       0.074


1
