Warning: There are 95 switching activity information conflicts. (PWR-19)
 
****************************************
Report : saif
Design : proc
Version: M-2016.12-SP5-1
Date   : Sun Jul 29 06:28:53 2018
****************************************

  

--------------------------------------------------------------------------------
              User              Default           Propagated
Object type   Annotated (%)     Activity (%)      Activity (%)       Total
--------------------------------------------------------------------------------
  
 Nets         287(65.08%)       0(0.00%)          154(34.92%)        441
 Ports        229(100.00%)      0(0.00%)          0(0.00%)           229
 Pins         256(36.62%)       0(0.00%)          443(63.38%)        699
--------------------------------------------------------------------------------
1
