Warning: There are 89 switching activity information conflicts. (PWR-19)
 
****************************************
Report : saif
Design : proc
Version: M-2016.12-SP5-1
Date   : Sat Jul 28 00:48:56 2018
****************************************

  

--------------------------------------------------------------------------------
              User              Default           Propagated
Object type   Annotated (%)     Activity (%)      Activity (%)       Total
--------------------------------------------------------------------------------
  
 Nets         284(57.72%)       0(0.00%)          208(42.28%)        492
 Ports        229(100.00%)      0(0.00%)          0(0.00%)           229
 Pins         229(29.90%)       0(0.00%)          537(70.10%)        766
--------------------------------------------------------------------------------
1
