********************************************************************************
                        Threshold Voltage Group Report                         

Vth Group                All                Blackbox           Non-blackbox
Name                    cells                cells                cells
********************************************************************************
undefined           19852 (100.00%)        119 (100.00%)      19733 (100.00%)   
********************************************************************************

Vth Group                All                Blackbox           Non-blackbox
Name                  cell area            cell area            cell area
********************************************************************************
undefined       113125.91 (100.00%)   97280.17 (100.00%)   15845.74 (100.00%)   
********************************************************************************
1
